(set-info :source |printed by MathSAT|)
(declare-fun a20 () (_ BitVec 32))
(declare-fun a25 () (_ BitVec 32))
(declare-fun a12 () (_ BitVec 32))
(declare-fun a15 () (_ BitVec 32))
(declare-fun a16 () (_ BitVec 32))
(declare-fun a2 () (_ BitVec 32))
(declare-fun a27 () (_ BitVec 32))
(declare-fun a9 () (_ BitVec 32))
(declare-fun m_pc () (_ BitVec 32))
(declare-fun t1_pc () (_ BitVec 32))
(declare-fun t2_pc () (_ BitVec 32))
(declare-fun t3_pc () (_ BitVec 32))
(declare-fun t4_pc () (_ BitVec 32))
(declare-fun t5_pc () (_ BitVec 32))
(declare-fun t6_pc () (_ BitVec 32))
(declare-fun t7_pc () (_ BitVec 32))
(declare-fun t8_pc () (_ BitVec 32))
(declare-fun t9_pc () (_ BitVec 32))
(declare-fun m_st () (_ BitVec 32))

*:
(assert (let ((.def_107233 (= a20 (_ bv5 32)))).def_107233))

calculate_output8 N29943:
(assert false)
(assert (let ((.def_107233 (= a20 (_ bv5 32)))).def_107233))

main1 N30136:
(assert (let ((.def_107233 (= a20 (_ bv5 32)))).def_107233))
(assert (let ((.def_154615 (= a25 (_ bv1 32)))).def_154615))
(assert (let ((.def_154618 (= a12 (_ bv4 32)))).def_154618))
(assert (let ((.def_154621 (= a15 (_ bv1 32)))).def_154621))
(assert (let ((.def_154624 (= a16 (_ bv1 32)))).def_154624))
(assert (let ((.def_154627 (= a2 (_ bv10 32)))).def_154627))
(assert (let ((.def_154630 (= a27 (_ bv1 32)))).def_154630))
(assert (let ((.def_154633 (= a9 (_ bv18 32)))).def_154633))
(assert (let ((.def_586374 (= a9 (_ bv17 32)))).def_586374))
(assert (let ((.def_586376 (= a2 (_ bv13 32)))).def_586376))
(assert (let ((.def_586378 (= a2 (_ bv9 32)))).def_586378))
(assert (let ((.def_586380 (= a2 (_ bv12 32)))).def_586380))
(assert (let ((.def_586382 (= a20 (_ bv6 32)))).def_586382))
(assert (let ((.def_586384 (= a20 (_ bv7 32)))).def_586384))
(assert (let ((.def_586386 (= a12 (_ bv3 32)))).def_586386))
(assert (let ((.def_586388 (= a12 (_ bv2 32)))).def_586388))
(assert (let ((.def_586390 (= a12 (_ bv5 32)))).def_586390))
(assert (let ((.def_586392 (= a2 (_ bv11 32)))).def_586392))
(assert (let ((.def_586394 (= a9 (_ bv16 32)))).def_586394))
(assert (let ((.def_586396 (= a12 (_ bv6 32)))).def_586396))

error N30154:
(assert false)
(assert (let ((.def_107233 (= a20 (_ bv5 32)))).def_107233))

eval N30733:
(assert (let ((.def_923721 (= m_pc (_ bv0 32)))).def_923721))
(assert (let ((.def_107233 (= a20 (_ bv5 32)))).def_107233))
(assert (let ((.def_931513 (= t1_pc (_ bv0 32)))).def_931513))
(assert (let ((.def_931516 (= t2_pc (_ bv0 32)))).def_931516))
(assert (let ((.def_931519 (= t3_pc (_ bv0 32)))).def_931519))
(assert (let ((.def_931522 (= t4_pc (_ bv0 32)))).def_931522))
(assert (let ((.def_931525 (= t5_pc (_ bv0 32)))).def_931525))
(assert (let ((.def_931528 (= t6_pc (_ bv0 32)))).def_931528))
(assert (let ((.def_931531 (= t7_pc (_ bv0 32)))).def_931531))
(assert (let ((.def_931534 (= t8_pc (_ bv0 32)))).def_931534))
(assert (let ((.def_931537 (= t9_pc (_ bv0 32)))).def_931537))
(assert (let ((.def_931539 (= m_pc (_ bv1 32)))).def_931539))
(assert (let ((.def_931541 (= t1_pc (_ bv1 32)))).def_931541))
(assert (let ((.def_931543 (= t2_pc (_ bv1 32)))).def_931543))
(assert (let ((.def_931545 (= t3_pc (_ bv1 32)))).def_931545))
(assert (let ((.def_931547 (= t4_pc (_ bv1 32)))).def_931547))
(assert (let ((.def_931549 (= t5_pc (_ bv1 32)))).def_931549))
(assert (let ((.def_931551 (= t6_pc (_ bv1 32)))).def_931551))
(assert (let ((.def_931553 (= t7_pc (_ bv1 32)))).def_931553))
(assert (let ((.def_931555 (= t8_pc (_ bv1 32)))).def_931555))
(assert (let ((.def_931557 (= t9_pc (_ bv1 32)))).def_931557))
(assert (let ((.def_931560 (= m_st (_ bv0 32)))).def_931560))

start_simulation N31211:
(assert (let ((.def_923721 (= m_pc (_ bv0 32)))).def_923721))
(assert (let ((.def_107233 (= a20 (_ bv5 32)))).def_107233))
(assert (let ((.def_931513 (= t1_pc (_ bv0 32)))).def_931513))
(assert (let ((.def_931516 (= t2_pc (_ bv0 32)))).def_931516))
(assert (let ((.def_931519 (= t3_pc (_ bv0 32)))).def_931519))
(assert (let ((.def_931522 (= t4_pc (_ bv0 32)))).def_931522))
(assert (let ((.def_931525 (= t5_pc (_ bv0 32)))).def_931525))
(assert (let ((.def_931528 (= t6_pc (_ bv0 32)))).def_931528))
(assert (let ((.def_931531 (= t7_pc (_ bv0 32)))).def_931531))
(assert (let ((.def_931534 (= t8_pc (_ bv0 32)))).def_931534))
(assert (let ((.def_931537 (= t9_pc (_ bv0 32)))).def_931537))
(assert (let ((.def_931539 (= m_pc (_ bv1 32)))).def_931539))
(assert (let ((.def_931541 (= t1_pc (_ bv1 32)))).def_931541))
(assert (let ((.def_931543 (= t2_pc (_ bv1 32)))).def_931543))
(assert (let ((.def_931545 (= t3_pc (_ bv1 32)))).def_931545))
(assert (let ((.def_931547 (= t4_pc (_ bv1 32)))).def_931547))
(assert (let ((.def_931549 (= t5_pc (_ bv1 32)))).def_931549))
(assert (let ((.def_931551 (= t6_pc (_ bv1 32)))).def_931551))
(assert (let ((.def_931553 (= t7_pc (_ bv1 32)))).def_931553))
(assert (let ((.def_931555 (= t8_pc (_ bv1 32)))).def_931555))
(assert (let ((.def_931557 (= t9_pc (_ bv1 32)))).def_931557))

