(set-info :source |printed by MathSAT|)
(declare-fun |ssl3_connect::blastFlag| () (_ BitVec 32))
(declare-fun |ssl3_connect::s__state| () (_ BitVec 32))
(declare-fun |ssl3_connect::s__hit| () (_ BitVec 32))
(declare-fun |ssl3_connect::s__s3__tmp__next_state___0| () (_ BitVec 32))
(declare-fun |ssl3_connect::s__s3__tmp__new_cipher__algorithms| () (_ BitVec 32))
(declare-fun |ssl3_connect::cb| () (_ BitVec 32))
(declare-fun |ssl3_accept::blastFlag| () (_ BitVec 32))
(declare-fun |ssl3_accept::s__state| () (_ BitVec 32))
(declare-fun |ssl3_accept::s__s3__tmp__next_state___0| () (_ BitVec 32))
(declare-fun |ssl3_accept::s__hit| () (_ BitVec 32))

ssl3_connect:
(assert (let ((.def_678 (= |ssl3_connect::blastFlag| (_ bv5 32)))).def_678))

ssl3_connect N117:
(assert (let ((.def_1600 (= |ssl3_connect::s__state| (_ bv12292 32)))).def_1600))
(assert (let ((.def_1602 (= |ssl3_connect::blastFlag| (_ bv0 32)))).def_1602))
(assert (let ((.def_678 (= |ssl3_connect::blastFlag| (_ bv5 32)))).def_678))
(assert (let ((.def_3687 (= |ssl3_connect::s__state| (_ bv4368 32)))).def_3687))
(assert (let ((.def_3689 (= |ssl3_connect::s__state| (_ bv4384 32)))).def_3689))
(assert (let ((.def_3691 (= |ssl3_connect::blastFlag| (_ bv1 32)))).def_3691))
(assert (let ((.def_5298 (= |ssl3_connect::blastFlag| (_ bv3 32)))).def_5298))
(assert (let ((.def_5300 (= |ssl3_connect::blastFlag| (_ bv4 32)))).def_5300))
(assert (let ((.def_5302 (= |ssl3_connect::blastFlag| (_ bv2 32)))).def_5302))
(assert (let ((.def_5304 (= |ssl3_connect::s__state| (_ bv4416 32)))).def_5304))
(assert (let ((.def_5306 (= |ssl3_connect::s__state| (_ bv4433 32)))).def_5306))
(assert (let ((.def_5308 (= |ssl3_connect::s__state| (_ bv4432 32)))).def_5308))
(assert (let ((.def_10863 (= |ssl3_connect::s__state| (_ bv4099 32)))).def_10863))
(assert (let ((.def_10865 (= |ssl3_connect::s__state| (_ bv20480 32)))).def_10865))
(assert (let ((.def_10867 (= |ssl3_connect::s__state| (_ bv4096 32)))).def_10867))
(assert (let ((.def_10869 (= |ssl3_connect::s__state| (_ bv16384 32)))).def_10869))
(assert (let ((.def_10871 (= |ssl3_connect::s__state| (_ bv4369 32)))).def_10871))
(assert (let ((.def_10873 (= |ssl3_connect::s__state| (_ bv4401 32)))).def_10873))
(assert (let ((.def_10875 (= |ssl3_connect::s__state| (_ bv4400 32)))).def_10875))
(assert (let ((.def_10877 (= |ssl3_connect::s__state| (_ bv4385 32)))).def_10877))
(assert (let ((.def_10879 (= |ssl3_connect::s__state| (_ bv4352 32)))).def_10879))
(assert (let ((.def_16608 (= |ssl3_connect::s__state| (_ bv4560 32)))).def_16608))
(assert (let ((.def_16610 (= |ssl3_connect::s__state| (_ bv4512 32)))).def_16610))
(assert (let ((.def_16612 (= |ssl3_connect::s__state| (_ bv4513 32)))).def_16612))
(assert (let ((.def_16614 (= |ssl3_connect::s__state| (_ bv4481 32)))).def_16614))
(assert (let ((.def_16616 (= |ssl3_connect::s__state| (_ bv4480 32)))).def_16616))
(assert (let ((.def_16618 (= |ssl3_connect::s__state| (_ bv4467 32)))).def_16618))
(assert (let ((.def_16620 (= |ssl3_connect::s__state| (_ bv4466 32)))).def_16620))
(assert (let ((.def_16622 (= |ssl3_connect::s__state| (_ bv4465 32)))).def_16622))
(assert (let ((.def_16624 (= |ssl3_connect::s__state| (_ bv4464 32)))).def_16624))
(assert (let ((.def_16626 (= |ssl3_connect::s__state| (_ bv4449 32)))).def_16626))
(assert (let ((.def_16628 (= |ssl3_connect::s__state| (_ bv4448 32)))).def_16628))
(assert (let ((.def_16631 (= |ssl3_connect::s__hit| (_ bv0 32)))).def_16631))
(assert (let ((.def_16633 (= |ssl3_connect::s__state| (_ bv4417 32)))).def_16633))
(assert (let ((.def_16635 (= |ssl3_connect::s__state| (_ bv4496 32)))).def_16635))
(assert (let ((.def_16637 (= |ssl3_connect::s__state| (_ bv4497 32)))).def_16637))
(assert (let ((.def_16639 (= |ssl3_connect::s__state| (_ bv4528 32)))).def_16639))
(assert (let ((.def_16641 (= |ssl3_connect::s__state| (_ bv4529 32)))).def_16641))
(assert (let ((.def_16643 (= |ssl3_connect::s__state| (_ bv4561 32)))).def_16643))
(assert (let ((.def_16646 (= |ssl3_connect::s__state| |ssl3_connect::s__s3__tmp__next_state___0|))).def_16646))
(assert (let ((.def_16648 (= |ssl3_connect::s__s3__tmp__next_state___0| (_ bv4401 32)))).def_16648))
(assert (let ((.def_16651 (= |ssl3_connect::s__s3__tmp__new_cipher__algorithms| (_ bv4294967040 32)))).def_16651))
(assert (let ((.def_16654 (= |ssl3_connect::cb| (_ bv0 32)))).def_16654))
(assert (let ((.def_29108 (= |ssl3_connect::s__s3__tmp__next_state___0| (_ bv4099 32)))).def_29108))
(assert (let ((.def_29110 (= |ssl3_connect::s__s3__tmp__next_state___0| (_ bv4096 32)))).def_29110))
(assert (let ((.def_29112 (= |ssl3_connect::s__s3__tmp__next_state___0| (_ bv20480 32)))).def_29112))
(assert (let ((.def_29114 (= |ssl3_connect::s__s3__tmp__next_state___0| (_ bv16384 32)))).def_29114))
(assert (let ((.def_29116 (= |ssl3_connect::s__s3__tmp__next_state___0| (_ bv12292 32)))).def_29116))
(assert (let ((.def_29118 (= |ssl3_connect::s__s3__tmp__next_state___0| (_ bv4369 32)))).def_29118))
(assert (let ((.def_29120 (= |ssl3_connect::s__s3__tmp__next_state___0| (_ bv4368 32)))).def_29120))
(assert (let ((.def_29122 (= |ssl3_connect::s__s3__tmp__next_state___0| (_ bv4384 32)))).def_29122))
(assert (let ((.def_29124 (= |ssl3_connect::s__s3__tmp__next_state___0| (_ bv4385 32)))).def_29124))
(assert (let ((.def_29126 (= |ssl3_connect::s__s3__tmp__next_state___0| (_ bv4400 32)))).def_29126))
(assert (let ((.def_29128 (= |ssl3_connect::s__s3__tmp__next_state___0| (_ bv4416 32)))).def_29128))
(assert (let ((.def_29130 (= |ssl3_connect::s__s3__tmp__next_state___0| (_ bv4417 32)))).def_29130))
(assert (let ((.def_29132 (= |ssl3_connect::s__s3__tmp__next_state___0| (_ bv4432 32)))).def_29132))
(assert (let ((.def_29134 (= |ssl3_connect::s__s3__tmp__next_state___0| (_ bv4433 32)))).def_29134))

ssl3_connect N576:
(assert false)
(assert (let ((.def_678 (= |ssl3_connect::blastFlag| (_ bv5 32)))).def_678))

ssl3_accept N694:
(assert (let ((.def_41464 (= |ssl3_accept::blastFlag| (_ bv5 32)))).def_41464))
(assert (let ((.def_42732 (= |ssl3_accept::s__state| (_ bv8464 32)))).def_42732))
(assert (let ((.def_42734 (= |ssl3_accept::blastFlag| (_ bv0 32)))).def_42734))
(assert (let ((.def_42736 (= |ssl3_accept::blastFlag| (_ bv4 32)))).def_42736))
(assert (let ((.def_45495 (= |ssl3_accept::s__state| (_ bv8482 32)))).def_45495))
(assert (let ((.def_45497 (= |ssl3_accept::blastFlag| (_ bv1 32)))).def_45497))
(assert (let ((.def_45499 (= |ssl3_accept::blastFlag| (_ bv3 32)))).def_45499))
(assert (let ((.def_45501 (= |ssl3_accept::blastFlag| (_ bv2 32)))).def_45501))
(assert (let ((.def_45503 (= |ssl3_accept::s__state| (_ bv8448 32)))).def_45503))
(assert (let ((.def_50521 (= |ssl3_accept::s__state| (_ bv24576 32)))).def_50521))
(assert (let ((.def_50523 (= |ssl3_accept::s__state| (_ bv8192 32)))).def_50523))
(assert (let ((.def_50525 (= |ssl3_accept::s__state| (_ bv16384 32)))).def_50525))
(assert (let ((.def_50527 (= |ssl3_accept::s__state| (_ bv8195 32)))).def_50527))
(assert (let ((.def_50529 (= |ssl3_accept::s__state| (_ bv8481 32)))).def_50529))
(assert (let ((.def_50531 (= |ssl3_accept::s__state| (_ bv8480 32)))).def_50531))
(assert (let ((.def_50533 (= |ssl3_accept::s__state| (_ bv12292 32)))).def_50533))
(assert (let ((.def_50535 (= |ssl3_accept::s__state| (_ bv8496 32)))).def_50535))
(assert (let ((.def_50537 (= |ssl3_accept::s__state| (_ bv8512 32)))).def_50537))
(assert (let ((.def_50539 (= |ssl3_accept::s__state| (_ bv8656 32)))).def_50539))
(assert (let ((.def_50541 (= |ssl3_accept::s__state| (_ bv8466 32)))).def_50541))
(assert (let ((.def_50543 (= |ssl3_accept::s__state| (_ bv8592 32)))).def_50543))
(assert (let ((.def_50545 (= |ssl3_accept::s__state| (_ bv8608 32)))).def_50545))
(assert (let ((.def_50547 (= |ssl3_accept::s__state| (_ bv8640 32)))).def_50547))
(assert (let ((.def_50549 (= |ssl3_accept::s__state| (_ bv8544 32)))).def_50549))
(assert (let ((.def_50551 (= |ssl3_accept::s__state| (_ bv8560 32)))).def_50551))
(assert (let ((.def_50553 (= |ssl3_accept::s__state| (_ bv8657 32)))).def_50553))
(assert (let ((.def_50555 (= |ssl3_accept::s__state| (_ bv8528 32)))).def_50555))
(assert (let ((.def_50557 (= |ssl3_accept::s__state| (_ bv8529 32)))).def_50557))
(assert (let ((.def_50559 (= |ssl3_accept::s__state| (_ bv8513 32)))).def_50559))
(assert (let ((.def_50561 (= |ssl3_accept::s__state| (_ bv8673 32)))).def_50561))
(assert (let ((.def_50563 (= |ssl3_accept::s__state| (_ bv8672 32)))).def_50563))
(assert (let ((.def_50566 (= |ssl3_accept::s__s3__tmp__next_state___0| (_ bv3 32)))).def_50566))
(assert (let ((.def_50568 (= |ssl3_accept::s__s3__tmp__next_state___0| (_ bv8640 32)))).def_50568))
(assert (let ((.def_66158 (= |ssl3_accept::s__state| (_ bv8465 32)))).def_66158))
(assert (let ((.def_66160 (= |ssl3_accept::s__state| (_ bv8641 32)))).def_66160))
(assert (let ((.def_66162 (= |ssl3_accept::s__s3__tmp__next_state___0| (_ bv8593 32)))).def_66162))
(assert (let ((.def_66164 (= |ssl3_accept::s__state| (_ bv8497 32)))).def_66164))
(assert (let ((.def_66166 (= |ssl3_accept::s__state| (_ bv8545 32)))).def_66166))
(assert (let ((.def_66168 (= |ssl3_accept::s__state| (_ bv8561 32)))).def_66168))
(assert (let ((.def_66170 (= |ssl3_accept::s__state| (_ bv8576 32)))).def_66170))
(assert (let ((.def_66172 (= |ssl3_accept::s__state| (_ bv8577 32)))).def_66172))
(assert (let ((.def_66174 (= |ssl3_accept::s__state| (_ bv8593 32)))).def_66174))
(assert (let ((.def_66176 (= |ssl3_accept::s__state| (_ bv8609 32)))).def_66176))
(assert (let ((.def_66179 (= |ssl3_accept::s__hit| (_ bv0 32)))).def_66179))
(assert (let ((.def_66181 (= |ssl3_accept::s__s3__tmp__next_state___0| (_ bv8576 32)))).def_66181))
(assert (let ((.def_66183 (= |ssl3_accept::s__s3__tmp__next_state___0| (_ bv8609 32)))).def_66183))
(assert (let ((.def_66185 (= |ssl3_accept::s__s3__tmp__next_state___0| (_ bv8608 32)))).def_66185))
(assert (let ((.def_66187 (= |ssl3_accept::s__s3__tmp__next_state___0| (_ bv8592 32)))).def_66187))
(assert (let ((.def_66189 (= |ssl3_accept::s__s3__tmp__next_state___0| (_ bv8577 32)))).def_66189))
(assert (let ((.def_66191 (= |ssl3_accept::s__s3__tmp__next_state___0| (_ bv8448 32)))).def_66191))
(assert (let ((.def_66193 (= |ssl3_accept::s__s3__tmp__next_state___0| (_ bv8561 32)))).def_66193))
(assert (let ((.def_66195 (= |ssl3_accept::s__s3__tmp__next_state___0| (_ bv8560 32)))).def_66195))
(assert (let ((.def_66197 (= |ssl3_accept::s__s3__tmp__next_state___0| (_ bv8545 32)))).def_66197))
(assert (let ((.def_66199 (= |ssl3_accept::s__s3__tmp__next_state___0| (_ bv8544 32)))).def_66199))
(assert (let ((.def_66201 (= |ssl3_accept::s__s3__tmp__next_state___0| (_ bv8529 32)))).def_66201))
(assert (let ((.def_66203 (= |ssl3_accept::s__s3__tmp__next_state___0| (_ bv8528 32)))).def_66203))
(assert (let ((.def_66205 (= |ssl3_accept::s__s3__tmp__next_state___0| (_ bv8497 32)))).def_66205))
(assert (let ((.def_66207 (= |ssl3_accept::s__s3__tmp__next_state___0| (_ bv8496 32)))).def_66207))
(assert (let ((.def_66209 (= |ssl3_accept::s__s3__tmp__next_state___0| (_ bv8466 32)))).def_66209))
(assert (let ((.def_66211 (= |ssl3_accept::s__s3__tmp__next_state___0| (_ bv8465 32)))).def_66211))
(assert (let ((.def_66213 (= |ssl3_accept::s__s3__tmp__next_state___0| (_ bv8464 32)))).def_66213))
(assert (let ((.def_66215 (= |ssl3_accept::s__s3__tmp__next_state___0| (_ bv8482 32)))).def_66215))
(assert (let ((.def_66217 (= |ssl3_accept::s__s3__tmp__next_state___0| (_ bv8481 32)))).def_66217))
(assert (let ((.def_66219 (= |ssl3_accept::s__s3__tmp__next_state___0| (_ bv8480 32)))).def_66219))
(assert (let ((.def_66221 (= |ssl3_accept::s__s3__tmp__next_state___0| (_ bv8195 32)))).def_66221))
(assert (let ((.def_66223 (= |ssl3_accept::s__s3__tmp__next_state___0| (_ bv24576 32)))).def_66223))
(assert (let ((.def_66225 (= |ssl3_accept::s__s3__tmp__next_state___0| (_ bv8192 32)))).def_66225))
(assert (let ((.def_66227 (= |ssl3_accept::s__s3__tmp__next_state___0| (_ bv16384 32)))).def_66227))
(assert (let ((.def_66229 (= |ssl3_accept::s__s3__tmp__next_state___0| (_ bv12292 32)))).def_66229))
(assert (let ((.def_66231 (= |ssl3_accept::s__s3__tmp__next_state___0| (_ bv8672 32)))).def_66231))
(assert (let ((.def_66233 (= |ssl3_accept::s__s3__tmp__next_state___0| (_ bv8513 32)))).def_66233))
(assert (let ((.def_66235 (= |ssl3_accept::s__s3__tmp__next_state___0| (_ bv8512 32)))).def_66235))
(assert (let ((.def_66237 (= |ssl3_accept::s__state| |ssl3_accept::s__s3__tmp__next_state___0|))).def_66237))
(assert (let ((.def_66239 (= |ssl3_accept::s__s3__tmp__next_state___0| (_ bv8641 32)))).def_66239))
(assert (let ((.def_66241 (= |ssl3_accept::s__s3__tmp__next_state___0| (_ bv8656 32)))).def_66241))
(assert (let ((.def_66243 (= |ssl3_accept::s__s3__tmp__next_state___0| (_ bv8673 32)))).def_66243))

ERR N1222:
(assert false)

