(set-info :source |printed by MathSAT|)
(declare-fun |ssl3_connect::blastFlag| () (_ BitVec 32))
(declare-fun |ssl3_connect::s__state| () (_ BitVec 32))
(declare-fun |ssl3_connect::skip| () (_ BitVec 32))
(declare-fun |ssl3_connect::cb| () (_ BitVec 32))
(declare-fun |ssl3_connect::s__s3__tmp__reuse_message| () (_ BitVec 32))
(declare-fun |ssl3_connect::s__s3__tmp__next_state___0| () (_ BitVec 32))
(declare-fun |ssl3_connect::s__hit| () (_ BitVec 32))
(declare-fun |ssl3_accept::blastFlag| () (_ BitVec 32))
(declare-fun |ssl3_accept::s__state| () (_ BitVec 32))

ssl3_connect:
(assert (let ((.def_686 (= |ssl3_connect::blastFlag| (_ bv5 32)))).def_686))

ssl3_connect N126:
(assert (let ((.def_1687 (= |ssl3_connect::s__state| (_ bv12292 32)))).def_1687))
(assert (let ((.def_1689 (= |ssl3_connect::blastFlag| (_ bv0 32)))).def_1689))
(assert (let ((.def_686 (= |ssl3_connect::blastFlag| (_ bv5 32)))).def_686))
(assert (let ((.def_3955 (= |ssl3_connect::skip| (_ bv0 32)))).def_3955))
(assert (let ((.def_3957 (= |ssl3_connect::s__state| (_ bv4368 32)))).def_3957))
(assert (let ((.def_3959 (= |ssl3_connect::blastFlag| (_ bv4 32)))).def_3959))
(assert (let ((.def_3961 (= |ssl3_connect::s__state| (_ bv4384 32)))).def_3961))
(assert (let ((.def_3963 (= |ssl3_connect::blastFlag| (_ bv1 32)))).def_3963))
(assert (let ((.def_3965 (= |ssl3_connect::blastFlag| (_ bv2 32)))).def_3965))
(assert (let ((.def_3967 (= |ssl3_connect::blastFlag| (_ bv3 32)))).def_3967))
(assert (let ((.def_8197 (= |ssl3_connect::s__state| (_ bv4385 32)))).def_8197))
(assert (let ((.def_8199 (= |ssl3_connect::s__state| (_ bv4400 32)))).def_8199))
(assert (let ((.def_8201 (= |ssl3_connect::s__state| (_ bv4433 32)))).def_8201))
(assert (let ((.def_8203 (= |ssl3_connect::s__state| (_ bv4432 32)))).def_8203))
(assert (let ((.def_8205 (= |ssl3_connect::s__state| (_ bv4416 32)))).def_8205))
(assert (let ((.def_15129 (= |ssl3_connect::s__state| (_ bv4099 32)))).def_15129))
(assert (let ((.def_15131 (= |ssl3_connect::s__state| (_ bv20480 32)))).def_15131))
(assert (let ((.def_15133 (= |ssl3_connect::s__state| (_ bv4096 32)))).def_15133))
(assert (let ((.def_15135 (= |ssl3_connect::s__state| (_ bv16384 32)))).def_15135))
(assert (let ((.def_15138 (= |ssl3_connect::cb| (_ bv0 32)))).def_15138))
(assert (let ((.def_15141 (= |ssl3_connect::s__s3__tmp__reuse_message| (_ bv0 32)))).def_15141))
(assert (let ((.def_15143 (= |ssl3_connect::s__state| (_ bv4512 32)))).def_15143))
(assert (let ((.def_15145 (= |ssl3_connect::s__state| (_ bv4369 32)))).def_15145))
(assert (let ((.def_15147 (= |ssl3_connect::s__state| (_ bv4352 32)))).def_15147))
(assert (let ((.def_15150 (= |ssl3_connect::s__s3__tmp__next_state___0| (_ bv4560 32)))).def_15150))
(assert (let ((.def_15153 (= |ssl3_connect::s__hit| (_ bv0 32)))).def_15153))
(assert (let ((.def_15155 (= |ssl3_connect::s__state| (_ bv4480 32)))).def_15155))
(assert (let ((.def_15157 (= |ssl3_connect::s__s3__tmp__next_state___0| (_ bv4496 32)))).def_15157))
(assert (let ((.def_15159 (= |ssl3_connect::s__s3__tmp__next_state___0| (_ bv4480 32)))).def_15159))
(assert (let ((.def_15161 (= |ssl3_connect::s__s3__tmp__next_state___0| (_ bv4464 32)))).def_15161))
(assert (let ((.def_15163 (= |ssl3_connect::s__s3__tmp__next_state___0| (_ bv4448 32)))).def_15163))
(assert (let ((.def_15165 (= |ssl3_connect::s__s3__tmp__next_state___0| (_ bv4432 32)))).def_15165))
(assert (let ((.def_15167 (= |ssl3_connect::s__s3__tmp__next_state___0| (_ bv4400 32)))).def_15167))
(assert (let ((.def_15169 (= |ssl3_connect::s__s3__tmp__next_state___0| (_ bv4384 32)))).def_15169))
(assert (let ((.def_15171 (= |ssl3_connect::s__s3__tmp__next_state___0| (_ bv4368 32)))).def_15171))
(assert (let ((.def_15173 (= |ssl3_connect::s__s3__tmp__next_state___0| (_ bv4512 32)))).def_15173))
(assert (let ((.def_15175 (= |ssl3_connect::s__state| |ssl3_connect::s__s3__tmp__next_state___0|))).def_15175))
(assert (let ((.def_15177 (= |ssl3_connect::s__state| (_ bv4560 32)))).def_15177))
(assert (let ((.def_15179 (= |ssl3_connect::s__state| (_ bv4561 32)))).def_15179))
(assert (let ((.def_15181 (= |ssl3_connect::s__s3__tmp__next_state___0| (_ bv4416 32)))).def_15181))
(assert (let ((.def_15183 (= |ssl3_connect::s__s3__tmp__next_state___0| (_ bv3 32)))).def_15183))
(assert (let ((.def_15185 (= |ssl3_connect::s__state| (_ bv4448 32)))).def_15185))
(assert (let ((.def_15187 (= |ssl3_connect::s__state| (_ bv4464 32)))).def_15187))
(assert (let ((.def_15189 (= |ssl3_connect::s__state| (_ bv4496 32)))).def_15189))
(assert (let ((.def_15191 (= |ssl3_connect::s__state| (_ bv4528 32)))).def_15191))
(assert (let ((.def_15193 (= |ssl3_connect::s__s3__tmp__next_state___0| (_ bv4369 32)))).def_15193))
(assert (let ((.def_15195 (= |ssl3_connect::s__state| (_ bv4513 32)))).def_15195))
(assert (let ((.def_15197 (= |ssl3_connect::s__state| (_ bv4497 32)))).def_15197))
(assert (let ((.def_15199 (= |ssl3_connect::s__state| (_ bv4481 32)))).def_15199))
(assert (let ((.def_15201 (= |ssl3_connect::s__state| (_ bv4467 32)))).def_15201))
(assert (let ((.def_15203 (= |ssl3_connect::s__state| (_ bv4466 32)))).def_15203))
(assert (let ((.def_15205 (= |ssl3_connect::s__state| (_ bv4465 32)))).def_15205))
(assert (let ((.def_15207 (= |ssl3_connect::s__state| (_ bv4449 32)))).def_15207))
(assert (let ((.def_15209 (= |ssl3_connect::s__s3__tmp__next_state___0| (_ bv4385 32)))).def_15209))
(assert (let ((.def_15211 (= |ssl3_connect::s__state| (_ bv4401 32)))).def_15211))
(assert (let ((.def_15213 (= |ssl3_connect::s__s3__tmp__next_state___0| (_ bv4417 32)))).def_15213))
(assert (let ((.def_15215 (= |ssl3_connect::s__s3__tmp__next_state___0| (_ bv4352 32)))).def_15215))
(assert (let ((.def_15217 (= |ssl3_connect::s__s3__tmp__next_state___0| (_ bv4401 32)))).def_15217))
(assert (let ((.def_15219 (= |ssl3_connect::s__state| (_ bv4529 32)))).def_15219))
(assert (let ((.def_15221 (= |ssl3_connect::s__state| (_ bv4417 32)))).def_15221))
(assert (let ((.def_15223 (= |ssl3_connect::s__s3__tmp__next_state___0| (_ bv4433 32)))).def_15223))

ssl3_connect N594:
(assert false)
(assert (let ((.def_686 (= |ssl3_connect::blastFlag| (_ bv5 32)))).def_686))

ssl3_accept N718:
(assert (let ((.def_25919 (= |ssl3_accept::blastFlag| (_ bv3 32)))).def_25919))
(assert (let ((.def_27063 (= |ssl3_accept::s__state| (_ bv8464 32)))).def_27063))
(assert (let ((.def_27065 (= |ssl3_accept::blastFlag| (_ bv0 32)))).def_27065))
(assert (let ((.def_28438 (= |ssl3_accept::s__state| (_ bv8481 32)))).def_28438))
(assert (let ((.def_28440 (= |ssl3_accept::s__state| (_ bv8480 32)))).def_28440))
(assert (let ((.def_28442 (= |ssl3_accept::s__state| (_ bv12292 32)))).def_28442))
(assert (let ((.def_28444 (= |ssl3_accept::s__state| (_ bv16384 32)))).def_28444))
(assert (let ((.def_28446 (= |ssl3_accept::s__state| (_ bv8192 32)))).def_28446))
(assert (let ((.def_28448 (= |ssl3_accept::s__state| (_ bv24576 32)))).def_28448))
(assert (let ((.def_28450 (= |ssl3_accept::s__state| (_ bv8195 32)))).def_28450))
(assert (let ((.def_28452 (= |ssl3_accept::s__state| (_ bv8482 32)))).def_28452))
(assert (let ((.def_28454 (= |ssl3_accept::blastFlag| (_ bv1 32)))).def_28454))

ssl3_accept N1239:
(assert false)

