(set-info :source |printed by MathSAT|)
(declare-fun a20 () (_ BitVec 32))
(declare-fun a25 () (_ BitVec 32))
(declare-fun a12 () (_ BitVec 32))
(declare-fun a15 () (_ BitVec 32))
(declare-fun a16 () (_ BitVec 32))
(declare-fun a2 () (_ BitVec 32))
(declare-fun a27 () (_ BitVec 32))
(declare-fun a9 () (_ BitVec 32))
(declare-fun m_pc () (_ BitVec 32))
(declare-fun t1_pc () (_ BitVec 32))
(declare-fun t2_pc () (_ BitVec 32))
(declare-fun t3_pc () (_ BitVec 32))
(declare-fun t4_pc () (_ BitVec 32))
(declare-fun t5_pc () (_ BitVec 32))
(declare-fun m_st () (_ BitVec 32))

*:
(assert (let ((.def_107833 (= a20 (_ bv5 32)))).def_107833))

calculate_output8 N30108:
(assert false)
(assert (let ((.def_107833 (= a20 (_ bv5 32)))).def_107833))

main1 N30136:
(assert (let ((.def_107833 (= a20 (_ bv5 32)))).def_107833))
(assert (let ((.def_155546 (= a25 (_ bv1 32)))).def_155546))
(assert (let ((.def_155549 (= a12 (_ bv4 32)))).def_155549))
(assert (let ((.def_155552 (= a15 (_ bv1 32)))).def_155552))
(assert (let ((.def_155555 (= a16 (_ bv1 32)))).def_155555))
(assert (let ((.def_155558 (= a2 (_ bv10 32)))).def_155558))
(assert (let ((.def_155561 (= a27 (_ bv1 32)))).def_155561))
(assert (let ((.def_155564 (= a9 (_ bv18 32)))).def_155564))
(assert (let ((.def_321736 (= a12 (_ bv5 32)))).def_321736))
(assert (let ((.def_321738 (= a2 (_ bv13 32)))).def_321738))
(assert (let ((.def_321740 (= a12 (_ bv2 32)))).def_321740))
(assert (let ((.def_321742 (= a2 (_ bv12 32)))).def_321742))
(assert (let ((.def_321744 (= a12 (_ bv3 32)))).def_321744))
(assert (let ((.def_321746 (= a9 (_ bv16 32)))).def_321746))
(assert (let ((.def_321748 (= a20 (_ bv7 32)))).def_321748))
(assert (let ((.def_321750 (= a2 (_ bv9 32)))).def_321750))
(assert (let ((.def_321752 (= a9 (_ bv17 32)))).def_321752))

error N30154:
(assert false)
(assert (let ((.def_107833 (= a20 (_ bv5 32)))).def_107833))

eval N30517:
(assert (let ((.def_746907 (= m_pc (_ bv0 32)))).def_746907))
(assert (let ((.def_107833 (= a20 (_ bv5 32)))).def_107833))
(assert (let ((.def_750082 (= t1_pc (_ bv0 32)))).def_750082))
(assert (let ((.def_750085 (= t2_pc (_ bv0 32)))).def_750085))
(assert (let ((.def_750088 (= t3_pc (_ bv0 32)))).def_750088))
(assert (let ((.def_750091 (= t4_pc (_ bv0 32)))).def_750091))
(assert (let ((.def_750094 (= t5_pc (_ bv0 32)))).def_750094))
(assert (let ((.def_750096 (= m_pc (_ bv1 32)))).def_750096))
(assert (let ((.def_750098 (= t1_pc (_ bv1 32)))).def_750098))
(assert (let ((.def_750100 (= t2_pc (_ bv1 32)))).def_750100))
(assert (let ((.def_750102 (= t3_pc (_ bv1 32)))).def_750102))
(assert (let ((.def_750104 (= t4_pc (_ bv1 32)))).def_750104))
(assert (let ((.def_750106 (= t5_pc (_ bv1 32)))).def_750106))
(assert (let ((.def_750109 (= m_st (_ bv0 32)))).def_750109))

start_simulation N30831:
(assert (let ((.def_746907 (= m_pc (_ bv0 32)))).def_746907))
(assert (let ((.def_107833 (= a20 (_ bv5 32)))).def_107833))
(assert (let ((.def_750082 (= t1_pc (_ bv0 32)))).def_750082))
(assert (let ((.def_750085 (= t2_pc (_ bv0 32)))).def_750085))
(assert (let ((.def_750088 (= t3_pc (_ bv0 32)))).def_750088))
(assert (let ((.def_750091 (= t4_pc (_ bv0 32)))).def_750091))
(assert (let ((.def_750094 (= t5_pc (_ bv0 32)))).def_750094))
(assert (let ((.def_750096 (= m_pc (_ bv1 32)))).def_750096))
(assert (let ((.def_750098 (= t1_pc (_ bv1 32)))).def_750098))
(assert (let ((.def_750100 (= t2_pc (_ bv1 32)))).def_750100))
(assert (let ((.def_750102 (= t3_pc (_ bv1 32)))).def_750102))
(assert (let ((.def_750104 (= t4_pc (_ bv1 32)))).def_750104))
(assert (let ((.def_750106 (= t5_pc (_ bv1 32)))).def_750106))

