(set-info :source |printed by MathSAT|)
(declare-fun |assert::arg| () (_ BitVec 8))
(declare-fun st1 () (_ BitVec 8))
(declare-fun st2 () (_ BitVec 8))
(declare-fun st3 () (_ BitVec 8))
(declare-fun st4 () (_ BitVec 8))
(declare-fun st5 () (_ BitVec 8))
(declare-fun st6 () (_ BitVec 8))
(declare-fun st7 () (_ BitVec 8))
(declare-fun r1 () (_ BitVec 8))
(declare-fun p5_new () (_ BitVec 8))
(declare-fun nomsg () (_ BitVec 8))
(declare-fun p4_new () (_ BitVec 8))
(declare-fun p3_new () (_ BitVec 8))
(declare-fun p2_new () (_ BitVec 8))
(declare-fun p6_new () (_ BitVec 8))
(declare-fun mode1 () (_ BitVec 8))
(declare-fun mode2 () (_ BitVec 8))
(declare-fun mode3 () (_ BitVec 8))
(declare-fun mode4 () (_ BitVec 8))
(declare-fun mode5 () (_ BitVec 8))
(declare-fun mode6 () (_ BitVec 8))
(declare-fun mode7 () (_ BitVec 8))
(declare-fun send7 () (_ BitVec 8))
(declare-fun id1 () (_ BitVec 8))
(declare-fun id2 () (_ BitVec 8))
(declare-fun send1 () (_ BitVec 8))
(declare-fun id3 () (_ BitVec 8))
(declare-fun send2 () (_ BitVec 8))
(declare-fun p1_new () (_ BitVec 8))
(declare-fun id7 () (_ BitVec 8))
(declare-fun send6 () (_ BitVec 8))
(declare-fun id6 () (_ BitVec 8))
(declare-fun send5 () (_ BitVec 8))
(declare-fun id5 () (_ BitVec 8))
(declare-fun send4 () (_ BitVec 8))
(declare-fun id4 () (_ BitVec 8))
(declare-fun send3 () (_ BitVec 8))
(declare-fun p7_new () (_ BitVec 8))
(declare-fun p7_old () (_ BitVec 8))
(declare-fun p1_old () (_ BitVec 8))
(declare-fun p2_old () (_ BitVec 8))
(declare-fun p6_old () (_ BitVec 8))
(declare-fun p5_old () (_ BitVec 8))
(declare-fun p4_old () (_ BitVec 8))
(declare-fun p3_old () (_ BitVec 8))
(declare-fun |node5::__CPAchecker_TMP_0| () (_ BitVec 32))
(declare-fun |node4::__CPAchecker_TMP_0| () (_ BitVec 32))
(declare-fun |node6::__CPAchecker_TMP_0| () (_ BitVec 32))
(declare-fun |node7::__CPAchecker_TMP_0| () (_ BitVec 32))
(declare-fun |node1::__CPAchecker_TMP_0| () (_ BitVec 32))
(declare-fun |node2::__CPAchecker_TMP_0| () (_ BitVec 32))
(declare-fun |node3::__CPAchecker_TMP_0| () (_ BitVec 32))

assert:
(assert (let ((.def_3051 (= |assert::arg| (_ bv0 8)))).def_3051))

main1 N482:
(assert (let ((.def_3430 (= st1 (_ bv0 8)))).def_3430))
(assert (let ((.def_3433 (= st2 (_ bv0 8)))).def_3433))
(assert (let ((.def_3436 (= st3 (_ bv0 8)))).def_3436))
(assert (let ((.def_3439 (= st4 (_ bv0 8)))).def_3439))
(assert (let ((.def_3442 (= st5 (_ bv0 8)))).def_3442))
(assert (let ((.def_3445 (= st6 (_ bv0 8)))).def_3445))
(assert (let ((.def_3448 (= st7 (_ bv0 8)))).def_3448))
(assert (let ((.def_3451 (= r1 (_ bv0 8)))).def_3451))
(assert (let ((.def_3455 (= p5_new nomsg))).def_3455))
(assert (let ((.def_3458 (= nomsg p4_new))).def_3458))
(assert (let ((.def_3461 (= nomsg p3_new))).def_3461))
(assert (let ((.def_3464 (= nomsg p2_new))).def_3464))
(assert (let ((.def_3467 (= nomsg p6_new))).def_3467))
(assert (let ((.def_3470 (= mode1 (_ bv0 8)))).def_3470))
(assert (let ((.def_3473 (= mode2 (_ bv0 8)))).def_3473))
(assert (let ((.def_3476 (= mode3 (_ bv0 8)))).def_3476))
(assert (let ((.def_3479 (= mode4 (_ bv0 8)))).def_3479))
(assert (let ((.def_3482 (= mode5 (_ bv0 8)))).def_3482))
(assert (let ((.def_3485 (= mode6 (_ bv0 8)))).def_3485))
(assert (let ((.def_3488 (= mode7 (_ bv0 8)))).def_3488))
(assert (let ((.def_6055 (= st1 st7))).def_6055))
(assert (let ((.def_6057 (= st2 st7))).def_6057))
(assert (let ((.def_6059 (= st3 st7))).def_6059))
(assert (let ((.def_6061 (= st4 st7))).def_6061))
(assert (let ((.def_6063 (= st5 st7))).def_6063))
(assert (let ((.def_6065 (= st6 st7))).def_6065))
(assert (let ((.def_6070 ((_ sign_extend 24) id1)))(let ((.def_6068 ((_ sign_extend 24) send7)))(let ((.def_6071 (= .def_6068 .def_6070))).def_6071))))
(assert (let ((.def_6076 ((_ sign_extend 24) send1)))(let ((.def_6074 ((_ sign_extend 24) id2)))(let ((.def_6077 (= .def_6074 .def_6076))).def_6077))))
(assert (let ((.def_6081 (= id3 send2))).def_6081))
(assert (let ((.def_6084 ((_ sign_extend 24) send2)))(let ((.def_6083 ((_ sign_extend 24) id3)))(let ((.def_6085 (= .def_6083 .def_6084))).def_6085))))
(assert (let ((.def_6088 (= nomsg p1_new))).def_6088))
(assert (let ((.def_6093 ((_ sign_extend 24) send6)))(let ((.def_6091 ((_ sign_extend 24) id7)))(let ((.def_6094 (= .def_6091 .def_6093))).def_6094))))
(assert (let ((.def_6098 (= id6 send5))).def_6098))
(assert (let ((.def_6101 ((_ sign_extend 24) send5)))(let ((.def_6100 ((_ sign_extend 24) id6)))(let ((.def_6102 (= .def_6100 .def_6101))).def_6102))))
(assert (let ((.def_6107 ((_ sign_extend 24) send4)))(let ((.def_6105 ((_ sign_extend 24) id5)))(let ((.def_6108 (= .def_6105 .def_6107))).def_6108))))
(assert (let ((.def_6113 ((_ sign_extend 24) send3)))(let ((.def_6111 ((_ sign_extend 24) id4)))(let ((.def_6114 (= .def_6111 .def_6113))).def_6114))))
(assert (let ((.def_6117 (= nomsg p7_new))).def_6117))
(assert (let ((.def_6119 ((_ sign_extend 24) nomsg)))(let ((.def_6107 ((_ sign_extend 24) send4)))(let ((.def_6120 (= .def_6107 .def_6119))).def_6120))))
(assert (let ((.def_6119 ((_ sign_extend 24) nomsg)))(let ((.def_6101 ((_ sign_extend 24) send5)))(let ((.def_6122 (= .def_6101 .def_6119))).def_6122))))
(assert (let ((.def_6119 ((_ sign_extend 24) nomsg)))(let ((.def_6093 ((_ sign_extend 24) send6)))(let ((.def_6124 (= .def_6093 .def_6119))).def_6124))))
(assert (let ((.def_6133 ((_ sign_extend 24) st1)))(let ((.def_6132 ((_ sign_extend 24) st2)))(let ((.def_6135 (bvadd .def_6132 .def_6133)))(let ((.def_6131 ((_ sign_extend 24) st3)))(let ((.def_6137 (bvadd .def_6131 .def_6135)))(let ((.def_6130 ((_ sign_extend 24) st4)))(let ((.def_6139 (bvadd .def_6130 .def_6137)))(let ((.def_6129 ((_ sign_extend 24) st5)))(let ((.def_6141 (bvadd .def_6129 .def_6139)))(let ((.def_6128 ((_ sign_extend 24) st6)))(let ((.def_6143 (bvadd .def_6128 .def_6141)))(let ((.def_6126 ((_ sign_extend 24) st7)))(let ((.def_6127 (bvneg .def_6126)))(let ((.def_6144 (= .def_6127 .def_6143))).def_6144)))))))))))))))
(assert (let ((.def_6147 ((_ sign_extend 24) p7_old)))(let ((.def_6070 ((_ sign_extend 24) id1)))(let ((.def_6148 (= .def_6070 .def_6147))).def_6148))))
(assert (let ((.def_6151 ((_ sign_extend 24) p1_old)))(let ((.def_6074 ((_ sign_extend 24) id2)))(let ((.def_6152 (= .def_6074 .def_6151))).def_6152))))
(assert (let ((.def_6155 ((_ sign_extend 24) p2_old)))(let ((.def_6083 ((_ sign_extend 24) id3)))(let ((.def_6156 (= .def_6083 .def_6155))).def_6156))))
(assert (let ((.def_6159 ((_ sign_extend 24) p6_old)))(let ((.def_6091 ((_ sign_extend 24) id7)))(let ((.def_6160 (= .def_6091 .def_6159))).def_6160))))
(assert (let ((.def_6163 ((_ sign_extend 24) p5_old)))(let ((.def_6100 ((_ sign_extend 24) id6)))(let ((.def_6164 (= .def_6100 .def_6163))).def_6164))))
(assert (let ((.def_6167 ((_ sign_extend 24) p4_old)))(let ((.def_6105 ((_ sign_extend 24) id5)))(let ((.def_6168 (= .def_6105 .def_6167))).def_6168))))
(assert (let ((.def_6171 ((_ sign_extend 24) p3_old)))(let ((.def_6111 ((_ sign_extend 24) id4)))(let ((.def_6172 (= .def_6111 .def_6171))).def_6172))))
(assert (let ((.def_6133 ((_ sign_extend 24) st1)))(let ((.def_6128 ((_ sign_extend 24) st6)))(let ((.def_16052 (= .def_6128 .def_6133))).def_16052))))
(assert (let ((.def_6133 ((_ sign_extend 24) st1)))(let ((.def_6130 ((_ sign_extend 24) st4)))(let ((.def_16054 (= .def_6130 .def_6133))).def_16054))))
(assert (let ((.def_6132 ((_ sign_extend 24) st2)))(let ((.def_6131 ((_ sign_extend 24) st3)))(let ((.def_16056 (= .def_6131 .def_6132))).def_16056))))
(assert (let ((.def_6131 ((_ sign_extend 24) st3)))(let ((.def_6129 ((_ sign_extend 24) st5)))(let ((.def_16058 (= .def_6129 .def_6131))).def_16058))))
(assert (let ((.def_16060 (= st6 (_ bv1 8)))).def_16060))
(assert (let ((.def_16062 (= st4 (_ bv1 8)))).def_16062))
(assert (let ((.def_16064 (= st1 (_ bv1 8)))).def_16064))
(assert (let ((.def_6131 ((_ sign_extend 24) st3)))(let ((.def_6128 ((_ sign_extend 24) st6)))(let ((.def_16066 (= .def_6128 .def_6131))).def_16066))))
(assert (let ((.def_6132 ((_ sign_extend 24) st2)))(let ((.def_6129 ((_ sign_extend 24) st5)))(let ((.def_16068 (= .def_6129 .def_6132))).def_16068))))
(assert (let ((.def_6129 ((_ sign_extend 24) st5)))(let ((.def_6128 ((_ sign_extend 24) st6)))(let ((.def_16070 (= .def_6128 .def_6129))).def_16070))))
(assert (let ((.def_6130 ((_ sign_extend 24) st4)))(let ((.def_6129 ((_ sign_extend 24) st5)))(let ((.def_16072 (= .def_6129 .def_6130))).def_16072))))
(assert (let ((.def_6131 ((_ sign_extend 24) st3)))(let ((.def_6130 ((_ sign_extend 24) st4)))(let ((.def_16074 (= .def_6130 .def_6131))).def_16074))))
(assert (let ((.def_16076 (= st5 (_ bv1 8)))).def_16076))
(assert (let ((.def_6133 ((_ sign_extend 24) st1)))(let ((.def_6129 ((_ sign_extend 24) st5)))(let ((.def_16078 (= .def_6129 .def_6133))).def_16078))))
(assert (let ((.def_6132 ((_ sign_extend 24) st2)))(let ((.def_6128 ((_ sign_extend 24) st6)))(let ((.def_16080 (= .def_6128 .def_6132))).def_16080))))
(assert (let ((.def_6133 ((_ sign_extend 24) st1)))(let ((.def_6131 ((_ sign_extend 24) st3)))(let ((.def_16082 (= .def_6131 .def_6133))).def_16082))))
(assert (let ((.def_16084 (= st3 (_ bv1 8)))).def_16084))
(assert (let ((.def_6132 ((_ sign_extend 24) st2)))(let ((.def_6130 ((_ sign_extend 24) st4)))(let ((.def_16086 (= .def_6130 .def_6132))).def_16086))))
(assert (let ((.def_6130 ((_ sign_extend 24) st4)))(let ((.def_6128 ((_ sign_extend 24) st6)))(let ((.def_16088 (= .def_6128 .def_6130))).def_16088))))
(assert (let ((.def_16090 (= st2 (_ bv1 8)))).def_16090))
(assert (let ((.def_6133 ((_ sign_extend 24) st1)))(let ((.def_6132 ((_ sign_extend 24) st2)))(let ((.def_16092 (= .def_6132 .def_6133))).def_16092))))
(assert (let ((.def_16094 ((_ sign_extend 24) r1)))(let ((.def_16095 (bvslt .def_16094 (_ bv7 32)))).def_16095)))
(assert (let ((.def_6107 ((_ sign_extend 24) send4)))(let ((.def_6105 ((_ sign_extend 24) id5)))(let ((.def_29164 (bvslt .def_6105 .def_6107))).def_29164))))
(assert (let ((.def_6113 ((_ sign_extend 24) send3)))(let ((.def_6105 ((_ sign_extend 24) id5)))(let ((.def_29166 (= .def_6105 .def_6113))).def_29166))))
(assert (let ((.def_6107 ((_ sign_extend 24) send4)))(let ((.def_6100 ((_ sign_extend 24) id6)))(let ((.def_29168 (= .def_6100 .def_6107))).def_29168))))
(assert (let ((.def_6101 ((_ sign_extend 24) send5)))(let ((.def_6100 ((_ sign_extend 24) id6)))(let ((.def_29170 (bvslt .def_6100 .def_6101))).def_29170))))
(assert (let ((.def_6100 ((_ sign_extend 24) id6)))(let ((.def_6093 ((_ sign_extend 24) send6)))(let ((.def_29172 (= .def_6093 .def_6100))).def_29172))))
(assert (let ((.def_29174 (= nomsg send5))).def_29174))
(assert (let ((.def_6093 ((_ sign_extend 24) send6)))(let ((.def_6091 ((_ sign_extend 24) id7)))(let ((.def_29176 (bvslt .def_6091 .def_6093))).def_29176))))
(assert (let ((.def_6101 ((_ sign_extend 24) send5)))(let ((.def_6091 ((_ sign_extend 24) id7)))(let ((.def_29178 (= .def_6091 .def_6101))).def_29178))))
(assert (let ((.def_6093 ((_ sign_extend 24) send6)))(let ((.def_6070 ((_ sign_extend 24) id1)))(let ((.def_29180 (= .def_6070 .def_6093))).def_29180))))
(assert (let ((.def_6074 ((_ sign_extend 24) id2)))(let ((.def_6068 ((_ sign_extend 24) send7)))(let ((.def_29182 (= .def_6068 .def_6074))).def_29182))))
(assert (let ((.def_6076 ((_ sign_extend 24) send1)))(let ((.def_6074 ((_ sign_extend 24) id2)))(let ((.def_29184 (bvslt .def_6074 .def_6076))).def_29184))))
(assert (let ((.def_6084 ((_ sign_extend 24) send2)))(let ((.def_6074 ((_ sign_extend 24) id2)))(let ((.def_29186 (= .def_6074 .def_6084))).def_29186))))
(assert (let ((.def_6084 ((_ sign_extend 24) send2)))(let ((.def_6083 ((_ sign_extend 24) id3)))(let ((.def_29188 (bvslt .def_6083 .def_6084))).def_29188))))
(assert (let ((.def_6083 ((_ sign_extend 24) id3)))(let ((.def_6076 ((_ sign_extend 24) send1)))(let ((.def_29190 (= .def_6076 .def_6083))).def_29190))))
(assert (let ((.def_6111 ((_ sign_extend 24) id4)))(let ((.def_6084 ((_ sign_extend 24) send2)))(let ((.def_29192 (= .def_6084 .def_6111))).def_29192))))
(assert (let ((.def_6113 ((_ sign_extend 24) send3)))(let ((.def_6111 ((_ sign_extend 24) id4)))(let ((.def_29194 (bvslt .def_6111 .def_6113))).def_29194))))
(assert (let ((.def_6111 ((_ sign_extend 24) id4)))(let ((.def_6107 ((_ sign_extend 24) send4)))(let ((.def_29196 (= .def_6107 .def_6111))).def_29196))))
(assert (let ((.def_29198 (= nomsg send7))).def_29198))
(assert (let ((.def_6119 ((_ sign_extend 24) nomsg)))(let ((.def_6068 ((_ sign_extend 24) send7)))(let ((.def_29200 (= .def_6068 .def_6119))).def_29200))))
(assert (let ((.def_29202 (= nomsg send2))).def_29202))
(assert (let ((.def_6119 ((_ sign_extend 24) nomsg)))(let ((.def_6084 ((_ sign_extend 24) send2)))(let ((.def_29204 (= .def_6084 .def_6119))).def_29204))))
(assert (let ((.def_6119 ((_ sign_extend 24) nomsg)))(let ((.def_6113 ((_ sign_extend 24) send3)))(let ((.def_29206 (= .def_6113 .def_6119))).def_29206))))
(assert (let ((.def_6119 ((_ sign_extend 24) nomsg)))(let ((.def_6076 ((_ sign_extend 24) send1)))(let ((.def_29208 (= .def_6076 .def_6119))).def_29208))))
(assert (let ((.def_6167 ((_ sign_extend 24) p4_old)))(let ((.def_6100 ((_ sign_extend 24) id6)))(let ((.def_29210 (= .def_6100 .def_6167))).def_29210))))
(assert (let ((.def_6167 ((_ sign_extend 24) p4_old)))(let ((.def_6105 ((_ sign_extend 24) id5)))(let ((.def_29212 (bvslt .def_6105 .def_6167))).def_29212))))
(assert (let ((.def_6163 ((_ sign_extend 24) p5_old)))(let ((.def_6100 ((_ sign_extend 24) id6)))(let ((.def_29214 (bvslt .def_6100 .def_6163))).def_29214))))
(assert (let ((.def_6119 ((_ sign_extend 24) nomsg)))(let ((.def_6100 ((_ sign_extend 24) id6)))(let ((.def_29216 (= .def_6100 .def_6119))).def_29216))))
(assert (let ((.def_6101 ((_ sign_extend 24) send5)))(let ((.def_29219 (= .def_6101 |node5::__CPAchecker_TMP_0|))).def_29219)))
(assert (let ((.def_29221 ((_ extract 7 0) |node5::__CPAchecker_TMP_0|)))(let ((.def_29222 (= p5_old .def_29221))).def_29222)))
(assert (let ((.def_6107 ((_ sign_extend 24) send4)))(let ((.def_29225 (= .def_6107 |node4::__CPAchecker_TMP_0|))).def_29225)))
(assert (let ((.def_29227 ((_ extract 7 0) |node4::__CPAchecker_TMP_0|)))(let ((.def_29228 (= p4_old .def_29227))).def_29228)))
(assert (let ((.def_6171 ((_ sign_extend 24) p3_old)))(let ((.def_6105 ((_ sign_extend 24) id5)))(let ((.def_29230 (= .def_6105 .def_6171))).def_29230))))
(assert (let ((.def_6163 ((_ sign_extend 24) p5_old)))(let ((.def_6119 ((_ sign_extend 24) nomsg)))(let ((.def_29232 (= .def_6119 .def_6163))).def_29232))))
(assert (let ((.def_6159 ((_ sign_extend 24) p6_old)))(let ((.def_6091 ((_ sign_extend 24) id7)))(let ((.def_29234 (bvslt .def_6091 .def_6159))).def_29234))))
(assert (let ((.def_6093 ((_ sign_extend 24) send6)))(let ((.def_29237 (= .def_6093 |node6::__CPAchecker_TMP_0|))).def_29237)))
(assert (let ((.def_29239 ((_ extract 7 0) |node6::__CPAchecker_TMP_0|)))(let ((.def_29240 (= p6_old .def_29239))).def_29240)))
(assert (let ((.def_6163 ((_ sign_extend 24) p5_old)))(let ((.def_6091 ((_ sign_extend 24) id7)))(let ((.def_29242 (= .def_6091 .def_6163))).def_29242))))
(assert (let ((.def_6068 ((_ sign_extend 24) send7)))(let ((.def_29245 (= .def_6068 |node7::__CPAchecker_TMP_0|))).def_29245)))
(assert (let ((.def_29247 ((_ extract 7 0) |node7::__CPAchecker_TMP_0|)))(let ((.def_29248 (= p7_old .def_29247))).def_29248)))
(assert (let ((.def_29250 (= id1 p6_old))).def_29250))
(assert (let ((.def_6159 ((_ sign_extend 24) p6_old)))(let ((.def_6070 ((_ sign_extend 24) id1)))(let ((.def_29252 (= .def_6070 .def_6159))).def_29252))))
(assert (let ((.def_6147 ((_ sign_extend 24) p7_old)))(let ((.def_6074 ((_ sign_extend 24) id2)))(let ((.def_29254 (= .def_6074 .def_6147))).def_29254))))
(assert (let ((.def_6151 ((_ sign_extend 24) p1_old)))(let ((.def_6074 ((_ sign_extend 24) id2)))(let ((.def_29256 (bvslt .def_6074 .def_6151))).def_29256))))
(assert (let ((.def_6076 ((_ sign_extend 24) send1)))(let ((.def_29259 (= .def_6076 |node1::__CPAchecker_TMP_0|))).def_29259)))
(assert (let ((.def_29261 ((_ extract 7 0) |node1::__CPAchecker_TMP_0|)))(let ((.def_29262 (= p1_old .def_29261))).def_29262)))
(assert (let ((.def_6155 ((_ sign_extend 24) p2_old)))(let ((.def_6083 ((_ sign_extend 24) id3)))(let ((.def_29264 (bvslt .def_6083 .def_6155))).def_29264))))
(assert (let ((.def_6084 ((_ sign_extend 24) send2)))(let ((.def_29267 (= .def_6084 |node2::__CPAchecker_TMP_0|))).def_29267)))
(assert (let ((.def_29269 ((_ extract 7 0) |node2::__CPAchecker_TMP_0|)))(let ((.def_29270 (= p2_old .def_29269))).def_29270)))
(assert (let ((.def_6151 ((_ sign_extend 24) p1_old)))(let ((.def_6083 ((_ sign_extend 24) id3)))(let ((.def_29272 (= .def_6083 .def_6151))).def_29272))))
(assert (let ((.def_6155 ((_ sign_extend 24) p2_old)))(let ((.def_6111 ((_ sign_extend 24) id4)))(let ((.def_29274 (= .def_6111 .def_6155))).def_29274))))
(assert (let ((.def_6113 ((_ sign_extend 24) send3)))(let ((.def_29277 (= .def_6113 |node3::__CPAchecker_TMP_0|))).def_29277)))
(assert (let ((.def_29279 ((_ extract 7 0) |node3::__CPAchecker_TMP_0|)))(let ((.def_29280 (= p3_old .def_29279))).def_29280)))
(assert (let ((.def_6171 ((_ sign_extend 24) p3_old)))(let ((.def_6111 ((_ sign_extend 24) id4)))(let ((.def_29282 (bvslt .def_6111 .def_6171))).def_29282))))
(assert (let ((.def_6147 ((_ sign_extend 24) p7_old)))(let ((.def_6119 ((_ sign_extend 24) nomsg)))(let ((.def_29284 (= .def_6119 .def_6147))).def_29284))))
(assert (let ((.def_6151 ((_ sign_extend 24) p1_old)))(let ((.def_6119 ((_ sign_extend 24) nomsg)))(let ((.def_29286 (= .def_6119 .def_6151))).def_29286))))
(assert (let ((.def_6155 ((_ sign_extend 24) p2_old)))(let ((.def_6119 ((_ sign_extend 24) nomsg)))(let ((.def_29288 (= .def_6119 .def_6155))).def_29288))))
(assert (let ((.def_6171 ((_ sign_extend 24) p3_old)))(let ((.def_6119 ((_ sign_extend 24) nomsg)))(let ((.def_29290 (= .def_6119 .def_6171))).def_29290))))
(assert (let ((.def_6167 ((_ sign_extend 24) p4_old)))(let ((.def_6119 ((_ sign_extend 24) nomsg)))(let ((.def_29292 (= .def_6119 .def_6167))).def_29292))))
(assert (let ((.def_6159 ((_ sign_extend 24) p6_old)))(let ((.def_6119 ((_ sign_extend 24) nomsg)))(let ((.def_29294 (= .def_6119 .def_6159))).def_29294))))
(assert (let ((.def_29296 (= st7 (_ bv1 8)))).def_29296))
(assert (let ((.def_6076 ((_ sign_extend 24) send1)))(let ((.def_6070 ((_ sign_extend 24) id1)))(let ((.def_29298 (bvslt .def_6070 .def_6076))).def_29298))))
(assert (let ((.def_29300 (= send7 send1))).def_29300))
(assert (let ((.def_29302 (= send7 id1))).def_29302))
(assert (let ((.def_6119 ((_ sign_extend 24) nomsg)))(let ((.def_6074 ((_ sign_extend 24) id2)))(let ((.def_29304 (= .def_6074 .def_6119))).def_29304))))
(assert (let ((.def_29306 (= send4 send3))).def_29306))
(assert (let ((.def_29308 (= r1 (_ bv1 8)))).def_29308))
(assert (let ((.def_6147 ((_ sign_extend 24) p7_old)))(let ((.def_6070 ((_ sign_extend 24) id1)))(let ((.def_29310 (bvslt .def_6070 .def_6147))).def_29310))))
(assert (let ((.def_29312 (= send1 p7_old))).def_29312))
(assert (let ((.def_29314 (= send4 p3_old))).def_29314))

assert N518:
(assert false)
(assert (let ((.def_3051 (= |assert::arg| (_ bv0 8)))).def_3051))

