(set-info :source |printed by MathSAT|)
(declare-fun |ssl3_connect::blastFlag| () (_ BitVec 32))
(declare-fun |ssl3_connect::s__state| () (_ BitVec 32))
(declare-fun |ssl3_connect::s__s3__tmp__reuse_message| () (_ BitVec 32))
(declare-fun |ssl3_connect::s__hit| () (_ BitVec 32))
(declare-fun |ssl3_connect::s__s3__tmp__next_state___0| () (_ BitVec 32))
(declare-fun |ssl3_connect::skip| () (_ BitVec 32))
(declare-fun |ssl3_connect::s__s3__tmp__new_cipher__algorithms| () (_ BitVec 32))
(declare-fun |ssl3_connect::cb| () (_ BitVec 32))
(declare-fun |ssl3_accept::s__state| () (_ BitVec 32))
(declare-fun |ssl3_accept::blastFlag| () (_ BitVec 32))
(declare-fun |ssl3_accept::cb| () (_ BitVec 32))
(declare-fun |ssl3_accept::s__hit| () (_ BitVec 32))
(declare-fun |ssl3_accept::s__s3__tmp__next_state___0| () (_ BitVec 32))

ssl3_connect:
(assert (let ((.def_558 (= |ssl3_connect::blastFlag| (_ bv5 32)))).def_558))

ssl3_connect N85:
(assert (let ((.def_1407 (= |ssl3_connect::s__state| (_ bv12292 32)))).def_1407))
(assert (let ((.def_1409 (= |ssl3_connect::blastFlag| (_ bv0 32)))).def_1409))
(assert (let ((.def_558 (= |ssl3_connect::blastFlag| (_ bv5 32)))).def_558))
(assert (let ((.def_3367 (= |ssl3_connect::s__s3__tmp__reuse_message| (_ bv0 32)))).def_3367))
(assert (let ((.def_3369 (= |ssl3_connect::blastFlag| (_ bv4 32)))).def_3369))
(assert (let ((.def_3371 (= |ssl3_connect::blastFlag| (_ bv3 32)))).def_3371))
(assert (let ((.def_3373 (= |ssl3_connect::s__state| (_ bv4384 32)))).def_3373))
(assert (let ((.def_3375 (= |ssl3_connect::blastFlag| (_ bv1 32)))).def_3375))
(assert (let ((.def_3377 (= |ssl3_connect::s__state| (_ bv4368 32)))).def_3377))
(assert (let ((.def_3379 (= |ssl3_connect::blastFlag| (_ bv2 32)))).def_3379))
(assert (let ((.def_7473 (= |ssl3_connect::s__hit| (_ bv0 32)))).def_7473))
(assert (let ((.def_7476 (= |ssl3_connect::s__state| |ssl3_connect::s__s3__tmp__next_state___0|))).def_7476))
(assert (let ((.def_7478 (= |ssl3_connect::s__s3__tmp__next_state___0| (_ bv4401 32)))).def_7478))
(assert (let ((.def_7480 (= |ssl3_connect::s__state| (_ bv4352 32)))).def_7480))
(assert (let ((.def_7482 (= |ssl3_connect::s__state| (_ bv4560 32)))).def_7482))
(assert (let ((.def_7484 (= |ssl3_connect::s__state| (_ bv4416 32)))).def_7484))
(assert (let ((.def_7486 (= |ssl3_connect::s__state| (_ bv4400 32)))).def_7486))
(assert (let ((.def_7488 (= |ssl3_connect::s__state| (_ bv4432 32)))).def_7488))
(assert (let ((.def_7490 (= |ssl3_connect::s__state| (_ bv4529 32)))).def_7490))
(assert (let ((.def_7492 (= |ssl3_connect::s__state| (_ bv4528 32)))).def_7492))
(assert (let ((.def_7494 (= |ssl3_connect::s__state| (_ bv4401 32)))).def_7494))
(assert (let ((.def_7497 (= |ssl3_connect::skip| (_ bv0 32)))).def_7497))
(assert (let ((.def_7499 (= |ssl3_connect::s__state| (_ bv4417 32)))).def_7499))
(assert (let ((.def_7501 (= |ssl3_connect::s__state| (_ bv4480 32)))).def_7501))
(assert (let ((.def_7503 (= |ssl3_connect::s__state| (_ bv4449 32)))).def_7503))
(assert (let ((.def_7505 (= |ssl3_connect::s__state| (_ bv4448 32)))).def_7505))
(assert (let ((.def_7507 (= |ssl3_connect::s__state| (_ bv4481 32)))).def_7507))
(assert (let ((.def_7509 (= |ssl3_connect::s__s3__tmp__next_state___0| (_ bv4432 32)))).def_7509))
(assert (let ((.def_7512 (= |ssl3_connect::s__s3__tmp__new_cipher__algorithms| (_ bv4294967040 32)))).def_7512))
(assert (let ((.def_7514 (= |ssl3_connect::s__state| (_ bv4433 32)))).def_7514))
(assert (let ((.def_7517 (= |ssl3_connect::cb| (_ bv0 32)))).def_7517))
(assert (let ((.def_7519 (= |ssl3_connect::s__s3__tmp__next_state___0| (_ bv4433 32)))).def_7519))
(assert (let ((.def_17058 (= |ssl3_connect::s__s3__tmp__next_state___0| (_ bv4099 32)))).def_17058))
(assert (let ((.def_17060 (= |ssl3_connect::s__s3__tmp__next_state___0| (_ bv12292 32)))).def_17060))
(assert (let ((.def_17062 (= |ssl3_connect::s__s3__tmp__next_state___0| (_ bv16384 32)))).def_17062))
(assert (let ((.def_17064 (= |ssl3_connect::s__s3__tmp__next_state___0| (_ bv4096 32)))).def_17064))
(assert (let ((.def_17066 (= |ssl3_connect::s__s3__tmp__next_state___0| (_ bv20480 32)))).def_17066))
(assert (let ((.def_17068 (= |ssl3_connect::s__state| (_ bv4096 32)))).def_17068))
(assert (let ((.def_17070 (= |ssl3_connect::s__state| (_ bv4099 32)))).def_17070))
(assert (let ((.def_17072 (= |ssl3_connect::s__state| (_ bv20480 32)))).def_17072))
(assert (let ((.def_17074 (= |ssl3_connect::s__state| (_ bv16384 32)))).def_17074))
(assert (let ((.def_17076 (= |ssl3_connect::s__s3__tmp__next_state___0| (_ bv4368 32)))).def_17076))
(assert (let ((.def_17078 (= |ssl3_connect::s__s3__tmp__next_state___0| (_ bv4369 32)))).def_17078))
(assert (let ((.def_17080 (= |ssl3_connect::s__state| (_ bv4385 32)))).def_17080))
(assert (let ((.def_17082 (= |ssl3_connect::s__state| (_ bv4369 32)))).def_17082))
(assert (let ((.def_17084 (= |ssl3_connect::s__s3__tmp__next_state___0| (_ bv4384 32)))).def_17084))
(assert (let ((.def_17086 (= |ssl3_connect::s__s3__tmp__next_state___0| (_ bv4385 32)))).def_17086))
(assert (let ((.def_17088 (= |ssl3_connect::s__state| (_ bv4496 32)))).def_17088))
(assert (let ((.def_17090 (= |ssl3_connect::s__s3__tmp__next_state___0| (_ bv4400 32)))).def_17090))
(assert (let ((.def_17092 (= |ssl3_connect::s__state| (_ bv4512 32)))).def_17092))
(assert (let ((.def_17094 (= |ssl3_connect::s__s3__tmp__next_state___0| (_ bv4528 32)))).def_17094))
(assert (let ((.def_17096 (= |ssl3_connect::s__s3__tmp__next_state___0| (_ bv4529 32)))).def_17096))
(assert (let ((.def_17098 (= |ssl3_connect::s__s3__tmp__next_state___0| (_ bv3 32)))).def_17098))
(assert (let ((.def_17100 (= |ssl3_connect::s__s3__tmp__next_state___0| (_ bv4560 32)))).def_17100))
(assert (let ((.def_17102 (= |ssl3_connect::s__s3__tmp__next_state___0| (_ bv4416 32)))).def_17102))
(assert (let ((.def_17104 (= |ssl3_connect::s__state| (_ bv4513 32)))).def_17104))
(assert (let ((.def_17106 (= |ssl3_connect::s__state| (_ bv4467 32)))).def_17106))
(assert (let ((.def_17108 (= |ssl3_connect::s__state| (_ bv4466 32)))).def_17108))
(assert (let ((.def_17110 (= |ssl3_connect::s__state| (_ bv4465 32)))).def_17110))
(assert (let ((.def_17112 (= |ssl3_connect::s__state| (_ bv4464 32)))).def_17112))

ssl3_connect N565:
(assert false)
(assert (let ((.def_558 (= |ssl3_connect::blastFlag| (_ bv5 32)))).def_558))

ssl3_accept N689:
(assert (let ((.def_30555 (= |ssl3_accept::s__state| (_ bv8576 32)))).def_30555))
(assert (let ((.def_30557 (= |ssl3_accept::s__state| (_ bv8464 32)))).def_30557))
(assert (let ((.def_30560 (= |ssl3_accept::blastFlag| (_ bv0 32)))).def_30560))
(assert (let ((.def_33144 (= |ssl3_accept::s__state| (_ bv12292 32)))).def_33144))
(assert (let ((.def_33146 (= |ssl3_accept::s__state| (_ bv8482 32)))).def_33146))
(assert (let ((.def_33148 (= |ssl3_accept::s__state| (_ bv8448 32)))).def_33148))
(assert (let ((.def_33150 (= |ssl3_accept::s__state| (_ bv8496 32)))).def_33150))
(assert (let ((.def_33152 (= |ssl3_accept::blastFlag| (_ bv4 32)))).def_33152))
(assert (let ((.def_36047 (= |ssl3_accept::s__state| (_ bv8481 32)))).def_36047))
(assert (let ((.def_36049 (= |ssl3_accept::s__state| (_ bv8480 32)))).def_36049))
(assert (let ((.def_36051 (= |ssl3_accept::s__state| (_ bv8195 32)))).def_36051))
(assert (let ((.def_36053 (= |ssl3_accept::s__state| (_ bv24576 32)))).def_36053))
(assert (let ((.def_36055 (= |ssl3_accept::s__state| (_ bv8192 32)))).def_36055))
(assert (let ((.def_36057 (= |ssl3_accept::s__state| (_ bv16384 32)))).def_36057))
(assert (let ((.def_36059 (= |ssl3_accept::blastFlag| (_ bv1 32)))).def_36059))
(assert (let ((.def_36061 (= |ssl3_accept::blastFlag| (_ bv2 32)))).def_36061))
(assert (let ((.def_36063 (= |ssl3_accept::s__state| (_ bv8656 32)))).def_36063))
(assert (let ((.def_41036 (= |ssl3_accept::cb| (_ bv0 32)))).def_41036))
(assert (let ((.def_41039 (= |ssl3_accept::s__hit| (_ bv0 32)))).def_41039))
(assert (let ((.def_41041 (= |ssl3_accept::s__state| (_ bv8512 32)))).def_41041))
(assert (let ((.def_41043 (= |ssl3_accept::s__state| (_ bv8561 32)))).def_41043))
(assert (let ((.def_41045 (= |ssl3_accept::s__state| (_ bv8560 32)))).def_41045))
(assert (let ((.def_41047 (= |ssl3_accept::s__state| (_ bv8544 32)))).def_41047))
(assert (let ((.def_41049 (= |ssl3_accept::s__state| (_ bv8545 32)))).def_41049))
(assert (let ((.def_41051 (= |ssl3_accept::blastFlag| (_ bv3 32)))).def_41051))
(assert (let ((.def_41053 (= |ssl3_accept::s__state| (_ bv8577 32)))).def_41053))
(assert (let ((.def_41055 (= |ssl3_accept::s__state| (_ bv8465 32)))).def_41055))
(assert (let ((.def_41057 (= |ssl3_accept::s__state| (_ bv8466 32)))).def_41057))
(assert (let ((.def_41059 (= |ssl3_accept::s__state| (_ bv8497 32)))).def_41059))
(assert (let ((.def_41061 (= |ssl3_accept::s__state| (_ bv8513 32)))).def_41061))
(assert (let ((.def_41063 (= |ssl3_accept::s__state| (_ bv8528 32)))).def_41063))
(assert (let ((.def_41065 (= |ssl3_accept::s__state| (_ bv8529 32)))).def_41065))
(assert (let ((.def_41067 (= |ssl3_accept::s__state| (_ bv8641 32)))).def_41067))
(assert (let ((.def_41069 (= |ssl3_accept::s__state| (_ bv8640 32)))).def_41069))
(assert (let ((.def_41071 (= |ssl3_accept::s__state| (_ bv8609 32)))).def_41071))
(assert (let ((.def_41073 (= |ssl3_accept::s__state| (_ bv8608 32)))).def_41073))
(assert (let ((.def_41075 (= |ssl3_accept::s__state| (_ bv8593 32)))).def_41075))
(assert (let ((.def_41077 (= |ssl3_accept::s__state| (_ bv8592 32)))).def_41077))
(assert (let ((.def_41080 (= |ssl3_accept::s__state| |ssl3_accept::s__s3__tmp__next_state___0|))).def_41080))
(assert (let ((.def_41082 (= |ssl3_accept::s__s3__tmp__next_state___0| (_ bv8640 32)))).def_41082))
(assert (let ((.def_41084 (= |ssl3_accept::s__s3__tmp__next_state___0| (_ bv8576 32)))).def_41084))
(assert (let ((.def_41086 (= |ssl3_accept::s__s3__tmp__next_state___0| (_ bv8482 32)))).def_41086))
(assert (let ((.def_41088 (= |ssl3_accept::s__state| (_ bv8657 32)))).def_41088))

ssl3_accept N1232:
(assert false)

