(set-info :source |printed by MathSAT|)
(declare-fun a20 () (_ BitVec 32))
(declare-fun a25 () (_ BitVec 32))
(declare-fun a12 () (_ BitVec 32))
(declare-fun a15 () (_ BitVec 32))
(declare-fun a16 () (_ BitVec 32))
(declare-fun a2 () (_ BitVec 32))
(declare-fun a27 () (_ BitVec 32))
(declare-fun a9 () (_ BitVec 32))
(declare-fun |calculate_output8::input| () (_ BitVec 32))
(declare-fun |calculate_output7::input| () (_ BitVec 32))
(declare-fun m_pc () (_ BitVec 32))
(declare-fun t1_pc () (_ BitVec 32))
(declare-fun t2_pc () (_ BitVec 32))
(declare-fun t3_pc () (_ BitVec 32))
(declare-fun t4_pc () (_ BitVec 32))
(declare-fun t5_pc () (_ BitVec 32))
(declare-fun t6_pc () (_ BitVec 32))
(declare-fun t7_pc () (_ BitVec 32))
(declare-fun t8_pc () (_ BitVec 32))
(declare-fun m_st () (_ BitVec 32))

*:
(assert (let ((.def_107306 (= a20 (_ bv5 32)))).def_107306))

calculate_output8 N29965:
(assert false)
(assert (let ((.def_107306 (= a20 (_ bv5 32)))).def_107306))

main1 N30136:
(assert (let ((.def_107306 (= a20 (_ bv5 32)))).def_107306))
(assert (let ((.def_154722 (= a25 (_ bv1 32)))).def_154722))
(assert (let ((.def_154725 (= a12 (_ bv4 32)))).def_154725))
(assert (let ((.def_154728 (= a15 (_ bv1 32)))).def_154728))
(assert (let ((.def_154731 (= a16 (_ bv1 32)))).def_154731))
(assert (let ((.def_154734 (= a2 (_ bv10 32)))).def_154734))
(assert (let ((.def_154737 (= a27 (_ bv1 32)))).def_154737))
(assert (let ((.def_154740 (= a9 (_ bv18 32)))).def_154740))
(assert (let ((.def_320687 (= a9 (_ bv17 32)))).def_320687))
(assert (let ((.def_320689 (= a2 (_ bv12 32)))).def_320689))
(assert (let ((.def_320691 (= a2 (_ bv11 32)))).def_320691))
(assert (let ((.def_320693 (= a2 (_ bv9 32)))).def_320693))
(assert (let ((.def_320695 (= a12 (_ bv3 32)))).def_320695))
(assert (let ((.def_320697 (= a20 (_ bv6 32)))).def_320697))
(assert (let ((.def_320699 (= a2 (_ bv13 32)))).def_320699))
(assert (let ((.def_320701 (= a9 (_ bv16 32)))).def_320701))
(assert (let ((.def_1059072 (= a12 (_ bv5 32)))).def_1059072))
(assert (let ((.def_1059076 (= |calculate_output8::input| |calculate_output7::input|))).def_1059076))
(assert (let ((.def_1059078 (= |calculate_output7::input| (_ bv1 32)))).def_1059078))
(assert (let ((.def_1059080 (= |calculate_output8::input| (_ bv1 32)))).def_1059080))
(assert (let ((.def_1059082 (= a12 (_ bv6 32)))).def_1059082))
(assert (let ((.def_1059084 (= a12 (_ bv2 32)))).def_1059084))
(assert (let ((.def_1059086 (= a20 (_ bv7 32)))).def_1059086))

error N30154:
(assert false)
(assert (let ((.def_107306 (= a20 (_ bv5 32)))).def_107306))

eval N30679:
(assert (let ((.def_1269379 (= m_pc (_ bv0 32)))).def_1269379))
(assert (let ((.def_107306 (= a20 (_ bv5 32)))).def_107306))
(assert (let ((.def_1275825 (= t1_pc (_ bv0 32)))).def_1275825))
(assert (let ((.def_1275828 (= t2_pc (_ bv0 32)))).def_1275828))
(assert (let ((.def_1275831 (= t3_pc (_ bv0 32)))).def_1275831))
(assert (let ((.def_1275834 (= t4_pc (_ bv0 32)))).def_1275834))
(assert (let ((.def_1275837 (= t5_pc (_ bv0 32)))).def_1275837))
(assert (let ((.def_1275840 (= t6_pc (_ bv0 32)))).def_1275840))
(assert (let ((.def_1275843 (= t7_pc (_ bv0 32)))).def_1275843))
(assert (let ((.def_1275846 (= t8_pc (_ bv0 32)))).def_1275846))
(assert (let ((.def_1275848 (= m_pc (_ bv1 32)))).def_1275848))
(assert (let ((.def_1275850 (= t1_pc (_ bv1 32)))).def_1275850))
(assert (let ((.def_1275852 (= t2_pc (_ bv1 32)))).def_1275852))
(assert (let ((.def_1275854 (= t3_pc (_ bv1 32)))).def_1275854))
(assert (let ((.def_1275856 (= t4_pc (_ bv1 32)))).def_1275856))
(assert (let ((.def_1275858 (= t5_pc (_ bv1 32)))).def_1275858))
(assert (let ((.def_1275860 (= t6_pc (_ bv1 32)))).def_1275860))
(assert (let ((.def_1275862 (= t7_pc (_ bv1 32)))).def_1275862))
(assert (let ((.def_1275864 (= t8_pc (_ bv1 32)))).def_1275864))
(assert (let ((.def_1275867 (= m_st (_ bv0 32)))).def_1275867))

start_simulation N31116:
(assert (let ((.def_1269379 (= m_pc (_ bv0 32)))).def_1269379))
(assert (let ((.def_107306 (= a20 (_ bv5 32)))).def_107306))
(assert (let ((.def_1275825 (= t1_pc (_ bv0 32)))).def_1275825))
(assert (let ((.def_1275828 (= t2_pc (_ bv0 32)))).def_1275828))
(assert (let ((.def_1275831 (= t3_pc (_ bv0 32)))).def_1275831))
(assert (let ((.def_1275834 (= t4_pc (_ bv0 32)))).def_1275834))
(assert (let ((.def_1275837 (= t5_pc (_ bv0 32)))).def_1275837))
(assert (let ((.def_1275840 (= t6_pc (_ bv0 32)))).def_1275840))
(assert (let ((.def_1275843 (= t7_pc (_ bv0 32)))).def_1275843))
(assert (let ((.def_1275846 (= t8_pc (_ bv0 32)))).def_1275846))
(assert (let ((.def_1275848 (= m_pc (_ bv1 32)))).def_1275848))
(assert (let ((.def_1275850 (= t1_pc (_ bv1 32)))).def_1275850))
(assert (let ((.def_1275852 (= t2_pc (_ bv1 32)))).def_1275852))
(assert (let ((.def_1275854 (= t3_pc (_ bv1 32)))).def_1275854))
(assert (let ((.def_1275856 (= t4_pc (_ bv1 32)))).def_1275856))
(assert (let ((.def_1275858 (= t5_pc (_ bv1 32)))).def_1275858))
(assert (let ((.def_1275860 (= t6_pc (_ bv1 32)))).def_1275860))
(assert (let ((.def_1275862 (= t7_pc (_ bv1 32)))).def_1275862))
(assert (let ((.def_1275864 (= t8_pc (_ bv1 32)))).def_1275864))

