(set-info :source |printed by MathSAT|)
(declare-fun c_last_read () (_ BitVec 32))
(declare-fun p_last_write () (_ BitVec 32))
(declare-fun c_num_read () (_ BitVec 32))
(declare-fun p_num_write () (_ BitVec 32))
(declare-fun c_dr_pc () (_ BitVec 32))
(declare-fun q_free () (_ BitVec 32))
(declare-fun q_buf_0 () (_ BitVec 32))
(declare-fun p_dw_pc () (_ BitVec 32))
(declare-fun q_read_ev () (_ BitVec 32))
(declare-fun c_dr_st () (_ BitVec 32))
(declare-fun p_dw_st () (_ BitVec 32))
(declare-fun m_pc () (_ BitVec 32))
(declare-fun t1_pc () (_ BitVec 32))
(declare-fun t2_pc () (_ BitVec 32))
(declare-fun t3_pc () (_ BitVec 32))
(declare-fun t4_pc () (_ BitVec 32))
(declare-fun t5_pc () (_ BitVec 32))
(declare-fun t6_pc () (_ BitVec 32))
(declare-fun t7_pc () (_ BitVec 32))
(declare-fun t8_pc () (_ BitVec 32))
(declare-fun t9_pc () (_ BitVec 32))
(declare-fun m_st () (_ BitVec 32))

*:
(assert (let ((.def_630 (= c_last_read p_last_write))).def_630))
(assert (let ((.def_639 (= c_num_read p_num_write))).def_639))

error1 N4:
(assert false)
(assert (let ((.def_630 (= c_last_read p_last_write))).def_630))
(assert (let ((.def_639 (= c_num_read p_num_write))).def_639))

do_write_p N64:
(assert (let ((.def_974 (= c_dr_pc (_ bv0 32)))).def_974))
(assert (let ((.def_630 (= c_last_read p_last_write))).def_630))
(assert (let ((.def_639 (= c_num_read p_num_write))).def_639))
(assert (let ((.def_1077 (= q_free (_ bv1 32)))).def_1077))
(assert false)
(assert (let ((.def_1420 (= p_last_write q_buf_0))).def_1420))
(assert (let ((.def_1080 (= p_dw_pc (_ bv1 32)))).def_1080))
(assert (let ((.def_1609 (bvadd (_ bv1 32) c_num_read)))(let ((.def_1610 (= p_num_write .def_1609))).def_1610)))
(assert (let ((.def_2501 (= q_free (_ bv0 32)))).def_2501))
(assert (let ((.def_1612 (= c_dr_pc (_ bv1 32)))).def_1612))
(assert (let ((.def_5302 (= q_read_ev (_ bv1 32)))).def_5302))

do_read_c N100:
(assert (let ((.def_1080 (= p_dw_pc (_ bv1 32)))).def_1080))
(assert (let ((.def_1077 (= q_free (_ bv1 32)))).def_1077))
(assert (let ((.def_630 (= c_last_read p_last_write))).def_630))
(assert (let ((.def_639 (= c_num_read p_num_write))).def_639))
(assert (let ((.def_1420 (= p_last_write q_buf_0))).def_1420))
(assert (let ((.def_1609 (bvadd (_ bv1 32) c_num_read)))(let ((.def_1610 (= p_num_write .def_1609))).def_1610)))
(assert (let ((.def_1612 (= c_dr_pc (_ bv1 32)))).def_1612))
(assert false)

eval1 N170:
(assert (let ((.def_974 (= c_dr_pc (_ bv0 32)))).def_974))
(assert (let ((.def_630 (= c_last_read p_last_write))).def_630))
(assert (let ((.def_639 (= c_num_read p_num_write))).def_639))
(assert (let ((.def_1077 (= q_free (_ bv1 32)))).def_1077))
(assert (let ((.def_1350 (= p_dw_pc (_ bv0 32)))).def_1350))
(assert (let ((.def_1612 (= c_dr_pc (_ bv1 32)))).def_1612))
(assert (let ((.def_3924 (= c_dr_st (_ bv0 32)))).def_3924))
(assert (let ((.def_1080 (= p_dw_pc (_ bv1 32)))).def_1080))
(assert (let ((.def_5302 (= q_read_ev (_ bv1 32)))).def_5302))
(assert (let ((.def_5305 (= p_dw_st (_ bv0 32)))).def_5305))
(assert (let ((.def_1420 (= p_last_write q_buf_0))).def_1420))
(assert (let ((.def_1609 (bvadd (_ bv1 32) c_num_read)))(let ((.def_1610 (= p_num_write .def_1609))).def_1610)))

start_simulation1 N221:
(assert (let ((.def_974 (= c_dr_pc (_ bv0 32)))).def_974))
(assert (let ((.def_630 (= c_last_read p_last_write))).def_630))
(assert (let ((.def_639 (= c_num_read p_num_write))).def_639))
(assert (let ((.def_1077 (= q_free (_ bv1 32)))).def_1077))
(assert (let ((.def_1350 (= p_dw_pc (_ bv0 32)))).def_1350))
(assert (let ((.def_5302 (= q_read_ev (_ bv1 32)))).def_5302))

error2 N260:
(assert false)
(assert (let ((.def_630 (= c_last_read p_last_write))).def_630))
(assert (let ((.def_639 (= c_num_read p_num_write))).def_639))

eval2 N839:
(assert (let ((.def_7994 (= m_pc (_ bv0 32)))).def_7994))
(assert (let ((.def_630 (= c_last_read p_last_write))).def_630))
(assert (let ((.def_639 (= c_num_read p_num_write))).def_639))
(assert (let ((.def_15788 (= t1_pc (_ bv0 32)))).def_15788))
(assert (let ((.def_15791 (= t2_pc (_ bv0 32)))).def_15791))
(assert (let ((.def_15794 (= t3_pc (_ bv0 32)))).def_15794))
(assert (let ((.def_15797 (= t4_pc (_ bv0 32)))).def_15797))
(assert (let ((.def_15800 (= t5_pc (_ bv0 32)))).def_15800))
(assert (let ((.def_15803 (= t6_pc (_ bv0 32)))).def_15803))
(assert (let ((.def_15806 (= t7_pc (_ bv0 32)))).def_15806))
(assert (let ((.def_15809 (= t8_pc (_ bv0 32)))).def_15809))
(assert (let ((.def_15812 (= t9_pc (_ bv0 32)))).def_15812))
(assert (let ((.def_15814 (= m_pc (_ bv1 32)))).def_15814))
(assert (let ((.def_15816 (= t1_pc (_ bv1 32)))).def_15816))
(assert (let ((.def_15818 (= t2_pc (_ bv1 32)))).def_15818))
(assert (let ((.def_15820 (= t3_pc (_ bv1 32)))).def_15820))
(assert (let ((.def_15822 (= t4_pc (_ bv1 32)))).def_15822))
(assert (let ((.def_15824 (= t5_pc (_ bv1 32)))).def_15824))
(assert (let ((.def_15826 (= t6_pc (_ bv1 32)))).def_15826))
(assert (let ((.def_15828 (= t7_pc (_ bv1 32)))).def_15828))
(assert (let ((.def_15830 (= t8_pc (_ bv1 32)))).def_15830))
(assert (let ((.def_15832 (= t9_pc (_ bv1 32)))).def_15832))
(assert (let ((.def_15835 (= m_st (_ bv0 32)))).def_15835))

start_simulation2 N1317:
(assert (let ((.def_7994 (= m_pc (_ bv0 32)))).def_7994))
(assert (let ((.def_630 (= c_last_read p_last_write))).def_630))
(assert (let ((.def_639 (= c_num_read p_num_write))).def_639))
(assert (let ((.def_15788 (= t1_pc (_ bv0 32)))).def_15788))
(assert (let ((.def_15791 (= t2_pc (_ bv0 32)))).def_15791))
(assert (let ((.def_15794 (= t3_pc (_ bv0 32)))).def_15794))
(assert (let ((.def_15797 (= t4_pc (_ bv0 32)))).def_15797))
(assert (let ((.def_15800 (= t5_pc (_ bv0 32)))).def_15800))
(assert (let ((.def_15803 (= t6_pc (_ bv0 32)))).def_15803))
(assert (let ((.def_15806 (= t7_pc (_ bv0 32)))).def_15806))
(assert (let ((.def_15809 (= t8_pc (_ bv0 32)))).def_15809))
(assert (let ((.def_15812 (= t9_pc (_ bv0 32)))).def_15812))
(assert (let ((.def_15814 (= m_pc (_ bv1 32)))).def_15814))
(assert (let ((.def_15816 (= t1_pc (_ bv1 32)))).def_15816))
(assert (let ((.def_15818 (= t2_pc (_ bv1 32)))).def_15818))
(assert (let ((.def_15820 (= t3_pc (_ bv1 32)))).def_15820))
(assert (let ((.def_15822 (= t4_pc (_ bv1 32)))).def_15822))
(assert (let ((.def_15824 (= t5_pc (_ bv1 32)))).def_15824))
(assert (let ((.def_15826 (= t6_pc (_ bv1 32)))).def_15826))
(assert (let ((.def_15828 (= t7_pc (_ bv1 32)))).def_15828))
(assert (let ((.def_15830 (= t8_pc (_ bv1 32)))).def_15830))
(assert (let ((.def_15832 (= t9_pc (_ bv1 32)))).def_15832))

