(set-info :source |printed by MathSAT|)
(declare-fun c_last_read () (_ BitVec 32))
(declare-fun p_last_write () (_ BitVec 32))
(declare-fun c_num_read () (_ BitVec 32))
(declare-fun p_num_write () (_ BitVec 32))
(declare-fun c_dr_pc () (_ BitVec 32))
(declare-fun c_dr_st () (_ BitVec 32))
(declare-fun m_pc () (_ BitVec 32))
(declare-fun t1_pc () (_ BitVec 32))
(declare-fun t2_pc () (_ BitVec 32))
(declare-fun t3_pc () (_ BitVec 32))
(declare-fun t4_pc () (_ BitVec 32))
(declare-fun t5_pc () (_ BitVec 32))
(declare-fun t6_pc () (_ BitVec 32))
(declare-fun t7_pc () (_ BitVec 32))
(declare-fun t8_pc () (_ BitVec 32))
(declare-fun m_st () (_ BitVec 32))

*:
(assert (let ((.def_737 (= c_last_read p_last_write))).def_737))
(assert (let ((.def_746 (= c_num_read p_num_write))).def_746))

error1 N4:
(assert false)
(assert (let ((.def_737 (= c_last_read p_last_write))).def_737))
(assert (let ((.def_746 (= c_num_read p_num_write))).def_746))

eval1 N282:
(assert (let ((.def_897 (= c_dr_pc (_ bv0 32)))).def_897))
(assert (let ((.def_737 (= c_last_read p_last_write))).def_737))
(assert (let ((.def_746 (= c_num_read p_num_write))).def_746))
(assert (let ((.def_1388 (= c_dr_pc (_ bv2 32)))).def_1388))
(assert (let ((.def_1391 (= c_dr_st (_ bv0 32)))).def_1391))

start_simulation1 N338:
(assert (let ((.def_897 (= c_dr_pc (_ bv0 32)))).def_897))
(assert (let ((.def_737 (= c_last_read p_last_write))).def_737))
(assert (let ((.def_746 (= c_num_read p_num_write))).def_746))
(assert (let ((.def_1388 (= c_dr_pc (_ bv2 32)))).def_1388))

error2 N393:
(assert false)
(assert (let ((.def_737 (= c_last_read p_last_write))).def_737))
(assert (let ((.def_746 (= c_num_read p_num_write))).def_746))

eval2 N918:
(assert (let ((.def_4892 (= m_pc (_ bv0 32)))).def_4892))
(assert (let ((.def_737 (= c_last_read p_last_write))).def_737))
(assert (let ((.def_746 (= c_num_read p_num_write))).def_746))
(assert (let ((.def_11341 (= t1_pc (_ bv0 32)))).def_11341))
(assert (let ((.def_11344 (= t2_pc (_ bv0 32)))).def_11344))
(assert (let ((.def_11347 (= t3_pc (_ bv0 32)))).def_11347))
(assert (let ((.def_11350 (= t4_pc (_ bv0 32)))).def_11350))
(assert (let ((.def_11353 (= t5_pc (_ bv0 32)))).def_11353))
(assert (let ((.def_11356 (= t6_pc (_ bv0 32)))).def_11356))
(assert (let ((.def_11359 (= t7_pc (_ bv0 32)))).def_11359))
(assert (let ((.def_11362 (= t8_pc (_ bv0 32)))).def_11362))
(assert (let ((.def_11364 (= m_pc (_ bv1 32)))).def_11364))
(assert (let ((.def_11366 (= t1_pc (_ bv1 32)))).def_11366))
(assert (let ((.def_11368 (= t2_pc (_ bv1 32)))).def_11368))
(assert (let ((.def_11370 (= t3_pc (_ bv1 32)))).def_11370))
(assert (let ((.def_11372 (= t4_pc (_ bv1 32)))).def_11372))
(assert (let ((.def_11374 (= t5_pc (_ bv1 32)))).def_11374))
(assert (let ((.def_11376 (= t6_pc (_ bv1 32)))).def_11376))
(assert (let ((.def_11378 (= t7_pc (_ bv1 32)))).def_11378))
(assert (let ((.def_11380 (= t8_pc (_ bv1 32)))).def_11380))
(assert (let ((.def_11383 (= m_st (_ bv0 32)))).def_11383))

start_simulation2 N1355:
(assert (let ((.def_4892 (= m_pc (_ bv0 32)))).def_4892))
(assert (let ((.def_737 (= c_last_read p_last_write))).def_737))
(assert (let ((.def_746 (= c_num_read p_num_write))).def_746))
(assert (let ((.def_11341 (= t1_pc (_ bv0 32)))).def_11341))
(assert (let ((.def_11344 (= t2_pc (_ bv0 32)))).def_11344))
(assert (let ((.def_11347 (= t3_pc (_ bv0 32)))).def_11347))
(assert (let ((.def_11350 (= t4_pc (_ bv0 32)))).def_11350))
(assert (let ((.def_11353 (= t5_pc (_ bv0 32)))).def_11353))
(assert (let ((.def_11356 (= t6_pc (_ bv0 32)))).def_11356))
(assert (let ((.def_11359 (= t7_pc (_ bv0 32)))).def_11359))
(assert (let ((.def_11362 (= t8_pc (_ bv0 32)))).def_11362))
(assert (let ((.def_11364 (= m_pc (_ bv1 32)))).def_11364))
(assert (let ((.def_11366 (= t1_pc (_ bv1 32)))).def_11366))
(assert (let ((.def_11368 (= t2_pc (_ bv1 32)))).def_11368))
(assert (let ((.def_11370 (= t3_pc (_ bv1 32)))).def_11370))
(assert (let ((.def_11372 (= t4_pc (_ bv1 32)))).def_11372))
(assert (let ((.def_11374 (= t5_pc (_ bv1 32)))).def_11374))
(assert (let ((.def_11376 (= t6_pc (_ bv1 32)))).def_11376))
(assert (let ((.def_11378 (= t7_pc (_ bv1 32)))).def_11378))
(assert (let ((.def_11380 (= t8_pc (_ bv1 32)))).def_11380))

