(set-info :source |printed by MathSAT|)
(declare-fun a20 () (_ BitVec 32))
(declare-fun a25 () (_ BitVec 32))
(declare-fun a12 () (_ BitVec 32))
(declare-fun a15 () (_ BitVec 32))
(declare-fun a16 () (_ BitVec 32))
(declare-fun a2 () (_ BitVec 32))
(declare-fun a27 () (_ BitVec 32))
(declare-fun a9 () (_ BitVec 32))
(declare-fun |calculate_output2::input| () (_ BitVec 32))
(declare-fun |calculate_output8::input| () (_ BitVec 32))

*:
(assert (let ((.def_105782 (= a20 (_ bv5 32)))).def_105782))

calculate_output8 N29569:
(assert false)
(assert (let ((.def_105782 (= a20 (_ bv5 32)))).def_105782))

main1 N30136:
(assert (let ((.def_105782 (= a20 (_ bv5 32)))).def_105782))
(assert (let ((.def_152414 (= a25 (_ bv1 32)))).def_152414))
(assert (let ((.def_152417 (= a12 (_ bv4 32)))).def_152417))
(assert (let ((.def_152420 (= a15 (_ bv1 32)))).def_152420))
(assert (let ((.def_152423 (= a16 (_ bv1 32)))).def_152423))
(assert (let ((.def_152426 (= a2 (_ bv10 32)))).def_152426))
(assert (let ((.def_152429 (= a27 (_ bv1 32)))).def_152429))
(assert (let ((.def_152432 (= a9 (_ bv18 32)))).def_152432))
(assert (let ((.def_317488 (= a20 (_ bv6 32)))).def_317488))
(assert (let ((.def_317490 (= a2 (_ bv13 32)))).def_317490))
(assert (let ((.def_317492 (= a12 (_ bv3 32)))).def_317492))
(assert (let ((.def_317494 (= a12 (_ bv2 32)))).def_317494))
(assert (let ((.def_317496 (= a9 (_ bv16 32)))).def_317496))
(assert (let ((.def_317498 (= a9 (_ bv17 32)))).def_317498))
(assert (let ((.def_1183128 (= a20 (_ bv7 32)))).def_1183128))
(assert (let ((.def_1183130 (= a2 (_ bv9 32)))).def_1183130))
(assert (let ((.def_1183132 (= a12 (_ bv6 32)))).def_1183132))
(assert (let ((.def_1183134 (= a2 (_ bv11 32)))).def_1183134))
(assert (let ((.def_1183136 (= a2 (_ bv12 32)))).def_1183136))
(assert (let ((.def_1183138 (= a12 (_ bv5 32)))).def_1183138))
(assert (let ((.def_1183141 (= |calculate_output2::input| (_ bv6 32)))).def_1183141))
(assert (let ((.def_1183143 (= |calculate_output2::input| (_ bv2 32)))).def_1183143))
(assert (let ((.def_1183145 (= |calculate_output2::input| (_ bv3 32)))).def_1183145))
(assert (let ((.def_1183148 (= |calculate_output8::input| (_ bv5 32)))).def_1183148))

