(set-info :source |printed by MathSAT|)
(declare-fun a20 () (_ BitVec 32))
(declare-fun a25 () (_ BitVec 32))
(declare-fun a12 () (_ BitVec 32))
(declare-fun a15 () (_ BitVec 32))
(declare-fun a16 () (_ BitVec 32))
(declare-fun a2 () (_ BitVec 32))
(declare-fun a27 () (_ BitVec 32))
(declare-fun a9 () (_ BitVec 32))
(declare-fun m_pc () (_ BitVec 32))
(declare-fun t1_pc () (_ BitVec 32))
(declare-fun t2_pc () (_ BitVec 32))
(declare-fun m_st () (_ BitVec 32))
(declare-fun E_2 () (_ BitVec 32))
(declare-fun E_M () (_ BitVec 32))
(declare-fun t1_st () (_ BitVec 32))
(declare-fun t2_st () (_ BitVec 32))
(declare-fun local () (_ BitVec 32))
(declare-fun token () (_ BitVec 32))
(declare-fun E_1 () (_ BitVec 32))

*:
(assert (let ((.def_107216 (= a20 (_ bv5 32)))).def_107216))

calculate_output8 N29965:
(assert false)
(assert (let ((.def_107216 (= a20 (_ bv5 32)))).def_107216))

main1 N30136:
(assert (let ((.def_107216 (= a20 (_ bv5 32)))).def_107216))
(assert (let ((.def_154602 (= a25 (_ bv1 32)))).def_154602))
(assert (let ((.def_154605 (= a12 (_ bv4 32)))).def_154605))
(assert (let ((.def_154608 (= a15 (_ bv1 32)))).def_154608))
(assert (let ((.def_154611 (= a16 (_ bv1 32)))).def_154611))
(assert (let ((.def_154614 (= a2 (_ bv10 32)))).def_154614))
(assert (let ((.def_154617 (= a27 (_ bv1 32)))).def_154617))
(assert (let ((.def_154620 (= a9 (_ bv18 32)))).def_154620))
(assert (let ((.def_320567 (= a9 (_ bv17 32)))).def_320567))
(assert (let ((.def_320569 (= a2 (_ bv12 32)))).def_320569))
(assert (let ((.def_320571 (= a2 (_ bv11 32)))).def_320571))
(assert (let ((.def_320573 (= a2 (_ bv9 32)))).def_320573))
(assert (let ((.def_320575 (= a12 (_ bv3 32)))).def_320575))
(assert (let ((.def_320577 (= a20 (_ bv6 32)))).def_320577))
(assert (let ((.def_320579 (= a2 (_ bv13 32)))).def_320579))
(assert (let ((.def_320581 (= a9 (_ bv16 32)))).def_320581))
(assert (let ((.def_1078589 (= a12 (_ bv6 32)))).def_1078589))
(assert (let ((.def_1078591 (= a12 (_ bv2 32)))).def_1078591))
(assert (let ((.def_1078593 (= a20 (_ bv7 32)))).def_1078593))
(assert (let ((.def_1078595 (= a12 (_ bv5 32)))).def_1078595))

error N30154:
(assert false)
(assert (let ((.def_107216 (= a20 (_ bv5 32)))).def_107216))

eval N30342:
(assert (let ((.def_1219474 (= m_pc (_ bv0 32)))).def_1219474))
(assert (let ((.def_107216 (= a20 (_ bv5 32)))).def_107216))
(assert (let ((.def_1220482 (= t1_pc (_ bv0 32)))).def_1220482))
(assert (let ((.def_1220485 (= t2_pc (_ bv0 32)))).def_1220485))
(assert (let ((.def_1220487 (= m_pc (_ bv1 32)))).def_1220487))
(assert (let ((.def_1220489 (= t1_pc (_ bv1 32)))).def_1220489))
(assert (let ((.def_1220491 (= t2_pc (_ bv1 32)))).def_1220491))
(assert (let ((.def_1220494 (= m_st (_ bv0 32)))).def_1220494))
(assert (let ((.def_1221785 (= E_2 (_ bv1 32)))).def_1221785))
(assert (let ((.def_1221788 (= E_M (_ bv1 32)))).def_1221788))
(assert (let ((.def_1221791 (= t1_st (_ bv0 32)))).def_1221791))
(assert (let ((.def_1221793 (= m_st (_ bv2 32)))).def_1221793))
(assert (let ((.def_1221796 (= t2_st (_ bv0 32)))).def_1221796))
(assert (let ((.def_1221799 (bvadd (_ bv2 32) local)))(let ((.def_1221801 (= .def_1221799 token))).def_1221801)))
(assert (let ((.def_1224536 (= E_1 (_ bv1 32)))).def_1224536))
(assert (let ((.def_1224538 (= local token))).def_1224538))
(assert (let ((.def_1224540 (bvadd (_ bv1 32) local)))(let ((.def_1224541 (= token .def_1224540))).def_1224541)))
(assert (let ((.def_1226887 (= E_M (_ bv0 32)))).def_1226887))
(assert (let ((.def_1226889 (= E_2 (_ bv0 32)))).def_1226889))
(assert (let ((.def_1226891 (= E_1 (_ bv0 32)))).def_1226891))

start_simulation N30533:
(assert (let ((.def_1219474 (= m_pc (_ bv0 32)))).def_1219474))
(assert (let ((.def_107216 (= a20 (_ bv5 32)))).def_107216))
(assert (let ((.def_1220482 (= t1_pc (_ bv0 32)))).def_1220482))
(assert (let ((.def_1220485 (= t2_pc (_ bv0 32)))).def_1220485))
(assert (let ((.def_1220487 (= m_pc (_ bv1 32)))).def_1220487))
(assert (let ((.def_1220489 (= t1_pc (_ bv1 32)))).def_1220489))
(assert (let ((.def_1220491 (= t2_pc (_ bv1 32)))).def_1220491))
(assert (let ((.def_1221785 (= E_2 (_ bv1 32)))).def_1221785))
(assert (let ((.def_1221788 (= E_M (_ bv1 32)))).def_1221788))
(assert (let ((.def_1220494 (= m_st (_ bv0 32)))).def_1220494))
(assert (let ((.def_1221796 (= t2_st (_ bv0 32)))).def_1221796))
(assert (let ((.def_1221791 (= t1_st (_ bv0 32)))).def_1221791))
(assert (let ((.def_1224536 (= E_1 (_ bv1 32)))).def_1224536))
(assert (let ((.def_1226887 (= E_M (_ bv0 32)))).def_1226887))
(assert (let ((.def_1226889 (= E_2 (_ bv0 32)))).def_1226889))

