(set-info :source |printed by MathSAT|)
(declare-fun a20 () (_ BitVec 32))
(declare-fun a25 () (_ BitVec 32))
(declare-fun a12 () (_ BitVec 32))
(declare-fun a15 () (_ BitVec 32))
(declare-fun a16 () (_ BitVec 32))
(declare-fun a2 () (_ BitVec 32))
(declare-fun a27 () (_ BitVec 32))
(declare-fun a9 () (_ BitVec 32))
(declare-fun |calculate_output3::input| () (_ BitVec 32))
(declare-fun |calculate_output4::input| () (_ BitVec 32))
(declare-fun |calculate_output5::input| () (_ BitVec 32))
(declare-fun |calculate_output6::input| () (_ BitVec 32))
(declare-fun |calculate_output7::input| () (_ BitVec 32))

*:
(assert (let ((.def_105692 (= a20 (_ bv5 32)))).def_105692))

calculate_output8 N29569:
(assert false)
(assert (let ((.def_105692 (= a20 (_ bv5 32)))).def_105692))

main1 N30136:
(assert (let ((.def_105692 (= a20 (_ bv5 32)))).def_105692))
(assert (let ((.def_152294 (= a25 (_ bv1 32)))).def_152294))
(assert (let ((.def_152297 (= a12 (_ bv4 32)))).def_152297))
(assert (let ((.def_152300 (= a15 (_ bv1 32)))).def_152300))
(assert (let ((.def_152303 (= a16 (_ bv1 32)))).def_152303))
(assert (let ((.def_152306 (= a2 (_ bv10 32)))).def_152306))
(assert (let ((.def_152309 (= a27 (_ bv1 32)))).def_152309))
(assert (let ((.def_152312 (= a9 (_ bv18 32)))).def_152312))
(assert (let ((.def_317368 (= a20 (_ bv6 32)))).def_317368))
(assert (let ((.def_317370 (= a2 (_ bv13 32)))).def_317370))
(assert (let ((.def_317372 (= a12 (_ bv3 32)))).def_317372))
(assert (let ((.def_317374 (= a12 (_ bv2 32)))).def_317374))
(assert (let ((.def_317376 (= a9 (_ bv16 32)))).def_317376))
(assert (let ((.def_317378 (= a9 (_ bv17 32)))).def_317378))
(assert (let ((.def_1034693 (= a20 (_ bv7 32)))).def_1034693))
(assert (let ((.def_1034695 (= a12 (_ bv5 32)))).def_1034695))
(assert (let ((.def_1034697 (= a12 (_ bv6 32)))).def_1034697))
(assert (let ((.def_1034699 (= a2 (_ bv11 32)))).def_1034699))
(assert (let ((.def_1034701 (= a2 (_ bv12 32)))).def_1034701))
(assert (let ((.def_1034703 (= a2 (_ bv9 32)))).def_1034703))
(assert (let ((.def_1034706 (= |calculate_output3::input| (_ bv6 32)))).def_1034706))
(assert (let ((.def_1034708 (= |calculate_output3::input| (_ bv4 32)))).def_1034708))
(assert (let ((.def_1034710 (= |calculate_output3::input| (_ bv1 32)))).def_1034710))
(assert (let ((.def_1034713 (= |calculate_output3::input| |calculate_output4::input|))).def_1034713))
(assert (let ((.def_1034715 (= |calculate_output4::input| (_ bv4 32)))).def_1034715))
(assert (let ((.def_1034718 (= |calculate_output4::input| |calculate_output5::input|))).def_1034718))
(assert (let ((.def_1034721 (= |calculate_output5::input| |calculate_output6::input|))).def_1034721))
(assert (let ((.def_1034724 (= |calculate_output6::input| |calculate_output7::input|))).def_1034724))
(assert (let ((.def_1034726 (= |calculate_output7::input| (_ bv6 32)))).def_1034726))
(assert (let ((.def_1034728 (= |calculate_output4::input| (_ bv6 32)))).def_1034728))

