(set-info :source |printed by MathSAT|)
(declare-fun a20 () (_ BitVec 32))
(declare-fun a25 () (_ BitVec 32))
(declare-fun a12 () (_ BitVec 32))
(declare-fun a15 () (_ BitVec 32))
(declare-fun a16 () (_ BitVec 32))
(declare-fun a2 () (_ BitVec 32))
(declare-fun a27 () (_ BitVec 32))
(declare-fun a9 () (_ BitVec 32))
(declare-fun m_pc () (_ BitVec 32))
(declare-fun t1_pc () (_ BitVec 32))
(declare-fun t2_pc () (_ BitVec 32))
(declare-fun t3_pc () (_ BitVec 32))
(declare-fun t4_pc () (_ BitVec 32))
(declare-fun t5_pc () (_ BitVec 32))
(declare-fun m_st () (_ BitVec 32))
(declare-fun E_3 () (_ BitVec 32))
(declare-fun E_2 () (_ BitVec 32))
(declare-fun E_5 () (_ BitVec 32))
(declare-fun E_M () (_ BitVec 32))
(declare-fun E_4 () (_ BitVec 32))
(declare-fun t1_st () (_ BitVec 32))
(declare-fun t2_st () (_ BitVec 32))
(declare-fun t4_st () (_ BitVec 32))
(declare-fun t3_st () (_ BitVec 32))
(declare-fun t5_st () (_ BitVec 32))
(declare-fun local () (_ BitVec 32))
(declare-fun token () (_ BitVec 32))
(declare-fun E_1 () (_ BitVec 32))
(declare-fun T5_E () (_ BitVec 32))
(declare-fun T4_E () (_ BitVec 32))
(declare-fun T3_E () (_ BitVec 32))
(declare-fun T2_E () (_ BitVec 32))
(declare-fun T1_E () (_ BitVec 32))
(declare-fun M_E () (_ BitVec 32))

*:
(assert (let ((.def_107261 (= a20 (_ bv5 32)))).def_107261))

calculate_output8 N29965:
(assert false)
(assert (let ((.def_107261 (= a20 (_ bv5 32)))).def_107261))

main1 N30136:
(assert (let ((.def_107261 (= a20 (_ bv5 32)))).def_107261))
(assert (let ((.def_154662 (= a25 (_ bv1 32)))).def_154662))
(assert (let ((.def_154665 (= a12 (_ bv4 32)))).def_154665))
(assert (let ((.def_154668 (= a15 (_ bv1 32)))).def_154668))
(assert (let ((.def_154671 (= a16 (_ bv1 32)))).def_154671))
(assert (let ((.def_154674 (= a2 (_ bv10 32)))).def_154674))
(assert (let ((.def_154677 (= a27 (_ bv1 32)))).def_154677))
(assert (let ((.def_154680 (= a9 (_ bv18 32)))).def_154680))
(assert (let ((.def_320627 (= a9 (_ bv17 32)))).def_320627))
(assert (let ((.def_320629 (= a2 (_ bv12 32)))).def_320629))
(assert (let ((.def_320631 (= a2 (_ bv11 32)))).def_320631))
(assert (let ((.def_320633 (= a2 (_ bv9 32)))).def_320633))
(assert (let ((.def_320635 (= a12 (_ bv3 32)))).def_320635))
(assert (let ((.def_320637 (= a20 (_ bv6 32)))).def_320637))
(assert (let ((.def_320639 (= a2 (_ bv13 32)))).def_320639))
(assert (let ((.def_320641 (= a9 (_ bv16 32)))).def_320641))
(assert (let ((.def_1060039 (= a12 (_ bv2 32)))).def_1060039))
(assert (let ((.def_1060041 (= a12 (_ bv5 32)))).def_1060041))
(assert (let ((.def_1060043 (= a20 (_ bv7 32)))).def_1060043))
(assert (let ((.def_1060045 (= a12 (_ bv6 32)))).def_1060045))

error N30154:
(assert false)
(assert (let ((.def_107261 (= a20 (_ bv5 32)))).def_107261))

eval N30504:
(assert (let ((.def_1201286 (= m_pc (_ bv0 32)))).def_1201286))
(assert (let ((.def_107261 (= a20 (_ bv5 32)))).def_107261))
(assert (let ((.def_1204421 (= t1_pc (_ bv0 32)))).def_1204421))
(assert (let ((.def_1204424 (= t2_pc (_ bv0 32)))).def_1204424))
(assert (let ((.def_1204427 (= t3_pc (_ bv0 32)))).def_1204427))
(assert (let ((.def_1204430 (= t4_pc (_ bv0 32)))).def_1204430))
(assert (let ((.def_1204433 (= t5_pc (_ bv0 32)))).def_1204433))
(assert (let ((.def_1204435 (= m_pc (_ bv1 32)))).def_1204435))
(assert (let ((.def_1204437 (= t1_pc (_ bv1 32)))).def_1204437))
(assert (let ((.def_1204439 (= t2_pc (_ bv1 32)))).def_1204439))
(assert (let ((.def_1204441 (= t3_pc (_ bv1 32)))).def_1204441))
(assert (let ((.def_1204443 (= t4_pc (_ bv1 32)))).def_1204443))
(assert (let ((.def_1204445 (= t5_pc (_ bv1 32)))).def_1204445))
(assert (let ((.def_1204448 (= m_st (_ bv0 32)))).def_1204448))
(assert (let ((.def_1209114 (= E_3 (_ bv1 32)))).def_1209114))
(assert (let ((.def_1209117 (= E_2 (_ bv1 32)))).def_1209117))
(assert (let ((.def_1209120 (= E_5 (_ bv1 32)))).def_1209120))
(assert (let ((.def_1209123 (= E_M (_ bv1 32)))).def_1209123))
(assert (let ((.def_1209126 (= E_4 (_ bv1 32)))).def_1209126))
(assert (let ((.def_1209129 (= t1_st (_ bv0 32)))).def_1209129))
(assert (let ((.def_1209132 (= t2_st (_ bv0 32)))).def_1209132))
(assert (let ((.def_1209135 (= t4_st (_ bv0 32)))).def_1209135))
(assert (let ((.def_1209138 (= t3_st (_ bv0 32)))).def_1209138))
(assert (let ((.def_1209141 (= t5_st (_ bv0 32)))).def_1209141))
(assert (let ((.def_1209144 (bvadd (_ bv5 32) local)))(let ((.def_1209146 (= .def_1209144 token))).def_1209146)))
(assert (let ((.def_1222377 (= E_3 (_ bv2 32)))).def_1222377))
(assert (let ((.def_1222379 (= t4_st (_ bv2 32)))).def_1222379))
(assert (let ((.def_1222382 (= E_1 (_ bv1 32)))).def_1222382))
(assert (let ((.def_1222384 (= t5_st (_ bv2 32)))).def_1222384))
(assert (let ((.def_1222386 (= m_st (_ bv2 32)))).def_1222386))
(assert (let ((.def_1222388 (= t3_st (_ bv2 32)))).def_1222388))
(assert (let ((.def_1222390 (bvadd (_ bv1 32) local)))(let ((.def_1222391 (= token .def_1222390))).def_1222391)))
(assert (let ((.def_1222393 (= local token))).def_1222393))
(assert (let ((.def_1222395 (bvadd (_ bv2 32) local)))(let ((.def_1222396 (= token .def_1222395))).def_1222396)))
(assert (let ((.def_1222398 (bvadd (_ bv3 32) local)))(let ((.def_1222399 (= token .def_1222398))).def_1222399)))
(assert (let ((.def_1222401 (bvadd (_ bv4 32) local)))(let ((.def_1222402 (= token .def_1222401))).def_1222402)))
(assert (let ((.def_1233508 (= E_M (_ bv0 32)))).def_1233508))
(assert (let ((.def_1233510 (= E_2 (_ bv0 32)))).def_1233510))
(assert (let ((.def_1233512 (= E_1 (_ bv0 32)))).def_1233512))
(assert (let ((.def_1244982 (= E_5 (_ bv0 32)))).def_1244982))
(assert (let ((.def_1244984 (= E_4 (_ bv0 32)))).def_1244984))
(assert (let ((.def_1244986 (= E_3 (_ bv0 32)))).def_1244986))
(assert (let ((.def_1244989 (= T5_E (_ bv0 32)))).def_1244989))
(assert (let ((.def_1244992 (= T4_E (_ bv0 32)))).def_1244992))
(assert (let ((.def_1244995 (= T3_E (_ bv0 32)))).def_1244995))
(assert (let ((.def_1244998 (= T2_E (_ bv0 32)))).def_1244998))
(assert (let ((.def_1245001 (= T1_E (_ bv0 32)))).def_1245001))
(assert (let ((.def_1245004 (= M_E (_ bv0 32)))).def_1245004))
(assert false)

start_simulation N30818:
(assert (let ((.def_1201286 (= m_pc (_ bv0 32)))).def_1201286))
(assert (let ((.def_107261 (= a20 (_ bv5 32)))).def_107261))
(assert (let ((.def_1204421 (= t1_pc (_ bv0 32)))).def_1204421))
(assert (let ((.def_1204424 (= t2_pc (_ bv0 32)))).def_1204424))
(assert (let ((.def_1204427 (= t3_pc (_ bv0 32)))).def_1204427))
(assert (let ((.def_1204430 (= t4_pc (_ bv0 32)))).def_1204430))
(assert (let ((.def_1204433 (= t5_pc (_ bv0 32)))).def_1204433))
(assert (let ((.def_1204435 (= m_pc (_ bv1 32)))).def_1204435))
(assert (let ((.def_1204437 (= t1_pc (_ bv1 32)))).def_1204437))
(assert (let ((.def_1204439 (= t2_pc (_ bv1 32)))).def_1204439))
(assert (let ((.def_1204441 (= t3_pc (_ bv1 32)))).def_1204441))
(assert (let ((.def_1204443 (= t4_pc (_ bv1 32)))).def_1204443))
(assert (let ((.def_1204445 (= t5_pc (_ bv1 32)))).def_1204445))
(assert (let ((.def_1209114 (= E_3 (_ bv1 32)))).def_1209114))
(assert (let ((.def_1209117 (= E_2 (_ bv1 32)))).def_1209117))
(assert (let ((.def_1209120 (= E_5 (_ bv1 32)))).def_1209120))
(assert (let ((.def_1209123 (= E_M (_ bv1 32)))).def_1209123))
(assert (let ((.def_1209126 (= E_4 (_ bv1 32)))).def_1209126))
(assert (let ((.def_1204448 (= m_st (_ bv0 32)))).def_1204448))
(assert (let ((.def_1209141 (= t5_st (_ bv0 32)))).def_1209141))
(assert (let ((.def_1209138 (= t3_st (_ bv0 32)))).def_1209138))
(assert (let ((.def_1209132 (= t2_st (_ bv0 32)))).def_1209132))
(assert (let ((.def_1209129 (= t1_st (_ bv0 32)))).def_1209129))
(assert (let ((.def_1222377 (= E_3 (_ bv2 32)))).def_1222377))
(assert (let ((.def_1222379 (= t4_st (_ bv2 32)))).def_1222379))
(assert (let ((.def_1209135 (= t4_st (_ bv0 32)))).def_1209135))
(assert (let ((.def_1222382 (= E_1 (_ bv1 32)))).def_1222382))
(assert (let ((.def_1233508 (= E_M (_ bv0 32)))).def_1233508))
(assert (let ((.def_1233510 (= E_2 (_ bv0 32)))).def_1233510))
(assert (let ((.def_1244982 (= E_5 (_ bv0 32)))).def_1244982))
(assert (let ((.def_1244984 (= E_4 (_ bv0 32)))).def_1244984))
(assert (let ((.def_1244986 (= E_3 (_ bv0 32)))).def_1244986))
(assert (let ((.def_1244989 (= T5_E (_ bv0 32)))).def_1244989))
(assert (let ((.def_1244992 (= T4_E (_ bv0 32)))).def_1244992))
(assert (let ((.def_1244995 (= T3_E (_ bv0 32)))).def_1244995))
(assert (let ((.def_1244998 (= T2_E (_ bv0 32)))).def_1244998))
(assert (let ((.def_1245001 (= T1_E (_ bv0 32)))).def_1245001))
(assert (let ((.def_1245004 (= M_E (_ bv0 32)))).def_1245004))

