(set-info :source |printed by MathSAT|)
(declare-fun a20 () (_ BitVec 32))
(declare-fun a25 () (_ BitVec 32))
(declare-fun a12 () (_ BitVec 32))
(declare-fun a15 () (_ BitVec 32))
(declare-fun a16 () (_ BitVec 32))
(declare-fun a2 () (_ BitVec 32))
(declare-fun a27 () (_ BitVec 32))
(declare-fun a9 () (_ BitVec 32))
(declare-fun m_pc () (_ BitVec 32))
(declare-fun t1_pc () (_ BitVec 32))
(declare-fun t2_pc () (_ BitVec 32))
(declare-fun t3_pc () (_ BitVec 32))
(declare-fun t4_pc () (_ BitVec 32))
(declare-fun t5_pc () (_ BitVec 32))
(declare-fun t6_pc () (_ BitVec 32))
(declare-fun t7_pc () (_ BitVec 32))
(declare-fun t8_pc () (_ BitVec 32))
(declare-fun t9_pc () (_ BitVec 32))
(declare-fun t10_pc () (_ BitVec 32))
(declare-fun t11_pc () (_ BitVec 32))
(declare-fun m_st () (_ BitVec 32))

*:
(assert (let ((.def_107703 (= a20 (_ bv5 32)))).def_107703))

calculate_output8 N30053:
(assert false)
(assert (let ((.def_107703 (= a20 (_ bv5 32)))).def_107703))

main1 N30136:
(assert (let ((.def_107703 (= a20 (_ bv5 32)))).def_107703))
(assert (let ((.def_155305 (= a25 (_ bv1 32)))).def_155305))
(assert (let ((.def_155308 (= a12 (_ bv4 32)))).def_155308))
(assert (let ((.def_155311 (= a15 (_ bv1 32)))).def_155311))
(assert (let ((.def_155314 (= a16 (_ bv1 32)))).def_155314))
(assert (let ((.def_155317 (= a2 (_ bv10 32)))).def_155317))
(assert (let ((.def_155320 (= a27 (_ bv1 32)))).def_155320))
(assert (let ((.def_155323 (= a9 (_ bv18 32)))).def_155323))
(assert (let ((.def_321488 (= a20 (_ bv6 32)))).def_321488))
(assert (let ((.def_321490 (= a12 (_ bv3 32)))).def_321490))
(assert (let ((.def_321492 (= a12 (_ bv6 32)))).def_321492))
(assert (let ((.def_321494 (= a2 (_ bv9 32)))).def_321494))
(assert (let ((.def_321496 (= a9 (_ bv16 32)))).def_321496))
(assert (let ((.def_321498 (= a2 (_ bv12 32)))).def_321498))
(assert (let ((.def_321500 (= a2 (_ bv11 32)))).def_321500))
(assert (let ((.def_321502 (= a9 (_ bv17 32)))).def_321502))
(assert (let ((.def_321504 (= a12 (_ bv2 32)))).def_321504))
(assert (let ((.def_321506 (= a2 (_ bv13 32)))).def_321506))

error N30154:
(assert false)
(assert (let ((.def_107703 (= a20 (_ bv5 32)))).def_107703))

eval N30841:
(assert (let ((.def_747681 (= m_pc (_ bv0 32)))).def_747681))
(assert (let ((.def_107703 (= a20 (_ bv5 32)))).def_107703))
(assert (let ((.def_758545 (= t1_pc (_ bv0 32)))).def_758545))
(assert (let ((.def_758548 (= t2_pc (_ bv0 32)))).def_758548))
(assert (let ((.def_758551 (= t3_pc (_ bv0 32)))).def_758551))
(assert (let ((.def_758554 (= t4_pc (_ bv0 32)))).def_758554))
(assert (let ((.def_758557 (= t5_pc (_ bv0 32)))).def_758557))
(assert (let ((.def_758560 (= t6_pc (_ bv0 32)))).def_758560))
(assert (let ((.def_758563 (= t7_pc (_ bv0 32)))).def_758563))
(assert (let ((.def_758566 (= t8_pc (_ bv0 32)))).def_758566))
(assert (let ((.def_758569 (= t9_pc (_ bv0 32)))).def_758569))
(assert (let ((.def_758572 (= t10_pc (_ bv0 32)))).def_758572))
(assert (let ((.def_758575 (= t11_pc (_ bv0 32)))).def_758575))
(assert (let ((.def_758577 (= m_pc (_ bv1 32)))).def_758577))
(assert (let ((.def_758579 (= t1_pc (_ bv1 32)))).def_758579))
(assert (let ((.def_758581 (= t2_pc (_ bv1 32)))).def_758581))
(assert (let ((.def_758583 (= t3_pc (_ bv1 32)))).def_758583))
(assert (let ((.def_758585 (= t4_pc (_ bv1 32)))).def_758585))
(assert (let ((.def_758587 (= t5_pc (_ bv1 32)))).def_758587))
(assert (let ((.def_758589 (= t6_pc (_ bv1 32)))).def_758589))
(assert (let ((.def_758591 (= t7_pc (_ bv1 32)))).def_758591))
(assert (let ((.def_758593 (= t8_pc (_ bv1 32)))).def_758593))
(assert (let ((.def_758595 (= t9_pc (_ bv1 32)))).def_758595))
(assert (let ((.def_758597 (= t10_pc (_ bv1 32)))).def_758597))
(assert (let ((.def_758599 (= t11_pc (_ bv1 32)))).def_758599))
(assert (let ((.def_758602 (= m_st (_ bv0 32)))).def_758602))

start_simulation N31401:
(assert (let ((.def_747681 (= m_pc (_ bv0 32)))).def_747681))
(assert (let ((.def_107703 (= a20 (_ bv5 32)))).def_107703))
(assert (let ((.def_758545 (= t1_pc (_ bv0 32)))).def_758545))
(assert (let ((.def_758548 (= t2_pc (_ bv0 32)))).def_758548))
(assert (let ((.def_758551 (= t3_pc (_ bv0 32)))).def_758551))
(assert (let ((.def_758554 (= t4_pc (_ bv0 32)))).def_758554))
(assert (let ((.def_758557 (= t5_pc (_ bv0 32)))).def_758557))
(assert (let ((.def_758560 (= t6_pc (_ bv0 32)))).def_758560))
(assert (let ((.def_758563 (= t7_pc (_ bv0 32)))).def_758563))
(assert (let ((.def_758566 (= t8_pc (_ bv0 32)))).def_758566))
(assert (let ((.def_758569 (= t9_pc (_ bv0 32)))).def_758569))
(assert (let ((.def_758572 (= t10_pc (_ bv0 32)))).def_758572))
(assert (let ((.def_758575 (= t11_pc (_ bv0 32)))).def_758575))
(assert (let ((.def_758577 (= m_pc (_ bv1 32)))).def_758577))
(assert (let ((.def_758579 (= t1_pc (_ bv1 32)))).def_758579))
(assert (let ((.def_758581 (= t2_pc (_ bv1 32)))).def_758581))
(assert (let ((.def_758583 (= t3_pc (_ bv1 32)))).def_758583))
(assert (let ((.def_758585 (= t4_pc (_ bv1 32)))).def_758585))
(assert (let ((.def_758587 (= t5_pc (_ bv1 32)))).def_758587))
(assert (let ((.def_758589 (= t6_pc (_ bv1 32)))).def_758589))
(assert (let ((.def_758591 (= t7_pc (_ bv1 32)))).def_758591))
(assert (let ((.def_758593 (= t8_pc (_ bv1 32)))).def_758593))
(assert (let ((.def_758595 (= t9_pc (_ bv1 32)))).def_758595))
(assert (let ((.def_758597 (= t10_pc (_ bv1 32)))).def_758597))
(assert (let ((.def_758599 (= t11_pc (_ bv1 32)))).def_758599))

