(set-info :source |printed by MathSAT|)
(declare-fun |assert::arg| () (_ BitVec 8))
(declare-fun st1 () (_ BitVec 8))
(declare-fun st2 () (_ BitVec 8))
(declare-fun st3 () (_ BitVec 8))
(declare-fun r1 () (_ BitVec 8))
(declare-fun mode1 () (_ BitVec 8))
(declare-fun mode2 () (_ BitVec 8))
(declare-fun mode3 () (_ BitVec 8))
(declare-fun send3 () (_ BitVec 8))
(declare-fun id1 () (_ BitVec 8))
(declare-fun id2 () (_ BitVec 8))
(declare-fun send1 () (_ BitVec 8))
(declare-fun id3 () (_ BitVec 8))
(declare-fun send2 () (_ BitVec 8))
(declare-fun nomsg () (_ BitVec 8))
(declare-fun p3_new () (_ BitVec 8))
(declare-fun p1_new () (_ BitVec 8))
(declare-fun p2_new () (_ BitVec 8))
(declare-fun p3_old () (_ BitVec 8))
(declare-fun p1_old () (_ BitVec 8))
(declare-fun p2_old () (_ BitVec 8))
(declare-fun |node3::__CPAchecker_TMP_0| () (_ BitVec 32))
(declare-fun |node2::__CPAchecker_TMP_0| () (_ BitVec 32))
(declare-fun |node1::__CPAchecker_TMP_0| () (_ BitVec 32))
(declare-fun a7 () (_ BitVec 32))
(declare-fun a5 () (_ BitVec 32))
(declare-fun a17 () (_ BitVec 32))
(declare-fun a24 () (_ BitVec 32))
(declare-fun a2 () (_ BitVec 32))
(declare-fun |calculate_output4::input| () (_ BitVec 32))
(declare-fun |calculate_output3::input| () (_ BitVec 32))

assert:
(assert (let ((.def_1375 (= |assert::arg| (_ bv0 8)))).def_1375))

main1 N213:
(assert (let ((.def_1545 (= st1 (_ bv0 8)))).def_1545))
(assert (let ((.def_1548 (= st2 (_ bv0 8)))).def_1548))
(assert (let ((.def_1551 (= st3 (_ bv0 8)))).def_1551))
(assert (let ((.def_1554 (= r1 (_ bv0 8)))).def_1554))
(assert (let ((.def_1557 (= mode1 (_ bv0 8)))).def_1557))
(assert (let ((.def_1560 (= mode2 (_ bv0 8)))).def_1560))
(assert (let ((.def_1563 (= mode3 (_ bv0 8)))).def_1563))
(assert (let ((.def_2465 (= st1 st3))).def_2465))
(assert (let ((.def_2467 (= st2 st3))).def_2467))
(assert (let ((.def_2472 ((_ sign_extend 24) id1)))(let ((.def_2470 ((_ sign_extend 24) send3)))(let ((.def_2473 (= .def_2470 .def_2472))).def_2473))))
(assert (let ((.def_2477 (= id2 send1))).def_2477))
(assert (let ((.def_2480 ((_ sign_extend 24) send1)))(let ((.def_2479 ((_ sign_extend 24) id2)))(let ((.def_2481 (= .def_2479 .def_2480))).def_2481))))
(assert (let ((.def_2486 ((_ sign_extend 24) send2)))(let ((.def_2484 ((_ sign_extend 24) id3)))(let ((.def_2487 (= .def_2484 .def_2486))).def_2487))))
(assert (let ((.def_2490 ((_ sign_extend 24) nomsg)))(let ((.def_2486 ((_ sign_extend 24) send2)))(let ((.def_2491 (= .def_2486 .def_2490))).def_2491))))
(assert (let ((.def_2494 (= nomsg p3_new))).def_2494))
(assert (let ((.def_2497 (= nomsg p1_new))).def_2497))
(assert (let ((.def_2500 (= nomsg p2_new))).def_2500))
(assert (let ((.def_2505 ((_ sign_extend 24) st1)))(let ((.def_2504 ((_ sign_extend 24) st2)))(let ((.def_2507 (bvadd .def_2504 .def_2505)))(let ((.def_2502 ((_ sign_extend 24) st3)))(let ((.def_2503 (bvneg .def_2502)))(let ((.def_2508 (= .def_2503 .def_2507))).def_2508)))))))
(assert (let ((.def_2511 ((_ sign_extend 24) p3_old)))(let ((.def_2472 ((_ sign_extend 24) id1)))(let ((.def_2512 (= .def_2472 .def_2511))).def_2512))))
(assert (let ((.def_2515 ((_ sign_extend 24) p1_old)))(let ((.def_2479 ((_ sign_extend 24) id2)))(let ((.def_2516 (= .def_2479 .def_2515))).def_2516))))
(assert (let ((.def_2519 ((_ sign_extend 24) p2_old)))(let ((.def_2484 ((_ sign_extend 24) id3)))(let ((.def_2520 (= .def_2484 .def_2519))).def_2520))))
(assert (let ((.def_4204 (= st1 (_ bv1 8)))).def_4204))
(assert (let ((.def_2505 ((_ sign_extend 24) st1)))(let ((.def_2504 ((_ sign_extend 24) st2)))(let ((.def_4206 (= .def_2504 .def_2505))).def_4206))))
(assert (let ((.def_4208 (= st2 (_ bv1 8)))).def_4208))
(assert (let ((.def_4210 ((_ zero_extend 24) r1)))(let ((.def_4211 (bvslt .def_4210 (_ bv3 32)))).def_4211)))
(assert (let ((.def_2505 ((_ sign_extend 24) st1)))(let ((.def_2504 ((_ sign_extend 24) st2)))(let ((.def_2507 (bvadd .def_2504 .def_2505)))(let ((.def_2502 ((_ sign_extend 24) st3)))(let ((.def_4214 (bvadd .def_2502 .def_2507)))(let ((.def_4215 (= .def_4214 (_ bv1 32)))).def_4215)))))))
(assert (let ((.def_2486 ((_ sign_extend 24) send2)))(let ((.def_2484 ((_ sign_extend 24) id3)))(let ((.def_6756 (bvslt .def_2484 .def_2486))).def_6756))))
(assert (let ((.def_2470 ((_ sign_extend 24) send3)))(let ((.def_2472 ((_ sign_extend 24) id1)))(let ((.def_6758 (bvslt .def_2472 .def_2470))).def_6758))))
(assert (let ((.def_2484 ((_ sign_extend 24) id3)))(let ((.def_2480 ((_ sign_extend 24) send1)))(let ((.def_6760 (= .def_2480 .def_2484))).def_6760))))
(assert (let ((.def_2480 ((_ sign_extend 24) send1)))(let ((.def_2479 ((_ sign_extend 24) id2)))(let ((.def_6762 (bvslt .def_2479 .def_2480))).def_6762))))
(assert (let ((.def_6764 (= id3 send2))).def_6764))
(assert (let ((.def_2472 ((_ sign_extend 24) id1)))(let ((.def_6766 ((_ extract 31 31) .def_2472)))(let ((.def_6767 (= .def_6766 (_ bv1 1)))).def_6767))))
(assert (let ((.def_2479 ((_ sign_extend 24) id2)))(let ((.def_6769 ((_ extract 31 31) .def_2479)))(let ((.def_6770 (= .def_6769 (_ bv1 1)))).def_6770))))
(assert (let ((.def_2486 ((_ sign_extend 24) send2)))(let ((.def_2479 ((_ sign_extend 24) id2)))(let ((.def_6772 (= .def_2479 .def_2486))).def_6772))))
(assert (let ((.def_2490 ((_ sign_extend 24) nomsg)))(let ((.def_2470 ((_ sign_extend 24) send3)))(let ((.def_6774 (= .def_2470 .def_2490))).def_6774))))
(assert (let ((.def_2484 ((_ sign_extend 24) id3)))(let ((.def_2470 ((_ sign_extend 24) send3)))(let ((.def_6776 (= .def_2470 .def_2484))).def_6776))))
(assert (let ((.def_2486 ((_ sign_extend 24) send2)))(let ((.def_2472 ((_ sign_extend 24) id1)))(let ((.def_6778 (= .def_2472 .def_2486))).def_6778))))
(assert (let ((.def_2484 ((_ sign_extend 24) id3)))(let ((.def_6780 ((_ extract 31 31) .def_2484)))(let ((.def_6781 (= .def_6780 (_ bv1 1)))).def_6781))))
(assert (let ((.def_2484 ((_ sign_extend 24) id3)))(let ((.def_2479 ((_ sign_extend 24) id2)))(let ((.def_6783 (= .def_2479 .def_2484))).def_6783))))
(assert (let ((.def_2480 ((_ sign_extend 24) send1)))(let ((.def_2472 ((_ sign_extend 24) id1)))(let ((.def_6785 (= .def_2472 .def_2480))).def_6785))))
(assert (let ((.def_2490 ((_ sign_extend 24) nomsg)))(let ((.def_2480 ((_ sign_extend 24) send1)))(let ((.def_6787 (= .def_2480 .def_2490))).def_6787))))
(assert (let ((.def_6790 ((_ extract 7 0) |node3::__CPAchecker_TMP_0|)))(let ((.def_6791 (= send3 .def_6790))).def_6791)))
(assert (let ((.def_2515 ((_ sign_extend 24) p1_old)))(let ((.def_2484 ((_ sign_extend 24) id3)))(let ((.def_6793 (= .def_2484 .def_2515))).def_6793))))
(assert (let ((.def_2511 ((_ sign_extend 24) p3_old)))(let ((.def_2472 ((_ sign_extend 24) id1)))(let ((.def_6795 (bvslt .def_2472 .def_2511))).def_6795))))
(assert (let ((.def_2519 ((_ sign_extend 24) p2_old)))(let ((.def_2484 ((_ sign_extend 24) id3)))(let ((.def_6797 (bvslt .def_2484 .def_2519))).def_6797))))
(assert (let ((.def_6800 ((_ extract 7 0) |node2::__CPAchecker_TMP_0|)))(let ((.def_6801 (= p2_old .def_6800))).def_6801)))
(assert (let ((.def_6803 (= send3 p3_old))).def_6803))
(assert (let ((.def_6805 (= send1 p1_old))).def_6805))
(assert (let ((.def_2515 ((_ sign_extend 24) p1_old)))(let ((.def_2479 ((_ sign_extend 24) id2)))(let ((.def_6807 (bvslt .def_2479 .def_2515))).def_6807))))
(assert (let ((.def_2470 ((_ sign_extend 24) send3)))(let ((.def_6809 (= .def_2470 |node3::__CPAchecker_TMP_0|))).def_6809)))
(assert (let ((.def_2515 ((_ sign_extend 24) p1_old)))(let ((.def_2480 ((_ sign_extend 24) send1)))(let ((.def_6811 (= .def_2480 .def_2515))).def_6811))))
(assert (let ((.def_2519 ((_ sign_extend 24) p2_old)))(let ((.def_2472 ((_ sign_extend 24) id1)))(let ((.def_6813 (= .def_2472 .def_2519))).def_6813))))
(assert (let ((.def_2511 ((_ sign_extend 24) p3_old)))(let ((.def_2490 ((_ sign_extend 24) nomsg)))(let ((.def_6815 (= .def_2490 .def_2511))).def_6815))))
(assert (let ((.def_2480 ((_ sign_extend 24) send1)))(let ((.def_6818 (= .def_2480 |node1::__CPAchecker_TMP_0|))).def_6818)))
(assert (let ((.def_6820 ((_ extract 7 0) |node1::__CPAchecker_TMP_0|)))(let ((.def_6821 (= p1_old .def_6820))).def_6821)))
(assert (let ((.def_2472 ((_ sign_extend 24) id1)))(let ((.def_6823 (= .def_2472 |node1::__CPAchecker_TMP_0|))).def_6823)))
(assert (let ((.def_2511 ((_ sign_extend 24) p3_old)))(let ((.def_2479 ((_ sign_extend 24) id2)))(let ((.def_6825 (= .def_2479 .def_2511))).def_6825))))
(assert (let ((.def_2490 ((_ sign_extend 24) nomsg)))(let ((.def_2472 ((_ sign_extend 24) id1)))(let ((.def_6827 (= .def_2472 .def_2490))).def_6827))))
(assert (let ((.def_2486 ((_ sign_extend 24) send2)))(let ((.def_6829 (= .def_2486 |node2::__CPAchecker_TMP_0|))).def_6829)))
(assert (let ((.def_2515 ((_ sign_extend 24) p1_old)))(let ((.def_2490 ((_ sign_extend 24) nomsg)))(let ((.def_6831 (= .def_2490 .def_2515))).def_6831))))
(assert (let ((.def_2519 ((_ sign_extend 24) p2_old)))(let ((.def_2490 ((_ sign_extend 24) nomsg)))(let ((.def_6833 (= .def_2490 .def_2519))).def_6833))))
(assert (let ((.def_6835 (= r1 (_ bv1 8)))).def_6835))
(assert (let ((.def_6837 (= send3 id1))).def_6837))
(assert (let ((.def_2486 ((_ sign_extend 24) send2)))(let ((.def_2479 ((_ sign_extend 24) id2)))(let ((.def_6839 (bvslt .def_2479 .def_2486))).def_6839))))
(assert (let ((.def_2486 ((_ sign_extend 24) send2)))(let ((.def_2480 ((_ sign_extend 24) send1)))(let ((.def_6841 (= .def_2480 .def_2486))).def_6841))))
(assert (let ((.def_6843 (= send1 send2))).def_6843))
(assert (let ((.def_6845 (= send3 send2))).def_6845))
(assert (let ((.def_6847 (= r1 (_ bv3 8)))).def_6847))
(assert (let ((.def_6849 ((_ sign_extend 24) p1_new)))(let ((.def_2480 ((_ sign_extend 24) send1)))(let ((.def_6850 (= .def_2480 .def_6849))).def_6850))))
(assert (let ((.def_6852 (= send2 p1_old))).def_6852))
(assert (let ((.def_6854 (= send3 p2_old))).def_6854))

assert N234:
(assert false)
(assert (let ((.def_1375 (= |assert::arg| (_ bv0 8)))).def_1375))

calculate_output N442:
(assert false)

main2 N11608:
(assert (let ((.def_22050 (= a7 (_ bv13 32)))).def_22050))
(assert (let ((.def_94862 (= a5 (_ bv4 32)))).def_94862))
(assert (let ((.def_94865 (= a17 (_ bv4294967172 32)))).def_94865))
(assert (let ((.def_94868 (= a24 (_ bv15 32)))).def_94868))
(assert (let ((.def_94870 (= a24 (_ bv14 32)))).def_94870))
(assert (let ((.def_94872 (= a7 (_ bv14 32)))).def_94872))
(assert (let ((.def_94874 (= a5 (_ bv3 32)))).def_94874))
(assert (let ((.def_94876 (= a24 (_ bv13 32)))).def_94876))
(assert (let ((.def_177297 (= a2 (_ bv170 32)))).def_177297))
(assert (let ((.def_177299 (= a7 (_ bv12 32)))).def_177299))
(assert (let ((.def_177301 (= a17 (_ bv140 32)))).def_177301))
(assert (let ((.def_177303 (= a17 (_ bv86631 32)))).def_177303))
(assert (let ((.def_177305 (= a17 (_ bv4294967282 32)))).def_177305))
(assert (let ((.def_177308 (= |calculate_output4::input| (_ bv3 32)))).def_177308))
(assert (let ((.def_177311 (= |calculate_output3::input| (_ bv6 32)))).def_177311))
(assert (let ((.def_177313 (= |calculate_output3::input| (_ bv3 32)))).def_177313))
(assert (let ((.def_177315 (= |calculate_output3::input| (_ bv5 32)))).def_177315))
(assert (let ((.def_177317 (= |calculate_output3::input| (_ bv1 32)))).def_177317))
(assert (let ((.def_177319 (= |calculate_output4::input| |calculate_output3::input|))).def_177319))
(assert (let ((.def_177321 (= |calculate_output4::input| (_ bv5 32)))).def_177321))
(assert (let ((.def_177323 (= a17 (_ bv179 32)))).def_177323))
(assert (let ((.def_177325 (= a17 (_ bv60 32)))).def_177325))
(assert (let ((.def_177327 (= a5 (_ bv5 32)))).def_177327))
(assert (let ((.def_177329 (= a5 (_ bv7 32)))).def_177329))
(assert (let ((.def_177331 (= a5 (_ bv6 32)))).def_177331))
(assert (let ((.def_177333 (= a17 (_ bv4294958959 32)))).def_177333))
(assert (let ((.def_177335 (= a17 (_ bv4294165777 32)))).def_177335))
(assert (let ((.def_177337 (= a17 (_ bv4294453696 32)))).def_177337))
(assert (let ((.def_177339 (= a17 (_ bv4294406839 32)))).def_177339))
(assert (let ((.def_177341 (= a17 (_ bv4294454590 32)))).def_177341))
(assert (let ((.def_177343 (= a17 (_ bv4294454080 32)))).def_177343))
(assert (let ((.def_177345 (= a17 (_ bv4294407147 32)))).def_177345))
(assert (let ((.def_177347 (= a17 (_ bv4294468969 32)))).def_177347))
(assert (let ((.def_177349 (= a17 (_ bv4294367244 32)))).def_177349))
(assert (let ((.def_177351 (= a17 (_ bv4294667303 32)))).def_177351))
(assert (let ((.def_177353 (= a17 (_ bv4294870892 32)))).def_177353))
(assert (let ((.def_177355 (= a17 (_ bv4294468850 32)))).def_177355))
(assert (let ((.def_177357 (= a17 (_ bv4294667302 32)))).def_177357))
(assert (let ((.def_177359 (bvslt (_ bv255 32) a17))).def_177359))
(assert (let ((.def_177361 (bvslt (_ bv4294967188 32) a17))).def_177361))

