(set-info :source |printed by MathSAT|)
(declare-fun a20 () (_ BitVec 32))
(declare-fun a25 () (_ BitVec 32))
(declare-fun a12 () (_ BitVec 32))
(declare-fun a15 () (_ BitVec 32))
(declare-fun a16 () (_ BitVec 32))
(declare-fun a2 () (_ BitVec 32))
(declare-fun a27 () (_ BitVec 32))
(declare-fun a9 () (_ BitVec 32))
(declare-fun m_pc () (_ BitVec 32))
(declare-fun t1_pc () (_ BitVec 32))
(declare-fun m_st () (_ BitVec 32))
(declare-fun E_M () (_ BitVec 32))
(declare-fun t1_st () (_ BitVec 32))
(declare-fun local () (_ BitVec 32))
(declare-fun token () (_ BitVec 32))
(declare-fun E_1 () (_ BitVec 32))

*:
(assert (let ((.def_106541 (= a20 (_ bv5 32)))).def_106541))

calculate_output8 N29800:
(assert false)
(assert (let ((.def_106541 (= a20 (_ bv5 32)))).def_106541))

main1 N30136:
(assert (let ((.def_106541 (= a20 (_ bv5 32)))).def_106541))
(assert (let ((.def_153694 (= a25 (_ bv1 32)))).def_153694))
(assert (let ((.def_153697 (= a12 (_ bv4 32)))).def_153697))
(assert (let ((.def_153700 (= a15 (_ bv1 32)))).def_153700))
(assert (let ((.def_153703 (= a16 (_ bv1 32)))).def_153703))
(assert (let ((.def_153706 (= a2 (_ bv10 32)))).def_153706))
(assert (let ((.def_153709 (= a27 (_ bv1 32)))).def_153709))
(assert (let ((.def_153712 (= a9 (_ bv18 32)))).def_153712))
(assert (let ((.def_319574 (= a2 (_ bv11 32)))).def_319574))
(assert (let ((.def_319576 (= a12 (_ bv2 32)))).def_319576))
(assert (let ((.def_319578 (= a9 (_ bv17 32)))).def_319578))
(assert (let ((.def_319580 (= a2 (_ bv13 32)))).def_319580))
(assert (let ((.def_319582 (= a20 (_ bv6 32)))).def_319582))
(assert (let ((.def_319584 (= a12 (_ bv6 32)))).def_319584))
(assert (let ((.def_319586 (= a2 (_ bv9 32)))).def_319586))
(assert (let ((.def_319588 (= a9 (_ bv16 32)))).def_319588))
(assert (let ((.def_1138066 (= a20 (_ bv7 32)))).def_1138066))
(assert (let ((.def_1138068 (= a12 (_ bv3 32)))).def_1138068))
(assert (let ((.def_1138070 (= a2 (_ bv12 32)))).def_1138070))
(assert (let ((.def_1138072 (= a12 (_ bv5 32)))).def_1138072))

error N30154:
(assert false)
(assert (let ((.def_106541 (= a20 (_ bv5 32)))).def_106541))

eval N30288:
(assert (let ((.def_1279422 (= m_pc (_ bv0 32)))).def_1279422))
(assert (let ((.def_106541 (= a20 (_ bv5 32)))).def_106541))
(assert (let ((.def_1279975 (= t1_pc (_ bv0 32)))).def_1279975))
(assert (let ((.def_1279977 (= m_pc (_ bv1 32)))).def_1279977))
(assert (let ((.def_1279979 (= t1_pc (_ bv1 32)))).def_1279979))
(assert (let ((.def_1279982 (= m_st (_ bv0 32)))).def_1279982))
(assert (let ((.def_1280695 (= E_M (_ bv1 32)))).def_1280695))
(assert (let ((.def_1280698 (= t1_st (_ bv0 32)))).def_1280698))
(assert (let ((.def_1280701 (bvadd (_ bv1 32) local)))(let ((.def_1280703 (= .def_1280701 token))).def_1280703)))
(assert (let ((.def_1281702 (= local token))).def_1281702))
(assert (let ((.def_1281705 (= E_1 (_ bv1 32)))).def_1281705))
(assert (let ((.def_1283003 (= E_M (_ bv0 32)))).def_1283003))
(assert (let ((.def_1283005 (= E_1 (_ bv0 32)))).def_1283005))

start_simulation N30438:
(assert (let ((.def_1279422 (= m_pc (_ bv0 32)))).def_1279422))
(assert (let ((.def_106541 (= a20 (_ bv5 32)))).def_106541))
(assert (let ((.def_1279975 (= t1_pc (_ bv0 32)))).def_1279975))
(assert (let ((.def_1279977 (= m_pc (_ bv1 32)))).def_1279977))
(assert (let ((.def_1279979 (= t1_pc (_ bv1 32)))).def_1279979))
(assert (let ((.def_1280695 (= E_M (_ bv1 32)))).def_1280695))
(assert (let ((.def_1280698 (= t1_st (_ bv0 32)))).def_1280698))
(assert (let ((.def_1279982 (= m_st (_ bv0 32)))).def_1279982))
(assert (let ((.def_1283003 (= E_M (_ bv0 32)))).def_1283003))

