(set-info :source |printed by MathSAT|)
(declare-fun a20 () (_ BitVec 32))
(declare-fun a25 () (_ BitVec 32))
(declare-fun a12 () (_ BitVec 32))
(declare-fun a15 () (_ BitVec 32))
(declare-fun a16 () (_ BitVec 32))
(declare-fun a2 () (_ BitVec 32))
(declare-fun a27 () (_ BitVec 32))
(declare-fun a9 () (_ BitVec 32))
(declare-fun m_pc () (_ BitVec 32))
(declare-fun t1_pc () (_ BitVec 32))
(declare-fun t2_pc () (_ BitVec 32))
(declare-fun t3_pc () (_ BitVec 32))
(declare-fun m_st () (_ BitVec 32))

*:
(assert (let ((.def_107583 (= a20 (_ bv5 32)))).def_107583))

calculate_output8 N30053:
(assert false)
(assert (let ((.def_107583 (= a20 (_ bv5 32)))).def_107583))

main1 N30136:
(assert (let ((.def_107583 (= a20 (_ bv5 32)))).def_107583))
(assert (let ((.def_155145 (= a25 (_ bv1 32)))).def_155145))
(assert (let ((.def_155148 (= a12 (_ bv4 32)))).def_155148))
(assert (let ((.def_155151 (= a15 (_ bv1 32)))).def_155151))
(assert (let ((.def_155154 (= a16 (_ bv1 32)))).def_155154))
(assert (let ((.def_155157 (= a2 (_ bv10 32)))).def_155157))
(assert (let ((.def_155160 (= a27 (_ bv1 32)))).def_155160))
(assert (let ((.def_155163 (= a9 (_ bv18 32)))).def_155163))
(assert (let ((.def_321328 (= a20 (_ bv6 32)))).def_321328))
(assert (let ((.def_321330 (= a12 (_ bv3 32)))).def_321330))
(assert (let ((.def_321332 (= a12 (_ bv6 32)))).def_321332))
(assert (let ((.def_321334 (= a2 (_ bv9 32)))).def_321334))
(assert (let ((.def_321336 (= a9 (_ bv16 32)))).def_321336))
(assert (let ((.def_321338 (= a2 (_ bv12 32)))).def_321338))
(assert (let ((.def_321340 (= a2 (_ bv11 32)))).def_321340))
(assert (let ((.def_321342 (= a9 (_ bv17 32)))).def_321342))
(assert (let ((.def_321344 (= a12 (_ bv2 32)))).def_321344))
(assert (let ((.def_321346 (= a2 (_ bv13 32)))).def_321346))

error N30154:
(assert false)
(assert (let ((.def_107583 (= a20 (_ bv5 32)))).def_107583))

eval N30409:
(assert (let ((.def_746569 (= m_pc (_ bv0 32)))).def_746569))
(assert (let ((.def_107583 (= a20 (_ bv5 32)))).def_107583))
(assert (let ((.def_748197 (= t1_pc (_ bv0 32)))).def_748197))
(assert (let ((.def_748200 (= t2_pc (_ bv0 32)))).def_748200))
(assert (let ((.def_748203 (= t3_pc (_ bv0 32)))).def_748203))
(assert (let ((.def_748205 (= m_pc (_ bv1 32)))).def_748205))
(assert (let ((.def_748207 (= t1_pc (_ bv1 32)))).def_748207))
(assert (let ((.def_748209 (= t2_pc (_ bv1 32)))).def_748209))
(assert (let ((.def_748211 (= t3_pc (_ bv1 32)))).def_748211))
(assert (let ((.def_748214 (= m_st (_ bv0 32)))).def_748214))

start_simulation N30641:
(assert (let ((.def_746569 (= m_pc (_ bv0 32)))).def_746569))
(assert (let ((.def_107583 (= a20 (_ bv5 32)))).def_107583))
(assert (let ((.def_748197 (= t1_pc (_ bv0 32)))).def_748197))
(assert (let ((.def_748200 (= t2_pc (_ bv0 32)))).def_748200))
(assert (let ((.def_748203 (= t3_pc (_ bv0 32)))).def_748203))
(assert (let ((.def_748205 (= m_pc (_ bv1 32)))).def_748205))
(assert (let ((.def_748207 (= t1_pc (_ bv1 32)))).def_748207))
(assert (let ((.def_748209 (= t2_pc (_ bv1 32)))).def_748209))
(assert (let ((.def_748211 (= t3_pc (_ bv1 32)))).def_748211))

