(set-info :source |printed by MathSAT|)
(declare-fun c_num_read () (_ BitVec 32))
(declare-fun p_num_write () (_ BitVec 32))
(declare-fun c_last_read () (_ BitVec 32))
(declare-fun p_last_write () (_ BitVec 32))
(declare-fun c_dr_pc () (_ BitVec 32))
(declare-fun q_free () (_ BitVec 32))
(declare-fun q_buf_0 () (_ BitVec 32))
(declare-fun c_dr_st () (_ BitVec 32))
(declare-fun q_req_up () (_ BitVec 32))
(declare-fun q_write_ev () (_ BitVec 32))
(declare-fun q_read_ev () (_ BitVec 32))
(declare-fun p_dw_pc () (_ BitVec 32))
(declare-fun p_dw_st () (_ BitVec 32))
(declare-fun m_pc () (_ BitVec 32))
(declare-fun t1_pc () (_ BitVec 32))
(declare-fun t2_pc () (_ BitVec 32))
(declare-fun t3_pc () (_ BitVec 32))
(declare-fun m_st () (_ BitVec 32))
(declare-fun E_3 () (_ BitVec 32))
(declare-fun E_M () (_ BitVec 32))
(declare-fun E_2 () (_ BitVec 32))
(declare-fun t3_st () (_ BitVec 32))
(declare-fun t1_st () (_ BitVec 32))
(declare-fun t2_st () (_ BitVec 32))
(declare-fun local () (_ BitVec 32))
(declare-fun token () (_ BitVec 32))
(declare-fun E_1 () (_ BitVec 32))

*:
(assert (let ((.def_529 (= c_num_read p_num_write))).def_529))
(assert (let ((.def_538 (= c_last_read p_last_write))).def_538))

error1 N4:
(assert false)
(assert (let ((.def_529 (= c_num_read p_num_write))).def_529))
(assert (let ((.def_538 (= c_last_read p_last_write))).def_538))

do_write_p N78:
(assert (let ((.def_725 (= c_dr_pc (_ bv0 32)))).def_725))
(assert (let ((.def_529 (= c_num_read p_num_write))).def_529))
(assert (let ((.def_538 (= c_last_read p_last_write))).def_538))
(assert (let ((.def_793 (= q_free (_ bv1 32)))).def_793))
(assert false)
(assert (let ((.def_977 (= p_last_write q_buf_0))).def_977))
(assert (let ((.def_1117 (= c_dr_pc (_ bv1 32)))).def_1117))
(assert (let ((.def_1119 (= q_free (_ bv0 32)))).def_1119))
(assert (let ((.def_1123 (bvadd (_ bv1 32) c_num_read)))(let ((.def_1124 (= p_num_write .def_1123))).def_1124)))
(assert (let ((.def_1805 (= c_dr_st (_ bv0 32)))).def_1805))
(assert (let ((.def_4205 (= q_req_up (_ bv1 32)))).def_4205))
(assert (let ((.def_5838 (= q_write_ev (_ bv1 32)))).def_5838))
(assert (let ((.def_5840 (= q_write_ev (_ bv0 32)))).def_5840))
(assert (let ((.def_8175 (= q_read_ev (_ bv1 32)))).def_8175))
(assert (let ((.def_8177 (= q_read_ev (_ bv0 32)))).def_8177))

do_read_c N112:
(assert (let ((.def_793 (= q_free (_ bv1 32)))).def_793))
(assert (let ((.def_529 (= c_num_read p_num_write))).def_529))
(assert (let ((.def_538 (= c_last_read p_last_write))).def_538))
(assert (let ((.def_977 (= p_last_write q_buf_0))).def_977))
(assert (let ((.def_1123 (bvadd (_ bv1 32) c_num_read)))(let ((.def_1124 (= p_num_write .def_1123))).def_1124)))
(assert false)
(assert (let ((.def_1119 (= q_free (_ bv0 32)))).def_1119))
(assert (let ((.def_5838 (= q_write_ev (_ bv1 32)))).def_5838))
(assert (let ((.def_5840 (= q_write_ev (_ bv0 32)))).def_5840))
(assert (let ((.def_1121 (= p_dw_pc (_ bv1 32)))).def_1121))
(assert (let ((.def_4205 (= q_req_up (_ bv1 32)))).def_4205))
(assert (let ((.def_2279 (= p_dw_st (_ bv0 32)))).def_2279))
(assert (let ((.def_8175 (= q_read_ev (_ bv1 32)))).def_8175))
(assert (let ((.def_8177 (= q_read_ev (_ bv0 32)))).def_8177))

eval1 N228:
(assert (let ((.def_725 (= c_dr_pc (_ bv0 32)))).def_725))
(assert (let ((.def_529 (= c_num_read p_num_write))).def_529))
(assert (let ((.def_538 (= c_last_read p_last_write))).def_538))
(assert (let ((.def_793 (= q_free (_ bv1 32)))).def_793))
(assert (let ((.def_935 (= p_dw_pc (_ bv0 32)))).def_935))
(assert (let ((.def_1117 (= c_dr_pc (_ bv1 32)))).def_1117))
(assert (let ((.def_1119 (= q_free (_ bv0 32)))).def_1119))
(assert (let ((.def_1121 (= p_dw_pc (_ bv1 32)))).def_1121))
(assert (let ((.def_2279 (= p_dw_st (_ bv0 32)))).def_2279))
(assert (let ((.def_977 (= p_last_write q_buf_0))).def_977))
(assert (let ((.def_1123 (bvadd (_ bv1 32) c_num_read)))(let ((.def_1124 (= p_num_write .def_1123))).def_1124)))
(assert (let ((.def_1805 (= c_dr_st (_ bv0 32)))).def_1805))
(assert (let ((.def_4205 (= q_req_up (_ bv1 32)))).def_4205))
(assert (let ((.def_5838 (= q_write_ev (_ bv1 32)))).def_5838))
(assert (let ((.def_5840 (= q_write_ev (_ bv0 32)))).def_5840))
(assert (let ((.def_8175 (= q_read_ev (_ bv1 32)))).def_8175))
(assert (let ((.def_8177 (= q_read_ev (_ bv0 32)))).def_8177))

start_simulation1 N283:
(assert (let ((.def_725 (= c_dr_pc (_ bv0 32)))).def_725))
(assert (let ((.def_529 (= c_num_read p_num_write))).def_529))
(assert (let ((.def_538 (= c_last_read p_last_write))).def_538))
(assert (let ((.def_793 (= q_free (_ bv1 32)))).def_793))
(assert (let ((.def_935 (= p_dw_pc (_ bv0 32)))).def_935))
(assert (let ((.def_1117 (= c_dr_pc (_ bv1 32)))).def_1117))
(assert (let ((.def_1119 (= q_free (_ bv0 32)))).def_1119))
(assert (let ((.def_1121 (= p_dw_pc (_ bv1 32)))).def_1121))
(assert (let ((.def_1805 (= c_dr_st (_ bv0 32)))).def_1805))
(assert (let ((.def_2279 (= p_dw_st (_ bv0 32)))).def_2279))
(assert (let ((.def_977 (= p_last_write q_buf_0))).def_977))
(assert (let ((.def_5838 (= q_write_ev (_ bv1 32)))).def_5838))
(assert (let ((.def_5840 (= q_write_ev (_ bv0 32)))).def_5840))
(assert (let ((.def_8175 (= q_read_ev (_ bv1 32)))).def_8175))
(assert (let ((.def_8177 (= q_read_ev (_ bv0 32)))).def_8177))
(assert (let ((.def_1123 (bvadd (_ bv1 32) c_num_read)))(let ((.def_1124 (= p_num_write .def_1123))).def_1124)))

error2 N328:
(assert false)
(assert (let ((.def_529 (= c_num_read p_num_write))).def_529))
(assert (let ((.def_538 (= c_last_read p_last_write))).def_538))

eval2 N570:
(assert (let ((.def_10544 (= m_pc (_ bv0 32)))).def_10544))
(assert (let ((.def_529 (= c_num_read p_num_write))).def_529))
(assert (let ((.def_538 (= c_last_read p_last_write))).def_538))
(assert (let ((.def_12136 (= t1_pc (_ bv0 32)))).def_12136))
(assert (let ((.def_12139 (= t2_pc (_ bv0 32)))).def_12139))
(assert (let ((.def_12142 (= t3_pc (_ bv0 32)))).def_12142))
(assert (let ((.def_12144 (= m_pc (_ bv1 32)))).def_12144))
(assert (let ((.def_12146 (= t1_pc (_ bv1 32)))).def_12146))
(assert (let ((.def_12148 (= t2_pc (_ bv1 32)))).def_12148))
(assert (let ((.def_12150 (= t3_pc (_ bv1 32)))).def_12150))
(assert (let ((.def_12153 (= m_st (_ bv0 32)))).def_12153))
(assert (let ((.def_14213 (= E_3 (_ bv1 32)))).def_14213))
(assert (let ((.def_14216 (= E_M (_ bv1 32)))).def_14216))
(assert (let ((.def_14219 (= E_2 (_ bv1 32)))).def_14219))
(assert (let ((.def_14222 (= t3_st (_ bv0 32)))).def_14222))
(assert (let ((.def_14225 (= t1_st (_ bv0 32)))).def_14225))
(assert (let ((.def_14228 (= t2_st (_ bv0 32)))).def_14228))
(assert (let ((.def_14231 (bvadd (_ bv3 32) local)))(let ((.def_14233 (= .def_14231 token))).def_14233)))
(assert (let ((.def_18976 (= E_2 (_ bv2 32)))).def_18976))
(assert (let ((.def_18979 (= E_1 (_ bv1 32)))).def_18979))
(assert (let ((.def_18981 (= t2_st (_ bv2 32)))).def_18981))
(assert (let ((.def_18983 (= local token))).def_18983))
(assert (let ((.def_18985 (bvadd (_ bv1 32) local)))(let ((.def_18986 (= token .def_18985))).def_18986)))
(assert (let ((.def_18988 (bvadd (_ bv2 32) local)))(let ((.def_18989 (= token .def_18988))).def_18989)))
(assert (let ((.def_22595 (= E_M (_ bv0 32)))).def_22595))
(assert (let ((.def_22597 (= E_3 (_ bv0 32)))).def_22597))
(assert (let ((.def_22599 (= E_2 (_ bv0 32)))).def_22599))
(assert (let ((.def_22601 (= E_1 (_ bv0 32)))).def_22601))

start_simulation2 N802:
(assert (let ((.def_10544 (= m_pc (_ bv0 32)))).def_10544))
(assert (let ((.def_529 (= c_num_read p_num_write))).def_529))
(assert (let ((.def_538 (= c_last_read p_last_write))).def_538))
(assert (let ((.def_12136 (= t1_pc (_ bv0 32)))).def_12136))
(assert (let ((.def_12139 (= t2_pc (_ bv0 32)))).def_12139))
(assert (let ((.def_12142 (= t3_pc (_ bv0 32)))).def_12142))
(assert (let ((.def_12144 (= m_pc (_ bv1 32)))).def_12144))
(assert (let ((.def_12146 (= t1_pc (_ bv1 32)))).def_12146))
(assert (let ((.def_12148 (= t2_pc (_ bv1 32)))).def_12148))
(assert (let ((.def_12150 (= t3_pc (_ bv1 32)))).def_12150))
(assert (let ((.def_14213 (= E_3 (_ bv1 32)))).def_14213))
(assert (let ((.def_14216 (= E_M (_ bv1 32)))).def_14216))
(assert (let ((.def_14219 (= E_2 (_ bv1 32)))).def_14219))
(assert (let ((.def_14222 (= t3_st (_ bv0 32)))).def_14222))
(assert (let ((.def_12153 (= m_st (_ bv0 32)))).def_12153))
(assert (let ((.def_18976 (= E_2 (_ bv2 32)))).def_18976))
(assert (let ((.def_18979 (= E_1 (_ bv1 32)))).def_18979))
(assert (let ((.def_14228 (= t2_st (_ bv0 32)))).def_14228))
(assert (let ((.def_14225 (= t1_st (_ bv0 32)))).def_14225))
(assert (let ((.def_18981 (= t2_st (_ bv2 32)))).def_18981))
(assert (let ((.def_22595 (= E_M (_ bv0 32)))).def_22595))
(assert (let ((.def_22597 (= E_3 (_ bv0 32)))).def_22597))
(assert (let ((.def_22599 (= E_2 (_ bv0 32)))).def_22599))

