(set-info :source |printed by MathSAT|)
(declare-fun |ssl3_connect::blastFlag| () (_ BitVec 32))
(declare-fun |ssl3_connect::s__state| () (_ BitVec 32))
(declare-fun |ssl3_connect::s__s3__tmp__reuse_message| () (_ BitVec 32))
(declare-fun |ssl3_connect::s__hit| () (_ BitVec 32))
(declare-fun |ssl3_connect::s__s3__tmp__next_state___0| () (_ BitVec 32))
(declare-fun |ssl3_accept::blastFlag| () (_ BitVec 32))
(declare-fun |ssl3_accept::s__state| () (_ BitVec 32))
(declare-fun |ssl3_accept::s__s3__tmp__reuse_message| () (_ BitVec 32))
(declare-fun |ssl3_accept::cb| () (_ BitVec 32))
(declare-fun |ssl3_accept::s__hit| () (_ BitVec 32))
(declare-fun |ssl3_accept::s__s3__tmp__next_state___0| () (_ BitVec 32))

ssl3_connect:
(assert (let ((.def_678 (= |ssl3_connect::blastFlag| (_ bv5 32)))).def_678))

ssl3_connect N117:
(assert (let ((.def_1602 (= |ssl3_connect::s__state| (_ bv12292 32)))).def_1602))
(assert (let ((.def_1604 (= |ssl3_connect::blastFlag| (_ bv0 32)))).def_1604))
(assert (let ((.def_678 (= |ssl3_connect::blastFlag| (_ bv5 32)))).def_678))
(assert (let ((.def_3753 (= |ssl3_connect::s__s3__tmp__reuse_message| (_ bv0 32)))).def_3753))
(assert (let ((.def_3755 (= |ssl3_connect::s__state| (_ bv4368 32)))).def_3755))
(assert (let ((.def_3757 (= |ssl3_connect::blastFlag| (_ bv2 32)))).def_3757))
(assert (let ((.def_3759 (= |ssl3_connect::blastFlag| (_ bv3 32)))).def_3759))
(assert (let ((.def_3761 (= |ssl3_connect::blastFlag| (_ bv4 32)))).def_3761))
(assert (let ((.def_3763 (= |ssl3_connect::blastFlag| (_ bv1 32)))).def_3763))
(assert (let ((.def_3766 (= |ssl3_connect::s__hit| (_ bv0 32)))).def_3766))
(assert (let ((.def_3768 (= |ssl3_connect::s__state| (_ bv4433 32)))).def_3768))
(assert (let ((.def_3770 (= |ssl3_connect::s__state| (_ bv4432 32)))).def_3770))
(assert (let ((.def_9677 (= |ssl3_connect::s__state| (_ bv4099 32)))).def_9677))
(assert (let ((.def_9679 (= |ssl3_connect::s__state| (_ bv20480 32)))).def_9679))
(assert (let ((.def_9681 (= |ssl3_connect::s__state| (_ bv4096 32)))).def_9681))
(assert (let ((.def_9683 (= |ssl3_connect::s__state| (_ bv16384 32)))).def_9683))
(assert (let ((.def_9685 (= |ssl3_connect::s__state| (_ bv4369 32)))).def_9685))
(assert (let ((.def_9687 (= |ssl3_connect::s__state| (_ bv4384 32)))).def_9687))
(assert (let ((.def_15532 (= |ssl3_connect::s__s3__tmp__next_state___0| (_ bv12292 32)))).def_15532))
(assert (let ((.def_15534 (= |ssl3_connect::s__s3__tmp__next_state___0| (_ bv4099 32)))).def_15534))
(assert (let ((.def_15536 (= |ssl3_connect::s__s3__tmp__next_state___0| (_ bv20480 32)))).def_15536))
(assert (let ((.def_15538 (= |ssl3_connect::s__s3__tmp__next_state___0| (_ bv4096 32)))).def_15538))
(assert (let ((.def_15540 (= |ssl3_connect::s__state| |ssl3_connect::s__s3__tmp__next_state___0|))).def_15540))
(assert (let ((.def_15542 (= |ssl3_connect::s__state| (_ bv4352 32)))).def_15542))
(assert (let ((.def_15544 (= |ssl3_connect::s__s3__tmp__next_state___0| (_ bv3 32)))).def_15544))
(assert (let ((.def_15546 (= |ssl3_connect::s__s3__tmp__next_state___0| (_ bv16384 32)))).def_15546))
(assert (let ((.def_15548 (= |ssl3_connect::s__s3__tmp__next_state___0| (_ bv4369 32)))).def_15548))
(assert (let ((.def_15550 (= |ssl3_connect::s__s3__tmp__next_state___0| (_ bv4368 32)))).def_15550))
(assert (let ((.def_15552 (= |ssl3_connect::s__state| (_ bv4400 32)))).def_15552))
(assert (let ((.def_15554 (= |ssl3_connect::s__s3__tmp__next_state___0| (_ bv4384 32)))).def_15554))
(assert (let ((.def_15556 (= |ssl3_connect::s__s3__tmp__next_state___0| (_ bv4385 32)))).def_15556))
(assert (let ((.def_15558 (= |ssl3_connect::s__s3__tmp__next_state___0| (_ bv4400 32)))).def_15558))
(assert (let ((.def_15560 (= |ssl3_connect::s__state| (_ bv4528 32)))).def_15560))
(assert (let ((.def_15562 (= |ssl3_connect::s__state| (_ bv4561 32)))).def_15562))
(assert (let ((.def_15564 (= |ssl3_connect::s__state| (_ bv4560 32)))).def_15564))
(assert (let ((.def_15566 (= |ssl3_connect::s__state| (_ bv4416 32)))).def_15566))
(assert (let ((.def_15568 (= |ssl3_connect::s__state| (_ bv4448 32)))).def_15568))
(assert (let ((.def_15570 (= |ssl3_connect::s__state| (_ bv4464 32)))).def_15570))
(assert (let ((.def_15572 (= |ssl3_connect::s__state| (_ bv4480 32)))).def_15572))
(assert (let ((.def_15574 (= |ssl3_connect::s__state| (_ bv4496 32)))).def_15574))
(assert (let ((.def_15576 (= |ssl3_connect::s__state| (_ bv4512 32)))).def_15576))
(assert (let ((.def_15578 (= |ssl3_connect::s__s3__tmp__next_state___0| (_ bv4401 32)))).def_15578))
(assert (let ((.def_15580 (= |ssl3_connect::s__state| (_ bv4385 32)))).def_15580))
(assert (let ((.def_15582 (= |ssl3_connect::s__state| (_ bv4401 32)))).def_15582))
(assert (let ((.def_15584 (= |ssl3_connect::s__state| (_ bv4417 32)))).def_15584))
(assert (let ((.def_15586 (= |ssl3_connect::s__state| (_ bv4529 32)))).def_15586))
(assert (let ((.def_15588 (= |ssl3_connect::s__s3__tmp__next_state___0| (_ bv4417 32)))).def_15588))
(assert (let ((.def_15590 (= |ssl3_connect::s__s3__tmp__next_state___0| (_ bv4416 32)))).def_15590))
(assert (let ((.def_15592 (= |ssl3_connect::s__state| (_ bv4497 32)))).def_15592))
(assert (let ((.def_15594 (= |ssl3_connect::s__state| (_ bv4481 32)))).def_15594))
(assert (let ((.def_15596 (= |ssl3_connect::s__state| (_ bv4467 32)))).def_15596))
(assert (let ((.def_15598 (= |ssl3_connect::s__state| (_ bv4466 32)))).def_15598))
(assert (let ((.def_15600 (= |ssl3_connect::s__state| (_ bv4465 32)))).def_15600))
(assert (let ((.def_15602 (= |ssl3_connect::s__state| (_ bv4449 32)))).def_15602))
(assert (let ((.def_15604 (= |ssl3_connect::s__s3__tmp__next_state___0| (_ bv4433 32)))).def_15604))
(assert (let ((.def_15606 (= |ssl3_connect::s__s3__tmp__next_state___0| (_ bv4432 32)))).def_15606))

ssl3_connect N576:
(assert false)
(assert (let ((.def_678 (= |ssl3_connect::blastFlag| (_ bv5 32)))).def_678))

ssl3_accept N699:
(assert (let ((.def_27795 (= |ssl3_accept::blastFlag| (_ bv21 32)))).def_27795))
(assert (let ((.def_29144 (= |ssl3_accept::s__state| (_ bv8464 32)))).def_29144))
(assert (let ((.def_29146 (= |ssl3_accept::blastFlag| (_ bv0 32)))).def_29146))
(assert (let ((.def_30792 (= |ssl3_accept::s__state| (_ bv8481 32)))).def_30792))
(assert (let ((.def_30794 (= |ssl3_accept::s__state| (_ bv8480 32)))).def_30794))
(assert (let ((.def_30796 (= |ssl3_accept::s__state| (_ bv12292 32)))).def_30796))
(assert (let ((.def_30798 (= |ssl3_accept::s__state| (_ bv16384 32)))).def_30798))
(assert (let ((.def_30800 (= |ssl3_accept::s__state| (_ bv8192 32)))).def_30800))
(assert (let ((.def_30802 (= |ssl3_accept::s__state| (_ bv24576 32)))).def_30802))
(assert (let ((.def_30804 (= |ssl3_accept::s__state| (_ bv8195 32)))).def_30804))
(assert (let ((.def_30806 (= |ssl3_accept::s__state| (_ bv8482 32)))).def_30806))
(assert (let ((.def_30808 (= |ssl3_accept::s__state| (_ bv8496 32)))).def_30808))
(assert (let ((.def_30811 (= |ssl3_accept::s__s3__tmp__reuse_message| (_ bv0 32)))).def_30811))
(assert (let ((.def_30813 (= |ssl3_accept::blastFlag| (_ bv1 32)))).def_30813))
(assert (let ((.def_33370 (= |ssl3_accept::blastFlag| (_ bv20 32)))).def_33370))
(assert (let ((.def_33373 (= |ssl3_accept::cb| (_ bv0 32)))).def_33373))
(assert (let ((.def_33375 (= |ssl3_accept::s__state| (_ bv8466 32)))).def_33375))
(assert (let ((.def_33377 (= |ssl3_accept::s__state| (_ bv8448 32)))).def_33377))
(assert (let ((.def_33380 (= |ssl3_accept::s__hit| (_ bv0 32)))).def_33380))
(assert (let ((.def_33382 (= |ssl3_accept::s__state| (_ bv8592 32)))).def_33382))
(assert (let ((.def_33384 (= |ssl3_accept::s__state| (_ bv8512 32)))).def_33384))
(assert (let ((.def_33386 (= |ssl3_accept::s__state| (_ bv8528 32)))).def_33386))
(assert (let ((.def_33388 (= |ssl3_accept::s__state| (_ bv8544 32)))).def_33388))
(assert (let ((.def_33390 (= |ssl3_accept::s__state| (_ bv8560 32)))).def_33390))
(assert (let ((.def_33392 (= |ssl3_accept::s__state| (_ bv8497 32)))).def_33392))
(assert (let ((.def_33395 (= |ssl3_accept::s__s3__tmp__next_state___0| (_ bv8576 32)))).def_33395))
(assert (let ((.def_33397 (= |ssl3_accept::s__s3__tmp__next_state___0| (_ bv3 32)))).def_33397))
(assert (let ((.def_33399 (= |ssl3_accept::s__state| (_ bv8576 32)))).def_33399))
(assert (let ((.def_33401 (= |ssl3_accept::s__state| (_ bv8608 32)))).def_33401))
(assert (let ((.def_33403 (= |ssl3_accept::s__state| (_ bv8641 32)))).def_33403))
(assert (let ((.def_33405 (= |ssl3_accept::s__state| (_ bv8640 32)))).def_33405))
(assert (let ((.def_38541 (= |ssl3_accept::s__state| (_ bv8465 32)))).def_38541))
(assert (let ((.def_38543 (= |ssl3_accept::blastFlag| (_ bv6 32)))).def_38543))
(assert (let ((.def_38545 (= |ssl3_accept::blastFlag| (_ bv16 32)))).def_38545))
(assert (let ((.def_38547 (= |ssl3_accept::blastFlag| (_ bv13 32)))).def_38547))
(assert (let ((.def_38549 (= |ssl3_accept::blastFlag| (_ bv10 32)))).def_38549))
(assert (let ((.def_38551 (= |ssl3_accept::blastFlag| (_ bv19 32)))).def_38551))
(assert (let ((.def_38553 (= |ssl3_accept::s__state| (_ bv8656 32)))).def_38553))
(assert (let ((.def_38555 (= |ssl3_accept::s__state| (_ bv8561 32)))).def_38555))
(assert (let ((.def_38557 (= |ssl3_accept::s__state| (_ bv8593 32)))).def_38557))
(assert (let ((.def_38559 (= |ssl3_accept::s__state| (_ bv8577 32)))).def_38559))
(assert (let ((.def_38561 (= |ssl3_accept::s__state| (_ bv8609 32)))).def_38561))
(assert (let ((.def_38563 (= |ssl3_accept::s__state| (_ bv8513 32)))).def_38563))
(assert (let ((.def_38565 (= |ssl3_accept::s__state| (_ bv8529 32)))).def_38565))
(assert (let ((.def_38567 (= |ssl3_accept::s__state| (_ bv8545 32)))).def_38567))
(assert (let ((.def_38569 (= |ssl3_accept::blastFlag| (_ bv5 32)))).def_38569))
(assert (let ((.def_38571 (= |ssl3_accept::blastFlag| (_ bv8 32)))).def_38571))
(assert (let ((.def_38573 (= |ssl3_accept::blastFlag| (_ bv7 32)))).def_38573))
(assert (let ((.def_38575 (= |ssl3_accept::s__s3__tmp__next_state___0| (_ bv8482 32)))).def_38575))
(assert (let ((.def_38577 (= |ssl3_accept::blastFlag| (_ bv14 32)))).def_38577))
(assert (let ((.def_38579 (= |ssl3_accept::blastFlag| (_ bv11 32)))).def_38579))
(assert (let ((.def_38581 (= |ssl3_accept::blastFlag| (_ bv17 32)))).def_38581))
(assert (let ((.def_38583 (= |ssl3_accept::s__state| (_ bv8672 32)))).def_38583))
(assert (let ((.def_38585 (= |ssl3_accept::s__state| (_ bv8673 32)))).def_38585))
(assert (let ((.def_38587 (= |ssl3_accept::s__state| (_ bv8657 32)))).def_38587))

ssl3_accept N1280:
(assert false)

