(set-info :source |printed by MathSAT|)
(declare-fun a20 () (_ BitVec 32))
(declare-fun a25 () (_ BitVec 32))
(declare-fun a12 () (_ BitVec 32))
(declare-fun a15 () (_ BitVec 32))
(declare-fun a16 () (_ BitVec 32))
(declare-fun a2 () (_ BitVec 32))
(declare-fun a27 () (_ BitVec 32))
(declare-fun a9 () (_ BitVec 32))
(declare-fun |calculate_output3::input| () (_ BitVec 32))
(declare-fun |calculate_output2::input| () (_ BitVec 32))
(declare-fun |calculate_output4::input| () (_ BitVec 32))
(declare-fun |calculate_output8::input| () (_ BitVec 32))
(declare-fun |calculate_output5::input| () (_ BitVec 32))
(declare-fun |calculate_output6::input| () (_ BitVec 32))
(declare-fun |calculate_output7::input| () (_ BitVec 32))

*:
(assert (let ((.def_106691 (= a20 (_ bv5 32)))).def_106691))

calculate_output8 N29800:
(assert false)
(assert (let ((.def_106691 (= a20 (_ bv5 32)))).def_106691))

main1 N30136:
(assert (let ((.def_106691 (= a20 (_ bv5 32)))).def_106691))
(assert (let ((.def_153894 (= a25 (_ bv1 32)))).def_153894))
(assert (let ((.def_153897 (= a12 (_ bv4 32)))).def_153897))
(assert (let ((.def_153900 (= a15 (_ bv1 32)))).def_153900))
(assert (let ((.def_153903 (= a16 (_ bv1 32)))).def_153903))
(assert (let ((.def_153906 (= a2 (_ bv10 32)))).def_153906))
(assert (let ((.def_153909 (= a27 (_ bv1 32)))).def_153909))
(assert (let ((.def_153912 (= a9 (_ bv18 32)))).def_153912))
(assert (let ((.def_319774 (= a2 (_ bv11 32)))).def_319774))
(assert (let ((.def_319776 (= a12 (_ bv2 32)))).def_319776))
(assert (let ((.def_319778 (= a9 (_ bv17 32)))).def_319778))
(assert (let ((.def_319780 (= a2 (_ bv13 32)))).def_319780))
(assert (let ((.def_319782 (= a20 (_ bv6 32)))).def_319782))
(assert (let ((.def_319784 (= a12 (_ bv6 32)))).def_319784))
(assert (let ((.def_319786 (= a2 (_ bv9 32)))).def_319786))
(assert (let ((.def_319788 (= a9 (_ bv16 32)))).def_319788))
(assert (let ((.def_1105834 (= a20 (_ bv7 32)))).def_1105834))
(assert (let ((.def_1105836 (= a12 (_ bv5 32)))).def_1105836))
(assert (let ((.def_1105838 (= a12 (_ bv3 32)))).def_1105838))
(assert (let ((.def_1105840 (= a2 (_ bv12 32)))).def_1105840))
(assert (let ((.def_1105843 (= |calculate_output3::input| (_ bv1 32)))).def_1105843))
(assert (let ((.def_1105845 (= |calculate_output3::input| (_ bv3 32)))).def_1105845))
(assert (let ((.def_1105847 (= |calculate_output3::input| (_ bv5 32)))).def_1105847))
(assert (let ((.def_1105849 (= |calculate_output3::input| (_ bv6 32)))).def_1105849))
(assert (let ((.def_1105852 (= |calculate_output2::input| (_ bv4 32)))).def_1105852))
(assert (let ((.def_1105855 (= |calculate_output4::input| (_ bv3 32)))).def_1105855))
(assert (let ((.def_1105857 (= |calculate_output4::input| (_ bv2 32)))).def_1105857))
(assert (let ((.def_1105859 (= |calculate_output4::input| (_ bv6 32)))).def_1105859))
(assert (let ((.def_1105861 (= |calculate_output4::input| (_ bv1 32)))).def_1105861))
(assert (let ((.def_1105863 (= |calculate_output3::input| |calculate_output4::input|))).def_1105863))
(assert (let ((.def_1105866 (= |calculate_output8::input| (_ bv5 32)))).def_1105866))
(assert (let ((.def_1105869 (= |calculate_output5::input| (_ bv6 32)))).def_1105869))
(assert (let ((.def_1105871 (= |calculate_output5::input| (_ bv5 32)))).def_1105871))
(assert (let ((.def_1105873 (= |calculate_output5::input| (_ bv3 32)))).def_1105873))
(assert (let ((.def_1105875 (= |calculate_output5::input| (_ bv1 32)))).def_1105875))
(assert (let ((.def_1105877 (= |calculate_output4::input| |calculate_output5::input|))).def_1105877))
(assert (let ((.def_1105879 (= |calculate_output5::input| (_ bv2 32)))).def_1105879))
(assert (let ((.def_1105882 (= |calculate_output6::input| (_ bv6 32)))).def_1105882))
(assert (let ((.def_1105885 (= |calculate_output7::input| (_ bv3 32)))).def_1105885))
(assert (let ((.def_1105887 (= |calculate_output5::input| |calculate_output7::input|))).def_1105887))
(assert (let ((.def_1105889 (= |calculate_output7::input| (_ bv2 32)))).def_1105889))
(assert (let ((.def_1105891 (= |calculate_output5::input| |calculate_output6::input|))).def_1105891))
(assert (let ((.def_1105893 (= |calculate_output6::input| (_ bv5 32)))).def_1105893))
(assert (let ((.def_1105895 (= |calculate_output7::input| (_ bv6 32)))).def_1105895))
(assert (let ((.def_1105897 (= |calculate_output6::input| |calculate_output7::input|))).def_1105897))
(assert (let ((.def_1105899 (= |calculate_output7::input| (_ bv5 32)))).def_1105899))

