(set-info :source |printed by MathSAT|)
(declare-fun c_num_read () (_ BitVec 32))
(declare-fun p_num_write () (_ BitVec 32))
(declare-fun c_last_read () (_ BitVec 32))
(declare-fun p_last_write () (_ BitVec 32))
(declare-fun c_dr_pc () (_ BitVec 32))
(declare-fun q_free () (_ BitVec 32))
(declare-fun q_buf_0 () (_ BitVec 32))
(declare-fun p_dw_pc () (_ BitVec 32))
(declare-fun q_read_ev () (_ BitVec 32))
(declare-fun c_dr_st () (_ BitVec 32))
(declare-fun p_dw_st () (_ BitVec 32))
(declare-fun m_pc () (_ BitVec 32))
(declare-fun t1_pc () (_ BitVec 32))
(declare-fun t2_pc () (_ BitVec 32))
(declare-fun t3_pc () (_ BitVec 32))
(declare-fun t4_pc () (_ BitVec 32))
(declare-fun t5_pc () (_ BitVec 32))
(declare-fun t6_pc () (_ BitVec 32))
(declare-fun t7_pc () (_ BitVec 32))
(declare-fun m_st () (_ BitVec 32))

*:
(assert (let ((.def_600 (= c_num_read p_num_write))).def_600))
(assert (let ((.def_609 (= c_last_read p_last_write))).def_609))

error1 N4:
(assert false)
(assert (let ((.def_600 (= c_num_read p_num_write))).def_600))
(assert (let ((.def_609 (= c_last_read p_last_write))).def_609))

do_write_p N64:
(assert (let ((.def_944 (= c_dr_pc (_ bv0 32)))).def_944))
(assert (let ((.def_600 (= c_num_read p_num_write))).def_600))
(assert (let ((.def_609 (= c_last_read p_last_write))).def_609))
(assert (let ((.def_1047 (= q_free (_ bv1 32)))).def_1047))
(assert false)
(assert (let ((.def_1390 (= p_last_write q_buf_0))).def_1390))
(assert (let ((.def_1050 (= p_dw_pc (_ bv1 32)))).def_1050))
(assert (let ((.def_1577 (bvadd (_ bv1 32) c_num_read)))(let ((.def_1578 (= p_num_write .def_1577))).def_1578)))
(assert (let ((.def_2471 (= q_free (_ bv0 32)))).def_2471))
(assert (let ((.def_1580 (= c_dr_pc (_ bv1 32)))).def_1580))
(assert (let ((.def_5273 (= q_read_ev (_ bv1 32)))).def_5273))

do_read_c N100:
(assert (let ((.def_1050 (= p_dw_pc (_ bv1 32)))).def_1050))
(assert (let ((.def_1047 (= q_free (_ bv1 32)))).def_1047))
(assert (let ((.def_600 (= c_num_read p_num_write))).def_600))
(assert (let ((.def_609 (= c_last_read p_last_write))).def_609))
(assert (let ((.def_1390 (= p_last_write q_buf_0))).def_1390))
(assert (let ((.def_1577 (bvadd (_ bv1 32) c_num_read)))(let ((.def_1578 (= p_num_write .def_1577))).def_1578)))
(assert (let ((.def_1580 (= c_dr_pc (_ bv1 32)))).def_1580))
(assert false)

eval1 N170:
(assert (let ((.def_944 (= c_dr_pc (_ bv0 32)))).def_944))
(assert (let ((.def_600 (= c_num_read p_num_write))).def_600))
(assert (let ((.def_609 (= c_last_read p_last_write))).def_609))
(assert (let ((.def_1047 (= q_free (_ bv1 32)))).def_1047))
(assert (let ((.def_1320 (= p_dw_pc (_ bv0 32)))).def_1320))
(assert (let ((.def_1580 (= c_dr_pc (_ bv1 32)))).def_1580))
(assert (let ((.def_3894 (= c_dr_st (_ bv0 32)))).def_3894))
(assert (let ((.def_1050 (= p_dw_pc (_ bv1 32)))).def_1050))
(assert (let ((.def_5273 (= q_read_ev (_ bv1 32)))).def_5273))
(assert (let ((.def_5276 (= p_dw_st (_ bv0 32)))).def_5276))
(assert (let ((.def_1390 (= p_last_write q_buf_0))).def_1390))
(assert (let ((.def_1577 (bvadd (_ bv1 32) c_num_read)))(let ((.def_1578 (= p_num_write .def_1577))).def_1578)))

start_simulation1 N221:
(assert (let ((.def_944 (= c_dr_pc (_ bv0 32)))).def_944))
(assert (let ((.def_600 (= c_num_read p_num_write))).def_600))
(assert (let ((.def_609 (= c_last_read p_last_write))).def_609))
(assert (let ((.def_1047 (= q_free (_ bv1 32)))).def_1047))
(assert (let ((.def_1320 (= p_dw_pc (_ bv0 32)))).def_1320))
(assert (let ((.def_5273 (= q_read_ev (_ bv1 32)))).def_5273))

error2 N260:
(assert false)
(assert (let ((.def_600 (= c_num_read p_num_write))).def_600))
(assert (let ((.def_609 (= c_last_read p_last_write))).def_609))

eval2 N731:
(assert (let ((.def_7726 (= m_pc (_ bv0 32)))).def_7726))
(assert (let ((.def_600 (= c_num_read p_num_write))).def_600))
(assert (let ((.def_609 (= c_last_read p_last_write))).def_609))
(assert (let ((.def_12957 (= t1_pc (_ bv0 32)))).def_12957))
(assert (let ((.def_12960 (= t2_pc (_ bv0 32)))).def_12960))
(assert (let ((.def_12963 (= t3_pc (_ bv0 32)))).def_12963))
(assert (let ((.def_12966 (= t4_pc (_ bv0 32)))).def_12966))
(assert (let ((.def_12969 (= t5_pc (_ bv0 32)))).def_12969))
(assert (let ((.def_12972 (= t6_pc (_ bv0 32)))).def_12972))
(assert (let ((.def_12975 (= t7_pc (_ bv0 32)))).def_12975))
(assert (let ((.def_12977 (= m_pc (_ bv1 32)))).def_12977))
(assert (let ((.def_12979 (= t1_pc (_ bv1 32)))).def_12979))
(assert (let ((.def_12981 (= t2_pc (_ bv1 32)))).def_12981))
(assert (let ((.def_12983 (= t3_pc (_ bv1 32)))).def_12983))
(assert (let ((.def_12985 (= t4_pc (_ bv1 32)))).def_12985))
(assert (let ((.def_12987 (= t5_pc (_ bv1 32)))).def_12987))
(assert (let ((.def_12989 (= t6_pc (_ bv1 32)))).def_12989))
(assert (let ((.def_12991 (= t7_pc (_ bv1 32)))).def_12991))
(assert (let ((.def_12994 (= m_st (_ bv0 32)))).def_12994))

start_simulation2 N1127:
(assert (let ((.def_7726 (= m_pc (_ bv0 32)))).def_7726))
(assert (let ((.def_600 (= c_num_read p_num_write))).def_600))
(assert (let ((.def_609 (= c_last_read p_last_write))).def_609))
(assert (let ((.def_12957 (= t1_pc (_ bv0 32)))).def_12957))
(assert (let ((.def_12960 (= t2_pc (_ bv0 32)))).def_12960))
(assert (let ((.def_12963 (= t3_pc (_ bv0 32)))).def_12963))
(assert (let ((.def_12966 (= t4_pc (_ bv0 32)))).def_12966))
(assert (let ((.def_12969 (= t5_pc (_ bv0 32)))).def_12969))
(assert (let ((.def_12972 (= t6_pc (_ bv0 32)))).def_12972))
(assert (let ((.def_12975 (= t7_pc (_ bv0 32)))).def_12975))
(assert (let ((.def_12977 (= m_pc (_ bv1 32)))).def_12977))
(assert (let ((.def_12979 (= t1_pc (_ bv1 32)))).def_12979))
(assert (let ((.def_12981 (= t2_pc (_ bv1 32)))).def_12981))
(assert (let ((.def_12983 (= t3_pc (_ bv1 32)))).def_12983))
(assert (let ((.def_12985 (= t4_pc (_ bv1 32)))).def_12985))
(assert (let ((.def_12987 (= t5_pc (_ bv1 32)))).def_12987))
(assert (let ((.def_12989 (= t6_pc (_ bv1 32)))).def_12989))
(assert (let ((.def_12991 (= t7_pc (_ bv1 32)))).def_12991))

