(set-info :source |printed by MathSAT|)
(declare-fun a20 () (_ BitVec 32))
(declare-fun a25 () (_ BitVec 32))
(declare-fun a12 () (_ BitVec 32))
(declare-fun a15 () (_ BitVec 32))
(declare-fun a16 () (_ BitVec 32))
(declare-fun a2 () (_ BitVec 32))
(declare-fun a27 () (_ BitVec 32))
(declare-fun a9 () (_ BitVec 32))
(declare-fun m_pc () (_ BitVec 32))
(declare-fun t1_pc () (_ BitVec 32))
(declare-fun t2_pc () (_ BitVec 32))
(declare-fun t3_pc () (_ BitVec 32))
(declare-fun t4_pc () (_ BitVec 32))
(declare-fun m_st () (_ BitVec 32))

*:
(assert (let ((.def_107158 (= a20 (_ bv5 32)))).def_107158))

calculate_output8 N29943:
(assert false)
(assert (let ((.def_107158 (= a20 (_ bv5 32)))).def_107158))

main1 N30136:
(assert (let ((.def_107158 (= a20 (_ bv5 32)))).def_107158))
(assert (let ((.def_154515 (= a25 (_ bv1 32)))).def_154515))
(assert (let ((.def_154518 (= a12 (_ bv4 32)))).def_154518))
(assert (let ((.def_154521 (= a15 (_ bv1 32)))).def_154521))
(assert (let ((.def_154524 (= a16 (_ bv1 32)))).def_154524))
(assert (let ((.def_154527 (= a2 (_ bv10 32)))).def_154527))
(assert (let ((.def_154530 (= a27 (_ bv1 32)))).def_154530))
(assert (let ((.def_154533 (= a9 (_ bv18 32)))).def_154533))
(assert (let ((.def_606266 (= a12 (_ bv2 32)))).def_606266))
(assert (let ((.def_606268 (= a2 (_ bv13 32)))).def_606268))
(assert (let ((.def_606270 (= a2 (_ bv11 32)))).def_606270))
(assert (let ((.def_606272 (= a9 (_ bv16 32)))).def_606272))
(assert (let ((.def_606274 (= a20 (_ bv7 32)))).def_606274))
(assert (let ((.def_606276 (= a20 (_ bv6 32)))).def_606276))
(assert (let ((.def_606278 (= a12 (_ bv6 32)))).def_606278))
(assert (let ((.def_606280 (= a2 (_ bv9 32)))).def_606280))
(assert (let ((.def_606282 (= a2 (_ bv12 32)))).def_606282))
(assert (let ((.def_606284 (= a9 (_ bv17 32)))).def_606284))
(assert (let ((.def_606286 (= a12 (_ bv5 32)))).def_606286))
(assert (let ((.def_606288 (= a12 (_ bv3 32)))).def_606288))

error N30154:
(assert false)
(assert (let ((.def_107158 (= a20 (_ bv5 32)))).def_107158))

eval N30463:
(assert (let ((.def_943008 (= m_pc (_ bv0 32)))).def_943008))
(assert (let ((.def_107158 (= a20 (_ bv5 32)))).def_107158))
(assert (let ((.def_945345 (= t1_pc (_ bv0 32)))).def_945345))
(assert (let ((.def_945348 (= t2_pc (_ bv0 32)))).def_945348))
(assert (let ((.def_945351 (= t3_pc (_ bv0 32)))).def_945351))
(assert (let ((.def_945354 (= t4_pc (_ bv0 32)))).def_945354))
(assert (let ((.def_945356 (= m_pc (_ bv1 32)))).def_945356))
(assert (let ((.def_945358 (= t1_pc (_ bv1 32)))).def_945358))
(assert (let ((.def_945360 (= t2_pc (_ bv1 32)))).def_945360))
(assert (let ((.def_945362 (= t3_pc (_ bv1 32)))).def_945362))
(assert (let ((.def_945364 (= t4_pc (_ bv1 32)))).def_945364))
(assert (let ((.def_945367 (= m_st (_ bv0 32)))).def_945367))

start_simulation N30736:
(assert (let ((.def_943008 (= m_pc (_ bv0 32)))).def_943008))
(assert (let ((.def_107158 (= a20 (_ bv5 32)))).def_107158))
(assert (let ((.def_945345 (= t1_pc (_ bv0 32)))).def_945345))
(assert (let ((.def_945348 (= t2_pc (_ bv0 32)))).def_945348))
(assert (let ((.def_945351 (= t3_pc (_ bv0 32)))).def_945351))
(assert (let ((.def_945354 (= t4_pc (_ bv0 32)))).def_945354))
(assert (let ((.def_945356 (= m_pc (_ bv1 32)))).def_945356))
(assert (let ((.def_945358 (= t1_pc (_ bv1 32)))).def_945358))
(assert (let ((.def_945360 (= t2_pc (_ bv1 32)))).def_945360))
(assert (let ((.def_945362 (= t3_pc (_ bv1 32)))).def_945362))
(assert (let ((.def_945364 (= t4_pc (_ bv1 32)))).def_945364))

