(set-info :source |printed by MathSAT|)
(declare-fun a20 () (_ BitVec 32))
(declare-fun a2 () (_ BitVec 32))
(declare-fun a27 () (_ BitVec 32))
(declare-fun a16 () (_ BitVec 32))
(declare-fun a15 () (_ BitVec 32))
(declare-fun a12 () (_ BitVec 32))
(declare-fun a25 () (_ BitVec 32))
(declare-fun a9 () (_ BitVec 32))

*:
(assert (let ((.def_106413 (= a20 (_ bv5 32)))).def_106413))

calculate_output8 N29723:
(assert false)
(assert (let ((.def_106413 (= a20 (_ bv5 32)))).def_106413))

main1 N30136:
(assert (let ((.def_153425 (= a2 (_ bv10 32)))).def_153425))
(assert (let ((.def_153428 (= a27 (_ bv1 32)))).def_153428))
(assert (let ((.def_153431 (= a16 (_ bv1 32)))).def_153431))
(assert (let ((.def_153434 (= a15 (_ bv1 32)))).def_153434))
(assert (let ((.def_153437 (= a12 (_ bv4 32)))).def_153437))
(assert (let ((.def_153440 (= a25 (_ bv1 32)))).def_153440))
(assert (let ((.def_106413 (= a20 (_ bv5 32)))).def_106413))
(assert (let ((.def_321416 (= a9 (_ bv18 32)))).def_321416))
(assert (let ((.def_321418 (= a20 (_ bv6 32)))).def_321418))
(assert (let ((.def_321420 (= a12 (_ bv3 32)))).def_321420))
(assert (let ((.def_321422 (= a2 (_ bv13 32)))).def_321422))
(assert (let ((.def_321424 (= a2 (_ bv9 32)))).def_321424))
(assert (let ((.def_321426 (= a12 (_ bv2 32)))).def_321426))
(assert (let ((.def_321428 (= a2 (_ bv11 32)))).def_321428))
(assert (let ((.def_321430 (= a9 (_ bv16 32)))).def_321430))
(assert (let ((.def_321432 (= a9 (_ bv17 32)))).def_321432))

