(set-info :source |printed by MathSAT|)
(declare-fun c_last_read () (_ BitVec 32))
(declare-fun p_last_write () (_ BitVec 32))
(declare-fun c_num_read () (_ BitVec 32))
(declare-fun p_num_write () (_ BitVec 32))
(declare-fun c_dr_pc () (_ BitVec 32))
(declare-fun q_free () (_ BitVec 32))
(declare-fun q_buf_0 () (_ BitVec 32))
(declare-fun c_dr_st () (_ BitVec 32))
(declare-fun q_req_up () (_ BitVec 32))
(declare-fun q_write_ev () (_ BitVec 32))
(declare-fun q_read_ev () (_ BitVec 32))
(declare-fun p_dw_pc () (_ BitVec 32))
(declare-fun p_dw_st () (_ BitVec 32))
(declare-fun m_pc () (_ BitVec 32))
(declare-fun t1_pc () (_ BitVec 32))
(declare-fun t2_pc () (_ BitVec 32))
(declare-fun t3_pc () (_ BitVec 32))
(declare-fun t4_pc () (_ BitVec 32))
(declare-fun m_st () (_ BitVec 32))
(declare-fun t4_st () (_ BitVec 32))
(declare-fun E_4 () (_ BitVec 32))
(declare-fun E_2 () (_ BitVec 32))
(declare-fun E_M () (_ BitVec 32))
(declare-fun E_3 () (_ BitVec 32))
(declare-fun t1_st () (_ BitVec 32))
(declare-fun t2_st () (_ BitVec 32))
(declare-fun t3_st () (_ BitVec 32))
(declare-fun E_1 () (_ BitVec 32))
(declare-fun local () (_ BitVec 32))
(declare-fun token () (_ BitVec 32))
(declare-fun T4_E () (_ BitVec 32))
(declare-fun T3_E () (_ BitVec 32))
(declare-fun T2_E () (_ BitVec 32))
(declare-fun T1_E () (_ BitVec 32))
(declare-fun M_E () (_ BitVec 32))

*:
(assert (let ((.def_544 (= c_last_read p_last_write))).def_544))
(assert (let ((.def_553 (= c_num_read p_num_write))).def_553))

error1 N4:
(assert false)
(assert (let ((.def_544 (= c_last_read p_last_write))).def_544))
(assert (let ((.def_553 (= c_num_read p_num_write))).def_553))

do_write_p N78:
(assert (let ((.def_740 (= c_dr_pc (_ bv0 32)))).def_740))
(assert (let ((.def_544 (= c_last_read p_last_write))).def_544))
(assert (let ((.def_553 (= c_num_read p_num_write))).def_553))
(assert (let ((.def_808 (= q_free (_ bv1 32)))).def_808))
(assert false)
(assert (let ((.def_992 (= p_last_write q_buf_0))).def_992))
(assert (let ((.def_1134 (= c_dr_pc (_ bv1 32)))).def_1134))
(assert (let ((.def_1136 (= q_free (_ bv0 32)))).def_1136))
(assert (let ((.def_1140 (bvadd (_ bv1 32) c_num_read)))(let ((.def_1141 (= p_num_write .def_1140))).def_1141)))
(assert (let ((.def_1821 (= c_dr_st (_ bv0 32)))).def_1821))
(assert (let ((.def_4227 (= q_req_up (_ bv1 32)))).def_4227))
(assert (let ((.def_5860 (= q_write_ev (_ bv1 32)))).def_5860))
(assert (let ((.def_5862 (= q_write_ev (_ bv0 32)))).def_5862))
(assert (let ((.def_8195 (= q_read_ev (_ bv1 32)))).def_8195))
(assert (let ((.def_8197 (= q_read_ev (_ bv0 32)))).def_8197))

do_read_c N112:
(assert (let ((.def_808 (= q_free (_ bv1 32)))).def_808))
(assert (let ((.def_544 (= c_last_read p_last_write))).def_544))
(assert (let ((.def_553 (= c_num_read p_num_write))).def_553))
(assert (let ((.def_992 (= p_last_write q_buf_0))).def_992))
(assert (let ((.def_1140 (bvadd (_ bv1 32) c_num_read)))(let ((.def_1141 (= p_num_write .def_1140))).def_1141)))
(assert false)
(assert (let ((.def_1136 (= q_free (_ bv0 32)))).def_1136))
(assert (let ((.def_5860 (= q_write_ev (_ bv1 32)))).def_5860))
(assert (let ((.def_5862 (= q_write_ev (_ bv0 32)))).def_5862))
(assert (let ((.def_1138 (= p_dw_pc (_ bv1 32)))).def_1138))
(assert (let ((.def_4227 (= q_req_up (_ bv1 32)))).def_4227))
(assert (let ((.def_2298 (= p_dw_st (_ bv0 32)))).def_2298))
(assert (let ((.def_8195 (= q_read_ev (_ bv1 32)))).def_8195))
(assert (let ((.def_8197 (= q_read_ev (_ bv0 32)))).def_8197))

eval1 N228:
(assert (let ((.def_740 (= c_dr_pc (_ bv0 32)))).def_740))
(assert (let ((.def_544 (= c_last_read p_last_write))).def_544))
(assert (let ((.def_553 (= c_num_read p_num_write))).def_553))
(assert (let ((.def_808 (= q_free (_ bv1 32)))).def_808))
(assert (let ((.def_950 (= p_dw_pc (_ bv0 32)))).def_950))
(assert (let ((.def_1134 (= c_dr_pc (_ bv1 32)))).def_1134))
(assert (let ((.def_1136 (= q_free (_ bv0 32)))).def_1136))
(assert (let ((.def_1138 (= p_dw_pc (_ bv1 32)))).def_1138))
(assert (let ((.def_2298 (= p_dw_st (_ bv0 32)))).def_2298))
(assert (let ((.def_992 (= p_last_write q_buf_0))).def_992))
(assert (let ((.def_1140 (bvadd (_ bv1 32) c_num_read)))(let ((.def_1141 (= p_num_write .def_1140))).def_1141)))
(assert (let ((.def_1821 (= c_dr_st (_ bv0 32)))).def_1821))
(assert (let ((.def_4227 (= q_req_up (_ bv1 32)))).def_4227))
(assert (let ((.def_5860 (= q_write_ev (_ bv1 32)))).def_5860))
(assert (let ((.def_5862 (= q_write_ev (_ bv0 32)))).def_5862))
(assert (let ((.def_8195 (= q_read_ev (_ bv1 32)))).def_8195))
(assert (let ((.def_8197 (= q_read_ev (_ bv0 32)))).def_8197))

start_simulation1 N283:
(assert (let ((.def_740 (= c_dr_pc (_ bv0 32)))).def_740))
(assert (let ((.def_544 (= c_last_read p_last_write))).def_544))
(assert (let ((.def_553 (= c_num_read p_num_write))).def_553))
(assert (let ((.def_808 (= q_free (_ bv1 32)))).def_808))
(assert (let ((.def_950 (= p_dw_pc (_ bv0 32)))).def_950))
(assert (let ((.def_1134 (= c_dr_pc (_ bv1 32)))).def_1134))
(assert (let ((.def_1136 (= q_free (_ bv0 32)))).def_1136))
(assert (let ((.def_1138 (= p_dw_pc (_ bv1 32)))).def_1138))
(assert (let ((.def_1821 (= c_dr_st (_ bv0 32)))).def_1821))
(assert (let ((.def_2298 (= p_dw_st (_ bv0 32)))).def_2298))
(assert (let ((.def_992 (= p_last_write q_buf_0))).def_992))
(assert (let ((.def_5860 (= q_write_ev (_ bv1 32)))).def_5860))
(assert (let ((.def_5862 (= q_write_ev (_ bv0 32)))).def_5862))
(assert (let ((.def_8195 (= q_read_ev (_ bv1 32)))).def_8195))
(assert (let ((.def_8197 (= q_read_ev (_ bv0 32)))).def_8197))
(assert (let ((.def_1140 (bvadd (_ bv1 32) c_num_read)))(let ((.def_1141 (= p_num_write .def_1140))).def_1141)))

error2 N328:
(assert false)
(assert (let ((.def_544 (= c_last_read p_last_write))).def_544))
(assert (let ((.def_553 (= c_num_read p_num_write))).def_553))

eval2 N624:
(assert (let ((.def_10682 (= m_pc (_ bv0 32)))).def_10682))
(assert (let ((.def_544 (= c_last_read p_last_write))).def_544))
(assert (let ((.def_553 (= c_num_read p_num_write))).def_553))
(assert (let ((.def_12982 (= t1_pc (_ bv0 32)))).def_12982))
(assert (let ((.def_12985 (= t2_pc (_ bv0 32)))).def_12985))
(assert (let ((.def_12988 (= t3_pc (_ bv0 32)))).def_12988))
(assert (let ((.def_12991 (= t4_pc (_ bv0 32)))).def_12991))
(assert (let ((.def_12993 (= m_pc (_ bv1 32)))).def_12993))
(assert (let ((.def_12995 (= t1_pc (_ bv1 32)))).def_12995))
(assert (let ((.def_12997 (= t2_pc (_ bv1 32)))).def_12997))
(assert (let ((.def_12999 (= t3_pc (_ bv1 32)))).def_12999))
(assert (let ((.def_13001 (= t4_pc (_ bv1 32)))).def_13001))
(assert (let ((.def_13004 (= m_st (_ bv0 32)))).def_13004))
(assert (let ((.def_16258 (= t4_st (_ bv0 32)))).def_16258))
(assert (let ((.def_16261 (= E_4 (_ bv1 32)))).def_16261))
(assert (let ((.def_16264 (= E_2 (_ bv1 32)))).def_16264))
(assert (let ((.def_16267 (= E_M (_ bv1 32)))).def_16267))
(assert (let ((.def_16270 (= E_3 (_ bv1 32)))).def_16270))
(assert (let ((.def_16273 (= t1_st (_ bv0 32)))).def_16273))
(assert (let ((.def_16276 (= t2_st (_ bv0 32)))).def_16276))
(assert (let ((.def_16279 (= t3_st (_ bv0 32)))).def_16279))
(assert (let ((.def_16282 (= E_1 (_ bv1 32)))).def_16282))
(assert (let ((.def_16285 (bvadd (_ bv4 32) local)))(let ((.def_16287 (= .def_16285 token))).def_16287)))
(assert (let ((.def_22788 (= E_1 (_ bv2 32)))).def_22788))
(assert (let ((.def_22790 (= t3_st (_ bv2 32)))).def_22790))
(assert (let ((.def_22792 (= t4_st (_ bv2 32)))).def_22792))
(assert (let ((.def_22794 (bvadd (_ bv2 32) local)))(let ((.def_22795 (= token .def_22794))).def_22795)))
(assert (let ((.def_22797 (= local token))).def_22797))
(assert (let ((.def_22799 (bvadd (_ bv1 32) local)))(let ((.def_22800 (= token .def_22799))).def_22800)))
(assert (let ((.def_22802 (bvadd (_ bv3 32) local)))(let ((.def_22803 (= token .def_22802))).def_22803)))
(assert (let ((.def_29086 (= E_M (_ bv0 32)))).def_29086))
(assert (let ((.def_29088 (= E_2 (_ bv0 32)))).def_29088))
(assert (let ((.def_29090 (= E_1 (_ bv0 32)))).def_29090))
(assert (let ((.def_34895 (= E_4 (_ bv0 32)))).def_34895))
(assert (let ((.def_34897 (= E_3 (_ bv0 32)))).def_34897))
(assert (let ((.def_34900 (= T4_E (_ bv0 32)))).def_34900))
(assert (let ((.def_34903 (= T3_E (_ bv0 32)))).def_34903))
(assert (let ((.def_34906 (= T2_E (_ bv0 32)))).def_34906))
(assert (let ((.def_34909 (= T1_E (_ bv0 32)))).def_34909))
(assert (let ((.def_34912 (= M_E (_ bv0 32)))).def_34912))
(assert false)

start_simulation2 N897:
(assert (let ((.def_10682 (= m_pc (_ bv0 32)))).def_10682))
(assert (let ((.def_544 (= c_last_read p_last_write))).def_544))
(assert (let ((.def_553 (= c_num_read p_num_write))).def_553))
(assert (let ((.def_12982 (= t1_pc (_ bv0 32)))).def_12982))
(assert (let ((.def_12985 (= t2_pc (_ bv0 32)))).def_12985))
(assert (let ((.def_12988 (= t3_pc (_ bv0 32)))).def_12988))
(assert (let ((.def_12991 (= t4_pc (_ bv0 32)))).def_12991))
(assert (let ((.def_12993 (= m_pc (_ bv1 32)))).def_12993))
(assert (let ((.def_12995 (= t1_pc (_ bv1 32)))).def_12995))
(assert (let ((.def_12997 (= t2_pc (_ bv1 32)))).def_12997))
(assert (let ((.def_12999 (= t3_pc (_ bv1 32)))).def_12999))
(assert (let ((.def_13001 (= t4_pc (_ bv1 32)))).def_13001))
(assert (let ((.def_16258 (= t4_st (_ bv0 32)))).def_16258))
(assert (let ((.def_16261 (= E_4 (_ bv1 32)))).def_16261))
(assert (let ((.def_16264 (= E_2 (_ bv1 32)))).def_16264))
(assert (let ((.def_16267 (= E_M (_ bv1 32)))).def_16267))
(assert (let ((.def_16270 (= E_3 (_ bv1 32)))).def_16270))
(assert (let ((.def_13004 (= m_st (_ bv0 32)))).def_13004))
(assert (let ((.def_16282 (= E_1 (_ bv1 32)))).def_16282))
(assert (let ((.def_22788 (= E_1 (_ bv2 32)))).def_22788))
(assert (let ((.def_16276 (= t2_st (_ bv0 32)))).def_16276))
(assert (let ((.def_16273 (= t1_st (_ bv0 32)))).def_16273))
(assert (let ((.def_29086 (= E_M (_ bv0 32)))).def_29086))
(assert (let ((.def_29088 (= E_2 (_ bv0 32)))).def_29088))
(assert (let ((.def_16279 (= t3_st (_ bv0 32)))).def_16279))
(assert (let ((.def_34895 (= E_4 (_ bv0 32)))).def_34895))
(assert (let ((.def_34897 (= E_3 (_ bv0 32)))).def_34897))
(assert (let ((.def_34900 (= T4_E (_ bv0 32)))).def_34900))
(assert (let ((.def_34903 (= T3_E (_ bv0 32)))).def_34903))
(assert (let ((.def_34906 (= T2_E (_ bv0 32)))).def_34906))
(assert (let ((.def_34909 (= T1_E (_ bv0 32)))).def_34909))
(assert (let ((.def_34912 (= M_E (_ bv0 32)))).def_34912))

