(set-info :source |printed by MathSAT|)
(declare-fun a20 () (_ BitVec 32))
(declare-fun a25 () (_ BitVec 32))
(declare-fun a12 () (_ BitVec 32))
(declare-fun a15 () (_ BitVec 32))
(declare-fun a16 () (_ BitVec 32))
(declare-fun a2 () (_ BitVec 32))
(declare-fun a27 () (_ BitVec 32))
(declare-fun a9 () (_ BitVec 32))
(declare-fun m_pc () (_ BitVec 32))
(declare-fun t1_pc () (_ BitVec 32))
(declare-fun t2_pc () (_ BitVec 32))
(declare-fun t3_pc () (_ BitVec 32))
(declare-fun t4_pc () (_ BitVec 32))
(declare-fun t5_pc () (_ BitVec 32))
(declare-fun t6_pc () (_ BitVec 32))
(declare-fun t7_pc () (_ BitVec 32))
(declare-fun t8_pc () (_ BitVec 32))
(declare-fun t9_pc () (_ BitVec 32))
(declare-fun t10_pc () (_ BitVec 32))
(declare-fun m_st () (_ BitVec 32))
(declare-fun E_8 () (_ BitVec 32))
(declare-fun E_7 () (_ BitVec 32))
(declare-fun E_6 () (_ BitVec 32))
(declare-fun E_5 () (_ BitVec 32))
(declare-fun E_4 () (_ BitVec 32))
(declare-fun E_3 () (_ BitVec 32))
(declare-fun E_2 () (_ BitVec 32))
(declare-fun E_M () (_ BitVec 32))
(declare-fun E_10 () (_ BitVec 32))
(declare-fun E_9 () (_ BitVec 32))
(declare-fun t2_st () (_ BitVec 32))
(declare-fun t3_st () (_ BitVec 32))
(declare-fun t6_st () (_ BitVec 32))
(declare-fun t4_st () (_ BitVec 32))
(declare-fun t7_st () (_ BitVec 32))
(declare-fun t5_st () (_ BitVec 32))
(declare-fun t1_st () (_ BitVec 32))
(declare-fun t8_st () (_ BitVec 32))
(declare-fun t9_st () (_ BitVec 32))
(declare-fun t10_st () (_ BitVec 32))
(declare-fun E_1 () (_ BitVec 32))
(declare-fun local () (_ BitVec 32))
(declare-fun token () (_ BitVec 32))

*:
(assert (let ((.def_107248 (= a20 (_ bv5 32)))).def_107248))

calculate_output8 N29943:
(assert false)
(assert (let ((.def_107248 (= a20 (_ bv5 32)))).def_107248))

main1 N30136:
(assert (let ((.def_107248 (= a20 (_ bv5 32)))).def_107248))
(assert (let ((.def_154635 (= a25 (_ bv1 32)))).def_154635))
(assert (let ((.def_154638 (= a12 (_ bv4 32)))).def_154638))
(assert (let ((.def_154641 (= a15 (_ bv1 32)))).def_154641))
(assert (let ((.def_154644 (= a16 (_ bv1 32)))).def_154644))
(assert (let ((.def_154647 (= a2 (_ bv10 32)))).def_154647))
(assert (let ((.def_154650 (= a27 (_ bv1 32)))).def_154650))
(assert (let ((.def_154653 (= a9 (_ bv18 32)))).def_154653))
(assert (let ((.def_593370 (= a20 (_ bv7 32)))).def_593370))
(assert (let ((.def_593372 (= a20 (_ bv6 32)))).def_593372))
(assert (let ((.def_593374 (= a12 (_ bv2 32)))).def_593374))
(assert (let ((.def_593376 (= a12 (_ bv5 32)))).def_593376))
(assert (let ((.def_593378 (= a12 (_ bv6 32)))).def_593378))
(assert (let ((.def_593380 (= a2 (_ bv9 32)))).def_593380))
(assert (let ((.def_593382 (= a9 (_ bv16 32)))).def_593382))
(assert (let ((.def_593384 (= a2 (_ bv11 32)))).def_593384))
(assert (let ((.def_593386 (= a2 (_ bv13 32)))).def_593386))
(assert (let ((.def_593388 (= a12 (_ bv3 32)))).def_593388))
(assert (let ((.def_593390 (= a2 (_ bv12 32)))).def_593390))
(assert (let ((.def_593392 (= a9 (_ bv17 32)))).def_593392))

error N30154:
(assert false)
(assert (let ((.def_107248 (= a20 (_ bv5 32)))).def_107248))

eval N30774:
(assert (let ((.def_930616 (= m_pc (_ bv0 32)))).def_930616))
(assert (let ((.def_107248 (= a20 (_ bv5 32)))).def_107248))
(assert (let ((.def_939840 (= t1_pc (_ bv0 32)))).def_939840))
(assert (let ((.def_939843 (= t2_pc (_ bv0 32)))).def_939843))
(assert (let ((.def_939846 (= t3_pc (_ bv0 32)))).def_939846))
(assert (let ((.def_939849 (= t4_pc (_ bv0 32)))).def_939849))
(assert (let ((.def_939852 (= t5_pc (_ bv0 32)))).def_939852))
(assert (let ((.def_939855 (= t6_pc (_ bv0 32)))).def_939855))
(assert (let ((.def_939858 (= t7_pc (_ bv0 32)))).def_939858))
(assert (let ((.def_939861 (= t8_pc (_ bv0 32)))).def_939861))
(assert (let ((.def_939864 (= t9_pc (_ bv0 32)))).def_939864))
(assert (let ((.def_939867 (= t10_pc (_ bv0 32)))).def_939867))
(assert (let ((.def_939869 (= m_pc (_ bv1 32)))).def_939869))
(assert (let ((.def_939871 (= t1_pc (_ bv1 32)))).def_939871))
(assert (let ((.def_939873 (= t2_pc (_ bv1 32)))).def_939873))
(assert (let ((.def_939875 (= t3_pc (_ bv1 32)))).def_939875))
(assert (let ((.def_939877 (= t4_pc (_ bv1 32)))).def_939877))
(assert (let ((.def_939879 (= t5_pc (_ bv1 32)))).def_939879))
(assert (let ((.def_939881 (= t6_pc (_ bv1 32)))).def_939881))
(assert (let ((.def_939883 (= t7_pc (_ bv1 32)))).def_939883))
(assert (let ((.def_939885 (= t8_pc (_ bv1 32)))).def_939885))
(assert (let ((.def_939887 (= t9_pc (_ bv1 32)))).def_939887))
(assert (let ((.def_939889 (= t10_pc (_ bv1 32)))).def_939889))
(assert (let ((.def_939892 (= m_st (_ bv0 32)))).def_939892))
(assert (let ((.def_991372 (= E_8 (_ bv1 32)))).def_991372))
(assert (let ((.def_991375 (= E_7 (_ bv1 32)))).def_991375))
(assert (let ((.def_991378 (= E_6 (_ bv1 32)))).def_991378))
(assert (let ((.def_991381 (= E_5 (_ bv1 32)))).def_991381))
(assert (let ((.def_991384 (= E_4 (_ bv1 32)))).def_991384))
(assert (let ((.def_991387 (= E_3 (_ bv1 32)))).def_991387))
(assert (let ((.def_991390 (= E_2 (_ bv1 32)))).def_991390))
(assert (let ((.def_991393 (= E_M (_ bv1 32)))).def_991393))
(assert (let ((.def_991396 (= E_10 (_ bv1 32)))).def_991396))
(assert (let ((.def_991399 (= E_9 (_ bv1 32)))).def_991399))
(assert (let ((.def_991402 (= t2_st (_ bv0 32)))).def_991402))
(assert (let ((.def_991405 (= t3_st (_ bv0 32)))).def_991405))
(assert (let ((.def_991408 (= t6_st (_ bv0 32)))).def_991408))
(assert (let ((.def_991411 (= t4_st (_ bv0 32)))).def_991411))
(assert (let ((.def_991414 (= t7_st (_ bv0 32)))).def_991414))
(assert (let ((.def_991417 (= t5_st (_ bv0 32)))).def_991417))
(assert (let ((.def_991420 (= t1_st (_ bv0 32)))).def_991420))
(assert (let ((.def_991423 (= t8_st (_ bv0 32)))).def_991423))
(assert (let ((.def_991426 (= t9_st (_ bv0 32)))).def_991426))
(assert (let ((.def_991429 (= t10_st (_ bv0 32)))).def_991429))
(assert (let ((.def_991432 (= E_1 (_ bv1 32)))).def_991432))
(assert (let ((.def_991435 (bvadd (_ bv10 32) local)))(let ((.def_991437 (= .def_991435 token))).def_991437)))

start_simulation N31293:
(assert (let ((.def_930616 (= m_pc (_ bv0 32)))).def_930616))
(assert (let ((.def_107248 (= a20 (_ bv5 32)))).def_107248))
(assert (let ((.def_939840 (= t1_pc (_ bv0 32)))).def_939840))
(assert (let ((.def_939843 (= t2_pc (_ bv0 32)))).def_939843))
(assert (let ((.def_939846 (= t3_pc (_ bv0 32)))).def_939846))
(assert (let ((.def_939849 (= t4_pc (_ bv0 32)))).def_939849))
(assert (let ((.def_939852 (= t5_pc (_ bv0 32)))).def_939852))
(assert (let ((.def_939855 (= t6_pc (_ bv0 32)))).def_939855))
(assert (let ((.def_939858 (= t7_pc (_ bv0 32)))).def_939858))
(assert (let ((.def_939861 (= t8_pc (_ bv0 32)))).def_939861))
(assert (let ((.def_939864 (= t9_pc (_ bv0 32)))).def_939864))
(assert (let ((.def_939867 (= t10_pc (_ bv0 32)))).def_939867))
(assert (let ((.def_939869 (= m_pc (_ bv1 32)))).def_939869))
(assert (let ((.def_939871 (= t1_pc (_ bv1 32)))).def_939871))
(assert (let ((.def_939873 (= t2_pc (_ bv1 32)))).def_939873))
(assert (let ((.def_939875 (= t3_pc (_ bv1 32)))).def_939875))
(assert (let ((.def_939877 (= t4_pc (_ bv1 32)))).def_939877))
(assert (let ((.def_939879 (= t5_pc (_ bv1 32)))).def_939879))
(assert (let ((.def_939881 (= t6_pc (_ bv1 32)))).def_939881))
(assert (let ((.def_939883 (= t7_pc (_ bv1 32)))).def_939883))
(assert (let ((.def_939885 (= t8_pc (_ bv1 32)))).def_939885))
(assert (let ((.def_939887 (= t9_pc (_ bv1 32)))).def_939887))
(assert (let ((.def_939889 (= t10_pc (_ bv1 32)))).def_939889))
(assert (let ((.def_991372 (= E_8 (_ bv1 32)))).def_991372))
(assert (let ((.def_991375 (= E_7 (_ bv1 32)))).def_991375))
(assert (let ((.def_991378 (= E_6 (_ bv1 32)))).def_991378))
(assert (let ((.def_991381 (= E_5 (_ bv1 32)))).def_991381))
(assert (let ((.def_991384 (= E_4 (_ bv1 32)))).def_991384))
(assert (let ((.def_991387 (= E_3 (_ bv1 32)))).def_991387))
(assert (let ((.def_991390 (= E_2 (_ bv1 32)))).def_991390))
(assert (let ((.def_991393 (= E_M (_ bv1 32)))).def_991393))
(assert (let ((.def_991396 (= E_10 (_ bv1 32)))).def_991396))
(assert (let ((.def_991399 (= E_9 (_ bv1 32)))).def_991399))
(assert (let ((.def_939892 (= m_st (_ bv0 32)))).def_939892))

