(set-info :source |printed by MathSAT|)
(declare-fun a20 () (_ BitVec 32))
(declare-fun a25 () (_ BitVec 32))
(declare-fun a12 () (_ BitVec 32))
(declare-fun a15 () (_ BitVec 32))
(declare-fun a16 () (_ BitVec 32))
(declare-fun a2 () (_ BitVec 32))
(declare-fun a27 () (_ BitVec 32))
(declare-fun a9 () (_ BitVec 32))
(declare-fun m_pc () (_ BitVec 32))
(declare-fun t1_pc () (_ BitVec 32))
(declare-fun t2_pc () (_ BitVec 32))
(declare-fun t3_pc () (_ BitVec 32))
(declare-fun t4_pc () (_ BitVec 32))
(declare-fun m_st () (_ BitVec 32))

*:
(assert (let ((.def_107246 (= a20 (_ bv5 32)))).def_107246))

calculate_output8 N29965:
(assert false)
(assert (let ((.def_107246 (= a20 (_ bv5 32)))).def_107246))

main1 N30136:
(assert (let ((.def_107246 (= a20 (_ bv5 32)))).def_107246))
(assert (let ((.def_154642 (= a25 (_ bv1 32)))).def_154642))
(assert (let ((.def_154645 (= a12 (_ bv4 32)))).def_154645))
(assert (let ((.def_154648 (= a15 (_ bv1 32)))).def_154648))
(assert (let ((.def_154651 (= a16 (_ bv1 32)))).def_154651))
(assert (let ((.def_154654 (= a2 (_ bv10 32)))).def_154654))
(assert (let ((.def_154657 (= a27 (_ bv1 32)))).def_154657))
(assert (let ((.def_154660 (= a9 (_ bv18 32)))).def_154660))
(assert (let ((.def_320607 (= a9 (_ bv17 32)))).def_320607))
(assert (let ((.def_320609 (= a2 (_ bv12 32)))).def_320609))
(assert (let ((.def_320611 (= a2 (_ bv11 32)))).def_320611))
(assert (let ((.def_320613 (= a2 (_ bv9 32)))).def_320613))
(assert (let ((.def_320615 (= a12 (_ bv3 32)))).def_320615))
(assert (let ((.def_320617 (= a20 (_ bv6 32)))).def_320617))
(assert (let ((.def_320619 (= a2 (_ bv13 32)))).def_320619))
(assert (let ((.def_320621 (= a9 (_ bv16 32)))).def_320621))
(assert (let ((.def_1073501 (= a12 (_ bv2 32)))).def_1073501))
(assert (let ((.def_1073503 (= a12 (_ bv5 32)))).def_1073503))
(assert (let ((.def_1073505 (= a20 (_ bv7 32)))).def_1073505))
(assert (let ((.def_1073507 (= a12 (_ bv6 32)))).def_1073507))

error N30154:
(assert false)
(assert (let ((.def_107246 (= a20 (_ bv5 32)))).def_107246))

eval N30463:
(assert (let ((.def_1214653 (= m_pc (_ bv0 32)))).def_1214653))
(assert (let ((.def_107246 (= a20 (_ bv5 32)))).def_107246))
(assert (let ((.def_1216990 (= t1_pc (_ bv0 32)))).def_1216990))
(assert (let ((.def_1216993 (= t2_pc (_ bv0 32)))).def_1216993))
(assert (let ((.def_1216996 (= t3_pc (_ bv0 32)))).def_1216996))
(assert (let ((.def_1216999 (= t4_pc (_ bv0 32)))).def_1216999))
(assert (let ((.def_1217001 (= m_pc (_ bv1 32)))).def_1217001))
(assert (let ((.def_1217003 (= t1_pc (_ bv1 32)))).def_1217003))
(assert (let ((.def_1217005 (= t2_pc (_ bv1 32)))).def_1217005))
(assert (let ((.def_1217007 (= t3_pc (_ bv1 32)))).def_1217007))
(assert (let ((.def_1217009 (= t4_pc (_ bv1 32)))).def_1217009))
(assert (let ((.def_1217012 (= m_st (_ bv0 32)))).def_1217012))

start_simulation N30736:
(assert (let ((.def_1214653 (= m_pc (_ bv0 32)))).def_1214653))
(assert (let ((.def_107246 (= a20 (_ bv5 32)))).def_107246))
(assert (let ((.def_1216990 (= t1_pc (_ bv0 32)))).def_1216990))
(assert (let ((.def_1216993 (= t2_pc (_ bv0 32)))).def_1216993))
(assert (let ((.def_1216996 (= t3_pc (_ bv0 32)))).def_1216996))
(assert (let ((.def_1216999 (= t4_pc (_ bv0 32)))).def_1216999))
(assert (let ((.def_1217001 (= m_pc (_ bv1 32)))).def_1217001))
(assert (let ((.def_1217003 (= t1_pc (_ bv1 32)))).def_1217003))
(assert (let ((.def_1217005 (= t2_pc (_ bv1 32)))).def_1217005))
(assert (let ((.def_1217007 (= t3_pc (_ bv1 32)))).def_1217007))
(assert (let ((.def_1217009 (= t4_pc (_ bv1 32)))).def_1217009))

