(set-info :source |printed by MathSAT|)
(declare-fun a20 () (_ BitVec 32))
(declare-fun a25 () (_ BitVec 32))
(declare-fun a12 () (_ BitVec 32))
(declare-fun a15 () (_ BitVec 32))
(declare-fun a16 () (_ BitVec 32))
(declare-fun a2 () (_ BitVec 32))
(declare-fun a27 () (_ BitVec 32))
(declare-fun a9 () (_ BitVec 32))
(declare-fun m_pc () (_ BitVec 32))
(declare-fun t1_pc () (_ BitVec 32))
(declare-fun t2_pc () (_ BitVec 32))
(declare-fun t3_pc () (_ BitVec 32))
(declare-fun t4_pc () (_ BitVec 32))
(declare-fun t5_pc () (_ BitVec 32))
(declare-fun t6_pc () (_ BitVec 32))
(declare-fun t7_pc () (_ BitVec 32))
(declare-fun m_st () (_ BitVec 32))
(declare-fun t1_st () (_ BitVec 32))
(declare-fun E_3 () (_ BitVec 32))
(declare-fun E_2 () (_ BitVec 32))
(declare-fun E_5 () (_ BitVec 32))
(declare-fun E_4 () (_ BitVec 32))
(declare-fun E_M () (_ BitVec 32))
(declare-fun E_6 () (_ BitVec 32))
(declare-fun E_7 () (_ BitVec 32))
(declare-fun t2_st () (_ BitVec 32))
(declare-fun t3_st () (_ BitVec 32))
(declare-fun t4_st () (_ BitVec 32))
(declare-fun t6_st () (_ BitVec 32))
(declare-fun t5_st () (_ BitVec 32))
(declare-fun t7_st () (_ BitVec 32))
(declare-fun E_1 () (_ BitVec 32))
(declare-fun local () (_ BitVec 32))
(declare-fun token () (_ BitVec 32))
(declare-fun T7_E () (_ BitVec 32))
(declare-fun T6_E () (_ BitVec 32))
(declare-fun T5_E () (_ BitVec 32))
(declare-fun T4_E () (_ BitVec 32))
(declare-fun T3_E () (_ BitVec 32))
(declare-fun T2_E () (_ BitVec 32))
(declare-fun T1_E () (_ BitVec 32))
(declare-fun M_E () (_ BitVec 32))

*:
(assert (let ((.def_107203 (= a20 (_ bv5 32)))).def_107203))

calculate_output8 N29943:
(assert false)
(assert (let ((.def_107203 (= a20 (_ bv5 32)))).def_107203))

main1 N30136:
(assert (let ((.def_107203 (= a20 (_ bv5 32)))).def_107203))
(assert (let ((.def_154575 (= a25 (_ bv1 32)))).def_154575))
(assert (let ((.def_154578 (= a12 (_ bv4 32)))).def_154578))
(assert (let ((.def_154581 (= a15 (_ bv1 32)))).def_154581))
(assert (let ((.def_154584 (= a16 (_ bv1 32)))).def_154584))
(assert (let ((.def_154587 (= a2 (_ bv10 32)))).def_154587))
(assert (let ((.def_154590 (= a27 (_ bv1 32)))).def_154590))
(assert (let ((.def_154593 (= a9 (_ bv18 32)))).def_154593))
(assert (let ((.def_585317 (= a2 (_ bv12 32)))).def_585317))
(assert (let ((.def_585319 (= a20 (_ bv6 32)))).def_585319))
(assert (let ((.def_585321 (= a20 (_ bv7 32)))).def_585321))
(assert (let ((.def_585323 (= a2 (_ bv11 32)))).def_585323))
(assert (let ((.def_585325 (= a2 (_ bv13 32)))).def_585325))
(assert (let ((.def_585327 (= a2 (_ bv9 32)))).def_585327))
(assert (let ((.def_585329 (= a12 (_ bv3 32)))).def_585329))
(assert (let ((.def_585331 (= a12 (_ bv2 32)))).def_585331))
(assert (let ((.def_585333 (= a12 (_ bv5 32)))).def_585333))
(assert (let ((.def_585335 (= a9 (_ bv16 32)))).def_585335))
(assert (let ((.def_585337 (= a12 (_ bv6 32)))).def_585337))
(assert (let ((.def_585339 (= a9 (_ bv17 32)))).def_585339))

error N30154:
(assert false)
(assert (let ((.def_107203 (= a20 (_ bv5 32)))).def_107203))

eval N30612:
(assert (let ((.def_922246 (= m_pc (_ bv0 32)))).def_922246))
(assert (let ((.def_107203 (= a20 (_ bv5 32)))).def_107203))
(assert (let ((.def_927435 (= t1_pc (_ bv0 32)))).def_927435))
(assert (let ((.def_927438 (= t2_pc (_ bv0 32)))).def_927438))
(assert (let ((.def_927441 (= t3_pc (_ bv0 32)))).def_927441))
(assert (let ((.def_927444 (= t4_pc (_ bv0 32)))).def_927444))
(assert (let ((.def_927447 (= t5_pc (_ bv0 32)))).def_927447))
(assert (let ((.def_927450 (= t6_pc (_ bv0 32)))).def_927450))
(assert (let ((.def_927453 (= t7_pc (_ bv0 32)))).def_927453))
(assert (let ((.def_927455 (= m_pc (_ bv1 32)))).def_927455))
(assert (let ((.def_927457 (= t1_pc (_ bv1 32)))).def_927457))
(assert (let ((.def_927459 (= t2_pc (_ bv1 32)))).def_927459))
(assert (let ((.def_927461 (= t3_pc (_ bv1 32)))).def_927461))
(assert (let ((.def_927463 (= t4_pc (_ bv1 32)))).def_927463))
(assert (let ((.def_927465 (= t5_pc (_ bv1 32)))).def_927465))
(assert (let ((.def_927467 (= t6_pc (_ bv1 32)))).def_927467))
(assert (let ((.def_927469 (= t7_pc (_ bv1 32)))).def_927469))
(assert (let ((.def_927472 (= m_st (_ bv0 32)))).def_927472))
(assert (let ((.def_938206 (= t1_st (_ bv0 32)))).def_938206))
(assert (let ((.def_938209 (= E_3 (_ bv1 32)))).def_938209))
(assert (let ((.def_938212 (= E_2 (_ bv1 32)))).def_938212))
(assert (let ((.def_938215 (= E_5 (_ bv1 32)))).def_938215))
(assert (let ((.def_938218 (= E_4 (_ bv1 32)))).def_938218))
(assert (let ((.def_938221 (= E_M (_ bv1 32)))).def_938221))
(assert (let ((.def_938224 (= E_6 (_ bv1 32)))).def_938224))
(assert (let ((.def_938227 (= E_7 (_ bv1 32)))).def_938227))
(assert (let ((.def_938230 (= t2_st (_ bv0 32)))).def_938230))
(assert (let ((.def_938233 (= t3_st (_ bv0 32)))).def_938233))
(assert (let ((.def_938236 (= t4_st (_ bv0 32)))).def_938236))
(assert (let ((.def_938239 (= t6_st (_ bv0 32)))).def_938239))
(assert (let ((.def_938242 (= t5_st (_ bv0 32)))).def_938242))
(assert (let ((.def_938245 (= t7_st (_ bv0 32)))).def_938245))
(assert (let ((.def_938247 (= m_st (_ bv2 32)))).def_938247))
(assert (let ((.def_938250 (= E_1 (_ bv1 32)))).def_938250))
(assert (let ((.def_938253 (bvadd (_ bv7 32) local)))(let ((.def_938255 (= .def_938253 token))).def_938255)))
(assert (let ((.def_974607 (= E_2 (_ bv2 32)))).def_974607))
(assert (let ((.def_974609 (= local token))).def_974609))
(assert (let ((.def_974611 (= E_4 (_ bv2 32)))).def_974611))
(assert (let ((.def_974613 (= E_5 (_ bv2 32)))).def_974613))
(assert (let ((.def_974615 (= E_6 (_ bv2 32)))).def_974615))
(assert (let ((.def_974617 (= t5_st (_ bv2 32)))).def_974617))
(assert (let ((.def_974619 (= t7_st (_ bv2 32)))).def_974619))
(assert (let ((.def_974621 (bvadd (_ bv5 32) local)))(let ((.def_974622 (= token .def_974621))).def_974622)))
(assert (let ((.def_974624 (bvadd (_ bv6 32) local)))(let ((.def_974625 (= token .def_974624))).def_974625)))
(assert (let ((.def_974627 (bvadd (_ bv4 32) local)))(let ((.def_974628 (= token .def_974627))).def_974628)))
(assert (let ((.def_974630 (bvadd (_ bv3 32) local)))(let ((.def_974631 (= token .def_974630))).def_974631)))
(assert (let ((.def_974633 (bvadd (_ bv2 32) local)))(let ((.def_974634 (= token .def_974633))).def_974634)))
(assert (let ((.def_974636 (bvadd (_ bv1 32) local)))(let ((.def_974637 (= token .def_974636))).def_974637)))
(assert (let ((.def_1006337 (= E_M (_ bv0 32)))).def_1006337))
(assert (let ((.def_1006339 (= E_1 (_ bv0 32)))).def_1006339))
(assert (let ((.def_1038503 (= E_3 (_ bv0 32)))).def_1038503))
(assert (let ((.def_1038505 (= E_5 (_ bv0 32)))).def_1038505))
(assert (let ((.def_1038507 (= E_6 (_ bv0 32)))).def_1038507))
(assert (let ((.def_1038510 (= T7_E (_ bv0 32)))).def_1038510))
(assert (let ((.def_1038513 (= T6_E (_ bv0 32)))).def_1038513))
(assert (let ((.def_1038516 (= T5_E (_ bv0 32)))).def_1038516))
(assert (let ((.def_1038519 (= T4_E (_ bv0 32)))).def_1038519))
(assert (let ((.def_1038522 (= T3_E (_ bv0 32)))).def_1038522))
(assert (let ((.def_1038525 (= T2_E (_ bv0 32)))).def_1038525))
(assert (let ((.def_1038528 (= T1_E (_ bv0 32)))).def_1038528))
(assert (let ((.def_1038530 (= E_2 (_ bv0 32)))).def_1038530))
(assert (let ((.def_1038532 (= E_7 (_ bv0 32)))).def_1038532))
(assert (let ((.def_1038534 (= E_4 (_ bv0 32)))).def_1038534))
(assert (let ((.def_1038537 (= M_E (_ bv0 32)))).def_1038537))
(assert false)

start_simulation N31008:
(assert (let ((.def_922246 (= m_pc (_ bv0 32)))).def_922246))
(assert (let ((.def_107203 (= a20 (_ bv5 32)))).def_107203))
(assert (let ((.def_927435 (= t1_pc (_ bv0 32)))).def_927435))
(assert (let ((.def_927438 (= t2_pc (_ bv0 32)))).def_927438))
(assert (let ((.def_927441 (= t3_pc (_ bv0 32)))).def_927441))
(assert (let ((.def_927444 (= t4_pc (_ bv0 32)))).def_927444))
(assert (let ((.def_927447 (= t5_pc (_ bv0 32)))).def_927447))
(assert (let ((.def_927450 (= t6_pc (_ bv0 32)))).def_927450))
(assert (let ((.def_927453 (= t7_pc (_ bv0 32)))).def_927453))
(assert (let ((.def_927455 (= m_pc (_ bv1 32)))).def_927455))
(assert (let ((.def_927457 (= t1_pc (_ bv1 32)))).def_927457))
(assert (let ((.def_927459 (= t2_pc (_ bv1 32)))).def_927459))
(assert (let ((.def_927461 (= t3_pc (_ bv1 32)))).def_927461))
(assert (let ((.def_927463 (= t4_pc (_ bv1 32)))).def_927463))
(assert (let ((.def_927465 (= t5_pc (_ bv1 32)))).def_927465))
(assert (let ((.def_927467 (= t6_pc (_ bv1 32)))).def_927467))
(assert (let ((.def_927469 (= t7_pc (_ bv1 32)))).def_927469))
(assert (let ((.def_938206 (= t1_st (_ bv0 32)))).def_938206))
(assert (let ((.def_938209 (= E_3 (_ bv1 32)))).def_938209))
(assert (let ((.def_938212 (= E_2 (_ bv1 32)))).def_938212))
(assert (let ((.def_938215 (= E_5 (_ bv1 32)))).def_938215))
(assert (let ((.def_938218 (= E_4 (_ bv1 32)))).def_938218))
(assert (let ((.def_938221 (= E_M (_ bv1 32)))).def_938221))
(assert (let ((.def_938224 (= E_6 (_ bv1 32)))).def_938224))
(assert (let ((.def_938227 (= E_7 (_ bv1 32)))).def_938227))
(assert (let ((.def_927472 (= m_st (_ bv0 32)))).def_927472))
(assert (let ((.def_938242 (= t5_st (_ bv0 32)))).def_938242))
(assert (let ((.def_938236 (= t4_st (_ bv0 32)))).def_938236))
(assert (let ((.def_938245 (= t7_st (_ bv0 32)))).def_938245))
(assert (let ((.def_974607 (= E_2 (_ bv2 32)))).def_974607))
(assert (let ((.def_974609 (= local token))).def_974609))
(assert (let ((.def_938250 (= E_1 (_ bv1 32)))).def_938250))
(assert (let ((.def_974611 (= E_4 (_ bv2 32)))).def_974611))
(assert (let ((.def_974613 (= E_5 (_ bv2 32)))).def_974613))
(assert (let ((.def_974615 (= E_6 (_ bv2 32)))).def_974615))
(assert (let ((.def_938230 (= t2_st (_ bv0 32)))).def_938230))
(assert (let ((.def_1006337 (= E_M (_ bv0 32)))).def_1006337))
(assert (let ((.def_1038503 (= E_3 (_ bv0 32)))).def_1038503))
(assert (let ((.def_938239 (= t6_st (_ bv0 32)))).def_938239))
(assert (let ((.def_1038505 (= E_5 (_ bv0 32)))).def_1038505))
(assert (let ((.def_1038507 (= E_6 (_ bv0 32)))).def_1038507))
(assert (let ((.def_1038510 (= T7_E (_ bv0 32)))).def_1038510))
(assert (let ((.def_1038513 (= T6_E (_ bv0 32)))).def_1038513))
(assert (let ((.def_1038516 (= T5_E (_ bv0 32)))).def_1038516))
(assert (let ((.def_1038519 (= T4_E (_ bv0 32)))).def_1038519))
(assert (let ((.def_1038522 (= T3_E (_ bv0 32)))).def_1038522))
(assert (let ((.def_1038525 (= T2_E (_ bv0 32)))).def_1038525))
(assert (let ((.def_1038528 (= T1_E (_ bv0 32)))).def_1038528))
(assert (let ((.def_1038530 (= E_2 (_ bv0 32)))).def_1038530))
(assert (let ((.def_1038532 (= E_7 (_ bv0 32)))).def_1038532))
(assert (let ((.def_1038534 (= E_4 (_ bv0 32)))).def_1038534))
(assert (let ((.def_938233 (= t3_st (_ bv0 32)))).def_938233))
(assert (let ((.def_1038537 (= M_E (_ bv0 32)))).def_1038537))

