(set-info :source |printed by MathSAT|)
(declare-fun c_num_read () (_ BitVec 32))
(declare-fun p_num_write () (_ BitVec 32))
(declare-fun c_last_read () (_ BitVec 32))
(declare-fun p_last_write () (_ BitVec 32))
(declare-fun c_dr_pc () (_ BitVec 32))
(declare-fun q_free () (_ BitVec 32))
(declare-fun q_buf_0 () (_ BitVec 32))
(declare-fun p_dw_pc () (_ BitVec 32))
(declare-fun q_read_ev () (_ BitVec 32))
(declare-fun c_dr_st () (_ BitVec 32))
(declare-fun p_dw_st () (_ BitVec 32))
(declare-fun m_pc () (_ BitVec 32))
(declare-fun t1_pc () (_ BitVec 32))
(declare-fun t2_pc () (_ BitVec 32))
(declare-fun t3_pc () (_ BitVec 32))
(declare-fun t4_pc () (_ BitVec 32))
(declare-fun t5_pc () (_ BitVec 32))
(declare-fun t6_pc () (_ BitVec 32))
(declare-fun t7_pc () (_ BitVec 32))
(declare-fun m_st () (_ BitVec 32))
(declare-fun t4_st () (_ BitVec 32))
(declare-fun t3_st () (_ BitVec 32))
(declare-fun t2_st () (_ BitVec 32))
(declare-fun E_5 () (_ BitVec 32))
(declare-fun E_7 () (_ BitVec 32))
(declare-fun E_3 () (_ BitVec 32))
(declare-fun E_2 () (_ BitVec 32))
(declare-fun E_6 () (_ BitVec 32))
(declare-fun E_4 () (_ BitVec 32))
(declare-fun E_M () (_ BitVec 32))
(declare-fun t1_st () (_ BitVec 32))
(declare-fun t7_st () (_ BitVec 32))
(declare-fun t5_st () (_ BitVec 32))
(declare-fun t6_st () (_ BitVec 32))
(declare-fun E_1 () (_ BitVec 32))
(declare-fun local () (_ BitVec 32))
(declare-fun token () (_ BitVec 32))

*:
(assert (let ((.def_600 (= c_num_read p_num_write))).def_600))
(assert (let ((.def_609 (= c_last_read p_last_write))).def_609))

error1 N4:
(assert false)
(assert (let ((.def_600 (= c_num_read p_num_write))).def_600))
(assert (let ((.def_609 (= c_last_read p_last_write))).def_609))

do_write_p N64:
(assert (let ((.def_944 (= c_dr_pc (_ bv0 32)))).def_944))
(assert (let ((.def_600 (= c_num_read p_num_write))).def_600))
(assert (let ((.def_609 (= c_last_read p_last_write))).def_609))
(assert (let ((.def_1047 (= q_free (_ bv1 32)))).def_1047))
(assert false)
(assert (let ((.def_1390 (= p_last_write q_buf_0))).def_1390))
(assert (let ((.def_1050 (= p_dw_pc (_ bv1 32)))).def_1050))
(assert (let ((.def_1577 (bvadd (_ bv1 32) c_num_read)))(let ((.def_1578 (= p_num_write .def_1577))).def_1578)))
(assert (let ((.def_2471 (= q_free (_ bv0 32)))).def_2471))
(assert (let ((.def_1580 (= c_dr_pc (_ bv1 32)))).def_1580))
(assert (let ((.def_5273 (= q_read_ev (_ bv1 32)))).def_5273))

do_read_c N100:
(assert (let ((.def_1050 (= p_dw_pc (_ bv1 32)))).def_1050))
(assert (let ((.def_1047 (= q_free (_ bv1 32)))).def_1047))
(assert (let ((.def_600 (= c_num_read p_num_write))).def_600))
(assert (let ((.def_609 (= c_last_read p_last_write))).def_609))
(assert (let ((.def_1390 (= p_last_write q_buf_0))).def_1390))
(assert (let ((.def_1577 (bvadd (_ bv1 32) c_num_read)))(let ((.def_1578 (= p_num_write .def_1577))).def_1578)))
(assert (let ((.def_1580 (= c_dr_pc (_ bv1 32)))).def_1580))
(assert false)

eval1 N170:
(assert (let ((.def_944 (= c_dr_pc (_ bv0 32)))).def_944))
(assert (let ((.def_600 (= c_num_read p_num_write))).def_600))
(assert (let ((.def_609 (= c_last_read p_last_write))).def_609))
(assert (let ((.def_1047 (= q_free (_ bv1 32)))).def_1047))
(assert (let ((.def_1320 (= p_dw_pc (_ bv0 32)))).def_1320))
(assert (let ((.def_1580 (= c_dr_pc (_ bv1 32)))).def_1580))
(assert (let ((.def_3894 (= c_dr_st (_ bv0 32)))).def_3894))
(assert (let ((.def_1050 (= p_dw_pc (_ bv1 32)))).def_1050))
(assert (let ((.def_5273 (= q_read_ev (_ bv1 32)))).def_5273))
(assert (let ((.def_5276 (= p_dw_st (_ bv0 32)))).def_5276))
(assert (let ((.def_1390 (= p_last_write q_buf_0))).def_1390))
(assert (let ((.def_1577 (bvadd (_ bv1 32) c_num_read)))(let ((.def_1578 (= p_num_write .def_1577))).def_1578)))

start_simulation1 N221:
(assert (let ((.def_944 (= c_dr_pc (_ bv0 32)))).def_944))
(assert (let ((.def_600 (= c_num_read p_num_write))).def_600))
(assert (let ((.def_609 (= c_last_read p_last_write))).def_609))
(assert (let ((.def_1047 (= q_free (_ bv1 32)))).def_1047))
(assert (let ((.def_1320 (= p_dw_pc (_ bv0 32)))).def_1320))
(assert (let ((.def_5273 (= q_read_ev (_ bv1 32)))).def_5273))

error2 N260:
(assert false)
(assert (let ((.def_600 (= c_num_read p_num_write))).def_600))
(assert (let ((.def_609 (= c_last_read p_last_write))).def_609))

eval2 N718:
(assert (let ((.def_7701 (= m_pc (_ bv0 32)))).def_7701))
(assert (let ((.def_600 (= c_num_read p_num_write))).def_600))
(assert (let ((.def_609 (= c_last_read p_last_write))).def_609))
(assert (let ((.def_12890 (= t1_pc (_ bv0 32)))).def_12890))
(assert (let ((.def_12893 (= t2_pc (_ bv0 32)))).def_12893))
(assert (let ((.def_12896 (= t3_pc (_ bv0 32)))).def_12896))
(assert (let ((.def_12899 (= t4_pc (_ bv0 32)))).def_12899))
(assert (let ((.def_12902 (= t5_pc (_ bv0 32)))).def_12902))
(assert (let ((.def_12905 (= t6_pc (_ bv0 32)))).def_12905))
(assert (let ((.def_12908 (= t7_pc (_ bv0 32)))).def_12908))
(assert (let ((.def_12910 (= m_pc (_ bv1 32)))).def_12910))
(assert (let ((.def_12912 (= t1_pc (_ bv1 32)))).def_12912))
(assert (let ((.def_12914 (= t2_pc (_ bv1 32)))).def_12914))
(assert (let ((.def_12916 (= t3_pc (_ bv1 32)))).def_12916))
(assert (let ((.def_12918 (= t4_pc (_ bv1 32)))).def_12918))
(assert (let ((.def_12920 (= t5_pc (_ bv1 32)))).def_12920))
(assert (let ((.def_12922 (= t6_pc (_ bv1 32)))).def_12922))
(assert (let ((.def_12924 (= t7_pc (_ bv1 32)))).def_12924))
(assert (let ((.def_12927 (= m_st (_ bv0 32)))).def_12927))
(assert (let ((.def_24182 (= t4_st (_ bv0 32)))).def_24182))
(assert (let ((.def_24185 (= t3_st (_ bv0 32)))).def_24185))
(assert (let ((.def_24188 (= t2_st (_ bv0 32)))).def_24188))
(assert (let ((.def_24191 (= E_5 (_ bv2 32)))).def_24191))
(assert (let ((.def_24194 (= E_7 (_ bv1 32)))).def_24194))
(assert (let ((.def_24196 (= E_5 (_ bv1 32)))).def_24196))
(assert (let ((.def_24199 (= E_3 (_ bv1 32)))).def_24199))
(assert (let ((.def_24202 (= E_2 (_ bv1 32)))).def_24202))
(assert (let ((.def_24205 (= E_6 (_ bv1 32)))).def_24205))
(assert (let ((.def_24208 (= E_4 (_ bv1 32)))).def_24208))
(assert (let ((.def_24211 (= E_M (_ bv1 32)))).def_24211))
(assert (let ((.def_24214 (= t1_st (_ bv0 32)))).def_24214))
(assert (let ((.def_24217 (= t7_st (_ bv0 32)))).def_24217))
(assert (let ((.def_24220 (= t5_st (_ bv0 32)))).def_24220))
(assert (let ((.def_24223 (= t6_st (_ bv0 32)))).def_24223))
(assert (let ((.def_24226 (= E_1 (_ bv1 32)))).def_24226))
(assert (let ((.def_24229 (bvadd (_ bv7 32) local)))(let ((.def_24231 (= .def_24229 token))).def_24231)))
(assert (let ((.def_53122 (= E_2 (_ bv2 32)))).def_53122))
(assert (let ((.def_53124 (= E_4 (_ bv2 32)))).def_53124))
(assert (let ((.def_53126 (= E_6 (_ bv2 32)))).def_53126))
(assert (let ((.def_53128 (= m_st (_ bv2 32)))).def_53128))
(assert (let ((.def_53130 (bvadd (_ bv6 32) local)))(let ((.def_53131 (= token .def_53130))).def_53131)))
(assert (let ((.def_53133 (= local token))).def_53133))
(assert (let ((.def_53135 (bvadd (_ bv1 32) local)))(let ((.def_53136 (= token .def_53135))).def_53136)))
(assert (let ((.def_53138 (bvadd (_ bv2 32) local)))(let ((.def_53139 (= token .def_53138))).def_53139)))
(assert (let ((.def_53141 (bvadd (_ bv3 32) local)))(let ((.def_53142 (= token .def_53141))).def_53142)))
(assert (let ((.def_53144 (bvadd (_ bv4 32) local)))(let ((.def_53145 (= token .def_53144))).def_53145)))
(assert (let ((.def_53147 (bvadd (_ bv5 32) local)))(let ((.def_53148 (= token .def_53147))).def_53148)))
(assert (let ((.def_79901 (= E_M (_ bv0 32)))).def_79901))
(assert (let ((.def_79903 (= E_1 (_ bv0 32)))).def_79903))

start_simulation2 N1114:
(assert (let ((.def_7701 (= m_pc (_ bv0 32)))).def_7701))
(assert (let ((.def_600 (= c_num_read p_num_write))).def_600))
(assert (let ((.def_609 (= c_last_read p_last_write))).def_609))
(assert (let ((.def_12890 (= t1_pc (_ bv0 32)))).def_12890))
(assert (let ((.def_12893 (= t2_pc (_ bv0 32)))).def_12893))
(assert (let ((.def_12896 (= t3_pc (_ bv0 32)))).def_12896))
(assert (let ((.def_12899 (= t4_pc (_ bv0 32)))).def_12899))
(assert (let ((.def_12902 (= t5_pc (_ bv0 32)))).def_12902))
(assert (let ((.def_12905 (= t6_pc (_ bv0 32)))).def_12905))
(assert (let ((.def_12908 (= t7_pc (_ bv0 32)))).def_12908))
(assert (let ((.def_12910 (= m_pc (_ bv1 32)))).def_12910))
(assert (let ((.def_12912 (= t1_pc (_ bv1 32)))).def_12912))
(assert (let ((.def_12914 (= t2_pc (_ bv1 32)))).def_12914))
(assert (let ((.def_12916 (= t3_pc (_ bv1 32)))).def_12916))
(assert (let ((.def_12918 (= t4_pc (_ bv1 32)))).def_12918))
(assert (let ((.def_12920 (= t5_pc (_ bv1 32)))).def_12920))
(assert (let ((.def_12922 (= t6_pc (_ bv1 32)))).def_12922))
(assert (let ((.def_12924 (= t7_pc (_ bv1 32)))).def_12924))
(assert (let ((.def_24182 (= t4_st (_ bv0 32)))).def_24182))
(assert (let ((.def_24185 (= t3_st (_ bv0 32)))).def_24185))
(assert (let ((.def_24188 (= t2_st (_ bv0 32)))).def_24188))
(assert (let ((.def_24191 (= E_5 (_ bv2 32)))).def_24191))
(assert (let ((.def_24194 (= E_7 (_ bv1 32)))).def_24194))
(assert (let ((.def_24196 (= E_5 (_ bv1 32)))).def_24196))
(assert (let ((.def_24199 (= E_3 (_ bv1 32)))).def_24199))
(assert (let ((.def_24202 (= E_2 (_ bv1 32)))).def_24202))
(assert (let ((.def_24205 (= E_6 (_ bv1 32)))).def_24205))
(assert (let ((.def_24208 (= E_4 (_ bv1 32)))).def_24208))
(assert (let ((.def_24211 (= E_M (_ bv1 32)))).def_24211))
(assert (let ((.def_24214 (= t1_st (_ bv0 32)))).def_24214))
(assert (let ((.def_12927 (= m_st (_ bv0 32)))).def_12927))
(assert (let ((.def_24226 (= E_1 (_ bv1 32)))).def_24226))
(assert (let ((.def_53122 (= E_2 (_ bv2 32)))).def_53122))
(assert (let ((.def_53124 (= E_4 (_ bv2 32)))).def_53124))
(assert (let ((.def_53126 (= E_6 (_ bv2 32)))).def_53126))
(assert (let ((.def_79901 (= E_M (_ bv0 32)))).def_79901))

