(set-info :source |printed by MathSAT|)
(declare-fun a20 () (_ BitVec 32))
(declare-fun a25 () (_ BitVec 32))
(declare-fun a12 () (_ BitVec 32))
(declare-fun a15 () (_ BitVec 32))
(declare-fun a16 () (_ BitVec 32))
(declare-fun a2 () (_ BitVec 32))
(declare-fun a27 () (_ BitVec 32))
(declare-fun a9 () (_ BitVec 32))
(declare-fun m_pc () (_ BitVec 32))
(declare-fun t1_pc () (_ BitVec 32))
(declare-fun t2_pc () (_ BitVec 32))
(declare-fun m_st () (_ BitVec 32))

*:
(assert (let ((.def_107216 (= a20 (_ bv5 32)))).def_107216))

calculate_output8 N29965:
(assert false)
(assert (let ((.def_107216 (= a20 (_ bv5 32)))).def_107216))

main1 N30136:
(assert (let ((.def_107216 (= a20 (_ bv5 32)))).def_107216))
(assert (let ((.def_154602 (= a25 (_ bv1 32)))).def_154602))
(assert (let ((.def_154605 (= a12 (_ bv4 32)))).def_154605))
(assert (let ((.def_154608 (= a15 (_ bv1 32)))).def_154608))
(assert (let ((.def_154611 (= a16 (_ bv1 32)))).def_154611))
(assert (let ((.def_154614 (= a2 (_ bv10 32)))).def_154614))
(assert (let ((.def_154617 (= a27 (_ bv1 32)))).def_154617))
(assert (let ((.def_154620 (= a9 (_ bv18 32)))).def_154620))
(assert (let ((.def_320567 (= a9 (_ bv17 32)))).def_320567))
(assert (let ((.def_320569 (= a2 (_ bv12 32)))).def_320569))
(assert (let ((.def_320571 (= a2 (_ bv11 32)))).def_320571))
(assert (let ((.def_320573 (= a2 (_ bv9 32)))).def_320573))
(assert (let ((.def_320575 (= a12 (_ bv3 32)))).def_320575))
(assert (let ((.def_320577 (= a20 (_ bv6 32)))).def_320577))
(assert (let ((.def_320579 (= a2 (_ bv13 32)))).def_320579))
(assert (let ((.def_320581 (= a9 (_ bv16 32)))).def_320581))
(assert (let ((.def_1078589 (= a12 (_ bv6 32)))).def_1078589))
(assert (let ((.def_1078591 (= a12 (_ bv2 32)))).def_1078591))
(assert (let ((.def_1078593 (= a20 (_ bv7 32)))).def_1078593))
(assert (let ((.def_1078595 (= a12 (_ bv5 32)))).def_1078595))

error N30154:
(assert false)
(assert (let ((.def_107216 (= a20 (_ bv5 32)))).def_107216))

eval N30355:
(assert (let ((.def_1219498 (= m_pc (_ bv0 32)))).def_1219498))
(assert (let ((.def_107216 (= a20 (_ bv5 32)))).def_107216))
(assert (let ((.def_1220544 (= t1_pc (_ bv0 32)))).def_1220544))
(assert (let ((.def_1220547 (= t2_pc (_ bv0 32)))).def_1220547))
(assert (let ((.def_1220549 (= m_pc (_ bv1 32)))).def_1220549))
(assert (let ((.def_1220551 (= t1_pc (_ bv1 32)))).def_1220551))
(assert (let ((.def_1220553 (= t2_pc (_ bv1 32)))).def_1220553))
(assert (let ((.def_1220556 (= m_st (_ bv0 32)))).def_1220556))

start_simulation N30546:
(assert (let ((.def_1219498 (= m_pc (_ bv0 32)))).def_1219498))
(assert (let ((.def_107216 (= a20 (_ bv5 32)))).def_107216))
(assert (let ((.def_1220544 (= t1_pc (_ bv0 32)))).def_1220544))
(assert (let ((.def_1220547 (= t2_pc (_ bv0 32)))).def_1220547))
(assert (let ((.def_1220549 (= m_pc (_ bv1 32)))).def_1220549))
(assert (let ((.def_1220551 (= t1_pc (_ bv1 32)))).def_1220551))
(assert (let ((.def_1220553 (= t2_pc (_ bv1 32)))).def_1220553))

