(set-info :source |printed by MathSAT|)
(declare-fun |assert::arg| () (_ BitVec 8))
(declare-fun st1 () (_ BitVec 8))
(declare-fun st2 () (_ BitVec 8))
(declare-fun st3 () (_ BitVec 8))
(declare-fun st4 () (_ BitVec 8))
(declare-fun st5 () (_ BitVec 8))
(declare-fun st6 () (_ BitVec 8))
(declare-fun r1 () (_ BitVec 8))
(declare-fun p4_new () (_ BitVec 8))
(declare-fun nomsg () (_ BitVec 8))
(declare-fun p3_new () (_ BitVec 8))
(declare-fun p2_new () (_ BitVec 8))
(declare-fun p5_new () (_ BitVec 8))
(declare-fun mode1 () (_ BitVec 8))
(declare-fun mode2 () (_ BitVec 8))
(declare-fun mode3 () (_ BitVec 8))
(declare-fun mode4 () (_ BitVec 8))
(declare-fun mode5 () (_ BitVec 8))
(declare-fun mode6 () (_ BitVec 8))
(declare-fun id6 () (_ BitVec 8))
(declare-fun send5 () (_ BitVec 8))
(declare-fun send6 () (_ BitVec 8))
(declare-fun id1 () (_ BitVec 8))
(declare-fun id2 () (_ BitVec 8))
(declare-fun send1 () (_ BitVec 8))
(declare-fun id3 () (_ BitVec 8))
(declare-fun send2 () (_ BitVec 8))
(declare-fun id4 () (_ BitVec 8))
(declare-fun send3 () (_ BitVec 8))
(declare-fun id5 () (_ BitVec 8))
(declare-fun send4 () (_ BitVec 8))
(declare-fun p6_new () (_ BitVec 8))
(declare-fun p1_new () (_ BitVec 8))
(declare-fun p6_old () (_ BitVec 8))
(declare-fun p5_old () (_ BitVec 8))
(declare-fun p1_old () (_ BitVec 8))
(declare-fun p2_old () (_ BitVec 8))
(declare-fun p3_old () (_ BitVec 8))
(declare-fun p4_old () (_ BitVec 8))
(declare-fun |node3::__CPAchecker_TMP_0| () (_ BitVec 32))
(declare-fun |node5::__CPAchecker_TMP_0| () (_ BitVec 32))
(declare-fun |node4::__CPAchecker_TMP_0| () (_ BitVec 32))
(declare-fun |node1::__CPAchecker_TMP_0| () (_ BitVec 32))
(declare-fun |node2::__CPAchecker_TMP_0| () (_ BitVec 32))
(declare-fun |node6::__CPAchecker_TMP_0| () (_ BitVec 32))

assert:
(assert (let ((.def_2600 (= |assert::arg| (_ bv0 8)))).def_2600))

main1 N408:
(assert (let ((.def_2922 (= st1 (_ bv0 8)))).def_2922))
(assert (let ((.def_2925 (= st2 (_ bv0 8)))).def_2925))
(assert (let ((.def_2928 (= st3 (_ bv0 8)))).def_2928))
(assert (let ((.def_2931 (= st4 (_ bv0 8)))).def_2931))
(assert (let ((.def_2934 (= st5 (_ bv0 8)))).def_2934))
(assert (let ((.def_2937 (= st6 (_ bv0 8)))).def_2937))
(assert (let ((.def_2940 (= r1 (_ bv0 8)))).def_2940))
(assert (let ((.def_2944 (= p4_new nomsg))).def_2944))
(assert (let ((.def_2947 (= nomsg p3_new))).def_2947))
(assert (let ((.def_2950 (= nomsg p2_new))).def_2950))
(assert (let ((.def_2953 (= nomsg p5_new))).def_2953))
(assert (let ((.def_2956 (= mode1 (_ bv0 8)))).def_2956))
(assert (let ((.def_2959 (= mode2 (_ bv0 8)))).def_2959))
(assert (let ((.def_2962 (= mode3 (_ bv0 8)))).def_2962))
(assert (let ((.def_2965 (= mode4 (_ bv0 8)))).def_2965))
(assert (let ((.def_2968 (= mode5 (_ bv0 8)))).def_2968))
(assert (let ((.def_2971 (= mode6 (_ bv0 8)))).def_2971))
(assert (let ((.def_5178 (= st1 st6))).def_5178))
(assert (let ((.def_5180 (= st2 st6))).def_5180))
(assert (let ((.def_5182 (= st3 st6))).def_5182))
(assert (let ((.def_5184 (= st4 st6))).def_5184))
(assert (let ((.def_5186 (= st5 st6))).def_5186))
(assert (let ((.def_5191 ((_ sign_extend 24) send5)))(let ((.def_5189 ((_ sign_extend 24) id6)))(let ((.def_5192 (= .def_5189 .def_5191))).def_5192))))
(assert (let ((.def_5197 ((_ sign_extend 24) id1)))(let ((.def_5195 ((_ sign_extend 24) send6)))(let ((.def_5198 (= .def_5195 .def_5197))).def_5198))))
(assert (let ((.def_5203 ((_ sign_extend 24) send1)))(let ((.def_5201 ((_ sign_extend 24) id2)))(let ((.def_5204 (= .def_5201 .def_5203))).def_5204))))
(assert (let ((.def_5208 (= id3 send2))).def_5208))
(assert (let ((.def_5211 ((_ sign_extend 24) send2)))(let ((.def_5210 ((_ sign_extend 24) id3)))(let ((.def_5212 (= .def_5210 .def_5211))).def_5212))))
(assert (let ((.def_5217 ((_ sign_extend 24) send3)))(let ((.def_5215 ((_ sign_extend 24) id4)))(let ((.def_5218 (= .def_5215 .def_5217))).def_5218))))
(assert (let ((.def_5222 (= id5 send4))).def_5222))
(assert (let ((.def_5225 ((_ sign_extend 24) send4)))(let ((.def_5224 ((_ sign_extend 24) id5)))(let ((.def_5226 (= .def_5224 .def_5225))).def_5226))))
(assert (let ((.def_5228 ((_ sign_extend 24) nomsg)))(let ((.def_5217 ((_ sign_extend 24) send3)))(let ((.def_5229 (= .def_5217 .def_5228))).def_5229))))
(assert (let ((.def_5228 ((_ sign_extend 24) nomsg)))(let ((.def_5225 ((_ sign_extend 24) send4)))(let ((.def_5231 (= .def_5225 .def_5228))).def_5231))))
(assert (let ((.def_5228 ((_ sign_extend 24) nomsg)))(let ((.def_5191 ((_ sign_extend 24) send5)))(let ((.def_5233 (= .def_5191 .def_5228))).def_5233))))
(assert (let ((.def_5236 (= nomsg p6_new))).def_5236))
(assert (let ((.def_5239 (= nomsg p1_new))).def_5239))
(assert (let ((.def_5242 ((_ sign_extend 24) p6_old)))(let ((.def_5197 ((_ sign_extend 24) id1)))(let ((.def_5243 (= .def_5197 .def_5242))).def_5243))))
(assert (let ((.def_5246 ((_ sign_extend 24) p5_old)))(let ((.def_5189 ((_ sign_extend 24) id6)))(let ((.def_5247 (= .def_5189 .def_5246))).def_5247))))
(assert (let ((.def_5255 ((_ sign_extend 24) st1)))(let ((.def_5254 ((_ sign_extend 24) st2)))(let ((.def_5257 (bvadd .def_5254 .def_5255)))(let ((.def_5253 ((_ sign_extend 24) st3)))(let ((.def_5259 (bvadd .def_5253 .def_5257)))(let ((.def_5252 ((_ sign_extend 24) st4)))(let ((.def_5261 (bvadd .def_5252 .def_5259)))(let ((.def_5251 ((_ sign_extend 24) st5)))(let ((.def_5263 (bvadd .def_5251 .def_5261)))(let ((.def_5249 ((_ sign_extend 24) st6)))(let ((.def_5250 (bvneg .def_5249)))(let ((.def_5264 (= .def_5250 .def_5263))).def_5264)))))))))))))
(assert (let ((.def_5267 ((_ sign_extend 24) p1_old)))(let ((.def_5201 ((_ sign_extend 24) id2)))(let ((.def_5268 (= .def_5201 .def_5267))).def_5268))))
(assert (let ((.def_5271 ((_ sign_extend 24) p2_old)))(let ((.def_5210 ((_ sign_extend 24) id3)))(let ((.def_5272 (= .def_5210 .def_5271))).def_5272))))
(assert (let ((.def_5275 ((_ sign_extend 24) p3_old)))(let ((.def_5215 ((_ sign_extend 24) id4)))(let ((.def_5276 (= .def_5215 .def_5275))).def_5276))))
(assert (let ((.def_5279 ((_ sign_extend 24) p4_old)))(let ((.def_5224 ((_ sign_extend 24) id5)))(let ((.def_5280 (= .def_5224 .def_5279))).def_5280))))
(assert (let ((.def_5255 ((_ sign_extend 24) st1)))(let ((.def_5252 ((_ sign_extend 24) st4)))(let ((.def_11776 (= .def_5252 .def_5255))).def_11776))))
(assert (let ((.def_5255 ((_ sign_extend 24) st1)))(let ((.def_5251 ((_ sign_extend 24) st5)))(let ((.def_11778 (= .def_5251 .def_5255))).def_11778))))
(assert (let ((.def_5254 ((_ sign_extend 24) st2)))(let ((.def_5253 ((_ sign_extend 24) st3)))(let ((.def_11780 (= .def_5253 .def_5254))).def_11780))))
(assert (let ((.def_11782 (= st4 (_ bv1 8)))).def_11782))
(assert (let ((.def_11784 (= st5 (_ bv1 8)))).def_11784))
(assert (let ((.def_11786 (= st1 (_ bv1 8)))).def_11786))
(assert (let ((.def_5253 ((_ sign_extend 24) st3)))(let ((.def_5252 ((_ sign_extend 24) st4)))(let ((.def_11788 (= .def_5252 .def_5253))).def_11788))))
(assert (let ((.def_5254 ((_ sign_extend 24) st2)))(let ((.def_5252 ((_ sign_extend 24) st4)))(let ((.def_11790 (= .def_5252 .def_5254))).def_11790))))
(assert (let ((.def_5253 ((_ sign_extend 24) st3)))(let ((.def_5251 ((_ sign_extend 24) st5)))(let ((.def_11792 (= .def_5251 .def_5253))).def_11792))))
(assert (let ((.def_11794 (= st3 (_ bv1 8)))).def_11794))
(assert (let ((.def_5252 ((_ sign_extend 24) st4)))(let ((.def_5251 ((_ sign_extend 24) st5)))(let ((.def_11796 (= .def_5251 .def_5252))).def_11796))))
(assert (let ((.def_5255 ((_ sign_extend 24) st1)))(let ((.def_5254 ((_ sign_extend 24) st2)))(let ((.def_11798 (= .def_5254 .def_5255))).def_11798))))
(assert (let ((.def_5254 ((_ sign_extend 24) st2)))(let ((.def_5251 ((_ sign_extend 24) st5)))(let ((.def_11800 (= .def_5251 .def_5254))).def_11800))))
(assert (let ((.def_11802 (= st2 (_ bv1 8)))).def_11802))
(assert (let ((.def_5255 ((_ sign_extend 24) st1)))(let ((.def_5253 ((_ sign_extend 24) st3)))(let ((.def_11804 (= .def_5253 .def_5255))).def_11804))))
(assert (let ((.def_11806 ((_ sign_extend 24) r1)))(let ((.def_11807 (bvslt .def_11806 (_ bv6 32)))).def_11807)))
(assert (let ((.def_5215 ((_ sign_extend 24) id4)))(let ((.def_5211 ((_ sign_extend 24) send2)))(let ((.def_21594 (= .def_5211 .def_5215))).def_21594))))
(assert (let ((.def_5217 ((_ sign_extend 24) send3)))(let ((.def_5215 ((_ sign_extend 24) id4)))(let ((.def_21596 (bvslt .def_5215 .def_5217))).def_21596))))
(assert (let ((.def_5191 ((_ sign_extend 24) send5)))(let ((.def_5189 ((_ sign_extend 24) id6)))(let ((.def_21598 (bvslt .def_5189 .def_5191))).def_21598))))
(assert (let ((.def_5225 ((_ sign_extend 24) send4)))(let ((.def_5224 ((_ sign_extend 24) id5)))(let ((.def_21600 (bvslt .def_5224 .def_5225))).def_21600))))
(assert (let ((.def_5224 ((_ sign_extend 24) id5)))(let ((.def_5191 ((_ sign_extend 24) send5)))(let ((.def_21602 (= .def_5191 .def_5224))).def_21602))))
(assert (let ((.def_5224 ((_ sign_extend 24) id5)))(let ((.def_5217 ((_ sign_extend 24) send3)))(let ((.def_21604 (= .def_5217 .def_5224))).def_21604))))
(assert (let ((.def_21606 (= st4 st5))).def_21606))
(assert (let ((.def_21608 (= st1 st2))).def_21608))
(assert (let ((.def_21610 (= st1 st3))).def_21610))
(assert (let ((.def_21612 (= st1 st4))).def_21612))
(assert (let ((.def_21614 (= st1 st5))).def_21614))
(assert (let ((.def_21616 (= id4 send3))).def_21616))
(assert (let ((.def_5225 ((_ sign_extend 24) send4)))(let ((.def_5215 ((_ sign_extend 24) id4)))(let ((.def_21618 (= .def_5215 .def_5225))).def_21618))))
(assert (let ((.def_5225 ((_ sign_extend 24) send4)))(let ((.def_5189 ((_ sign_extend 24) id6)))(let ((.def_21620 (= .def_5189 .def_5225))).def_21620))))
(assert (let ((.def_5203 ((_ sign_extend 24) send1)))(let ((.def_5201 ((_ sign_extend 24) id2)))(let ((.def_21622 (bvslt .def_5201 .def_5203))).def_21622))))
(assert (let ((.def_5201 ((_ sign_extend 24) id2)))(let ((.def_5195 ((_ sign_extend 24) send6)))(let ((.def_21624 (= .def_5195 .def_5201))).def_21624))))
(assert (let ((.def_5211 ((_ sign_extend 24) send2)))(let ((.def_5201 ((_ sign_extend 24) id2)))(let ((.def_21626 (= .def_5201 .def_5211))).def_21626))))
(assert (let ((.def_5211 ((_ sign_extend 24) send2)))(let ((.def_5210 ((_ sign_extend 24) id3)))(let ((.def_21628 (bvslt .def_5210 .def_5211))).def_21628))))
(assert (let ((.def_5210 ((_ sign_extend 24) id3)))(let ((.def_5203 ((_ sign_extend 24) send1)))(let ((.def_21630 (= .def_5203 .def_5210))).def_21630))))
(assert (let ((.def_5195 ((_ sign_extend 24) send6)))(let ((.def_5197 ((_ sign_extend 24) id1)))(let ((.def_21632 (bvslt .def_5197 .def_5195))).def_21632))))
(assert (let ((.def_5228 ((_ sign_extend 24) nomsg)))(let ((.def_5195 ((_ sign_extend 24) send6)))(let ((.def_21634 (= .def_5195 .def_5228))).def_21634))))
(assert (let ((.def_5197 ((_ sign_extend 24) id1)))(let ((.def_5191 ((_ sign_extend 24) send5)))(let ((.def_21636 (= .def_5191 .def_5197))).def_21636))))
(assert (let ((.def_21638 (= nomsg send2))).def_21638))
(assert (let ((.def_5228 ((_ sign_extend 24) nomsg)))(let ((.def_5211 ((_ sign_extend 24) send2)))(let ((.def_21640 (= .def_5211 .def_5228))).def_21640))))
(assert (let ((.def_5217 ((_ sign_extend 24) send3)))(let ((.def_21643 (= .def_5217 |node3::__CPAchecker_TMP_0|))).def_21643)))
(assert (let ((.def_21645 ((_ extract 7 0) |node3::__CPAchecker_TMP_0|)))(let ((.def_21646 (= p3_old .def_21645))).def_21646)))
(assert (let ((.def_5271 ((_ sign_extend 24) p2_old)))(let ((.def_5215 ((_ sign_extend 24) id4)))(let ((.def_21648 (= .def_5215 .def_5271))).def_21648))))
(assert (let ((.def_5275 ((_ sign_extend 24) p3_old)))(let ((.def_5215 ((_ sign_extend 24) id4)))(let ((.def_21650 (bvslt .def_5215 .def_5275))).def_21650))))
(assert (let ((.def_5191 ((_ sign_extend 24) send5)))(let ((.def_21653 (= .def_5191 |node5::__CPAchecker_TMP_0|))).def_21653)))
(assert (let ((.def_21655 ((_ extract 7 0) |node5::__CPAchecker_TMP_0|)))(let ((.def_21656 (= p5_old .def_21655))).def_21656)))
(assert (let ((.def_5246 ((_ sign_extend 24) p5_old)))(let ((.def_5189 ((_ sign_extend 24) id6)))(let ((.def_21658 (bvslt .def_5189 .def_5246))).def_21658))))
(assert (let ((.def_5279 ((_ sign_extend 24) p4_old)))(let ((.def_5224 ((_ sign_extend 24) id5)))(let ((.def_21660 (bvslt .def_5224 .def_5279))).def_21660))))
(assert (let ((.def_5228 ((_ sign_extend 24) nomsg)))(let ((.def_5224 ((_ sign_extend 24) id5)))(let ((.def_21662 (= .def_5224 .def_5228))).def_21662))))
(assert (let ((.def_5225 ((_ sign_extend 24) send4)))(let ((.def_21665 (= .def_5225 |node4::__CPAchecker_TMP_0|))).def_21665)))
(assert (let ((.def_21667 ((_ extract 7 0) |node4::__CPAchecker_TMP_0|)))(let ((.def_21668 (= p4_old .def_21667))).def_21668)))
(assert (let ((.def_5275 ((_ sign_extend 24) p3_old)))(let ((.def_5224 ((_ sign_extend 24) id5)))(let ((.def_21670 (= .def_5224 .def_5275))).def_21670))))
(assert (let ((.def_5215 ((_ sign_extend 24) id4)))(let ((.def_21672 (= .def_5215 |node4::__CPAchecker_TMP_0|))).def_21672)))
(assert (let ((.def_5279 ((_ sign_extend 24) p4_old)))(let ((.def_5189 ((_ sign_extend 24) id6)))(let ((.def_21674 (= .def_5189 .def_5279))).def_21674))))
(assert (let ((.def_5267 ((_ sign_extend 24) p1_old)))(let ((.def_5201 ((_ sign_extend 24) id2)))(let ((.def_21676 (bvslt .def_5201 .def_5267))).def_21676))))
(assert (let ((.def_5203 ((_ sign_extend 24) send1)))(let ((.def_21679 (= .def_5203 |node1::__CPAchecker_TMP_0|))).def_21679)))
(assert (let ((.def_21681 ((_ extract 7 0) |node1::__CPAchecker_TMP_0|)))(let ((.def_21682 (= p1_old .def_21681))).def_21682)))
(assert (let ((.def_21684 (= id2 p6_old))).def_21684))
(assert (let ((.def_5242 ((_ sign_extend 24) p6_old)))(let ((.def_5201 ((_ sign_extend 24) id2)))(let ((.def_21686 (= .def_5201 .def_5242))).def_21686))))
(assert (let ((.def_5228 ((_ sign_extend 24) nomsg)))(let ((.def_5201 ((_ sign_extend 24) id2)))(let ((.def_21688 (= .def_5201 .def_5228))).def_21688))))
(assert (let ((.def_5275 ((_ sign_extend 24) p3_old)))(let ((.def_5228 ((_ sign_extend 24) nomsg)))(let ((.def_21690 (= .def_5228 .def_5275))).def_21690))))
(assert (let ((.def_5271 ((_ sign_extend 24) p2_old)))(let ((.def_5210 ((_ sign_extend 24) id3)))(let ((.def_21692 (bvslt .def_5210 .def_5271))).def_21692))))
(assert (let ((.def_5211 ((_ sign_extend 24) send2)))(let ((.def_21695 (= .def_5211 |node2::__CPAchecker_TMP_0|))).def_21695)))
(assert (let ((.def_21697 ((_ extract 7 0) |node2::__CPAchecker_TMP_0|)))(let ((.def_21698 (= p2_old .def_21697))).def_21698)))
(assert (let ((.def_5267 ((_ sign_extend 24) p1_old)))(let ((.def_5210 ((_ sign_extend 24) id3)))(let ((.def_21700 (= .def_5210 .def_5267))).def_21700))))
(assert (let ((.def_5242 ((_ sign_extend 24) p6_old)))(let ((.def_5197 ((_ sign_extend 24) id1)))(let ((.def_21702 (bvslt .def_5197 .def_5242))).def_21702))))
(assert (let ((.def_21704 (= send6 p6_old))).def_21704))
(assert (let ((.def_5195 ((_ sign_extend 24) send6)))(let ((.def_21707 (= .def_5195 |node6::__CPAchecker_TMP_0|))).def_21707)))
(assert (let ((.def_21709 ((_ extract 7 0) |node6::__CPAchecker_TMP_0|)))(let ((.def_21710 (= p6_old .def_21709))).def_21710)))
(assert (let ((.def_5246 ((_ sign_extend 24) p5_old)))(let ((.def_5197 ((_ sign_extend 24) id1)))(let ((.def_21712 (= .def_5197 .def_5246))).def_21712))))
(assert (let ((.def_5271 ((_ sign_extend 24) p2_old)))(let ((.def_5228 ((_ sign_extend 24) nomsg)))(let ((.def_21714 (= .def_5228 .def_5271))).def_21714))))
(assert (let ((.def_5246 ((_ sign_extend 24) p5_old)))(let ((.def_5228 ((_ sign_extend 24) nomsg)))(let ((.def_21716 (= .def_5228 .def_5246))).def_21716))))
(assert (let ((.def_21718 (= st6 (_ bv1 8)))).def_21718))
(assert (let ((.def_5253 ((_ sign_extend 24) st3)))(let ((.def_21720 (= .def_5253 (_ bv4294967293 32)))).def_21720)))
(assert (let ((.def_5253 ((_ sign_extend 24) st3)))(let ((.def_21722 (= .def_5253 (_ bv4294967294 32)))).def_21722)))
(assert (let ((.def_21724 (= st3 (_ bv255 8)))).def_21724))
(assert (let ((.def_21726 (= send3 send4))).def_21726))
(assert (let ((.def_21728 (= id2 send1))).def_21728))
(assert (let ((.def_21730 (= id6 send5))).def_21730))
(assert (let ((.def_21732 (= r1 (_ bv1 8)))).def_21732))
(assert (let ((.def_5249 ((_ sign_extend 24) st6)))(let ((.def_21734 (= .def_5249 (_ bv4294967294 32)))).def_21734)))
(assert (let ((.def_5249 ((_ sign_extend 24) st6)))(let ((.def_21736 (= .def_5249 (_ bv4294967293 32)))).def_21736)))
(assert (let ((.def_5249 ((_ sign_extend 24) st6)))(let ((.def_21738 (= .def_5249 (_ bv4294967291 32)))).def_21738)))
(assert (let ((.def_5249 ((_ sign_extend 24) st6)))(let ((.def_21740 (= .def_5249 (_ bv4294967292 32)))).def_21740)))
(assert (let ((.def_21742 (= st6 (_ bv255 8)))).def_21742))
(assert (let ((.def_21744 (= send4 p3_old))).def_21744))
(assert (let ((.def_5242 ((_ sign_extend 24) p6_old)))(let ((.def_5228 ((_ sign_extend 24) nomsg)))(let ((.def_21746 (= .def_5228 .def_5242))).def_21746))))

assert N441:
(assert false)
(assert (let ((.def_2600 (= |assert::arg| (_ bv0 8)))).def_2600))

