(set-info :source |printed by MathSAT|)
(declare-fun a20 () (_ BitVec 32))
(declare-fun a25 () (_ BitVec 32))
(declare-fun a12 () (_ BitVec 32))
(declare-fun a15 () (_ BitVec 32))
(declare-fun a16 () (_ BitVec 32))
(declare-fun a2 () (_ BitVec 32))
(declare-fun a27 () (_ BitVec 32))
(declare-fun a9 () (_ BitVec 32))
(declare-fun m_pc () (_ BitVec 32))
(declare-fun t1_pc () (_ BitVec 32))
(declare-fun t2_pc () (_ BitVec 32))
(declare-fun t3_pc () (_ BitVec 32))
(declare-fun m_st () (_ BitVec 32))
(declare-fun E_3 () (_ BitVec 32))
(declare-fun E_M () (_ BitVec 32))
(declare-fun E_2 () (_ BitVec 32))
(declare-fun t3_st () (_ BitVec 32))
(declare-fun t1_st () (_ BitVec 32))
(declare-fun t2_st () (_ BitVec 32))
(declare-fun local () (_ BitVec 32))
(declare-fun token () (_ BitVec 32))
(declare-fun E_1 () (_ BitVec 32))

*:
(assert (let ((.def_107231 (= a20 (_ bv5 32)))).def_107231))

calculate_output8 N29965:
(assert false)
(assert (let ((.def_107231 (= a20 (_ bv5 32)))).def_107231))

main1 N30136:
(assert (let ((.def_107231 (= a20 (_ bv5 32)))).def_107231))
(assert (let ((.def_154622 (= a25 (_ bv1 32)))).def_154622))
(assert (let ((.def_154625 (= a12 (_ bv4 32)))).def_154625))
(assert (let ((.def_154628 (= a15 (_ bv1 32)))).def_154628))
(assert (let ((.def_154631 (= a16 (_ bv1 32)))).def_154631))
(assert (let ((.def_154634 (= a2 (_ bv10 32)))).def_154634))
(assert (let ((.def_154637 (= a27 (_ bv1 32)))).def_154637))
(assert (let ((.def_154640 (= a9 (_ bv18 32)))).def_154640))
(assert (let ((.def_320587 (= a9 (_ bv17 32)))).def_320587))
(assert (let ((.def_320589 (= a2 (_ bv12 32)))).def_320589))
(assert (let ((.def_320591 (= a2 (_ bv11 32)))).def_320591))
(assert (let ((.def_320593 (= a2 (_ bv9 32)))).def_320593))
(assert (let ((.def_320595 (= a12 (_ bv3 32)))).def_320595))
(assert (let ((.def_320597 (= a20 (_ bv6 32)))).def_320597))
(assert (let ((.def_320599 (= a2 (_ bv13 32)))).def_320599))
(assert (let ((.def_320601 (= a9 (_ bv16 32)))).def_320601))
(assert (let ((.def_1073015 (= a12 (_ bv5 32)))).def_1073015))
(assert (let ((.def_1073017 (= a12 (_ bv2 32)))).def_1073017))
(assert (let ((.def_1073019 (= a12 (_ bv6 32)))).def_1073019))
(assert (let ((.def_1073021 (= a20 (_ bv7 32)))).def_1073021))

error N30154:
(assert false)
(assert (let ((.def_107231 (= a20 (_ bv5 32)))).def_107231))

eval N30396:
(assert (let ((.def_1214019 (= m_pc (_ bv0 32)))).def_1214019))
(assert (let ((.def_107231 (= a20 (_ bv5 32)))).def_107231))
(assert (let ((.def_1215609 (= t1_pc (_ bv0 32)))).def_1215609))
(assert (let ((.def_1215612 (= t2_pc (_ bv0 32)))).def_1215612))
(assert (let ((.def_1215615 (= t3_pc (_ bv0 32)))).def_1215615))
(assert (let ((.def_1215617 (= m_pc (_ bv1 32)))).def_1215617))
(assert (let ((.def_1215619 (= t1_pc (_ bv1 32)))).def_1215619))
(assert (let ((.def_1215621 (= t2_pc (_ bv1 32)))).def_1215621))
(assert (let ((.def_1215623 (= t3_pc (_ bv1 32)))).def_1215623))
(assert (let ((.def_1215626 (= m_st (_ bv0 32)))).def_1215626))
(assert (let ((.def_1217681 (= E_3 (_ bv1 32)))).def_1217681))
(assert (let ((.def_1217684 (= E_M (_ bv1 32)))).def_1217684))
(assert (let ((.def_1217687 (= E_2 (_ bv1 32)))).def_1217687))
(assert (let ((.def_1217690 (= t3_st (_ bv0 32)))).def_1217690))
(assert (let ((.def_1217693 (= t1_st (_ bv0 32)))).def_1217693))
(assert (let ((.def_1217696 (= t2_st (_ bv0 32)))).def_1217696))
(assert (let ((.def_1217699 (bvadd (_ bv3 32) local)))(let ((.def_1217701 (= .def_1217699 token))).def_1217701)))
(assert (let ((.def_1222434 (= E_2 (_ bv2 32)))).def_1222434))
(assert (let ((.def_1222437 (= E_1 (_ bv1 32)))).def_1222437))
(assert (let ((.def_1222439 (= t2_st (_ bv2 32)))).def_1222439))
(assert (let ((.def_1222441 (= local token))).def_1222441))
(assert (let ((.def_1222443 (bvadd (_ bv1 32) local)))(let ((.def_1222444 (= token .def_1222443))).def_1222444)))
(assert (let ((.def_1222446 (bvadd (_ bv2 32) local)))(let ((.def_1222447 (= token .def_1222446))).def_1222447)))
(assert (let ((.def_1226043 (= E_M (_ bv0 32)))).def_1226043))
(assert (let ((.def_1226045 (= E_3 (_ bv0 32)))).def_1226045))
(assert (let ((.def_1226047 (= E_2 (_ bv0 32)))).def_1226047))
(assert (let ((.def_1226049 (= E_1 (_ bv0 32)))).def_1226049))

start_simulation N30628:
(assert (let ((.def_1214019 (= m_pc (_ bv0 32)))).def_1214019))
(assert (let ((.def_107231 (= a20 (_ bv5 32)))).def_107231))
(assert (let ((.def_1215609 (= t1_pc (_ bv0 32)))).def_1215609))
(assert (let ((.def_1215612 (= t2_pc (_ bv0 32)))).def_1215612))
(assert (let ((.def_1215615 (= t3_pc (_ bv0 32)))).def_1215615))
(assert (let ((.def_1215617 (= m_pc (_ bv1 32)))).def_1215617))
(assert (let ((.def_1215619 (= t1_pc (_ bv1 32)))).def_1215619))
(assert (let ((.def_1215621 (= t2_pc (_ bv1 32)))).def_1215621))
(assert (let ((.def_1215623 (= t3_pc (_ bv1 32)))).def_1215623))
(assert (let ((.def_1217681 (= E_3 (_ bv1 32)))).def_1217681))
(assert (let ((.def_1217684 (= E_M (_ bv1 32)))).def_1217684))
(assert (let ((.def_1217687 (= E_2 (_ bv1 32)))).def_1217687))
(assert (let ((.def_1217690 (= t3_st (_ bv0 32)))).def_1217690))
(assert (let ((.def_1215626 (= m_st (_ bv0 32)))).def_1215626))
(assert (let ((.def_1222434 (= E_2 (_ bv2 32)))).def_1222434))
(assert (let ((.def_1222437 (= E_1 (_ bv1 32)))).def_1222437))
(assert (let ((.def_1217696 (= t2_st (_ bv0 32)))).def_1217696))
(assert (let ((.def_1217693 (= t1_st (_ bv0 32)))).def_1217693))
(assert (let ((.def_1222439 (= t2_st (_ bv2 32)))).def_1222439))
(assert (let ((.def_1226043 (= E_M (_ bv0 32)))).def_1226043))
(assert (let ((.def_1226045 (= E_3 (_ bv0 32)))).def_1226045))
(assert (let ((.def_1226047 (= E_2 (_ bv0 32)))).def_1226047))

