(set-info :source |printed by MathSAT|)
(declare-fun a20 () (_ BitVec 32))
(declare-fun a25 () (_ BitVec 32))
(declare-fun a12 () (_ BitVec 32))
(declare-fun a15 () (_ BitVec 32))
(declare-fun a16 () (_ BitVec 32))
(declare-fun a2 () (_ BitVec 32))
(declare-fun a27 () (_ BitVec 32))
(declare-fun a9 () (_ BitVec 32))
(declare-fun m_pc () (_ BitVec 32))
(declare-fun t1_pc () (_ BitVec 32))
(declare-fun t2_pc () (_ BitVec 32))
(declare-fun t3_pc () (_ BitVec 32))
(declare-fun t4_pc () (_ BitVec 32))
(declare-fun m_st () (_ BitVec 32))

*:
(assert (let ((.def_107598 (= a20 (_ bv5 32)))).def_107598))

calculate_output8 N30053:
(assert false)
(assert (let ((.def_107598 (= a20 (_ bv5 32)))).def_107598))

main1 N30136:
(assert (let ((.def_107598 (= a20 (_ bv5 32)))).def_107598))
(assert (let ((.def_155165 (= a25 (_ bv1 32)))).def_155165))
(assert (let ((.def_155168 (= a12 (_ bv4 32)))).def_155168))
(assert (let ((.def_155171 (= a15 (_ bv1 32)))).def_155171))
(assert (let ((.def_155174 (= a16 (_ bv1 32)))).def_155174))
(assert (let ((.def_155177 (= a2 (_ bv10 32)))).def_155177))
(assert (let ((.def_155180 (= a27 (_ bv1 32)))).def_155180))
(assert (let ((.def_155183 (= a9 (_ bv18 32)))).def_155183))
(assert (let ((.def_321348 (= a20 (_ bv6 32)))).def_321348))
(assert (let ((.def_321350 (= a12 (_ bv3 32)))).def_321350))
(assert (let ((.def_321352 (= a12 (_ bv6 32)))).def_321352))
(assert (let ((.def_321354 (= a2 (_ bv9 32)))).def_321354))
(assert (let ((.def_321356 (= a9 (_ bv16 32)))).def_321356))
(assert (let ((.def_321358 (= a2 (_ bv12 32)))).def_321358))
(assert (let ((.def_321360 (= a2 (_ bv11 32)))).def_321360))
(assert (let ((.def_321362 (= a9 (_ bv17 32)))).def_321362))
(assert (let ((.def_321364 (= a12 (_ bv2 32)))).def_321364))
(assert (let ((.def_321366 (= a2 (_ bv13 32)))).def_321366))

error N30154:
(assert false)
(assert (let ((.def_107598 (= a20 (_ bv5 32)))).def_107598))

eval N30463:
(assert (let ((.def_746708 (= m_pc (_ bv0 32)))).def_746708))
(assert (let ((.def_107598 (= a20 (_ bv5 32)))).def_107598))
(assert (let ((.def_749046 (= t1_pc (_ bv0 32)))).def_749046))
(assert (let ((.def_749049 (= t2_pc (_ bv0 32)))).def_749049))
(assert (let ((.def_749052 (= t3_pc (_ bv0 32)))).def_749052))
(assert (let ((.def_749055 (= t4_pc (_ bv0 32)))).def_749055))
(assert (let ((.def_749057 (= m_pc (_ bv1 32)))).def_749057))
(assert (let ((.def_749059 (= t1_pc (_ bv1 32)))).def_749059))
(assert (let ((.def_749061 (= t2_pc (_ bv1 32)))).def_749061))
(assert (let ((.def_749063 (= t3_pc (_ bv1 32)))).def_749063))
(assert (let ((.def_749065 (= t4_pc (_ bv1 32)))).def_749065))
(assert (let ((.def_749068 (= m_st (_ bv0 32)))).def_749068))

start_simulation N30736:
(assert (let ((.def_746708 (= m_pc (_ bv0 32)))).def_746708))
(assert (let ((.def_107598 (= a20 (_ bv5 32)))).def_107598))
(assert (let ((.def_749046 (= t1_pc (_ bv0 32)))).def_749046))
(assert (let ((.def_749049 (= t2_pc (_ bv0 32)))).def_749049))
(assert (let ((.def_749052 (= t3_pc (_ bv0 32)))).def_749052))
(assert (let ((.def_749055 (= t4_pc (_ bv0 32)))).def_749055))
(assert (let ((.def_749057 (= m_pc (_ bv1 32)))).def_749057))
(assert (let ((.def_749059 (= t1_pc (_ bv1 32)))).def_749059))
(assert (let ((.def_749061 (= t2_pc (_ bv1 32)))).def_749061))
(assert (let ((.def_749063 (= t3_pc (_ bv1 32)))).def_749063))
(assert (let ((.def_749065 (= t4_pc (_ bv1 32)))).def_749065))

