(set-info :source |printed by MathSAT|)
(declare-fun c_last_read () (_ BitVec 32))
(declare-fun p_last_write () (_ BitVec 32))
(declare-fun c_num_read () (_ BitVec 32))
(declare-fun p_num_write () (_ BitVec 32))
(declare-fun c_dr_pc () (_ BitVec 32))
(declare-fun q_free () (_ BitVec 32))
(declare-fun q_buf_0 () (_ BitVec 32))
(declare-fun p_dw_pc () (_ BitVec 32))
(declare-fun q_read_ev () (_ BitVec 32))
(declare-fun c_dr_st () (_ BitVec 32))
(declare-fun p_dw_st () (_ BitVec 32))
(declare-fun m_pc () (_ BitVec 32))
(declare-fun t1_pc () (_ BitVec 32))
(declare-fun t2_pc () (_ BitVec 32))
(declare-fun t3_pc () (_ BitVec 32))
(declare-fun t4_pc () (_ BitVec 32))
(declare-fun t5_pc () (_ BitVec 32))
(declare-fun t6_pc () (_ BitVec 32))
(declare-fun t7_pc () (_ BitVec 32))
(declare-fun t8_pc () (_ BitVec 32))
(declare-fun t9_pc () (_ BitVec 32))
(declare-fun t10_pc () (_ BitVec 32))
(declare-fun t11_pc () (_ BitVec 32))
(declare-fun t12_pc () (_ BitVec 32))
(declare-fun t13_pc () (_ BitVec 32))
(declare-fun m_st () (_ BitVec 32))

*:
(assert (let ((.def_690 (= c_last_read p_last_write))).def_690))
(assert (let ((.def_699 (= c_num_read p_num_write))).def_699))

error1 N4:
(assert false)
(assert (let ((.def_690 (= c_last_read p_last_write))).def_690))
(assert (let ((.def_699 (= c_num_read p_num_write))).def_699))

do_write_p N64:
(assert (let ((.def_1034 (= c_dr_pc (_ bv0 32)))).def_1034))
(assert (let ((.def_690 (= c_last_read p_last_write))).def_690))
(assert (let ((.def_699 (= c_num_read p_num_write))).def_699))
(assert (let ((.def_1137 (= q_free (_ bv1 32)))).def_1137))
(assert false)
(assert (let ((.def_1480 (= p_last_write q_buf_0))).def_1480))
(assert (let ((.def_1140 (= p_dw_pc (_ bv1 32)))).def_1140))
(assert (let ((.def_1669 (bvadd (_ bv1 32) c_num_read)))(let ((.def_1670 (= p_num_write .def_1669))).def_1670)))
(assert (let ((.def_2561 (= q_free (_ bv0 32)))).def_2561))
(assert (let ((.def_1672 (= c_dr_pc (_ bv1 32)))).def_1672))
(assert (let ((.def_5362 (= q_read_ev (_ bv1 32)))).def_5362))

do_read_c N100:
(assert (let ((.def_1140 (= p_dw_pc (_ bv1 32)))).def_1140))
(assert (let ((.def_1137 (= q_free (_ bv1 32)))).def_1137))
(assert (let ((.def_690 (= c_last_read p_last_write))).def_690))
(assert (let ((.def_699 (= c_num_read p_num_write))).def_699))
(assert (let ((.def_1480 (= p_last_write q_buf_0))).def_1480))
(assert (let ((.def_1669 (bvadd (_ bv1 32) c_num_read)))(let ((.def_1670 (= p_num_write .def_1669))).def_1670)))
(assert (let ((.def_1672 (= c_dr_pc (_ bv1 32)))).def_1672))
(assert false)

eval1 N170:
(assert (let ((.def_1034 (= c_dr_pc (_ bv0 32)))).def_1034))
(assert (let ((.def_690 (= c_last_read p_last_write))).def_690))
(assert (let ((.def_699 (= c_num_read p_num_write))).def_699))
(assert (let ((.def_1137 (= q_free (_ bv1 32)))).def_1137))
(assert (let ((.def_1410 (= p_dw_pc (_ bv0 32)))).def_1410))
(assert (let ((.def_1672 (= c_dr_pc (_ bv1 32)))).def_1672))
(assert (let ((.def_3984 (= c_dr_st (_ bv0 32)))).def_3984))
(assert (let ((.def_1140 (= p_dw_pc (_ bv1 32)))).def_1140))
(assert (let ((.def_5362 (= q_read_ev (_ bv1 32)))).def_5362))
(assert (let ((.def_5365 (= p_dw_st (_ bv0 32)))).def_5365))
(assert (let ((.def_1480 (= p_last_write q_buf_0))).def_1480))
(assert (let ((.def_1669 (bvadd (_ bv1 32) c_num_read)))(let ((.def_1670 (= p_num_write .def_1669))).def_1670)))

start_simulation1 N221:
(assert (let ((.def_1034 (= c_dr_pc (_ bv0 32)))).def_1034))
(assert (let ((.def_690 (= c_last_read p_last_write))).def_690))
(assert (let ((.def_699 (= c_num_read p_num_write))).def_699))
(assert (let ((.def_1137 (= q_free (_ bv1 32)))).def_1137))
(assert (let ((.def_1410 (= p_dw_pc (_ bv0 32)))).def_1410))
(assert (let ((.def_5362 (= q_read_ev (_ bv1 32)))).def_5362))

error2 N260:
(assert false)
(assert (let ((.def_690 (= c_last_read p_last_write))).def_690))
(assert (let ((.def_699 (= c_num_read p_num_write))).def_699))

eval2 N1051:
(assert (let ((.def_8530 (= m_pc (_ bv0 32)))).def_8530))
(assert (let ((.def_690 (= c_last_read p_last_write))).def_690))
(assert (let ((.def_699 (= c_num_read p_num_write))).def_699))
(assert (let ((.def_22974 (= t1_pc (_ bv0 32)))).def_22974))
(assert (let ((.def_22977 (= t2_pc (_ bv0 32)))).def_22977))
(assert (let ((.def_22980 (= t3_pc (_ bv0 32)))).def_22980))
(assert (let ((.def_22983 (= t4_pc (_ bv0 32)))).def_22983))
(assert (let ((.def_22986 (= t5_pc (_ bv0 32)))).def_22986))
(assert (let ((.def_22989 (= t6_pc (_ bv0 32)))).def_22989))
(assert (let ((.def_22992 (= t7_pc (_ bv0 32)))).def_22992))
(assert (let ((.def_22995 (= t8_pc (_ bv0 32)))).def_22995))
(assert (let ((.def_22998 (= t9_pc (_ bv0 32)))).def_22998))
(assert (let ((.def_23001 (= t10_pc (_ bv0 32)))).def_23001))
(assert (let ((.def_23004 (= t11_pc (_ bv0 32)))).def_23004))
(assert (let ((.def_23007 (= t12_pc (_ bv0 32)))).def_23007))
(assert (let ((.def_23010 (= t13_pc (_ bv0 32)))).def_23010))
(assert (let ((.def_23012 (= m_pc (_ bv1 32)))).def_23012))
(assert (let ((.def_23014 (= t1_pc (_ bv1 32)))).def_23014))
(assert (let ((.def_23016 (= t2_pc (_ bv1 32)))).def_23016))
(assert (let ((.def_23018 (= t3_pc (_ bv1 32)))).def_23018))
(assert (let ((.def_23020 (= t4_pc (_ bv1 32)))).def_23020))
(assert (let ((.def_23022 (= t5_pc (_ bv1 32)))).def_23022))
(assert (let ((.def_23024 (= t6_pc (_ bv1 32)))).def_23024))
(assert (let ((.def_23026 (= t7_pc (_ bv1 32)))).def_23026))
(assert (let ((.def_23028 (= t8_pc (_ bv1 32)))).def_23028))
(assert (let ((.def_23030 (= t9_pc (_ bv1 32)))).def_23030))
(assert (let ((.def_23032 (= t10_pc (_ bv1 32)))).def_23032))
(assert (let ((.def_23034 (= t11_pc (_ bv1 32)))).def_23034))
(assert (let ((.def_23036 (= t12_pc (_ bv1 32)))).def_23036))
(assert (let ((.def_23038 (= t13_pc (_ bv1 32)))).def_23038))
(assert (let ((.def_23041 (= m_st (_ bv0 32)))).def_23041))

start_simulation2 N1693:
(assert (let ((.def_8530 (= m_pc (_ bv0 32)))).def_8530))
(assert (let ((.def_690 (= c_last_read p_last_write))).def_690))
(assert (let ((.def_699 (= c_num_read p_num_write))).def_699))
(assert (let ((.def_22974 (= t1_pc (_ bv0 32)))).def_22974))
(assert (let ((.def_22977 (= t2_pc (_ bv0 32)))).def_22977))
(assert (let ((.def_22980 (= t3_pc (_ bv0 32)))).def_22980))
(assert (let ((.def_22983 (= t4_pc (_ bv0 32)))).def_22983))
(assert (let ((.def_22986 (= t5_pc (_ bv0 32)))).def_22986))
(assert (let ((.def_22989 (= t6_pc (_ bv0 32)))).def_22989))
(assert (let ((.def_22992 (= t7_pc (_ bv0 32)))).def_22992))
(assert (let ((.def_22995 (= t8_pc (_ bv0 32)))).def_22995))
(assert (let ((.def_22998 (= t9_pc (_ bv0 32)))).def_22998))
(assert (let ((.def_23001 (= t10_pc (_ bv0 32)))).def_23001))
(assert (let ((.def_23004 (= t11_pc (_ bv0 32)))).def_23004))
(assert (let ((.def_23007 (= t12_pc (_ bv0 32)))).def_23007))
(assert (let ((.def_23010 (= t13_pc (_ bv0 32)))).def_23010))
(assert (let ((.def_23012 (= m_pc (_ bv1 32)))).def_23012))
(assert (let ((.def_23014 (= t1_pc (_ bv1 32)))).def_23014))
(assert (let ((.def_23016 (= t2_pc (_ bv1 32)))).def_23016))
(assert (let ((.def_23018 (= t3_pc (_ bv1 32)))).def_23018))
(assert (let ((.def_23020 (= t4_pc (_ bv1 32)))).def_23020))
(assert (let ((.def_23022 (= t5_pc (_ bv1 32)))).def_23022))
(assert (let ((.def_23024 (= t6_pc (_ bv1 32)))).def_23024))
(assert (let ((.def_23026 (= t7_pc (_ bv1 32)))).def_23026))
(assert (let ((.def_23028 (= t8_pc (_ bv1 32)))).def_23028))
(assert (let ((.def_23030 (= t9_pc (_ bv1 32)))).def_23030))
(assert (let ((.def_23032 (= t10_pc (_ bv1 32)))).def_23032))
(assert (let ((.def_23034 (= t11_pc (_ bv1 32)))).def_23034))
(assert (let ((.def_23036 (= t12_pc (_ bv1 32)))).def_23036))
(assert (let ((.def_23038 (= t13_pc (_ bv1 32)))).def_23038))

