(set-info :source |printed by MathSAT|)
(declare-fun a20 () (_ BitVec 32))
(declare-fun a9 () (_ BitVec 32))
(declare-fun a25 () (_ BitVec 32))
(declare-fun a12 () (_ BitVec 32))
(declare-fun a15 () (_ BitVec 32))
(declare-fun a16 () (_ BitVec 32))
(declare-fun a2 () (_ BitVec 32))
(declare-fun a27 () (_ BitVec 32))

*:
(assert (let ((.def_105958 (= a20 (_ bv5 32)))).def_105958))

calculate_output8 N29613:
(assert false)
(assert (let ((.def_105958 (= a20 (_ bv5 32)))).def_105958))

main1 N30136:
(assert (let ((.def_152809 (= a9 (_ bv18 32)))).def_152809))
(assert (let ((.def_105958 (= a20 (_ bv5 32)))).def_105958))
(assert (let ((.def_339439 (= a25 (_ bv1 32)))).def_339439))
(assert (let ((.def_339442 (= a12 (_ bv4 32)))).def_339442))
(assert (let ((.def_339445 (= a15 (_ bv1 32)))).def_339445))
(assert (let ((.def_339448 (= a16 (_ bv1 32)))).def_339448))
(assert (let ((.def_339451 (= a2 (_ bv10 32)))).def_339451))
(assert (let ((.def_339454 (= a27 (_ bv1 32)))).def_339454))
(assert (let ((.def_339456 (= a12 (_ bv6 32)))).def_339456))
(assert (let ((.def_339458 (= a20 (_ bv6 32)))).def_339458))
(assert (let ((.def_339460 (= a12 (_ bv3 32)))).def_339460))
(assert (let ((.def_339462 (= a2 (_ bv12 32)))).def_339462))
(assert (let ((.def_339464 (= a12 (_ bv2 32)))).def_339464))
(assert (let ((.def_339466 (= a9 (_ bv16 32)))).def_339466))
(assert (let ((.def_339468 (= a12 (_ bv5 32)))).def_339468))
(assert (let ((.def_339470 (= a9 (_ bv17 32)))).def_339470))
(assert (let ((.def_906073 (= a20 (_ bv7 32)))).def_906073))
(assert (let ((.def_906075 (= a2 (_ bv13 32)))).def_906075))
(assert (let ((.def_906077 (= a2 (_ bv9 32)))).def_906077))
(assert (let ((.def_906079 (= a2 (_ bv11 32)))).def_906079))

