(set-info :source |printed by MathSAT|)
(declare-fun a20 () (_ BitVec 32))
(declare-fun a25 () (_ BitVec 32))
(declare-fun a12 () (_ BitVec 32))
(declare-fun a15 () (_ BitVec 32))
(declare-fun a16 () (_ BitVec 32))
(declare-fun a2 () (_ BitVec 32))
(declare-fun a27 () (_ BitVec 32))
(declare-fun a9 () (_ BitVec 32))
(declare-fun m_pc () (_ BitVec 32))
(declare-fun t1_pc () (_ BitVec 32))
(declare-fun t2_pc () (_ BitVec 32))
(declare-fun t3_pc () (_ BitVec 32))
(declare-fun t4_pc () (_ BitVec 32))
(declare-fun t5_pc () (_ BitVec 32))
(declare-fun t6_pc () (_ BitVec 32))
(declare-fun t7_pc () (_ BitVec 32))
(declare-fun t8_pc () (_ BitVec 32))
(declare-fun t9_pc () (_ BitVec 32))
(declare-fun t10_pc () (_ BitVec 32))
(declare-fun t11_pc () (_ BitVec 32))
(declare-fun m_st () (_ BitVec 32))
(declare-fun t5_st () (_ BitVec 32))
(declare-fun E_2 () (_ BitVec 32))
(declare-fun E_11 () (_ BitVec 32))
(declare-fun E_8 () (_ BitVec 32))
(declare-fun E_7 () (_ BitVec 32))
(declare-fun E_6 () (_ BitVec 32))
(declare-fun E_4 () (_ BitVec 32))
(declare-fun E_3 () (_ BitVec 32))
(declare-fun E_M () (_ BitVec 32))
(declare-fun t3_st () (_ BitVec 32))
(declare-fun t6_st () (_ BitVec 32))
(declare-fun E_9 () (_ BitVec 32))
(declare-fun E_5 () (_ BitVec 32))
(declare-fun E_10 () (_ BitVec 32))
(declare-fun t1_st () (_ BitVec 32))
(declare-fun t7_st () (_ BitVec 32))
(declare-fun t8_st () (_ BitVec 32))
(declare-fun t2_st () (_ BitVec 32))
(declare-fun t11_st () (_ BitVec 32))
(declare-fun t10_st () (_ BitVec 32))
(declare-fun t9_st () (_ BitVec 32))
(declare-fun t4_st () (_ BitVec 32))
(declare-fun E_1 () (_ BitVec 32))
(declare-fun local () (_ BitVec 32))
(declare-fun token () (_ BitVec 32))

*:
(assert (let ((.def_107263 (= a20 (_ bv5 32)))).def_107263))

calculate_output8 N29943:
(assert false)
(assert (let ((.def_107263 (= a20 (_ bv5 32)))).def_107263))

main1 N30136:
(assert (let ((.def_107263 (= a20 (_ bv5 32)))).def_107263))
(assert (let ((.def_154655 (= a25 (_ bv1 32)))).def_154655))
(assert (let ((.def_154658 (= a12 (_ bv4 32)))).def_154658))
(assert (let ((.def_154661 (= a15 (_ bv1 32)))).def_154661))
(assert (let ((.def_154664 (= a16 (_ bv1 32)))).def_154664))
(assert (let ((.def_154667 (= a2 (_ bv10 32)))).def_154667))
(assert (let ((.def_154670 (= a27 (_ bv1 32)))).def_154670))
(assert (let ((.def_154673 (= a9 (_ bv18 32)))).def_154673))
(assert (let ((.def_584887 (= a9 (_ bv17 32)))).def_584887))
(assert (let ((.def_584889 (= a2 (_ bv12 32)))).def_584889))
(assert (let ((.def_584891 (= a20 (_ bv6 32)))).def_584891))
(assert (let ((.def_584893 (= a20 (_ bv7 32)))).def_584893))
(assert (let ((.def_584895 (= a2 (_ bv13 32)))).def_584895))
(assert (let ((.def_584897 (= a2 (_ bv9 32)))).def_584897))
(assert (let ((.def_584899 (= a12 (_ bv3 32)))).def_584899))
(assert (let ((.def_584901 (= a12 (_ bv2 32)))).def_584901))
(assert (let ((.def_584903 (= a12 (_ bv5 32)))).def_584903))
(assert (let ((.def_584905 (= a2 (_ bv11 32)))).def_584905))
(assert (let ((.def_584907 (= a9 (_ bv16 32)))).def_584907))
(assert (let ((.def_584909 (= a12 (_ bv6 32)))).def_584909))

error N30154:
(assert false)
(assert (let ((.def_107263 (= a20 (_ bv5 32)))).def_107263))

eval N30828:
(assert (let ((.def_922364 (= m_pc (_ bv0 32)))).def_922364))
(assert (let ((.def_107263 (= a20 (_ bv5 32)))).def_107263))
(assert (let ((.def_933187 (= t1_pc (_ bv0 32)))).def_933187))
(assert (let ((.def_933190 (= t2_pc (_ bv0 32)))).def_933190))
(assert (let ((.def_933193 (= t3_pc (_ bv0 32)))).def_933193))
(assert (let ((.def_933196 (= t4_pc (_ bv0 32)))).def_933196))
(assert (let ((.def_933199 (= t5_pc (_ bv0 32)))).def_933199))
(assert (let ((.def_933202 (= t6_pc (_ bv0 32)))).def_933202))
(assert (let ((.def_933205 (= t7_pc (_ bv0 32)))).def_933205))
(assert (let ((.def_933208 (= t8_pc (_ bv0 32)))).def_933208))
(assert (let ((.def_933211 (= t9_pc (_ bv0 32)))).def_933211))
(assert (let ((.def_933214 (= t10_pc (_ bv0 32)))).def_933214))
(assert (let ((.def_933217 (= t11_pc (_ bv0 32)))).def_933217))
(assert (let ((.def_933219 (= m_pc (_ bv1 32)))).def_933219))
(assert (let ((.def_933221 (= t1_pc (_ bv1 32)))).def_933221))
(assert (let ((.def_933223 (= t2_pc (_ bv1 32)))).def_933223))
(assert (let ((.def_933225 (= t3_pc (_ bv1 32)))).def_933225))
(assert (let ((.def_933227 (= t4_pc (_ bv1 32)))).def_933227))
(assert (let ((.def_933229 (= t5_pc (_ bv1 32)))).def_933229))
(assert (let ((.def_933231 (= t6_pc (_ bv1 32)))).def_933231))
(assert (let ((.def_933233 (= t7_pc (_ bv1 32)))).def_933233))
(assert (let ((.def_933235 (= t8_pc (_ bv1 32)))).def_933235))
(assert (let ((.def_933237 (= t9_pc (_ bv1 32)))).def_933237))
(assert (let ((.def_933239 (= t10_pc (_ bv1 32)))).def_933239))
(assert (let ((.def_933241 (= t11_pc (_ bv1 32)))).def_933241))
(assert (let ((.def_933244 (= m_st (_ bv0 32)))).def_933244))
(assert (let ((.def_1028375 (= t5_st (_ bv0 32)))).def_1028375))
(assert (let ((.def_1028378 (= E_2 (_ bv2 32)))).def_1028378))
(assert (let ((.def_1028381 (= E_11 (_ bv1 32)))).def_1028381))
(assert (let ((.def_1028384 (= E_8 (_ bv1 32)))).def_1028384))
(assert (let ((.def_1028387 (= E_7 (_ bv1 32)))).def_1028387))
(assert (let ((.def_1028390 (= E_6 (_ bv1 32)))).def_1028390))
(assert (let ((.def_1028393 (= E_4 (_ bv1 32)))).def_1028393))
(assert (let ((.def_1028396 (= E_3 (_ bv1 32)))).def_1028396))
(assert (let ((.def_1028398 (= E_2 (_ bv1 32)))).def_1028398))
(assert (let ((.def_1028401 (= E_M (_ bv1 32)))).def_1028401))
(assert (let ((.def_1028404 (= t3_st (_ bv0 32)))).def_1028404))
(assert (let ((.def_1028407 (= t6_st (_ bv0 32)))).def_1028407))
(assert (let ((.def_1028410 (= E_9 (_ bv1 32)))).def_1028410))
(assert (let ((.def_1028413 (= E_5 (_ bv1 32)))).def_1028413))
(assert (let ((.def_1028416 (= E_10 (_ bv1 32)))).def_1028416))
(assert (let ((.def_1028419 (= t1_st (_ bv0 32)))).def_1028419))
(assert (let ((.def_1028422 (= t7_st (_ bv0 32)))).def_1028422))
(assert (let ((.def_1028425 (= t8_st (_ bv0 32)))).def_1028425))
(assert (let ((.def_1028428 (= t2_st (_ bv0 32)))).def_1028428))
(assert (let ((.def_1028431 (= t11_st (_ bv0 32)))).def_1028431))
(assert (let ((.def_1028434 (= t10_st (_ bv0 32)))).def_1028434))
(assert (let ((.def_1028437 (= t9_st (_ bv0 32)))).def_1028437))
(assert (let ((.def_1028440 (= t4_st (_ bv0 32)))).def_1028440))
(assert (let ((.def_1028443 (= E_1 (_ bv1 32)))).def_1028443))
(assert (let ((.def_1028446 (bvadd (_ bv11 32) local)))(let ((.def_1028448 (= .def_1028446 token))).def_1028448)))

start_simulation N31388:
(assert (let ((.def_922364 (= m_pc (_ bv0 32)))).def_922364))
(assert (let ((.def_107263 (= a20 (_ bv5 32)))).def_107263))
(assert (let ((.def_933187 (= t1_pc (_ bv0 32)))).def_933187))
(assert (let ((.def_933190 (= t2_pc (_ bv0 32)))).def_933190))
(assert (let ((.def_933193 (= t3_pc (_ bv0 32)))).def_933193))
(assert (let ((.def_933196 (= t4_pc (_ bv0 32)))).def_933196))
(assert (let ((.def_933199 (= t5_pc (_ bv0 32)))).def_933199))
(assert (let ((.def_933202 (= t6_pc (_ bv0 32)))).def_933202))
(assert (let ((.def_933205 (= t7_pc (_ bv0 32)))).def_933205))
(assert (let ((.def_933208 (= t8_pc (_ bv0 32)))).def_933208))
(assert (let ((.def_933211 (= t9_pc (_ bv0 32)))).def_933211))
(assert (let ((.def_933214 (= t10_pc (_ bv0 32)))).def_933214))
(assert (let ((.def_933217 (= t11_pc (_ bv0 32)))).def_933217))
(assert (let ((.def_933219 (= m_pc (_ bv1 32)))).def_933219))
(assert (let ((.def_933221 (= t1_pc (_ bv1 32)))).def_933221))
(assert (let ((.def_933223 (= t2_pc (_ bv1 32)))).def_933223))
(assert (let ((.def_933225 (= t3_pc (_ bv1 32)))).def_933225))
(assert (let ((.def_933227 (= t4_pc (_ bv1 32)))).def_933227))
(assert (let ((.def_933229 (= t5_pc (_ bv1 32)))).def_933229))
(assert (let ((.def_933231 (= t6_pc (_ bv1 32)))).def_933231))
(assert (let ((.def_933233 (= t7_pc (_ bv1 32)))).def_933233))
(assert (let ((.def_933235 (= t8_pc (_ bv1 32)))).def_933235))
(assert (let ((.def_933237 (= t9_pc (_ bv1 32)))).def_933237))
(assert (let ((.def_933239 (= t10_pc (_ bv1 32)))).def_933239))
(assert (let ((.def_933241 (= t11_pc (_ bv1 32)))).def_933241))
(assert (let ((.def_1028375 (= t5_st (_ bv0 32)))).def_1028375))
(assert (let ((.def_1028378 (= E_2 (_ bv2 32)))).def_1028378))
(assert (let ((.def_1028381 (= E_11 (_ bv1 32)))).def_1028381))
(assert (let ((.def_1028384 (= E_8 (_ bv1 32)))).def_1028384))
(assert (let ((.def_1028387 (= E_7 (_ bv1 32)))).def_1028387))
(assert (let ((.def_1028390 (= E_6 (_ bv1 32)))).def_1028390))
(assert (let ((.def_1028393 (= E_4 (_ bv1 32)))).def_1028393))
(assert (let ((.def_1028396 (= E_3 (_ bv1 32)))).def_1028396))
(assert (let ((.def_1028398 (= E_2 (_ bv1 32)))).def_1028398))
(assert (let ((.def_1028401 (= E_M (_ bv1 32)))).def_1028401))
(assert (let ((.def_1028404 (= t3_st (_ bv0 32)))).def_1028404))
(assert (let ((.def_1028407 (= t6_st (_ bv0 32)))).def_1028407))
(assert (let ((.def_1028410 (= E_9 (_ bv1 32)))).def_1028410))
(assert (let ((.def_1028413 (= E_5 (_ bv1 32)))).def_1028413))
(assert (let ((.def_1028416 (= E_10 (_ bv1 32)))).def_1028416))
(assert (let ((.def_1028419 (= t1_st (_ bv0 32)))).def_1028419))
(assert (let ((.def_1028422 (= t7_st (_ bv0 32)))).def_1028422))
(assert (let ((.def_1028425 (= t8_st (_ bv0 32)))).def_1028425))
(assert (let ((.def_1028428 (= t2_st (_ bv0 32)))).def_1028428))
(assert (let ((.def_933244 (= m_st (_ bv0 32)))).def_933244))

