(set-info :source |printed by MathSAT|)
(declare-fun a20 () (_ BitVec 32))
(declare-fun a25 () (_ BitVec 32))
(declare-fun a12 () (_ BitVec 32))
(declare-fun a15 () (_ BitVec 32))
(declare-fun a16 () (_ BitVec 32))
(declare-fun a2 () (_ BitVec 32))
(declare-fun a27 () (_ BitVec 32))
(declare-fun a9 () (_ BitVec 32))
(declare-fun m_pc () (_ BitVec 32))
(declare-fun t1_pc () (_ BitVec 32))
(declare-fun t2_pc () (_ BitVec 32))
(declare-fun m_st () (_ BitVec 32))

*:
(assert (let ((.def_107788 (= a20 (_ bv5 32)))).def_107788))

calculate_output8 N30108:
(assert false)
(assert (let ((.def_107788 (= a20 (_ bv5 32)))).def_107788))

main1 N30136:
(assert (let ((.def_107788 (= a20 (_ bv5 32)))).def_107788))
(assert (let ((.def_155486 (= a25 (_ bv1 32)))).def_155486))
(assert (let ((.def_155489 (= a12 (_ bv4 32)))).def_155489))
(assert (let ((.def_155492 (= a15 (_ bv1 32)))).def_155492))
(assert (let ((.def_155495 (= a16 (_ bv1 32)))).def_155495))
(assert (let ((.def_155498 (= a2 (_ bv10 32)))).def_155498))
(assert (let ((.def_155501 (= a27 (_ bv1 32)))).def_155501))
(assert (let ((.def_155504 (= a9 (_ bv18 32)))).def_155504))
(assert (let ((.def_321676 (= a12 (_ bv5 32)))).def_321676))
(assert (let ((.def_321678 (= a2 (_ bv13 32)))).def_321678))
(assert (let ((.def_321680 (= a12 (_ bv2 32)))).def_321680))
(assert (let ((.def_321682 (= a2 (_ bv12 32)))).def_321682))
(assert (let ((.def_321684 (= a12 (_ bv3 32)))).def_321684))
(assert (let ((.def_321686 (= a9 (_ bv16 32)))).def_321686))
(assert (let ((.def_321688 (= a20 (_ bv7 32)))).def_321688))
(assert (let ((.def_321690 (= a2 (_ bv9 32)))).def_321690))
(assert (let ((.def_321692 (= a9 (_ bv17 32)))).def_321692))

error N30154:
(assert false)
(assert (let ((.def_107788 (= a20 (_ bv5 32)))).def_107788))

eval N30355:
(assert (let ((.def_746490 (= m_pc (_ bv0 32)))).def_746490))
(assert (let ((.def_107788 (= a20 (_ bv5 32)))).def_107788))
(assert (let ((.def_747536 (= t1_pc (_ bv0 32)))).def_747536))
(assert (let ((.def_747539 (= t2_pc (_ bv0 32)))).def_747539))
(assert (let ((.def_747541 (= m_pc (_ bv1 32)))).def_747541))
(assert (let ((.def_747543 (= t1_pc (_ bv1 32)))).def_747543))
(assert (let ((.def_747545 (= t2_pc (_ bv1 32)))).def_747545))
(assert (let ((.def_747548 (= m_st (_ bv0 32)))).def_747548))

start_simulation N30546:
(assert (let ((.def_746490 (= m_pc (_ bv0 32)))).def_746490))
(assert (let ((.def_107788 (= a20 (_ bv5 32)))).def_107788))
(assert (let ((.def_747536 (= t1_pc (_ bv0 32)))).def_747536))
(assert (let ((.def_747539 (= t2_pc (_ bv0 32)))).def_747539))
(assert (let ((.def_747541 (= m_pc (_ bv1 32)))).def_747541))
(assert (let ((.def_747543 (= t1_pc (_ bv1 32)))).def_747543))
(assert (let ((.def_747545 (= t2_pc (_ bv1 32)))).def_747545))

