(set-info :source |printed by MathSAT|)
(declare-fun |ssl3_connect::blastFlag| () (_ BitVec 32))
(declare-fun |ssl3_connect::s__state| () (_ BitVec 32))
(declare-fun |ssl3_connect::s__hit| () (_ BitVec 32))
(declare-fun |ssl3_connect::s__s3__tmp__next_state___0| () (_ BitVec 32))
(declare-fun |ssl3_connect::s__s3__tmp__new_cipher__algorithms| () (_ BitVec 32))
(declare-fun |ssl3_connect::cb| () (_ BitVec 32))
(declare-fun |ssl3_accept::s__state| () (_ BitVec 32))
(declare-fun |ssl3_accept::blastFlag| () (_ BitVec 32))
(declare-fun |ssl3_accept::s__s3__tmp__reuse_message| () (_ BitVec 32))
(declare-fun |ssl3_accept::s__hit| () (_ BitVec 32))
(declare-fun |ssl3_accept::s__s3__tmp__next_state___0| () (_ BitVec 32))
(declare-fun |ssl3_accept::s__init_buf___0| () (_ BitVec 32))
(declare-fun |ssl3_accept::s__s3__tmp__new_cipher__algorithms| () (_ BitVec 32))
(declare-fun |ssl3_accept::s__verify_mode| () (_ BitVec 32))
(declare-fun |ssl3_accept::s__session__peer| () (_ BitVec 32))

ssl3_connect:
(assert (let ((.def_678 (= |ssl3_connect::blastFlag| (_ bv5 32)))).def_678))

ssl3_connect N117:
(assert (let ((.def_1600 (= |ssl3_connect::s__state| (_ bv12292 32)))).def_1600))
(assert (let ((.def_1602 (= |ssl3_connect::blastFlag| (_ bv0 32)))).def_1602))
(assert (let ((.def_678 (= |ssl3_connect::blastFlag| (_ bv5 32)))).def_678))
(assert (let ((.def_3687 (= |ssl3_connect::s__state| (_ bv4368 32)))).def_3687))
(assert (let ((.def_3689 (= |ssl3_connect::s__state| (_ bv4384 32)))).def_3689))
(assert (let ((.def_3691 (= |ssl3_connect::blastFlag| (_ bv1 32)))).def_3691))
(assert (let ((.def_5298 (= |ssl3_connect::blastFlag| (_ bv3 32)))).def_5298))
(assert (let ((.def_5300 (= |ssl3_connect::blastFlag| (_ bv4 32)))).def_5300))
(assert (let ((.def_5302 (= |ssl3_connect::blastFlag| (_ bv2 32)))).def_5302))
(assert (let ((.def_5304 (= |ssl3_connect::s__state| (_ bv4416 32)))).def_5304))
(assert (let ((.def_5306 (= |ssl3_connect::s__state| (_ bv4433 32)))).def_5306))
(assert (let ((.def_5308 (= |ssl3_connect::s__state| (_ bv4432 32)))).def_5308))
(assert (let ((.def_10863 (= |ssl3_connect::s__state| (_ bv4099 32)))).def_10863))
(assert (let ((.def_10865 (= |ssl3_connect::s__state| (_ bv20480 32)))).def_10865))
(assert (let ((.def_10867 (= |ssl3_connect::s__state| (_ bv4096 32)))).def_10867))
(assert (let ((.def_10869 (= |ssl3_connect::s__state| (_ bv16384 32)))).def_10869))
(assert (let ((.def_10871 (= |ssl3_connect::s__state| (_ bv4369 32)))).def_10871))
(assert (let ((.def_10873 (= |ssl3_connect::s__state| (_ bv4401 32)))).def_10873))
(assert (let ((.def_10875 (= |ssl3_connect::s__state| (_ bv4400 32)))).def_10875))
(assert (let ((.def_10877 (= |ssl3_connect::s__state| (_ bv4385 32)))).def_10877))
(assert (let ((.def_10879 (= |ssl3_connect::s__state| (_ bv4352 32)))).def_10879))
(assert (let ((.def_16608 (= |ssl3_connect::s__state| (_ bv4560 32)))).def_16608))
(assert (let ((.def_16610 (= |ssl3_connect::s__state| (_ bv4512 32)))).def_16610))
(assert (let ((.def_16612 (= |ssl3_connect::s__state| (_ bv4513 32)))).def_16612))
(assert (let ((.def_16614 (= |ssl3_connect::s__state| (_ bv4481 32)))).def_16614))
(assert (let ((.def_16616 (= |ssl3_connect::s__state| (_ bv4480 32)))).def_16616))
(assert (let ((.def_16618 (= |ssl3_connect::s__state| (_ bv4467 32)))).def_16618))
(assert (let ((.def_16620 (= |ssl3_connect::s__state| (_ bv4466 32)))).def_16620))
(assert (let ((.def_16622 (= |ssl3_connect::s__state| (_ bv4465 32)))).def_16622))
(assert (let ((.def_16624 (= |ssl3_connect::s__state| (_ bv4464 32)))).def_16624))
(assert (let ((.def_16626 (= |ssl3_connect::s__state| (_ bv4449 32)))).def_16626))
(assert (let ((.def_16628 (= |ssl3_connect::s__state| (_ bv4448 32)))).def_16628))
(assert (let ((.def_16631 (= |ssl3_connect::s__hit| (_ bv0 32)))).def_16631))
(assert (let ((.def_16633 (= |ssl3_connect::s__state| (_ bv4417 32)))).def_16633))
(assert (let ((.def_16635 (= |ssl3_connect::s__state| (_ bv4496 32)))).def_16635))
(assert (let ((.def_16637 (= |ssl3_connect::s__state| (_ bv4497 32)))).def_16637))
(assert (let ((.def_16639 (= |ssl3_connect::s__state| (_ bv4528 32)))).def_16639))
(assert (let ((.def_16641 (= |ssl3_connect::s__state| (_ bv4529 32)))).def_16641))
(assert (let ((.def_16643 (= |ssl3_connect::s__state| (_ bv4561 32)))).def_16643))
(assert (let ((.def_16646 (= |ssl3_connect::s__state| |ssl3_connect::s__s3__tmp__next_state___0|))).def_16646))
(assert (let ((.def_16648 (= |ssl3_connect::s__s3__tmp__next_state___0| (_ bv4401 32)))).def_16648))
(assert (let ((.def_16651 (= |ssl3_connect::s__s3__tmp__new_cipher__algorithms| (_ bv4294967040 32)))).def_16651))
(assert (let ((.def_16654 (= |ssl3_connect::cb| (_ bv0 32)))).def_16654))
(assert (let ((.def_29108 (= |ssl3_connect::s__s3__tmp__next_state___0| (_ bv4099 32)))).def_29108))
(assert (let ((.def_29110 (= |ssl3_connect::s__s3__tmp__next_state___0| (_ bv4096 32)))).def_29110))
(assert (let ((.def_29112 (= |ssl3_connect::s__s3__tmp__next_state___0| (_ bv20480 32)))).def_29112))
(assert (let ((.def_29114 (= |ssl3_connect::s__s3__tmp__next_state___0| (_ bv16384 32)))).def_29114))
(assert (let ((.def_29116 (= |ssl3_connect::s__s3__tmp__next_state___0| (_ bv12292 32)))).def_29116))
(assert (let ((.def_29118 (= |ssl3_connect::s__s3__tmp__next_state___0| (_ bv4369 32)))).def_29118))
(assert (let ((.def_29120 (= |ssl3_connect::s__s3__tmp__next_state___0| (_ bv4368 32)))).def_29120))
(assert (let ((.def_29122 (= |ssl3_connect::s__s3__tmp__next_state___0| (_ bv4384 32)))).def_29122))
(assert (let ((.def_29124 (= |ssl3_connect::s__s3__tmp__next_state___0| (_ bv4385 32)))).def_29124))
(assert (let ((.def_29126 (= |ssl3_connect::s__s3__tmp__next_state___0| (_ bv4400 32)))).def_29126))
(assert (let ((.def_29128 (= |ssl3_connect::s__s3__tmp__next_state___0| (_ bv4416 32)))).def_29128))
(assert (let ((.def_29130 (= |ssl3_connect::s__s3__tmp__next_state___0| (_ bv4417 32)))).def_29130))
(assert (let ((.def_29132 (= |ssl3_connect::s__s3__tmp__next_state___0| (_ bv4432 32)))).def_29132))
(assert (let ((.def_29134 (= |ssl3_connect::s__s3__tmp__next_state___0| (_ bv4433 32)))).def_29134))

ssl3_connect N576:
(assert false)
(assert (let ((.def_678 (= |ssl3_connect::blastFlag| (_ bv5 32)))).def_678))

ssl3_accept N699:
(assert (let ((.def_41788 (= |ssl3_accept::s__state| (_ bv8464 32)))).def_41788))
(assert (let ((.def_42996 (= |ssl3_accept::s__state| (_ bv8482 32)))).def_42996))
(assert (let ((.def_42999 (= |ssl3_accept::blastFlag| (_ bv0 32)))).def_42999))
(assert (let ((.def_43001 (= |ssl3_accept::blastFlag| (_ bv8 32)))).def_43001))
(assert (let ((.def_43003 (= |ssl3_accept::blastFlag| (_ bv5 32)))).def_43003))
(assert (let ((.def_44510 (= |ssl3_accept::s__state| (_ bv8481 32)))).def_44510))
(assert (let ((.def_44512 (= |ssl3_accept::s__state| (_ bv8480 32)))).def_44512))
(assert (let ((.def_44514 (= |ssl3_accept::s__state| (_ bv12292 32)))).def_44514))
(assert (let ((.def_44516 (= |ssl3_accept::s__state| (_ bv16384 32)))).def_44516))
(assert (let ((.def_44518 (= |ssl3_accept::s__state| (_ bv8192 32)))).def_44518))
(assert (let ((.def_44520 (= |ssl3_accept::s__state| (_ bv24576 32)))).def_44520))
(assert (let ((.def_44522 (= |ssl3_accept::s__state| (_ bv8195 32)))).def_44522))
(assert (let ((.def_44524 (= |ssl3_accept::s__state| (_ bv8496 32)))).def_44524))
(assert (let ((.def_44526 (= |ssl3_accept::blastFlag| (_ bv1 32)))).def_44526))
(assert (let ((.def_44528 (= |ssl3_accept::s__state| (_ bv8512 32)))).def_44528))
(assert (let ((.def_46557 (= |ssl3_accept::s__s3__tmp__reuse_message| (_ bv0 32)))).def_46557))
(assert (let ((.def_46559 (= |ssl3_accept::s__state| (_ bv8657 32)))).def_46559))
(assert (let ((.def_46561 (= |ssl3_accept::blastFlag| (_ bv2 32)))).def_46561))
(assert (let ((.def_46563 (= |ssl3_accept::s__state| (_ bv8656 32)))).def_46563))
(assert (let ((.def_46565 (= |ssl3_accept::s__state| (_ bv8641 32)))).def_46565))
(assert (let ((.def_46567 (= |ssl3_accept::s__state| (_ bv8640 32)))).def_46567))
(assert (let ((.def_46569 (= |ssl3_accept::s__state| (_ bv8609 32)))).def_46569))
(assert (let ((.def_46571 (= |ssl3_accept::s__state| (_ bv8608 32)))).def_46571))
(assert (let ((.def_46573 (= |ssl3_accept::s__state| (_ bv8593 32)))).def_46573))
(assert (let ((.def_46575 (= |ssl3_accept::s__state| (_ bv8592 32)))).def_46575))
(assert (let ((.def_46577 (= |ssl3_accept::s__state| (_ bv8577 32)))).def_46577))
(assert (let ((.def_46579 (= |ssl3_accept::s__state| (_ bv8576 32)))).def_46579))
(assert (let ((.def_46581 (= |ssl3_accept::s__state| (_ bv8448 32)))).def_46581))
(assert (let ((.def_46583 (= |ssl3_accept::s__state| (_ bv8560 32)))).def_46583))
(assert (let ((.def_46585 (= |ssl3_accept::s__state| (_ bv8544 32)))).def_46585))
(assert (let ((.def_46587 (= |ssl3_accept::s__state| (_ bv8545 32)))).def_46587))
(assert (let ((.def_46589 (= |ssl3_accept::s__state| (_ bv8466 32)))).def_46589))
(assert (let ((.def_46591 (= |ssl3_accept::s__state| (_ bv8528 32)))).def_46591))
(assert (let ((.def_52776 (= |ssl3_accept::s__state| (_ bv8465 32)))).def_52776))
(assert (let ((.def_52779 (= |ssl3_accept::s__hit| (_ bv0 32)))).def_52779))
(assert (let ((.def_52781 (= |ssl3_accept::blastFlag| (_ bv7 32)))).def_52781))
(assert (let ((.def_52783 (= |ssl3_accept::blastFlag| (_ bv3 32)))).def_52783))
(assert (let ((.def_52785 (= |ssl3_accept::blastFlag| (_ bv6 32)))).def_52785))
(assert (let ((.def_52787 (= |ssl3_accept::blastFlag| (_ bv4 32)))).def_52787))
(assert (let ((.def_52790 (= |ssl3_accept::s__state| |ssl3_accept::s__s3__tmp__next_state___0|))).def_52790))
(assert (let ((.def_52792 (= |ssl3_accept::s__s3__tmp__next_state___0| (_ bv8576 32)))).def_52792))
(assert (let ((.def_52794 (= |ssl3_accept::s__s3__tmp__next_state___0| (_ bv8608 32)))).def_52794))
(assert (let ((.def_52796 (= |ssl3_accept::s__s3__tmp__next_state___0| (_ bv8609 32)))).def_52796))
(assert (let ((.def_52798 (= |ssl3_accept::s__s3__tmp__next_state___0| (_ bv8641 32)))).def_52798))
(assert (let ((.def_52800 (= |ssl3_accept::s__s3__tmp__next_state___0| (_ bv8640 32)))).def_52800))
(assert (let ((.def_52802 (= |ssl3_accept::s__state| (_ bv8497 32)))).def_52802))
(assert (let ((.def_52804 (= |ssl3_accept::s__state| (_ bv8513 32)))).def_52804))
(assert (let ((.def_52806 (= |ssl3_accept::s__state| (_ bv8529 32)))).def_52806))
(assert (let ((.def_81523 (= |ssl3_accept::s__init_buf___0| (_ bv0 32)))).def_81523))
(assert (let ((.def_81525 (= |ssl3_accept::s__state| (_ bv8672 32)))).def_81525))
(assert (let ((.def_81527 (= |ssl3_accept::s__state| (_ bv8561 32)))).def_81527))
(assert (let ((.def_81529 (= |ssl3_accept::s__s3__tmp__next_state___0| (_ bv8593 32)))).def_81529))
(assert (let ((.def_81531 (= |ssl3_accept::s__s3__tmp__next_state___0| (_ bv8592 32)))).def_81531))
(assert (let ((.def_81533 (= |ssl3_accept::s__s3__tmp__next_state___0| (_ bv8577 32)))).def_81533))
(assert (let ((.def_81535 (= |ssl3_accept::s__s3__tmp__next_state___0| (_ bv8545 32)))).def_81535))
(assert (let ((.def_81537 (= |ssl3_accept::s__s3__tmp__next_state___0| (_ bv8544 32)))).def_81537))
(assert (let ((.def_81539 (= |ssl3_accept::s__s3__tmp__next_state___0| (_ bv8529 32)))).def_81539))
(assert (let ((.def_81541 (= |ssl3_accept::s__s3__tmp__next_state___0| (_ bv8528 32)))).def_81541))
(assert (let ((.def_81543 (= |ssl3_accept::s__s3__tmp__next_state___0| (_ bv8513 32)))).def_81543))
(assert (let ((.def_81545 (= |ssl3_accept::s__s3__tmp__next_state___0| (_ bv8512 32)))).def_81545))
(assert (let ((.def_81547 (= |ssl3_accept::s__s3__tmp__next_state___0| (_ bv8497 32)))).def_81547))
(assert (let ((.def_81549 (= |ssl3_accept::s__s3__tmp__next_state___0| (_ bv8466 32)))).def_81549))
(assert (let ((.def_81551 (= |ssl3_accept::s__s3__tmp__next_state___0| (_ bv8465 32)))).def_81551))
(assert (let ((.def_81553 (= |ssl3_accept::s__s3__tmp__next_state___0| (_ bv8464 32)))).def_81553))
(assert (let ((.def_81555 (= |ssl3_accept::s__s3__tmp__next_state___0| (_ bv8482 32)))).def_81555))
(assert (let ((.def_81557 (= |ssl3_accept::s__s3__tmp__next_state___0| (_ bv8481 32)))).def_81557))
(assert (let ((.def_81559 (= |ssl3_accept::s__s3__tmp__next_state___0| (_ bv8480 32)))).def_81559))
(assert (let ((.def_81561 (= |ssl3_accept::s__s3__tmp__next_state___0| (_ bv8448 32)))).def_81561))
(assert (let ((.def_81563 (= |ssl3_accept::s__s3__tmp__next_state___0| (_ bv8561 32)))).def_81563))
(assert (let ((.def_81565 (= |ssl3_accept::s__s3__tmp__next_state___0| (_ bv8560 32)))).def_81565))
(assert (let ((.def_81567 (= |ssl3_accept::s__s3__tmp__next_state___0| (_ bv8656 32)))).def_81567))
(assert (let ((.def_81569 (= |ssl3_accept::s__s3__tmp__next_state___0| (_ bv16384 32)))).def_81569))
(assert (let ((.def_81571 (= |ssl3_accept::s__s3__tmp__next_state___0| (_ bv8192 32)))).def_81571))
(assert (let ((.def_81573 (= |ssl3_accept::s__s3__tmp__next_state___0| (_ bv24576 32)))).def_81573))
(assert (let ((.def_81575 (= |ssl3_accept::s__s3__tmp__next_state___0| (_ bv8195 32)))).def_81575))
(assert (let ((.def_81577 (= |ssl3_accept::s__s3__tmp__next_state___0| (_ bv12292 32)))).def_81577))
(assert (let ((.def_81579 (= |ssl3_accept::s__s3__tmp__next_state___0| (_ bv8496 32)))).def_81579))
(assert (let ((.def_81582 (= |ssl3_accept::s__s3__tmp__new_cipher__algorithms| (_ bv4294967040 32)))).def_81582))
(assert (let ((.def_81585 (= |ssl3_accept::s__verify_mode| (_ bv4294967295 32)))).def_81585))
(assert (let ((.def_81587 (= |ssl3_accept::s__verify_mode| (_ bv4294967292 32)))).def_81587))
(assert (let ((.def_81590 (= |ssl3_accept::s__session__peer| (_ bv0 32)))).def_81590))
(assert (let ((.def_81592 (= |ssl3_accept::s__verify_mode| (_ bv4294967294 32)))).def_81592))
(assert (let ((.def_81594 (= |ssl3_accept::s__s3__tmp__next_state___0| (_ bv3 32)))).def_81594))
(assert (let ((.def_81596 (= |ssl3_accept::s__s3__tmp__next_state___0| (_ bv8672 32)))).def_81596))
(assert (let ((.def_81598 (= |ssl3_accept::s__state| (_ bv8673 32)))).def_81598))

ssl3_accept N1236:
(assert false)

