   BENCHMARK INFORMATION
benchmark definition:    benchmark_defs/bpredicate-single-pal.xml
name:                    bpredicate-single-pal.diffPropAnalysis-ignoreDecl
run sets:                diffPropAnalysis-ignoreDecl
date:                    Sat, 2020-02-29 00:01:00
tool:                    CPAchecker diffCond-prop:39252
tool executable:         scripts/cpa.sh
options:                 -heap 10000M -benchmark
property file:           singdata/properties/unreach-call.prp
resource limits:
- memory:                7500.0 MB
- time:                  900 s
- cpu cores:             2
hardware requirements:
- cpu model:             1230
- cpu cores:             2
- memory:                7500.0 MB
------------------------------------------------------------



fullAnalysis
Run set 1 of 7: skipped


diffAnalysis-ignoreDecl
Run set 2 of 7: skipped


diffPropAnalysis
Run set 3 of 7: skipped


diffPropAnalysis-nopreprocessing-ignoreDecl
Run set 4 of 7: skipped


diffPropAnalysis-ignoreDecl
Run set 5 of 7 with options '-heap 10000M -benchmark -differencePropPredicateAnalysis -setprop differential.ignoreDeclarations=true -setprop differential.performPreprocessing=true -setprop differential.variableSetMerge=true -setprop cpa.automaton.deleteDoubleEdges=true -setprop differential.badstateProperties=cpachecker/sv-benchmarks/c/properties/unreach-call.prp' and propertyfile 'singdata/properties/unreach-call.prp'

inputfile                                     status                       cpu time   wall time        host
-----------------------------------------------------------------------------------------------------------
pals_lcr.3.ufo.UNBOUNDED.pals.yml             true                           842.69      828.45  apollon148
pals_lcr.4.ufo.UNBOUNDED.pals.yml             true                            87.18       75.61  apollon061
pals_lcr.5.ufo.BOUNDED-10.pals.yml            TIMEOUT                        900.63      886.25  apollon002
pals_lcr.5.ufo.UNBOUNDED.pals.yml             TIMEOUT                        900.62      890.54  apollon109
pals_lcr.6.ufo.BOUNDED-12.pals.yml            TIMEOUT                        900.56      886.78  apollon044
pals_lcr.6.ufo.UNBOUNDED.pals.yml             TIMEOUT                        900.62      889.59  apollon021
pals_lcr.7.ufo.BOUNDED-14.pals.yml            TIMEOUT                        900.57      889.85  apollon127
pals_lcr.7.ufo.UNBOUNDED.pals.yml             TIMEOUT                        900.64      887.95  apollon082
pals_lcr.8.ufo.BOUNDED-16.pals.yml            TIMEOUT                        900.57      888.37  apollon096
pals_lcr.8.ufo.UNBOUNDED.pals.yml             TIMEOUT                        900.62      887.58  apollon009
pals_lcr.3.1.ufo.UNBOUNDED.pals.yml           false(unreach-call)             15.82        8.34  apollon012
pals_lcr.3_overflow.ufo.UNBOUNDED.pals.yml    TIMEOUT                        900.56      889.64  apollon097
pals_lcr.4.1.ufo.UNBOUNDED.pals.yml           false(unreach-call)             72.59       60.20  apollon110
pals_lcr.4.ufo.UNBOUNDED.pals.yml             true                            85.29       74.18  apollon060
pals_lcr.4_overflow.ufo.UNBOUNDED.pals.yml    TIMEOUT                        900.66      889.95  apollon096
pals_lcr.5.1.ufo.BOUNDED-10.pals.yml          TIMEOUT                        900.63      886.74  apollon022
pals_lcr.5.1.ufo.UNBOUNDED.pals.yml           TIMEOUT                        900.80      887.84  apollon069
pals_lcr.5.ufo.BOUNDED-10.pals.yml            TIMEOUT                        900.68      887.36  apollon003
pals_lcr.5.ufo.UNBOUNDED.pals.yml             TIMEOUT                        900.62      889.91  apollon003
pals_lcr.5_overflow.ufo.UNBOUNDED.pals.yml    TIMEOUT                        900.79      881.87  apollon033
pals_lcr.6.1.ufo.BOUNDED-12.pals.yml          TIMEOUT                        900.59      888.10  apollon032
pals_lcr.6.1.ufo.UNBOUNDED.pals.yml           TIMEOUT                        900.62      887.50  apollon080
pals_lcr.6.ufo.BOUNDED-12.pals.yml            TIMEOUT                        900.58      885.29  apollon130
pals_lcr.6.ufo.UNBOUNDED.pals.yml             TIMEOUT                        900.60      887.71  apollon041
pals_lcr.6_overflow.ufo.UNBOUNDED.pals.yml    TIMEOUT                        900.83      889.04  apollon019
pals_lcr.7.1.ufo.BOUNDED-14.pals.yml          TIMEOUT                        900.61      889.34  apollon103
pals_lcr.7.1.ufo.UNBOUNDED.pals.yml           TIMEOUT                        900.68      887.30  apollon042
pals_lcr.7.ufo.BOUNDED-14.pals.yml            TIMEOUT                        900.88      891.15  apollon085
pals_lcr.7.ufo.UNBOUNDED.pals.yml             TIMEOUT                        900.83      888.16  apollon090
pals_lcr.7_overflow.ufo.UNBOUNDED.pals.yml    TIMEOUT                        900.65      888.35  apollon054
pals_lcr.8.1.ufo.BOUNDED-16.pals.yml          TIMEOUT                        900.67      890.91  apollon077
pals_lcr.8.1.ufo.UNBOUNDED.pals.yml           TIMEOUT                        900.57      891.81  apollon086
pals_lcr.8.ufo.BOUNDED-16.pals.yml            TIMEOUT                        900.54      890.35  apollon150
pals_lcr.8.ufo.UNBOUNDED.pals.yml             TIMEOUT                        900.83      891.99  apollon013
pals_lcr.8_overflow.ufo.UNBOUNDED.pals.yml    TIMEOUT                        900.58      890.45  apollon026
pals_lcr.3.ufo.UNBOUNDED.pals.yml             true                            14.55        7.65  apollon114
pals_lcr.4.ufo.UNBOUNDED.pals.yml             true                            88.13       76.08  apollon111
pals_lcr.5.ufo.BOUNDED-10.pals.yml            TIMEOUT                        900.67      888.38  apollon117
pals_lcr.5.ufo.UNBOUNDED.pals.yml             TIMEOUT                        900.65      888.53  apollon162
pals_lcr.6.ufo.BOUNDED-12.pals.yml            TIMEOUT                        900.61      882.75  apollon008
pals_lcr.6.ufo.UNBOUNDED.pals.yml             TIMEOUT                        900.86      888.18  apollon012
pals_lcr.7.ufo.BOUNDED-14.pals.yml            TIMEOUT                        900.53      890.13  apollon140
pals_lcr.7.ufo.UNBOUNDED.pals.yml             TIMEOUT                        900.70      887.88  apollon126
pals_lcr.8.ufo.BOUNDED-16.pals.yml            TIMEOUT                        900.57      890.57  apollon072
pals_lcr.8.ufo.UNBOUNDED.pals.yml             TIMEOUT                        900.56      889.06  apollon033
pals_lcr.3.ufo.UNBOUNDED.pals.yml             TIMEOUT                        900.55      891.82  apollon091
pals_lcr.4.ufo.UNBOUNDED.pals.yml             TIMEOUT                        900.60      888.32  apollon138
pals_lcr.5.ufo.BOUNDED-10.pals.yml            TIMEOUT                        900.66      886.95  apollon025
pals_lcr.5.ufo.UNBOUNDED.pals.yml             TIMEOUT                        900.62      890.30  apollon126
pals_lcr.6.ufo.BOUNDED-12.pals.yml            TIMEOUT                        900.65      883.42  apollon160
pals_lcr.6.ufo.UNBOUNDED.pals.yml             TIMEOUT                        900.62      888.21  apollon035
pals_lcr.7.ufo.BOUNDED-14.pals.yml            TIMEOUT                        900.58      889.52  apollon106
pals_lcr.7.ufo.UNBOUNDED.pals.yml             TIMEOUT                        900.57      888.11  apollon149
pals_lcr.8.ufo.BOUNDED-16.pals.yml            TIMEOUT                        900.61      889.90  apollon143
pals_lcr.8.ufo.UNBOUNDED.pals.yml             TIMEOUT                        900.68      889.77  apollon136
pals_lcr.3.1.ufo.UNBOUNDED.pals.yml           false(unreach-call)             16.79        8.71  apollon035
pals_lcr.3.ufo.UNBOUNDED.pals.yml             TIMEOUT                        900.55      890.90  apollon014
pals_lcr.3_overflow.ufo.UNBOUNDED.pals.yml    TIMEOUT                        900.60      890.52  apollon154
pals_lcr.4.1.ufo.UNBOUNDED.pals.yml           TIMEOUT                        900.75      889.91  apollon031
pals_lcr.4_overflow.ufo.UNBOUNDED.pals.yml    TIMEOUT                        900.64      891.54  apollon053
pals_lcr.5.1.ufo.BOUNDED-10.pals.yml          TIMEOUT                        900.58      889.67  apollon128
pals_lcr.5.1.ufo.UNBOUNDED.pals.yml           TIMEOUT                        900.66      886.86  apollon018
pals_lcr.5.ufo.BOUNDED-10.pals.yml            TIMEOUT                        900.67      887.18  apollon055
pals_lcr.5.ufo.UNBOUNDED.pals.yml             TIMEOUT                        900.58      890.44  apollon124
pals_lcr.5_overflow.ufo.UNBOUNDED.pals.yml    TIMEOUT                        900.67      887.95  apollon035
pals_lcr.6.1.ufo.BOUNDED-12.pals.yml          TIMEOUT                        900.61      889.05  apollon015
pals_lcr.6.1.ufo.UNBOUNDED.pals.yml           TIMEOUT                        900.62      891.23  apollon143
pals_lcr.6.ufo.BOUNDED-12.pals.yml            TIMEOUT                        900.60      886.10  apollon094
pals_lcr.6.ufo.UNBOUNDED.pals.yml             TIMEOUT                        900.65      885.78  apollon078
pals_lcr.6_overflow.ufo.UNBOUNDED.pals.yml    TIMEOUT                        900.72      887.28  apollon051
pals_lcr.7.1.ufo.BOUNDED-14.pals.yml          TIMEOUT                        900.60      888.92  apollon122
pals_lcr.7.1.ufo.UNBOUNDED.pals.yml           TIMEOUT                        900.65      888.41  apollon038
pals_lcr.7.ufo.BOUNDED-14.pals.yml            TIMEOUT                        900.60      889.24  apollon068
pals_lcr.7.ufo.UNBOUNDED.pals.yml             TIMEOUT                        900.63      888.36  apollon012
pals_lcr.7_overflow.ufo.UNBOUNDED.pals.yml    TIMEOUT                        900.67      889.47  apollon108
pals_lcr.8.1.ufo.BOUNDED-16.pals.yml          TIMEOUT                        900.56      891.54  apollon086
pals_lcr.8.1.ufo.UNBOUNDED.pals.yml           TIMEOUT                        900.64      891.54  apollon101
pals_lcr.8.ufo.BOUNDED-16.pals.yml            TIMEOUT                        900.70      889.31  apollon050
pals_lcr.8.ufo.UNBOUNDED.pals.yml             TIMEOUT                        900.67      890.37  apollon016
pals_lcr.8_overflow.ufo.UNBOUNDED.pals.yml    TIMEOUT                        900.58      890.35  apollon093
pals_lcr.3.ufo.UNBOUNDED.pals.yml             TIMEOUT                        900.61      891.76  apollon013
pals_lcr.4.ufo.UNBOUNDED.pals.yml             TIMEOUT                        900.60      890.04  apollon023
pals_lcr.5.ufo.BOUNDED-10.pals.yml            TIMEOUT                        900.60      889.52  apollon155
pals_lcr.5.ufo.UNBOUNDED.pals.yml             TIMEOUT                        900.76      889.94  apollon105
pals_lcr.6.ufo.BOUNDED-12.pals.yml            TIMEOUT                        900.91      875.83  apollon034
pals_lcr.6.ufo.UNBOUNDED.pals.yml             TIMEOUT                        900.75      886.93  apollon076
pals_lcr.7.ufo.BOUNDED-14.pals.yml            TIMEOUT                        900.57      889.96  apollon009
pals_lcr.7.ufo.UNBOUNDED.pals.yml             TIMEOUT                        900.65      888.74  apollon138
pals_lcr.8.ufo.BOUNDED-16.pals.yml            TIMEOUT                        900.54      889.54  apollon117
pals_lcr.8.ufo.UNBOUNDED.pals.yml             TIMEOUT                        900.57      890.02  apollon134
pals_lcr.3.ufo.UNBOUNDED.pals.yml             true                           825.50      812.59  apollon128
pals_lcr.4.ufo.UNBOUNDED.pals.yml             TIMEOUT                        900.60      889.60  apollon096
pals_lcr.5.ufo.BOUNDED-10.pals.yml            TIMEOUT                        900.62      887.15  apollon110
pals_lcr.5.ufo.UNBOUNDED.pals.yml             TIMEOUT                        900.61      888.69  apollon132
pals_lcr.6.ufo.BOUNDED-12.pals.yml            TIMEOUT                        900.67      889.46  apollon092
pals_lcr.6.ufo.UNBOUNDED.pals.yml             TIMEOUT                        900.58      888.77  apollon062
pals_lcr.7.ufo.BOUNDED-14.pals.yml            TIMEOUT                        900.74      888.70  apollon136
pals_lcr.7.ufo.UNBOUNDED.pals.yml             TIMEOUT                        900.58      891.51  apollon054
pals_lcr.8.ufo.BOUNDED-16.pals.yml            TIMEOUT                        900.64      891.24  apollon044
pals_lcr.8.ufo.UNBOUNDED.pals.yml             TIMEOUT                        900.66      888.01  apollon164
pals_lcr.3.ufo.UNBOUNDED.pals.yml             TIMEOUT                        900.53      892.23  apollon130
pals_lcr.4.ufo.UNBOUNDED.pals.yml             TIMEOUT                        900.86      888.90  apollon144
pals_lcr.5.ufo.BOUNDED-10.pals.yml            TIMEOUT                        900.66      888.66  apollon011
pals_lcr.5.ufo.UNBOUNDED.pals.yml             TIMEOUT                        900.71      888.76  apollon046
pals_lcr.6.ufo.BOUNDED-12.pals.yml            TIMEOUT                        900.69      884.36  apollon145
pals_lcr.6.ufo.UNBOUNDED.pals.yml             TIMEOUT                        900.66      887.88  apollon122
pals_lcr.7.ufo.BOUNDED-14.pals.yml            TIMEOUT                        900.57      891.39  apollon005
pals_lcr.7.ufo.UNBOUNDED.pals.yml             TIMEOUT                        900.65      887.13  apollon136
pals_lcr.8.ufo.BOUNDED-16.pals.yml            TIMEOUT                        900.55      890.66  apollon114
pals_lcr.8.ufo.UNBOUNDED.pals.yml             TIMEOUT                        900.63      888.24  apollon078
pals_lcr.3.1.ufo.UNBOUNDED.pals.yml           false(unreach-call)             13.51        6.99  apollon010
pals_lcr.3.ufo.UNBOUNDED.pals.yml             TIMEOUT                        900.89      887.07  apollon067
pals_lcr.3_overflow.ufo.UNBOUNDED.pals.yml    TIMEOUT                        900.58      891.25  apollon166
pals_lcr.4.1.ufo.UNBOUNDED.pals.yml           TIMEOUT                        900.59      891.19  apollon078
pals_lcr.4.ufo.UNBOUNDED.pals.yml             TIMEOUT                        900.62      890.66  apollon140
pals_lcr.4_overflow.ufo.UNBOUNDED.pals.yml    TIMEOUT                        900.61      888.43  apollon070
pals_lcr.5.1.ufo.BOUNDED-10.pals.yml          TIMEOUT                        900.72      885.36  apollon123
pals_lcr.5.1.ufo.UNBOUNDED.pals.yml           TIMEOUT                        900.78      885.87  apollon157
pals_lcr.5.ufo.UNBOUNDED.pals.yml             TIMEOUT                        900.74      885.28  apollon018
pals_lcr.5_overflow.ufo.UNBOUNDED.pals.yml    TIMEOUT                        900.58      889.93  apollon041
pals_lcr.6.1.ufo.BOUNDED-12.pals.yml          TIMEOUT                        900.67      885.29  apollon021
pals_lcr.6.1.ufo.UNBOUNDED.pals.yml           TIMEOUT                        900.55      888.43  apollon052
pals_lcr.6.ufo.BOUNDED-12.pals.yml            TIMEOUT                        900.84      887.66  apollon168
pals_lcr.6.ufo.UNBOUNDED.pals.yml             TIMEOUT                        900.64      883.01  apollon118
pals_lcr.6_overflow.ufo.UNBOUNDED.pals.yml    TIMEOUT                        900.62      890.25  apollon104
pals_lcr.7.1.ufo.BOUNDED-14.pals.yml          TIMEOUT                        900.70      885.70  apollon146
pals_lcr.7.1.ufo.UNBOUNDED.pals.yml           TIMEOUT                        900.55      889.45  apollon069
pals_lcr.7.ufo.BOUNDED-14.pals.yml            TIMEOUT                        900.79      889.55  apollon152
pals_lcr.7.ufo.UNBOUNDED.pals.yml             TIMEOUT                        900.66      890.42  apollon135
pals_lcr.7_overflow.ufo.UNBOUNDED.pals.yml    TIMEOUT                        900.78      890.20  apollon063
pals_lcr.8.1.ufo.BOUNDED-16.pals.yml          TIMEOUT                        900.63      890.77  apollon083
pals_lcr.8.1.ufo.UNBOUNDED.pals.yml           TIMEOUT                        900.58      889.21  apollon102
pals_lcr.8.ufo.BOUNDED-16.pals.yml            TIMEOUT                        900.63      888.48  apollon123
pals_lcr.8.ufo.UNBOUNDED.pals.yml             TIMEOUT                        900.67      888.21  apollon014
pals_lcr.8_overflow.ufo.UNBOUNDED.pals.yml    TIMEOUT                        900.53      890.71  apollon043
pals_lcr.3.1.ufo.UNBOUNDED.pals.yml           false(unreach-call)             13.92        7.19  apollon055
pals_lcr.3.ufo.UNBOUNDED.pals.yml             TIMEOUT                        900.73      891.24  apollon105
pals_lcr.3_overflow.ufo.UNBOUNDED.pals.yml    TIMEOUT                        900.75      889.80  apollon105
pals_lcr.4.1.ufo.UNBOUNDED.pals.yml           TIMEOUT                        900.68      888.21  apollon146
pals_lcr.4.ufo.UNBOUNDED.pals.yml             TIMEOUT                        900.58      889.02  apollon064
pals_lcr.4_overflow.ufo.UNBOUNDED.pals.yml    TIMEOUT                        900.55      888.71  apollon006
pals_lcr.5.1.ufo.BOUNDED-10.pals.yml          TIMEOUT                        900.57      887.20  apollon060
pals_lcr.5.1.ufo.UNBOUNDED.pals.yml           TIMEOUT                        900.73      886.64  apollon100
pals_lcr.5.ufo.BOUNDED-10.pals.yml            TIMEOUT                        900.60      890.08  apollon132
pals_lcr.5_overflow.ufo.UNBOUNDED.pals.yml    TIMEOUT                        900.70      890.20  apollon069
pals_lcr.6.1.ufo.BOUNDED-12.pals.yml          TIMEOUT                        900.63      887.73  apollon082
pals_lcr.6.1.ufo.UNBOUNDED.pals.yml           TIMEOUT                        900.73      888.59  apollon129
pals_lcr.6.ufo.BOUNDED-12.pals.yml            TIMEOUT                        900.76      884.07  apollon129
pals_lcr.6.ufo.UNBOUNDED.pals.yml             TIMEOUT                        900.63      887.66  apollon137
pals_lcr.6_overflow.ufo.UNBOUNDED.pals.yml    TIMEOUT                        900.59      889.74  apollon071
pals_lcr.7.1.ufo.BOUNDED-14.pals.yml          TIMEOUT                        900.69      890.33  apollon024
pals_lcr.7.1.ufo.UNBOUNDED.pals.yml           TIMEOUT                        900.69      886.20  apollon060
pals_lcr.7.ufo.BOUNDED-14.pals.yml            TIMEOUT                        900.64      891.39  apollon077
pals_lcr.7.ufo.UNBOUNDED.pals.yml             TIMEOUT                        900.71      888.44  apollon093
pals_lcr.7_overflow.ufo.UNBOUNDED.pals.yml    TIMEOUT                        900.61      889.82  apollon001
pals_lcr.8.1.ufo.BOUNDED-16.pals.yml          TIMEOUT                        900.66      889.04  apollon118
pals_lcr.8.1.ufo.UNBOUNDED.pals.yml           TIMEOUT                        900.57      890.90  apollon073
pals_lcr.8.ufo.BOUNDED-16.pals.yml            TIMEOUT                        900.64      890.29  apollon028
pals_lcr.8.ufo.UNBOUNDED.pals.yml             TIMEOUT                        900.63      889.18  apollon048
pals_lcr.8_overflow.ufo.UNBOUNDED.pals.yml    TIMEOUT                        900.63      888.34  apollon070
pals_lcr.3.ufo.UNBOUNDED.pals.yml             true                           811.68      800.18  apollon044
pals_lcr.4.ufo.UNBOUNDED.pals.yml             TIMEOUT                        900.60      890.07  apollon010
pals_lcr.5.ufo.BOUNDED-10.pals.yml            TIMEOUT                        900.77      886.20  apollon167
pals_lcr.5.ufo.UNBOUNDED.pals.yml             TIMEOUT                        900.70      887.21  apollon031
pals_lcr.6.ufo.BOUNDED-12.pals.yml            TIMEOUT                        900.75      884.85  apollon003
pals_lcr.6.ufo.UNBOUNDED.pals.yml             TIMEOUT                        900.65      887.70  apollon036
pals_lcr.7.ufo.BOUNDED-14.pals.yml            TIMEOUT                        900.61      888.87  apollon067
pals_lcr.7.ufo.UNBOUNDED.pals.yml             TIMEOUT                        900.66      891.21  apollon040
pals_lcr.8.ufo.BOUNDED-16.pals.yml            TIMEOUT                        900.61      888.29  apollon024
pals_lcr.8.ufo.UNBOUNDED.pals.yml             TIMEOUT                        900.56      891.21  apollon062
pals_lcr.3.ufo.UNBOUNDED.pals.yml             TIMEOUT                        900.60      890.49  apollon025
pals_lcr.4.ufo.UNBOUNDED.pals.yml             TIMEOUT                        900.73      888.54  apollon137
pals_lcr.5.ufo.BOUNDED-10.pals.yml            TIMEOUT                        900.60      888.89  apollon165
pals_lcr.5.ufo.UNBOUNDED.pals.yml             TIMEOUT                        900.62      886.75  apollon137
pals_lcr.6.ufo.BOUNDED-12.pals.yml            TIMEOUT                        900.88      878.28  apollon084
pals_lcr.6.ufo.UNBOUNDED.pals.yml             TIMEOUT                        900.64      886.58  apollon111
pals_lcr.7.ufo.BOUNDED-14.pals.yml            TIMEOUT                        900.53      890.58  apollon005
pals_lcr.7.ufo.UNBOUNDED.pals.yml             TIMEOUT                        900.64      891.71  apollon112
pals_lcr.8.ufo.BOUNDED-16.pals.yml            TIMEOUT                        901.28      889.22  apollon060
pals_lcr.8.ufo.UNBOUNDED.pals.yml             TIMEOUT                        900.65      886.54  apollon007
pals_lcr.3.1.ufo.UNBOUNDED.pals.yml           false(unreach-call)             15.48        8.18  apollon108
pals_lcr.3.ufo.UNBOUNDED.pals.yml             TIMEOUT                        900.69      886.68  apollon019
pals_lcr.3_overflow.ufo.UNBOUNDED.pals.yml    TIMEOUT                        900.66      893.62  apollon038
pals_lcr.4.1.ufo.UNBOUNDED.pals.yml           TIMEOUT                        900.59      891.94  apollon013
pals_lcr.4.ufo.UNBOUNDED.pals.yml             TIMEOUT                        900.59      890.76  apollon094
pals_lcr.4_overflow.ufo.UNBOUNDED.pals.yml    TIMEOUT                        900.63      888.02  apollon168
pals_lcr.5.1.ufo.BOUNDED-10.pals.yml          TIMEOUT                        900.60      887.07  apollon139
pals_lcr.5.1.ufo.UNBOUNDED.pals.yml           TIMEOUT                        900.79      889.04  apollon051
pals_lcr.5.ufo.BOUNDED-10.pals.yml            TIMEOUT                        900.61      887.09  apollon142
pals_lcr.5.ufo.UNBOUNDED.pals.yml             TIMEOUT                        900.57      887.33  apollon084
pals_lcr.5_overflow.ufo.UNBOUNDED.pals.yml    TIMEOUT                        900.63      888.93  apollon059
pals_lcr.6.1.ufo.BOUNDED-12.pals.yml          TIMEOUT                        900.66      889.04  apollon067
pals_lcr.6.1.ufo.UNBOUNDED.pals.yml           TIMEOUT                        900.63      884.25  apollon106
pals_lcr.6.ufo.UNBOUNDED.pals.yml             TIMEOUT                        900.64      887.46  apollon096
pals_lcr.6_overflow.ufo.UNBOUNDED.pals.yml    TIMEOUT                        900.61      891.13  apollon070
pals_lcr.7.1.ufo.BOUNDED-14.pals.yml          TIMEOUT                        900.61      888.46  apollon018
pals_lcr.7.1.ufo.UNBOUNDED.pals.yml           TIMEOUT                        900.60      889.93  apollon148
pals_lcr.7.ufo.BOUNDED-14.pals.yml            TIMEOUT                        900.64      888.64  apollon054
pals_lcr.7.ufo.UNBOUNDED.pals.yml             TIMEOUT                        900.59      892.14  apollon108
pals_lcr.7_overflow.ufo.UNBOUNDED.pals.yml    TIMEOUT                        900.80      889.90  apollon103
pals_lcr.8.1.ufo.BOUNDED-16.pals.yml          TIMEOUT                        900.66      890.52  apollon004
pals_lcr.8.1.ufo.UNBOUNDED.pals.yml           TIMEOUT                        900.76      889.30  apollon001
pals_lcr.8.ufo.BOUNDED-16.pals.yml            TIMEOUT                        900.83      887.22  apollon091
pals_lcr.8.ufo.UNBOUNDED.pals.yml             TIMEOUT                        900.75      888.99  apollon145
pals_lcr.8_overflow.ufo.UNBOUNDED.pals.yml    TIMEOUT                        900.53      889.90  apollon012
pals_lcr.3.1.ufo.UNBOUNDED.pals.yml           false(unreach-call)             13.15        6.95  apollon102
pals_lcr.3.ufo.UNBOUNDED.pals.yml             TIMEOUT                        900.65      891.13  apollon152
pals_lcr.3_overflow.ufo.UNBOUNDED.pals.yml    TIMEOUT                        900.65      891.29  apollon006
pals_lcr.4.1.ufo.UNBOUNDED.pals.yml           TIMEOUT                        900.57      889.90  apollon079
pals_lcr.4.ufo.UNBOUNDED.pals.yml             TIMEOUT                        900.66      889.04  apollon019
pals_lcr.4_overflow.ufo.UNBOUNDED.pals.yml    TIMEOUT                        900.67      888.48  apollon054
pals_lcr.5.1.ufo.BOUNDED-10.pals.yml          TIMEOUT                        900.75      889.24  apollon053
pals_lcr.5.1.ufo.UNBOUNDED.pals.yml           TIMEOUT                        900.64      886.37  apollon013
pals_lcr.5.ufo.BOUNDED-10.pals.yml            TIMEOUT                        900.56      889.33  apollon085
pals_lcr.5.ufo.UNBOUNDED.pals.yml             TIMEOUT                        900.64      888.06  apollon006
pals_lcr.5_overflow.ufo.UNBOUNDED.pals.yml    TIMEOUT                        900.69      885.93  apollon110
pals_lcr.6.1.ufo.BOUNDED-12.pals.yml          TIMEOUT                        900.62      888.30  apollon015
pals_lcr.6.1.ufo.UNBOUNDED.pals.yml           TIMEOUT                        900.63      883.99  apollon110
pals_lcr.6.ufo.BOUNDED-12.pals.yml            TIMEOUT                        900.61      885.70  apollon056
pals_lcr.6_overflow.ufo.UNBOUNDED.pals.yml    TIMEOUT                        900.65      889.08  apollon025
pals_lcr.7.1.ufo.BOUNDED-14.pals.yml          TIMEOUT                        900.62      887.71  apollon022
pals_lcr.7.1.ufo.UNBOUNDED.pals.yml           TIMEOUT                        900.68      887.68  apollon144
pals_lcr.7.ufo.BOUNDED-14.pals.yml            TIMEOUT                        900.54      890.52  apollon150
pals_lcr.7.ufo.UNBOUNDED.pals.yml             TIMEOUT                        900.65      888.81  apollon159
pals_lcr.7_overflow.ufo.UNBOUNDED.pals.yml    TIMEOUT                        900.67      890.07  apollon131
pals_lcr.8.1.ufo.BOUNDED-16.pals.yml          TIMEOUT                        900.69      888.12  apollon165
pals_lcr.8.1.ufo.UNBOUNDED.pals.yml           TIMEOUT                        900.70      890.03  apollon097
pals_lcr.8.ufo.BOUNDED-16.pals.yml            TIMEOUT                        901.19      867.92  apollon029
pals_lcr.8.ufo.UNBOUNDED.pals.yml             TIMEOUT                        900.66      886.08  apollon157
pals_lcr.8_overflow.ufo.UNBOUNDED.pals.yml    TIMEOUT                        900.63      890.02  apollon122
pals_lcr.3.ufo.UNBOUNDED.pals.yml             TIMEOUT                        900.60      890.89  apollon159
pals_lcr.4.ufo.UNBOUNDED.pals.yml             TIMEOUT                        900.72      888.82  apollon168
pals_lcr.5.ufo.BOUNDED-10.pals.yml            TIMEOUT                        900.60      888.46  apollon020
pals_lcr.5.ufo.UNBOUNDED.pals.yml             TIMEOUT                        900.60      887.06  apollon166
pals_lcr.6.ufo.BOUNDED-12.pals.yml            TIMEOUT                        900.63      887.18  apollon101
pals_lcr.6.ufo.UNBOUNDED.pals.yml             TIMEOUT                        900.79      887.43  apollon129
pals_lcr.7.ufo.BOUNDED-14.pals.yml            TIMEOUT                        900.60      890.09  apollon047
pals_lcr.7.ufo.UNBOUNDED.pals.yml             TIMEOUT                        900.84      889.97  apollon108
pals_lcr.8.ufo.BOUNDED-16.pals.yml            TIMEOUT                        900.52      888.53  apollon137
pals_lcr.8.ufo.UNBOUNDED.pals.yml             TIMEOUT                        900.79      888.23  apollon089
pals_lcr.3.ufo.UNBOUNDED.pals.yml             true                           893.90      881.28  apollon128
pals_lcr.4.ufo.UNBOUNDED.pals.yml             TIMEOUT                        900.59      891.11  apollon056
pals_lcr.5.ufo.BOUNDED-10.pals.yml            TIMEOUT                        900.66      887.02  apollon155
pals_lcr.5.ufo.UNBOUNDED.pals.yml             TIMEOUT                        900.59      888.54  apollon135
pals_lcr.6.ufo.BOUNDED-12.pals.yml            TIMEOUT                        900.81      888.13  apollon121
pals_lcr.6.ufo.UNBOUNDED.pals.yml             TIMEOUT                        900.58      890.72  apollon088
pals_lcr.7.ufo.BOUNDED-14.pals.yml            TIMEOUT                        902.75      893.28  apollon062
pals_lcr.7.ufo.UNBOUNDED.pals.yml             TIMEOUT                        900.66      892.07  apollon035
pals_lcr.8.ufo.BOUNDED-16.pals.yml            TIMEOUT                        900.62      890.08  apollon049
pals_lcr.8.ufo.UNBOUNDED.pals.yml             TIMEOUT                        900.63      890.86  apollon095
pals_lcr.3.1.ufo.UNBOUNDED.pals.yml           false(unreach-call)             12.82        6.70  apollon072
pals_lcr.3.ufo.UNBOUNDED.pals.yml             TIMEOUT                        900.89      885.64  apollon135
pals_lcr.3_overflow.ufo.UNBOUNDED.pals.yml    TIMEOUT                        900.56      893.19  apollon072
pals_lcr.4.1.ufo.UNBOUNDED.pals.yml           TIMEOUT                        900.57      890.58  apollon040
pals_lcr.4.ufo.UNBOUNDED.pals.yml             TIMEOUT                        900.58      891.68  apollon090
pals_lcr.4_overflow.ufo.UNBOUNDED.pals.yml    TIMEOUT                        900.54      888.50  apollon083
pals_lcr.5.1.ufo.BOUNDED-10.pals.yml          TIMEOUT                        900.76      881.44  apollon148
pals_lcr.5.1.ufo.UNBOUNDED.pals.yml           TIMEOUT                        900.59      886.79  apollon115
pals_lcr.5.ufo.BOUNDED-10.pals.yml            TIMEOUT                        900.71      885.40  apollon036
pals_lcr.5.ufo.UNBOUNDED.pals.yml             TIMEOUT                        900.59      889.64  apollon060
pals_lcr.5_overflow.ufo.UNBOUNDED.pals.yml    TIMEOUT                        900.55      887.26  apollon162
pals_lcr.6.1.ufo.BOUNDED-12.pals.yml          TIMEOUT                        900.61      887.38  apollon157
pals_lcr.6.1.ufo.UNBOUNDED.pals.yml           TIMEOUT                        900.69      889.57  apollon006
pals_lcr.6.ufo.BOUNDED-12.pals.yml            TIMEOUT                        900.57      885.60  apollon080
pals_lcr.6.ufo.UNBOUNDED.pals.yml             TIMEOUT                        900.56      890.41  apollon133
pals_lcr.6_overflow.ufo.UNBOUNDED.pals.yml    TIMEOUT                        900.60      890.16  apollon079
pals_lcr.7.1.ufo.BOUNDED-14.pals.yml          TIMEOUT                        900.62      888.88  apollon145
pals_lcr.7.1.ufo.UNBOUNDED.pals.yml           TIMEOUT                        900.63      891.39  apollon062
pals_lcr.7.ufo.UNBOUNDED.pals.yml             TIMEOUT                        900.53      891.25  apollon088
pals_lcr.7_overflow.ufo.UNBOUNDED.pals.yml    TIMEOUT                        900.53      891.45  apollon091
pals_lcr.8.1.ufo.BOUNDED-16.pals.yml          TIMEOUT                        900.60      890.32  apollon121
pals_lcr.8.1.ufo.UNBOUNDED.pals.yml           TIMEOUT                        900.60      888.08  apollon052
pals_lcr.8.ufo.BOUNDED-16.pals.yml            TIMEOUT                        900.65      889.42  apollon020
pals_lcr.8.ufo.UNBOUNDED.pals.yml             TIMEOUT                        900.68      889.90  apollon154
pals_lcr.8_overflow.ufo.UNBOUNDED.pals.yml    TIMEOUT                        900.58      890.53  apollon109
pals_lcr.3.1.ufo.UNBOUNDED.pals.yml           false(unreach-call)             13.34        7.05  apollon108
pals_lcr.3.ufo.UNBOUNDED.pals.yml             TIMEOUT                        900.71      891.92  apollon104
pals_lcr.3_overflow.ufo.UNBOUNDED.pals.yml    TIMEOUT                        900.63      891.05  apollon049
pals_lcr.4.1.ufo.UNBOUNDED.pals.yml           TIMEOUT                        900.57      890.57  apollon111
pals_lcr.4.ufo.UNBOUNDED.pals.yml             TIMEOUT                        900.65      888.60  apollon061
pals_lcr.4_overflow.ufo.UNBOUNDED.pals.yml    TIMEOUT                        900.64      887.75  apollon055
pals_lcr.5.1.ufo.BOUNDED-10.pals.yml          TIMEOUT                        901.04      888.67  apollon154
pals_lcr.5.1.ufo.UNBOUNDED.pals.yml           TIMEOUT                        900.67      885.11  apollon095
pals_lcr.5.ufo.BOUNDED-10.pals.yml            TIMEOUT                        900.66      887.20  apollon031
pals_lcr.5.ufo.UNBOUNDED.pals.yml             TIMEOUT                        900.72      888.40  apollon141
pals_lcr.5_overflow.ufo.UNBOUNDED.pals.yml    TIMEOUT                        900.66      887.49  apollon165
pals_lcr.6.1.ufo.BOUNDED-12.pals.yml          TIMEOUT                        900.64      887.69  apollon003
pals_lcr.6.1.ufo.UNBOUNDED.pals.yml           TIMEOUT                        900.63      886.66  apollon023
pals_lcr.6.ufo.BOUNDED-12.pals.yml            TIMEOUT                        900.58      882.72  apollon127
pals_lcr.6.ufo.UNBOUNDED.pals.yml             TIMEOUT                        900.75      889.24  apollon141
pals_lcr.6_overflow.ufo.UNBOUNDED.pals.yml    TIMEOUT                        900.68      887.45  apollon004
pals_lcr.7.1.ufo.BOUNDED-14.pals.yml          TIMEOUT                        900.60      888.50  apollon002
pals_lcr.7.1.ufo.UNBOUNDED.pals.yml           TIMEOUT                        900.57      891.35  apollon065
pals_lcr.7.ufo.BOUNDED-14.pals.yml            TIMEOUT                        900.57      890.20  apollon154
pals_lcr.7_overflow.ufo.UNBOUNDED.pals.yml    TIMEOUT                        900.73      886.17  apollon070
pals_lcr.8.1.ufo.BOUNDED-16.pals.yml          TIMEOUT                        900.70      890.69  apollon083
pals_lcr.8.1.ufo.UNBOUNDED.pals.yml           TIMEOUT                        900.62      889.54  apollon138
pals_lcr.8.ufo.BOUNDED-16.pals.yml            TIMEOUT                        900.62      890.63  apollon151
pals_lcr.8.ufo.UNBOUNDED.pals.yml             TIMEOUT                        900.58      890.31  apollon148
pals_lcr.8_overflow.ufo.UNBOUNDED.pals.yml    TIMEOUT                        900.74      887.24  apollon007
pals_lcr.3.ufo.UNBOUNDED.pals.yml             TIMEOUT                        900.59      891.33  apollon078
pals_lcr.4.ufo.UNBOUNDED.pals.yml             TIMEOUT                        900.75      888.66  apollon107
pals_lcr.5.ufo.BOUNDED-10.pals.yml            TIMEOUT                        900.70      888.10  apollon050
pals_lcr.5.ufo.UNBOUNDED.pals.yml             TIMEOUT                        900.61      885.76  apollon146
pals_lcr.6.ufo.BOUNDED-12.pals.yml            TIMEOUT                        900.68      882.84  apollon165
pals_lcr.6.ufo.UNBOUNDED.pals.yml             TIMEOUT                        900.60      887.72  apollon046
pals_lcr.7.ufo.BOUNDED-14.pals.yml            TIMEOUT                        900.60      891.01  apollon034
pals_lcr.7.ufo.UNBOUNDED.pals.yml             TIMEOUT                        903.26      890.16  apollon016
pals_lcr.8.ufo.BOUNDED-16.pals.yml            TIMEOUT                        900.57      890.32  apollon051
pals_lcr.8.ufo.UNBOUNDED.pals.yml             TIMEOUT                        900.61      888.55  apollon002
pals_lcr.3.ufo.UNBOUNDED.pals.yml             ERROR                          800.35      788.03  apollon011
pals_lcr.4.ufo.UNBOUNDED.pals.yml             TIMEOUT                        901.06      890.59  apollon035
pals_lcr.5.ufo.BOUNDED-10.pals.yml            TIMEOUT                        900.71      886.08  apollon012
pals_lcr.5.ufo.UNBOUNDED.pals.yml             TIMEOUT                        900.72      887.63  apollon131
pals_lcr.6.ufo.BOUNDED-12.pals.yml            TIMEOUT                        900.59      886.85  apollon100
pals_lcr.6.ufo.UNBOUNDED.pals.yml             TIMEOUT                        900.64      888.79  apollon127
pals_lcr.7.ufo.BOUNDED-14.pals.yml            TIMEOUT                        904.60      893.87  apollon076
pals_lcr.7.ufo.UNBOUNDED.pals.yml             TIMEOUT                        900.60      891.14  apollon047
pals_lcr.8.ufo.BOUNDED-16.pals.yml            TIMEOUT                        900.58      888.95  apollon063
pals_lcr.8.ufo.UNBOUNDED.pals.yml             TIMEOUT                        900.65      888.60  apollon015
pals_lcr.3.ufo.UNBOUNDED.pals.yml             TIMEOUT                        900.66      891.63  apollon144
pals_lcr.4.ufo.UNBOUNDED.pals.yml             TIMEOUT                        900.60      888.75  apollon032
pals_lcr.5.ufo.BOUNDED-10.pals.yml            TIMEOUT                        900.62      888.92  apollon091
pals_lcr.5.ufo.UNBOUNDED.pals.yml             TIMEOUT                        900.56      888.06  apollon076
pals_lcr.6.ufo.BOUNDED-12.pals.yml            TIMEOUT                        900.57      884.83  apollon161
pals_lcr.6.ufo.UNBOUNDED.pals.yml             TIMEOUT                        900.62      887.48  apollon083
pals_lcr.7.ufo.BOUNDED-14.pals.yml            TIMEOUT                        902.59      892.59  apollon136
pals_lcr.7.ufo.UNBOUNDED.pals.yml             TIMEOUT                        900.58      889.66  apollon124
pals_lcr.8.ufo.BOUNDED-16.pals.yml            TIMEOUT                        900.57      889.00  apollon110
pals_lcr.8.ufo.UNBOUNDED.pals.yml             TIMEOUT                        900.54      889.78  apollon045
pals_lcr.3.1.ufo.UNBOUNDED.pals.yml           false(unreach-call)             13.09        6.94  apollon141
pals_lcr.3.ufo.UNBOUNDED.pals.yml             true                           864.20      849.98  apollon167
pals_lcr.3_overflow.ufo.UNBOUNDED.pals.yml    TIMEOUT                        900.62      892.82  apollon041
pals_lcr.4.1.ufo.UNBOUNDED.pals.yml           TIMEOUT                        900.54      891.91  apollon116
pals_lcr.4.ufo.UNBOUNDED.pals.yml             TIMEOUT                        900.56      889.36  apollon160
pals_lcr.4_overflow.ufo.UNBOUNDED.pals.yml    TIMEOUT                        900.56      888.57  apollon168
pals_lcr.5.1.ufo.BOUNDED-10.pals.yml          TIMEOUT                        900.83      873.26  apollon019
pals_lcr.5.1.ufo.UNBOUNDED.pals.yml           TIMEOUT                        900.57      886.81  apollon079
pals_lcr.5.ufo.BOUNDED-10.pals.yml            TIMEOUT                        900.75      884.80  apollon067
pals_lcr.5.ufo.UNBOUNDED.pals.yml             TIMEOUT                        900.59      888.90  apollon016
pals_lcr.5_overflow.ufo.UNBOUNDED.pals.yml    TIMEOUT                        900.61      885.38  apollon146
pals_lcr.6.1.ufo.BOUNDED-12.pals.yml          TIMEOUT                        900.70      886.81  apollon041
pals_lcr.6.1.ufo.UNBOUNDED.pals.yml           TIMEOUT                        900.61      887.30  apollon095
pals_lcr.6.ufo.BOUNDED-12.pals.yml            TIMEOUT                        900.73      885.38  apollon122
pals_lcr.6.ufo.UNBOUNDED.pals.yml             TIMEOUT                        900.63      890.27  apollon043
pals_lcr.6_overflow.ufo.UNBOUNDED.pals.yml    TIMEOUT                        900.52      891.20  apollon064
pals_lcr.7.1.ufo.BOUNDED-14.pals.yml          TIMEOUT                        900.60      890.55  apollon135
pals_lcr.7.1.ufo.UNBOUNDED.pals.yml           TIMEOUT                        900.60      891.07  apollon065
pals_lcr.7.ufo.BOUNDED-14.pals.yml            TIMEOUT                        900.57      888.95  apollon149
pals_lcr.7.ufo.UNBOUNDED.pals.yml             TIMEOUT                        900.63      891.52  apollon073
pals_lcr.7_overflow.ufo.UNBOUNDED.pals.yml    TIMEOUT                        900.52      890.15  apollon134
pals_lcr.8.1.ufo.BOUNDED-16.pals.yml          TIMEOUT                        900.81      888.88  apollon018
pals_lcr.8.1.ufo.UNBOUNDED.pals.yml           TIMEOUT                        900.58      888.68  apollon112
pals_lcr.8.ufo.UNBOUNDED.pals.yml             TIMEOUT                        900.68      890.47  apollon010
pals_lcr.8_overflow.ufo.UNBOUNDED.pals.yml    TIMEOUT                        900.64      891.14  apollon089
pals_lcr.3.1.ufo.UNBOUNDED.pals.yml           false(unreach-call)             13.79        7.32  apollon055
pals_lcr.3.ufo.UNBOUNDED.pals.yml             TIMEOUT                        900.66      890.78  apollon061
pals_lcr.3_overflow.ufo.UNBOUNDED.pals.yml    TIMEOUT                        900.62      891.62  apollon068
pals_lcr.4.1.ufo.UNBOUNDED.pals.yml           TIMEOUT                        900.63      890.37  apollon117
pals_lcr.4.ufo.UNBOUNDED.pals.yml             TIMEOUT                        900.65      890.37  apollon073
pals_lcr.4_overflow.ufo.UNBOUNDED.pals.yml    TIMEOUT                        900.71      888.09  apollon002
pals_lcr.5.1.ufo.BOUNDED-10.pals.yml          TIMEOUT                        900.62      887.70  apollon145
pals_lcr.5.1.ufo.UNBOUNDED.pals.yml           TIMEOUT                        900.77      887.36  apollon031
pals_lcr.5.ufo.BOUNDED-10.pals.yml            TIMEOUT                        900.61      888.21  apollon071
pals_lcr.5.ufo.UNBOUNDED.pals.yml             TIMEOUT                        900.75      885.34  apollon105
pals_lcr.5_overflow.ufo.UNBOUNDED.pals.yml    TIMEOUT                        900.70      884.25  apollon025
pals_lcr.6.1.ufo.BOUNDED-12.pals.yml          TIMEOUT                        900.60      887.79  apollon128
pals_lcr.6.1.ufo.UNBOUNDED.pals.yml           TIMEOUT                        900.76      882.84  apollon051
pals_lcr.6.ufo.BOUNDED-12.pals.yml            TIMEOUT                        900.61      884.82  apollon028
pals_lcr.6.ufo.UNBOUNDED.pals.yml             TIMEOUT                        900.74      887.39  apollon015
pals_lcr.6_overflow.ufo.UNBOUNDED.pals.yml    TIMEOUT                        900.63      887.55  apollon047
pals_lcr.7.1.ufo.BOUNDED-14.pals.yml          TIMEOUT                        900.62      889.20  apollon144
pals_lcr.7.1.ufo.UNBOUNDED.pals.yml           TIMEOUT                        900.58      888.21  apollon008
pals_lcr.7.ufo.BOUNDED-14.pals.yml            TIMEOUT                        909.92      901.11  apollon059
pals_lcr.7.ufo.UNBOUNDED.pals.yml             TIMEOUT                        900.54      890.45  apollon138
pals_lcr.7_overflow.ufo.UNBOUNDED.pals.yml    TIMEOUT                        900.61      889.98  apollon115
pals_lcr.8.1.ufo.BOUNDED-16.pals.yml          TIMEOUT                        900.73      889.85  apollon047
pals_lcr.8.1.ufo.UNBOUNDED.pals.yml           TIMEOUT                        900.65      888.69  apollon129
pals_lcr.8.ufo.BOUNDED-16.pals.yml            TIMEOUT                        900.55      889.01  apollon016
pals_lcr.8_overflow.ufo.UNBOUNDED.pals.yml    TIMEOUT                        900.64      887.59  apollon157
pals_lcr.3.ufo.UNBOUNDED.pals.yml             TIMEOUT                        900.68      889.07  apollon069
pals_lcr.4.ufo.UNBOUNDED.pals.yml             TIMEOUT                        900.72      888.29  apollon167
pals_lcr.5.ufo.BOUNDED-10.pals.yml            TIMEOUT                        900.59      889.49  apollon127
pals_lcr.5.ufo.UNBOUNDED.pals.yml             TIMEOUT                        900.58      889.08  apollon116
pals_lcr.6.ufo.BOUNDED-12.pals.yml            TIMEOUT                        901.29      879.27  apollon046
pals_lcr.6.ufo.UNBOUNDED.pals.yml             TIMEOUT                        900.61      888.00  apollon107
pals_lcr.7.ufo.BOUNDED-14.pals.yml            TIMEOUT                        900.56      891.32  apollon140
pals_lcr.7.ufo.UNBOUNDED.pals.yml             TIMEOUT                        900.65      891.95  apollon046
pals_lcr.8.ufo.BOUNDED-16.pals.yml            TIMEOUT                        900.67      887.17  apollon108
pals_lcr.8.ufo.UNBOUNDED.pals.yml             TIMEOUT                        900.70      889.75  apollon140
-----------------------------------------------------------------------------------------------------------
Run set 5                                     done                             None        None           -


diffPropAnalysis-nomerge-ignoreDecl
Run set 6 of 7: skipped


diffPropAnalysis-noimply-ignoreDecl
Run set 7 of 7: skipped

Statistics:            390 Files
  correct:              20
    correct true:        9
    correct false:      11
  incorrect:             0
    incorrect true:      0
    incorrect false:     0
  unknown:             370
  Score:                29 (max: 620)
