(set-info :source |printed by MathSAT|)
(declare-fun c_num_read () (_ BitVec 32))
(declare-fun p_num_write () (_ BitVec 32))
(declare-fun c_last_read () (_ BitVec 32))
(declare-fun p_last_write () (_ BitVec 32))
(declare-fun c_dr_pc () (_ BitVec 32))
(declare-fun q_free () (_ BitVec 32))
(declare-fun q_buf_0 () (_ BitVec 32))
(declare-fun p_dw_pc () (_ BitVec 32))
(declare-fun q_read_ev () (_ BitVec 32))
(declare-fun c_dr_st () (_ BitVec 32))
(declare-fun p_dw_st () (_ BitVec 32))
(declare-fun m_pc () (_ BitVec 32))
(declare-fun t1_pc () (_ BitVec 32))
(declare-fun m_st () (_ BitVec 32))
(declare-fun E_M () (_ BitVec 32))
(declare-fun t1_st () (_ BitVec 32))
(declare-fun local () (_ BitVec 32))
(declare-fun token () (_ BitVec 32))
(declare-fun E_1 () (_ BitVec 32))

*:
(assert (let ((.def_510 (= c_num_read p_num_write))).def_510))
(assert (let ((.def_519 (= c_last_read p_last_write))).def_519))

error1 N4:
(assert false)
(assert (let ((.def_510 (= c_num_read p_num_write))).def_510))
(assert (let ((.def_519 (= c_last_read p_last_write))).def_519))

do_write_p N64:
(assert (let ((.def_854 (= c_dr_pc (_ bv0 32)))).def_854))
(assert (let ((.def_510 (= c_num_read p_num_write))).def_510))
(assert (let ((.def_519 (= c_last_read p_last_write))).def_519))
(assert (let ((.def_957 (= q_free (_ bv1 32)))).def_957))
(assert false)
(assert (let ((.def_1300 (= p_last_write q_buf_0))).def_1300))
(assert (let ((.def_960 (= p_dw_pc (_ bv1 32)))).def_960))
(assert (let ((.def_1487 (bvadd (_ bv1 32) c_num_read)))(let ((.def_1488 (= p_num_write .def_1487))).def_1488)))
(assert (let ((.def_2381 (= q_free (_ bv0 32)))).def_2381))
(assert (let ((.def_1490 (= c_dr_pc (_ bv1 32)))).def_1490))
(assert (let ((.def_5183 (= q_read_ev (_ bv1 32)))).def_5183))

do_read_c N100:
(assert (let ((.def_960 (= p_dw_pc (_ bv1 32)))).def_960))
(assert (let ((.def_957 (= q_free (_ bv1 32)))).def_957))
(assert (let ((.def_510 (= c_num_read p_num_write))).def_510))
(assert (let ((.def_519 (= c_last_read p_last_write))).def_519))
(assert (let ((.def_1300 (= p_last_write q_buf_0))).def_1300))
(assert (let ((.def_1487 (bvadd (_ bv1 32) c_num_read)))(let ((.def_1488 (= p_num_write .def_1487))).def_1488)))
(assert (let ((.def_1490 (= c_dr_pc (_ bv1 32)))).def_1490))
(assert false)

eval1 N170:
(assert (let ((.def_854 (= c_dr_pc (_ bv0 32)))).def_854))
(assert (let ((.def_510 (= c_num_read p_num_write))).def_510))
(assert (let ((.def_519 (= c_last_read p_last_write))).def_519))
(assert (let ((.def_957 (= q_free (_ bv1 32)))).def_957))
(assert (let ((.def_1230 (= p_dw_pc (_ bv0 32)))).def_1230))
(assert (let ((.def_1490 (= c_dr_pc (_ bv1 32)))).def_1490))
(assert (let ((.def_3804 (= c_dr_st (_ bv0 32)))).def_3804))
(assert (let ((.def_960 (= p_dw_pc (_ bv1 32)))).def_960))
(assert (let ((.def_5183 (= q_read_ev (_ bv1 32)))).def_5183))
(assert (let ((.def_5186 (= p_dw_st (_ bv0 32)))).def_5186))
(assert (let ((.def_1300 (= p_last_write q_buf_0))).def_1300))
(assert (let ((.def_1487 (bvadd (_ bv1 32) c_num_read)))(let ((.def_1488 (= p_num_write .def_1487))).def_1488)))

start_simulation1 N221:
(assert (let ((.def_854 (= c_dr_pc (_ bv0 32)))).def_854))
(assert (let ((.def_510 (= c_num_read p_num_write))).def_510))
(assert (let ((.def_519 (= c_last_read p_last_write))).def_519))
(assert (let ((.def_957 (= q_free (_ bv1 32)))).def_957))
(assert (let ((.def_1230 (= p_dw_pc (_ bv0 32)))).def_1230))
(assert (let ((.def_5183 (= q_read_ev (_ bv1 32)))).def_5183))

error2 N260:
(assert false)
(assert (let ((.def_510 (= c_num_read p_num_write))).def_510))
(assert (let ((.def_519 (= c_last_read p_last_write))).def_519))

eval2 N394:
(assert (let ((.def_6896 (= m_pc (_ bv0 32)))).def_6896))
(assert (let ((.def_510 (= c_num_read p_num_write))).def_510))
(assert (let ((.def_519 (= c_last_read p_last_write))).def_519))
(assert (let ((.def_7453 (= t1_pc (_ bv0 32)))).def_7453))
(assert (let ((.def_7455 (= m_pc (_ bv1 32)))).def_7455))
(assert (let ((.def_7457 (= t1_pc (_ bv1 32)))).def_7457))
(assert (let ((.def_7460 (= m_st (_ bv0 32)))).def_7460))
(assert (let ((.def_8179 (= E_M (_ bv1 32)))).def_8179))
(assert (let ((.def_8182 (= t1_st (_ bv0 32)))).def_8182))
(assert (let ((.def_8185 (bvadd (_ bv1 32) local)))(let ((.def_8187 (= .def_8185 token))).def_8187)))
(assert (let ((.def_9196 (= local token))).def_9196))
(assert (let ((.def_9199 (= E_1 (_ bv1 32)))).def_9199))
(assert (let ((.def_10505 (= E_M (_ bv0 32)))).def_10505))
(assert (let ((.def_10507 (= E_1 (_ bv0 32)))).def_10507))

start_simulation2 N544:
(assert (let ((.def_6896 (= m_pc (_ bv0 32)))).def_6896))
(assert (let ((.def_510 (= c_num_read p_num_write))).def_510))
(assert (let ((.def_519 (= c_last_read p_last_write))).def_519))
(assert (let ((.def_7453 (= t1_pc (_ bv0 32)))).def_7453))
(assert (let ((.def_7455 (= m_pc (_ bv1 32)))).def_7455))
(assert (let ((.def_7457 (= t1_pc (_ bv1 32)))).def_7457))
(assert (let ((.def_8179 (= E_M (_ bv1 32)))).def_8179))
(assert (let ((.def_8182 (= t1_st (_ bv0 32)))).def_8182))
(assert (let ((.def_7460 (= m_st (_ bv0 32)))).def_7460))
(assert (let ((.def_10505 (= E_M (_ bv0 32)))).def_10505))

