(set-info :source |printed by MathSAT|)
(declare-fun c_last_read () (_ BitVec 32))
(declare-fun p_last_write () (_ BitVec 32))
(declare-fun c_num_read () (_ BitVec 32))
(declare-fun p_num_write () (_ BitVec 32))
(declare-fun c_dr_pc () (_ BitVec 32))
(declare-fun q_free () (_ BitVec 32))
(declare-fun q_buf_0 () (_ BitVec 32))
(declare-fun p_dw_pc () (_ BitVec 32))
(declare-fun q_read_ev () (_ BitVec 32))
(declare-fun c_dr_st () (_ BitVec 32))
(declare-fun p_dw_st () (_ BitVec 32))
(declare-fun m_pc () (_ BitVec 32))
(declare-fun t1_pc () (_ BitVec 32))
(declare-fun t2_pc () (_ BitVec 32))
(declare-fun t3_pc () (_ BitVec 32))
(declare-fun t4_pc () (_ BitVec 32))
(declare-fun t5_pc () (_ BitVec 32))
(declare-fun t6_pc () (_ BitVec 32))
(declare-fun t7_pc () (_ BitVec 32))
(declare-fun t8_pc () (_ BitVec 32))
(declare-fun t9_pc () (_ BitVec 32))
(declare-fun m_st () (_ BitVec 32))
(declare-fun t4_st () (_ BitVec 32))
(declare-fun t3_st () (_ BitVec 32))
(declare-fun E_5 () (_ BitVec 32))
(declare-fun E_9 () (_ BitVec 32))
(declare-fun E_7 () (_ BitVec 32))
(declare-fun E_4 () (_ BitVec 32))
(declare-fun E_3 () (_ BitVec 32))
(declare-fun E_2 () (_ BitVec 32))
(declare-fun E_M () (_ BitVec 32))
(declare-fun E_8 () (_ BitVec 32))
(declare-fun E_6 () (_ BitVec 32))
(declare-fun t2_st () (_ BitVec 32))
(declare-fun t6_st () (_ BitVec 32))
(declare-fun t5_st () (_ BitVec 32))
(declare-fun t8_st () (_ BitVec 32))
(declare-fun t1_st () (_ BitVec 32))
(declare-fun t7_st () (_ BitVec 32))
(declare-fun t9_st () (_ BitVec 32))
(declare-fun E_1 () (_ BitVec 32))
(declare-fun local () (_ BitVec 32))
(declare-fun token () (_ BitVec 32))

*:
(assert (let ((.def_630 (= c_last_read p_last_write))).def_630))
(assert (let ((.def_639 (= c_num_read p_num_write))).def_639))

error1 N4:
(assert false)
(assert (let ((.def_630 (= c_last_read p_last_write))).def_630))
(assert (let ((.def_639 (= c_num_read p_num_write))).def_639))

do_write_p N64:
(assert (let ((.def_974 (= c_dr_pc (_ bv0 32)))).def_974))
(assert (let ((.def_630 (= c_last_read p_last_write))).def_630))
(assert (let ((.def_639 (= c_num_read p_num_write))).def_639))
(assert (let ((.def_1077 (= q_free (_ bv1 32)))).def_1077))
(assert false)
(assert (let ((.def_1420 (= p_last_write q_buf_0))).def_1420))
(assert (let ((.def_1080 (= p_dw_pc (_ bv1 32)))).def_1080))
(assert (let ((.def_1609 (bvadd (_ bv1 32) c_num_read)))(let ((.def_1610 (= p_num_write .def_1609))).def_1610)))
(assert (let ((.def_2501 (= q_free (_ bv0 32)))).def_2501))
(assert (let ((.def_1612 (= c_dr_pc (_ bv1 32)))).def_1612))
(assert (let ((.def_5302 (= q_read_ev (_ bv1 32)))).def_5302))

do_read_c N100:
(assert (let ((.def_1080 (= p_dw_pc (_ bv1 32)))).def_1080))
(assert (let ((.def_1077 (= q_free (_ bv1 32)))).def_1077))
(assert (let ((.def_630 (= c_last_read p_last_write))).def_630))
(assert (let ((.def_639 (= c_num_read p_num_write))).def_639))
(assert (let ((.def_1420 (= p_last_write q_buf_0))).def_1420))
(assert (let ((.def_1609 (bvadd (_ bv1 32) c_num_read)))(let ((.def_1610 (= p_num_write .def_1609))).def_1610)))
(assert (let ((.def_1612 (= c_dr_pc (_ bv1 32)))).def_1612))
(assert false)

eval1 N170:
(assert (let ((.def_974 (= c_dr_pc (_ bv0 32)))).def_974))
(assert (let ((.def_630 (= c_last_read p_last_write))).def_630))
(assert (let ((.def_639 (= c_num_read p_num_write))).def_639))
(assert (let ((.def_1077 (= q_free (_ bv1 32)))).def_1077))
(assert (let ((.def_1350 (= p_dw_pc (_ bv0 32)))).def_1350))
(assert (let ((.def_1612 (= c_dr_pc (_ bv1 32)))).def_1612))
(assert (let ((.def_3924 (= c_dr_st (_ bv0 32)))).def_3924))
(assert (let ((.def_1080 (= p_dw_pc (_ bv1 32)))).def_1080))
(assert (let ((.def_5302 (= q_read_ev (_ bv1 32)))).def_5302))
(assert (let ((.def_5305 (= p_dw_st (_ bv0 32)))).def_5305))
(assert (let ((.def_1420 (= p_last_write q_buf_0))).def_1420))
(assert (let ((.def_1609 (bvadd (_ bv1 32) c_num_read)))(let ((.def_1610 (= p_num_write .def_1609))).def_1610)))

start_simulation1 N221:
(assert (let ((.def_974 (= c_dr_pc (_ bv0 32)))).def_974))
(assert (let ((.def_630 (= c_last_read p_last_write))).def_630))
(assert (let ((.def_639 (= c_num_read p_num_write))).def_639))
(assert (let ((.def_1077 (= q_free (_ bv1 32)))).def_1077))
(assert (let ((.def_1350 (= p_dw_pc (_ bv0 32)))).def_1350))
(assert (let ((.def_5302 (= q_read_ev (_ bv1 32)))).def_5302))

error2 N260:
(assert false)
(assert (let ((.def_630 (= c_last_read p_last_write))).def_630))
(assert (let ((.def_639 (= c_num_read p_num_write))).def_639))

eval2 N826:
(assert (let ((.def_7969 (= m_pc (_ bv0 32)))).def_7969))
(assert (let ((.def_630 (= c_last_read p_last_write))).def_630))
(assert (let ((.def_639 (= c_num_read p_num_write))).def_639))
(assert (let ((.def_15721 (= t1_pc (_ bv0 32)))).def_15721))
(assert (let ((.def_15724 (= t2_pc (_ bv0 32)))).def_15724))
(assert (let ((.def_15727 (= t3_pc (_ bv0 32)))).def_15727))
(assert (let ((.def_15730 (= t4_pc (_ bv0 32)))).def_15730))
(assert (let ((.def_15733 (= t5_pc (_ bv0 32)))).def_15733))
(assert (let ((.def_15736 (= t6_pc (_ bv0 32)))).def_15736))
(assert (let ((.def_15739 (= t7_pc (_ bv0 32)))).def_15739))
(assert (let ((.def_15742 (= t8_pc (_ bv0 32)))).def_15742))
(assert (let ((.def_15745 (= t9_pc (_ bv0 32)))).def_15745))
(assert (let ((.def_15747 (= m_pc (_ bv1 32)))).def_15747))
(assert (let ((.def_15749 (= t1_pc (_ bv1 32)))).def_15749))
(assert (let ((.def_15751 (= t2_pc (_ bv1 32)))).def_15751))
(assert (let ((.def_15753 (= t3_pc (_ bv1 32)))).def_15753))
(assert (let ((.def_15755 (= t4_pc (_ bv1 32)))).def_15755))
(assert (let ((.def_15757 (= t5_pc (_ bv1 32)))).def_15757))
(assert (let ((.def_15759 (= t6_pc (_ bv1 32)))).def_15759))
(assert (let ((.def_15761 (= t7_pc (_ bv1 32)))).def_15761))
(assert (let ((.def_15763 (= t8_pc (_ bv1 32)))).def_15763))
(assert (let ((.def_15765 (= t9_pc (_ bv1 32)))).def_15765))
(assert (let ((.def_15768 (= m_st (_ bv0 32)))).def_15768))
(assert (let ((.def_44777 (= t4_st (_ bv0 32)))).def_44777))
(assert (let ((.def_44780 (= t3_st (_ bv0 32)))).def_44780))
(assert (let ((.def_44783 (= E_5 (_ bv2 32)))).def_44783))
(assert (let ((.def_44786 (= E_9 (_ bv1 32)))).def_44786))
(assert (let ((.def_44789 (= E_7 (_ bv1 32)))).def_44789))
(assert (let ((.def_44791 (= E_5 (_ bv1 32)))).def_44791))
(assert (let ((.def_44794 (= E_4 (_ bv1 32)))).def_44794))
(assert (let ((.def_44797 (= E_3 (_ bv1 32)))).def_44797))
(assert (let ((.def_44800 (= E_2 (_ bv1 32)))).def_44800))
(assert (let ((.def_44803 (= E_M (_ bv1 32)))).def_44803))
(assert (let ((.def_44806 (= E_8 (_ bv1 32)))).def_44806))
(assert (let ((.def_44809 (= E_6 (_ bv1 32)))).def_44809))
(assert (let ((.def_44812 (= t2_st (_ bv0 32)))).def_44812))
(assert (let ((.def_44815 (= t6_st (_ bv0 32)))).def_44815))
(assert (let ((.def_44818 (= t5_st (_ bv0 32)))).def_44818))
(assert (let ((.def_44821 (= t8_st (_ bv0 32)))).def_44821))
(assert (let ((.def_44824 (= t1_st (_ bv0 32)))).def_44824))
(assert (let ((.def_44827 (= t7_st (_ bv0 32)))).def_44827))
(assert (let ((.def_44830 (= t9_st (_ bv0 32)))).def_44830))
(assert (let ((.def_44833 (= E_1 (_ bv1 32)))).def_44833))
(assert (let ((.def_44836 (bvadd (_ bv9 32) local)))(let ((.def_44838 (= .def_44836 token))).def_44838)))

start_simulation2 N1304:
(assert (let ((.def_7969 (= m_pc (_ bv0 32)))).def_7969))
(assert (let ((.def_630 (= c_last_read p_last_write))).def_630))
(assert (let ((.def_639 (= c_num_read p_num_write))).def_639))
(assert (let ((.def_15721 (= t1_pc (_ bv0 32)))).def_15721))
(assert (let ((.def_15724 (= t2_pc (_ bv0 32)))).def_15724))
(assert (let ((.def_15727 (= t3_pc (_ bv0 32)))).def_15727))
(assert (let ((.def_15730 (= t4_pc (_ bv0 32)))).def_15730))
(assert (let ((.def_15733 (= t5_pc (_ bv0 32)))).def_15733))
(assert (let ((.def_15736 (= t6_pc (_ bv0 32)))).def_15736))
(assert (let ((.def_15739 (= t7_pc (_ bv0 32)))).def_15739))
(assert (let ((.def_15742 (= t8_pc (_ bv0 32)))).def_15742))
(assert (let ((.def_15745 (= t9_pc (_ bv0 32)))).def_15745))
(assert (let ((.def_15747 (= m_pc (_ bv1 32)))).def_15747))
(assert (let ((.def_15749 (= t1_pc (_ bv1 32)))).def_15749))
(assert (let ((.def_15751 (= t2_pc (_ bv1 32)))).def_15751))
(assert (let ((.def_15753 (= t3_pc (_ bv1 32)))).def_15753))
(assert (let ((.def_15755 (= t4_pc (_ bv1 32)))).def_15755))
(assert (let ((.def_15757 (= t5_pc (_ bv1 32)))).def_15757))
(assert (let ((.def_15759 (= t6_pc (_ bv1 32)))).def_15759))
(assert (let ((.def_15761 (= t7_pc (_ bv1 32)))).def_15761))
(assert (let ((.def_15763 (= t8_pc (_ bv1 32)))).def_15763))
(assert (let ((.def_15765 (= t9_pc (_ bv1 32)))).def_15765))
(assert (let ((.def_44777 (= t4_st (_ bv0 32)))).def_44777))
(assert (let ((.def_44780 (= t3_st (_ bv0 32)))).def_44780))
(assert (let ((.def_44783 (= E_5 (_ bv2 32)))).def_44783))
(assert (let ((.def_44786 (= E_9 (_ bv1 32)))).def_44786))
(assert (let ((.def_44789 (= E_7 (_ bv1 32)))).def_44789))
(assert (let ((.def_44791 (= E_5 (_ bv1 32)))).def_44791))
(assert (let ((.def_44794 (= E_4 (_ bv1 32)))).def_44794))
(assert (let ((.def_44797 (= E_3 (_ bv1 32)))).def_44797))
(assert (let ((.def_44800 (= E_2 (_ bv1 32)))).def_44800))
(assert (let ((.def_44803 (= E_M (_ bv1 32)))).def_44803))
(assert (let ((.def_44806 (= E_8 (_ bv1 32)))).def_44806))
(assert (let ((.def_44809 (= E_6 (_ bv1 32)))).def_44809))
(assert (let ((.def_44812 (= t2_st (_ bv0 32)))).def_44812))
(assert (let ((.def_15768 (= m_st (_ bv0 32)))).def_15768))

