(set-info :source |printed by MathSAT|)
(declare-fun c_num_read () (_ BitVec 32))
(declare-fun p_num_write () (_ BitVec 32))
(declare-fun c_last_read () (_ BitVec 32))
(declare-fun p_last_write () (_ BitVec 32))
(declare-fun c_dr_pc () (_ BitVec 32))
(declare-fun q_free () (_ BitVec 32))
(declare-fun q_buf_0 () (_ BitVec 32))
(declare-fun c_dr_st () (_ BitVec 32))
(declare-fun q_req_up () (_ BitVec 32))
(declare-fun q_write_ev () (_ BitVec 32))
(declare-fun q_read_ev () (_ BitVec 32))
(declare-fun p_dw_pc () (_ BitVec 32))
(declare-fun p_dw_st () (_ BitVec 32))
(declare-fun m_pc () (_ BitVec 32))
(declare-fun t1_pc () (_ BitVec 32))
(declare-fun t2_pc () (_ BitVec 32))
(declare-fun t3_pc () (_ BitVec 32))
(declare-fun t4_pc () (_ BitVec 32))
(declare-fun t5_pc () (_ BitVec 32))
(declare-fun t6_pc () (_ BitVec 32))
(declare-fun t7_pc () (_ BitVec 32))
(declare-fun t8_pc () (_ BitVec 32))
(declare-fun t9_pc () (_ BitVec 32))
(declare-fun t10_pc () (_ BitVec 32))
(declare-fun t11_pc () (_ BitVec 32))
(declare-fun t12_pc () (_ BitVec 32))
(declare-fun m_st () (_ BitVec 32))

*:
(assert (let ((.def_664 (= c_num_read p_num_write))).def_664))
(assert (let ((.def_673 (= c_last_read p_last_write))).def_673))

error1 N4:
(assert false)
(assert (let ((.def_664 (= c_num_read p_num_write))).def_664))
(assert (let ((.def_673 (= c_last_read p_last_write))).def_673))

do_write_p N78:
(assert (let ((.def_860 (= c_dr_pc (_ bv0 32)))).def_860))
(assert (let ((.def_664 (= c_num_read p_num_write))).def_664))
(assert (let ((.def_673 (= c_last_read p_last_write))).def_673))
(assert (let ((.def_928 (= q_free (_ bv1 32)))).def_928))
(assert false)
(assert (let ((.def_1112 (= p_last_write q_buf_0))).def_1112))
(assert (let ((.def_1252 (= c_dr_pc (_ bv1 32)))).def_1252))
(assert (let ((.def_1254 (= q_free (_ bv0 32)))).def_1254))
(assert (let ((.def_1258 (bvadd (_ bv1 32) c_num_read)))(let ((.def_1259 (= p_num_write .def_1258))).def_1259)))
(assert (let ((.def_1940 (= c_dr_st (_ bv0 32)))).def_1940))
(assert (let ((.def_4340 (= q_req_up (_ bv1 32)))).def_4340))
(assert (let ((.def_5973 (= q_write_ev (_ bv1 32)))).def_5973))
(assert (let ((.def_5975 (= q_write_ev (_ bv0 32)))).def_5975))
(assert (let ((.def_8310 (= q_read_ev (_ bv1 32)))).def_8310))
(assert (let ((.def_8312 (= q_read_ev (_ bv0 32)))).def_8312))

do_read_c N112:
(assert (let ((.def_928 (= q_free (_ bv1 32)))).def_928))
(assert (let ((.def_664 (= c_num_read p_num_write))).def_664))
(assert (let ((.def_673 (= c_last_read p_last_write))).def_673))
(assert (let ((.def_1112 (= p_last_write q_buf_0))).def_1112))
(assert (let ((.def_1258 (bvadd (_ bv1 32) c_num_read)))(let ((.def_1259 (= p_num_write .def_1258))).def_1259)))
(assert false)
(assert (let ((.def_1254 (= q_free (_ bv0 32)))).def_1254))
(assert (let ((.def_5973 (= q_write_ev (_ bv1 32)))).def_5973))
(assert (let ((.def_5975 (= q_write_ev (_ bv0 32)))).def_5975))
(assert (let ((.def_1256 (= p_dw_pc (_ bv1 32)))).def_1256))
(assert (let ((.def_4340 (= q_req_up (_ bv1 32)))).def_4340))
(assert (let ((.def_2414 (= p_dw_st (_ bv0 32)))).def_2414))
(assert (let ((.def_8310 (= q_read_ev (_ bv1 32)))).def_8310))
(assert (let ((.def_8312 (= q_read_ev (_ bv0 32)))).def_8312))

eval1 N228:
(assert (let ((.def_860 (= c_dr_pc (_ bv0 32)))).def_860))
(assert (let ((.def_664 (= c_num_read p_num_write))).def_664))
(assert (let ((.def_673 (= c_last_read p_last_write))).def_673))
(assert (let ((.def_928 (= q_free (_ bv1 32)))).def_928))
(assert (let ((.def_1070 (= p_dw_pc (_ bv0 32)))).def_1070))
(assert (let ((.def_1252 (= c_dr_pc (_ bv1 32)))).def_1252))
(assert (let ((.def_1254 (= q_free (_ bv0 32)))).def_1254))
(assert (let ((.def_1256 (= p_dw_pc (_ bv1 32)))).def_1256))
(assert (let ((.def_2414 (= p_dw_st (_ bv0 32)))).def_2414))
(assert (let ((.def_1112 (= p_last_write q_buf_0))).def_1112))
(assert (let ((.def_1258 (bvadd (_ bv1 32) c_num_read)))(let ((.def_1259 (= p_num_write .def_1258))).def_1259)))
(assert (let ((.def_1940 (= c_dr_st (_ bv0 32)))).def_1940))
(assert (let ((.def_4340 (= q_req_up (_ bv1 32)))).def_4340))
(assert (let ((.def_5973 (= q_write_ev (_ bv1 32)))).def_5973))
(assert (let ((.def_5975 (= q_write_ev (_ bv0 32)))).def_5975))
(assert (let ((.def_8310 (= q_read_ev (_ bv1 32)))).def_8310))
(assert (let ((.def_8312 (= q_read_ev (_ bv0 32)))).def_8312))

start_simulation1 N283:
(assert (let ((.def_860 (= c_dr_pc (_ bv0 32)))).def_860))
(assert (let ((.def_664 (= c_num_read p_num_write))).def_664))
(assert (let ((.def_673 (= c_last_read p_last_write))).def_673))
(assert (let ((.def_928 (= q_free (_ bv1 32)))).def_928))
(assert (let ((.def_1070 (= p_dw_pc (_ bv0 32)))).def_1070))
(assert (let ((.def_1252 (= c_dr_pc (_ bv1 32)))).def_1252))
(assert (let ((.def_1254 (= q_free (_ bv0 32)))).def_1254))
(assert (let ((.def_1256 (= p_dw_pc (_ bv1 32)))).def_1256))
(assert (let ((.def_1940 (= c_dr_st (_ bv0 32)))).def_1940))
(assert (let ((.def_2414 (= p_dw_st (_ bv0 32)))).def_2414))
(assert (let ((.def_1112 (= p_last_write q_buf_0))).def_1112))
(assert (let ((.def_5973 (= q_write_ev (_ bv1 32)))).def_5973))
(assert (let ((.def_5975 (= q_write_ev (_ bv0 32)))).def_5975))
(assert (let ((.def_8310 (= q_read_ev (_ bv1 32)))).def_8310))
(assert (let ((.def_8312 (= q_read_ev (_ bv0 32)))).def_8312))
(assert (let ((.def_1258 (bvadd (_ bv1 32) c_num_read)))(let ((.def_1259 (= p_num_write .def_1258))).def_1259)))

error2 N328:
(assert false)
(assert (let ((.def_664 (= c_num_read p_num_write))).def_664))
(assert (let ((.def_673 (= c_last_read p_last_write))).def_673))

eval2 N1069:
(assert (let ((.def_11775 (= m_pc (_ bv0 32)))).def_11775))
(assert (let ((.def_664 (= c_num_read p_num_write))).def_664))
(assert (let ((.def_673 (= c_last_read p_last_write))).def_673))
(assert (let ((.def_24364 (= t1_pc (_ bv0 32)))).def_24364))
(assert (let ((.def_24367 (= t2_pc (_ bv0 32)))).def_24367))
(assert (let ((.def_24370 (= t3_pc (_ bv0 32)))).def_24370))
(assert (let ((.def_24373 (= t4_pc (_ bv0 32)))).def_24373))
(assert (let ((.def_24376 (= t5_pc (_ bv0 32)))).def_24376))
(assert (let ((.def_24379 (= t6_pc (_ bv0 32)))).def_24379))
(assert (let ((.def_24382 (= t7_pc (_ bv0 32)))).def_24382))
(assert (let ((.def_24385 (= t8_pc (_ bv0 32)))).def_24385))
(assert (let ((.def_24388 (= t9_pc (_ bv0 32)))).def_24388))
(assert (let ((.def_24391 (= t10_pc (_ bv0 32)))).def_24391))
(assert (let ((.def_24394 (= t11_pc (_ bv0 32)))).def_24394))
(assert (let ((.def_24397 (= t12_pc (_ bv0 32)))).def_24397))
(assert (let ((.def_24399 (= m_pc (_ bv1 32)))).def_24399))
(assert (let ((.def_24401 (= t1_pc (_ bv1 32)))).def_24401))
(assert (let ((.def_24403 (= t2_pc (_ bv1 32)))).def_24403))
(assert (let ((.def_24405 (= t3_pc (_ bv1 32)))).def_24405))
(assert (let ((.def_24407 (= t4_pc (_ bv1 32)))).def_24407))
(assert (let ((.def_24409 (= t5_pc (_ bv1 32)))).def_24409))
(assert (let ((.def_24411 (= t6_pc (_ bv1 32)))).def_24411))
(assert (let ((.def_24413 (= t7_pc (_ bv1 32)))).def_24413))
(assert (let ((.def_24415 (= t8_pc (_ bv1 32)))).def_24415))
(assert (let ((.def_24417 (= t9_pc (_ bv1 32)))).def_24417))
(assert (let ((.def_24419 (= t10_pc (_ bv1 32)))).def_24419))
(assert (let ((.def_24421 (= t11_pc (_ bv1 32)))).def_24421))
(assert (let ((.def_24423 (= t12_pc (_ bv1 32)))).def_24423))
(assert (let ((.def_24426 (= m_st (_ bv0 32)))).def_24426))

start_simulation2 N1670:
(assert (let ((.def_11775 (= m_pc (_ bv0 32)))).def_11775))
(assert (let ((.def_664 (= c_num_read p_num_write))).def_664))
(assert (let ((.def_673 (= c_last_read p_last_write))).def_673))
(assert (let ((.def_24364 (= t1_pc (_ bv0 32)))).def_24364))
(assert (let ((.def_24367 (= t2_pc (_ bv0 32)))).def_24367))
(assert (let ((.def_24370 (= t3_pc (_ bv0 32)))).def_24370))
(assert (let ((.def_24373 (= t4_pc (_ bv0 32)))).def_24373))
(assert (let ((.def_24376 (= t5_pc (_ bv0 32)))).def_24376))
(assert (let ((.def_24379 (= t6_pc (_ bv0 32)))).def_24379))
(assert (let ((.def_24382 (= t7_pc (_ bv0 32)))).def_24382))
(assert (let ((.def_24385 (= t8_pc (_ bv0 32)))).def_24385))
(assert (let ((.def_24388 (= t9_pc (_ bv0 32)))).def_24388))
(assert (let ((.def_24391 (= t10_pc (_ bv0 32)))).def_24391))
(assert (let ((.def_24394 (= t11_pc (_ bv0 32)))).def_24394))
(assert (let ((.def_24397 (= t12_pc (_ bv0 32)))).def_24397))
(assert (let ((.def_24399 (= m_pc (_ bv1 32)))).def_24399))
(assert (let ((.def_24401 (= t1_pc (_ bv1 32)))).def_24401))
(assert (let ((.def_24403 (= t2_pc (_ bv1 32)))).def_24403))
(assert (let ((.def_24405 (= t3_pc (_ bv1 32)))).def_24405))
(assert (let ((.def_24407 (= t4_pc (_ bv1 32)))).def_24407))
(assert (let ((.def_24409 (= t5_pc (_ bv1 32)))).def_24409))
(assert (let ((.def_24411 (= t6_pc (_ bv1 32)))).def_24411))
(assert (let ((.def_24413 (= t7_pc (_ bv1 32)))).def_24413))
(assert (let ((.def_24415 (= t8_pc (_ bv1 32)))).def_24415))
(assert (let ((.def_24417 (= t9_pc (_ bv1 32)))).def_24417))
(assert (let ((.def_24419 (= t10_pc (_ bv1 32)))).def_24419))
(assert (let ((.def_24421 (= t11_pc (_ bv1 32)))).def_24421))
(assert (let ((.def_24423 (= t12_pc (_ bv1 32)))).def_24423))

