(set-info :source |printed by MathSAT|)
(declare-fun |ssl3_connect::blastFlag| () (_ BitVec 32))
(declare-fun |ssl3_connect::s__state| () (_ BitVec 32))
(declare-fun |ssl3_connect::s__s3__tmp__reuse_message| () (_ BitVec 32))
(declare-fun |ssl3_connect::s__hit| () (_ BitVec 32))
(declare-fun |ssl3_connect::s__s3__tmp__next_state___0| () (_ BitVec 32))
(declare-fun |ssl3_connect::skip| () (_ BitVec 32))
(declare-fun |ssl3_connect::s__s3__tmp__new_cipher__algorithms| () (_ BitVec 32))
(declare-fun |ssl3_connect::cb| () (_ BitVec 32))
(declare-fun |ssl3_accept::blastFlag| () (_ BitVec 32))
(declare-fun |ssl3_accept::s__state| () (_ BitVec 32))
(declare-fun |ssl3_accept::s__hit| () (_ BitVec 32))
(declare-fun |ssl3_accept::s__s3__tmp__reuse_message| () (_ BitVec 32))
(declare-fun |ssl3_accept::s__s3__tmp__next_state___0| () (_ BitVec 32))
(declare-fun |ssl3_accept::s__verify_mode| () (_ BitVec 32))
(declare-fun |ssl3_accept::s__s3__tmp__new_cipher__algorithms| () (_ BitVec 32))
(declare-fun |ssl3_accept::s__session__peer| () (_ BitVec 32))
(declare-fun |ssl3_accept::cb| () (_ BitVec 32))

ssl3_connect:
(assert (let ((.def_558 (= |ssl3_connect::blastFlag| (_ bv5 32)))).def_558))

ssl3_connect N85:
(assert (let ((.def_1407 (= |ssl3_connect::s__state| (_ bv12292 32)))).def_1407))
(assert (let ((.def_1409 (= |ssl3_connect::blastFlag| (_ bv0 32)))).def_1409))
(assert (let ((.def_558 (= |ssl3_connect::blastFlag| (_ bv5 32)))).def_558))
(assert (let ((.def_3367 (= |ssl3_connect::s__s3__tmp__reuse_message| (_ bv0 32)))).def_3367))
(assert (let ((.def_3369 (= |ssl3_connect::blastFlag| (_ bv4 32)))).def_3369))
(assert (let ((.def_3371 (= |ssl3_connect::blastFlag| (_ bv3 32)))).def_3371))
(assert (let ((.def_3373 (= |ssl3_connect::s__state| (_ bv4384 32)))).def_3373))
(assert (let ((.def_3375 (= |ssl3_connect::blastFlag| (_ bv1 32)))).def_3375))
(assert (let ((.def_3377 (= |ssl3_connect::s__state| (_ bv4368 32)))).def_3377))
(assert (let ((.def_3379 (= |ssl3_connect::blastFlag| (_ bv2 32)))).def_3379))
(assert (let ((.def_7473 (= |ssl3_connect::s__hit| (_ bv0 32)))).def_7473))
(assert (let ((.def_7476 (= |ssl3_connect::s__state| |ssl3_connect::s__s3__tmp__next_state___0|))).def_7476))
(assert (let ((.def_7478 (= |ssl3_connect::s__s3__tmp__next_state___0| (_ bv4401 32)))).def_7478))
(assert (let ((.def_7480 (= |ssl3_connect::s__state| (_ bv4352 32)))).def_7480))
(assert (let ((.def_7482 (= |ssl3_connect::s__state| (_ bv4560 32)))).def_7482))
(assert (let ((.def_7484 (= |ssl3_connect::s__state| (_ bv4416 32)))).def_7484))
(assert (let ((.def_7486 (= |ssl3_connect::s__state| (_ bv4400 32)))).def_7486))
(assert (let ((.def_7488 (= |ssl3_connect::s__state| (_ bv4432 32)))).def_7488))
(assert (let ((.def_7490 (= |ssl3_connect::s__state| (_ bv4529 32)))).def_7490))
(assert (let ((.def_7492 (= |ssl3_connect::s__state| (_ bv4528 32)))).def_7492))
(assert (let ((.def_7494 (= |ssl3_connect::s__state| (_ bv4401 32)))).def_7494))
(assert (let ((.def_7497 (= |ssl3_connect::skip| (_ bv0 32)))).def_7497))
(assert (let ((.def_7499 (= |ssl3_connect::s__state| (_ bv4417 32)))).def_7499))
(assert (let ((.def_7501 (= |ssl3_connect::s__state| (_ bv4480 32)))).def_7501))
(assert (let ((.def_7503 (= |ssl3_connect::s__state| (_ bv4449 32)))).def_7503))
(assert (let ((.def_7505 (= |ssl3_connect::s__state| (_ bv4448 32)))).def_7505))
(assert (let ((.def_7507 (= |ssl3_connect::s__state| (_ bv4481 32)))).def_7507))
(assert (let ((.def_7509 (= |ssl3_connect::s__s3__tmp__next_state___0| (_ bv4432 32)))).def_7509))
(assert (let ((.def_7512 (= |ssl3_connect::s__s3__tmp__new_cipher__algorithms| (_ bv4294967040 32)))).def_7512))
(assert (let ((.def_7514 (= |ssl3_connect::s__state| (_ bv4433 32)))).def_7514))
(assert (let ((.def_7517 (= |ssl3_connect::cb| (_ bv0 32)))).def_7517))
(assert (let ((.def_7519 (= |ssl3_connect::s__s3__tmp__next_state___0| (_ bv4433 32)))).def_7519))
(assert (let ((.def_17058 (= |ssl3_connect::s__s3__tmp__next_state___0| (_ bv4099 32)))).def_17058))
(assert (let ((.def_17060 (= |ssl3_connect::s__s3__tmp__next_state___0| (_ bv12292 32)))).def_17060))
(assert (let ((.def_17062 (= |ssl3_connect::s__s3__tmp__next_state___0| (_ bv16384 32)))).def_17062))
(assert (let ((.def_17064 (= |ssl3_connect::s__s3__tmp__next_state___0| (_ bv4096 32)))).def_17064))
(assert (let ((.def_17066 (= |ssl3_connect::s__s3__tmp__next_state___0| (_ bv20480 32)))).def_17066))
(assert (let ((.def_17068 (= |ssl3_connect::s__state| (_ bv4096 32)))).def_17068))
(assert (let ((.def_17070 (= |ssl3_connect::s__state| (_ bv4099 32)))).def_17070))
(assert (let ((.def_17072 (= |ssl3_connect::s__state| (_ bv20480 32)))).def_17072))
(assert (let ((.def_17074 (= |ssl3_connect::s__state| (_ bv16384 32)))).def_17074))
(assert (let ((.def_17076 (= |ssl3_connect::s__s3__tmp__next_state___0| (_ bv4368 32)))).def_17076))
(assert (let ((.def_17078 (= |ssl3_connect::s__s3__tmp__next_state___0| (_ bv4369 32)))).def_17078))
(assert (let ((.def_17080 (= |ssl3_connect::s__state| (_ bv4385 32)))).def_17080))
(assert (let ((.def_17082 (= |ssl3_connect::s__state| (_ bv4369 32)))).def_17082))
(assert (let ((.def_17084 (= |ssl3_connect::s__s3__tmp__next_state___0| (_ bv4384 32)))).def_17084))
(assert (let ((.def_17086 (= |ssl3_connect::s__s3__tmp__next_state___0| (_ bv4385 32)))).def_17086))
(assert (let ((.def_17088 (= |ssl3_connect::s__state| (_ bv4496 32)))).def_17088))
(assert (let ((.def_17090 (= |ssl3_connect::s__s3__tmp__next_state___0| (_ bv4400 32)))).def_17090))
(assert (let ((.def_17092 (= |ssl3_connect::s__state| (_ bv4512 32)))).def_17092))
(assert (let ((.def_17094 (= |ssl3_connect::s__s3__tmp__next_state___0| (_ bv4528 32)))).def_17094))
(assert (let ((.def_17096 (= |ssl3_connect::s__s3__tmp__next_state___0| (_ bv4529 32)))).def_17096))
(assert (let ((.def_17098 (= |ssl3_connect::s__s3__tmp__next_state___0| (_ bv3 32)))).def_17098))
(assert (let ((.def_17100 (= |ssl3_connect::s__s3__tmp__next_state___0| (_ bv4560 32)))).def_17100))
(assert (let ((.def_17102 (= |ssl3_connect::s__s3__tmp__next_state___0| (_ bv4416 32)))).def_17102))
(assert (let ((.def_17104 (= |ssl3_connect::s__state| (_ bv4513 32)))).def_17104))
(assert (let ((.def_17106 (= |ssl3_connect::s__state| (_ bv4467 32)))).def_17106))
(assert (let ((.def_17108 (= |ssl3_connect::s__state| (_ bv4466 32)))).def_17108))
(assert (let ((.def_17110 (= |ssl3_connect::s__state| (_ bv4465 32)))).def_17110))
(assert (let ((.def_17112 (= |ssl3_connect::s__state| (_ bv4464 32)))).def_17112))

ssl3_connect N565:
(assert false)
(assert (let ((.def_558 (= |ssl3_connect::blastFlag| (_ bv5 32)))).def_558))

ssl3_accept N688:
(assert (let ((.def_29516 (= |ssl3_accept::blastFlag| (_ bv4 32)))).def_29516))
(assert (let ((.def_30663 (= |ssl3_accept::s__state| (_ bv8464 32)))).def_30663))
(assert (let ((.def_30665 (= |ssl3_accept::blastFlag| (_ bv0 32)))).def_30665))
(assert (let ((.def_32042 (= |ssl3_accept::s__state| (_ bv8481 32)))).def_32042))
(assert (let ((.def_32044 (= |ssl3_accept::s__state| (_ bv8480 32)))).def_32044))
(assert (let ((.def_32046 (= |ssl3_accept::s__state| (_ bv12292 32)))).def_32046))
(assert (let ((.def_32048 (= |ssl3_accept::s__state| (_ bv16384 32)))).def_32048))
(assert (let ((.def_32050 (= |ssl3_accept::s__state| (_ bv8192 32)))).def_32050))
(assert (let ((.def_32052 (= |ssl3_accept::s__state| (_ bv24576 32)))).def_32052))
(assert (let ((.def_32054 (= |ssl3_accept::s__state| (_ bv8195 32)))).def_32054))
(assert (let ((.def_32056 (= |ssl3_accept::s__state| (_ bv8482 32)))).def_32056))
(assert (let ((.def_32058 (= |ssl3_accept::blastFlag| (_ bv1 32)))).def_32058))
(assert (let ((.def_34003 (= |ssl3_accept::blastFlag| (_ bv3 32)))).def_34003))
(assert (let ((.def_34005 (= |ssl3_accept::blastFlag| (_ bv2 32)))).def_34005))
(assert (let ((.def_34007 (= |ssl3_accept::s__state| (_ bv8496 32)))).def_34007))
(assert (let ((.def_36313 (= |ssl3_accept::s__state| (_ bv8465 32)))).def_36313))
(assert (let ((.def_36315 (= |ssl3_accept::s__state| (_ bv8466 32)))).def_36315))
(assert (let ((.def_36318 (= |ssl3_accept::s__hit| (_ bv0 32)))).def_36318))
(assert (let ((.def_36320 (= |ssl3_accept::s__state| (_ bv8512 32)))).def_36320))
(assert (let ((.def_36322 (= |ssl3_accept::s__state| (_ bv8497 32)))).def_36322))
(assert (let ((.def_36324 (= |ssl3_accept::s__state| (_ bv8641 32)))).def_36324))
(assert (let ((.def_36326 (= |ssl3_accept::s__state| (_ bv8448 32)))).def_36326))
(assert (let ((.def_36328 (= |ssl3_accept::s__state| (_ bv8640 32)))).def_36328))
(assert (let ((.def_39452 (= |ssl3_accept::s__s3__tmp__reuse_message| (_ bv0 32)))).def_39452))
(assert (let ((.def_39454 (= |ssl3_accept::s__state| (_ bv8528 32)))).def_39454))
(assert (let ((.def_39456 (= |ssl3_accept::s__state| (_ bv8544 32)))).def_39456))
(assert (let ((.def_39458 (= |ssl3_accept::s__state| (_ bv8560 32)))).def_39458))
(assert (let ((.def_39460 (= |ssl3_accept::s__state| (_ bv8608 32)))).def_39460))
(assert (let ((.def_39462 (= |ssl3_accept::s__state| (_ bv8609 32)))).def_39462))
(assert (let ((.def_39465 (= |ssl3_accept::s__s3__tmp__next_state___0| (_ bv8482 32)))).def_39465))
(assert (let ((.def_39467 (= |ssl3_accept::s__state| (_ bv8657 32)))).def_39467))
(assert (let ((.def_39469 (= |ssl3_accept::s__state| (_ bv8656 32)))).def_39469))
(assert (let ((.def_39471 (= |ssl3_accept::s__state| (_ bv8592 32)))).def_39471))
(assert (let ((.def_39473 (= |ssl3_accept::s__state| |ssl3_accept::s__s3__tmp__next_state___0|))).def_39473))
(assert (let ((.def_39475 (= |ssl3_accept::s__s3__tmp__next_state___0| (_ bv8576 32)))).def_39475))
(assert (let ((.def_39477 (= |ssl3_accept::s__s3__tmp__next_state___0| (_ bv8640 32)))).def_39477))
(assert (let ((.def_39479 (= |ssl3_accept::s__state| (_ bv8576 32)))).def_39479))
(assert (let ((.def_43348 (= |ssl3_accept::s__state| (_ bv8672 32)))).def_43348))
(assert (let ((.def_43350 (= |ssl3_accept::s__state| (_ bv8593 32)))).def_43350))
(assert (let ((.def_43352 (= |ssl3_accept::s__state| (_ bv8577 32)))).def_43352))
(assert (let ((.def_43354 (= |ssl3_accept::s__state| (_ bv8561 32)))).def_43354))
(assert (let ((.def_43356 (= |ssl3_accept::s__state| (_ bv8545 32)))).def_43356))
(assert (let ((.def_43358 (= |ssl3_accept::s__state| (_ bv8529 32)))).def_43358))
(assert (let ((.def_43360 (= |ssl3_accept::s__state| (_ bv8513 32)))).def_43360))
(assert (let ((.def_43362 (= |ssl3_accept::s__s3__tmp__next_state___0| (_ bv8448 32)))).def_43362))
(assert (let ((.def_43364 (= |ssl3_accept::s__state| (_ bv8673 32)))).def_43364))
(assert (let ((.def_72486 (= |ssl3_accept::s__verify_mode| (_ bv4294967295 32)))).def_72486))
(assert (let ((.def_72488 (= |ssl3_accept::s__s3__tmp__next_state___0| (_ bv8561 32)))).def_72488))
(assert (let ((.def_72490 (= |ssl3_accept::s__s3__tmp__next_state___0| (_ bv8560 32)))).def_72490))
(assert (let ((.def_72492 (= |ssl3_accept::s__s3__tmp__next_state___0| (_ bv8528 32)))).def_72492))
(assert (let ((.def_72494 (= |ssl3_accept::s__s3__tmp__next_state___0| (_ bv8464 32)))).def_72494))
(assert (let ((.def_72496 (= |ssl3_accept::s__s3__tmp__next_state___0| (_ bv8465 32)))).def_72496))
(assert (let ((.def_72498 (= |ssl3_accept::s__s3__tmp__next_state___0| (_ bv8466 32)))).def_72498))
(assert (let ((.def_72500 (= |ssl3_accept::s__s3__tmp__next_state___0| (_ bv8544 32)))).def_72500))
(assert (let ((.def_72502 (= |ssl3_accept::s__s3__tmp__next_state___0| (_ bv8545 32)))).def_72502))
(assert (let ((.def_72504 (= |ssl3_accept::s__s3__tmp__next_state___0| (_ bv8577 32)))).def_72504))
(assert (let ((.def_72506 (= |ssl3_accept::s__s3__tmp__next_state___0| (_ bv8592 32)))).def_72506))
(assert (let ((.def_72508 (= |ssl3_accept::s__s3__tmp__next_state___0| (_ bv8608 32)))).def_72508))
(assert (let ((.def_72510 (= |ssl3_accept::s__s3__tmp__next_state___0| (_ bv8609 32)))).def_72510))
(assert (let ((.def_72512 (= |ssl3_accept::s__s3__tmp__next_state___0| (_ bv8593 32)))).def_72512))
(assert (let ((.def_72514 (= |ssl3_accept::s__s3__tmp__next_state___0| (_ bv8656 32)))).def_72514))
(assert (let ((.def_72516 (= |ssl3_accept::s__s3__tmp__next_state___0| (_ bv8512 32)))).def_72516))
(assert (let ((.def_72518 (= |ssl3_accept::s__s3__tmp__next_state___0| (_ bv8496 32)))).def_72518))
(assert (let ((.def_72520 (= |ssl3_accept::s__s3__tmp__next_state___0| (_ bv12292 32)))).def_72520))
(assert (let ((.def_72522 (= |ssl3_accept::s__s3__tmp__next_state___0| (_ bv16384 32)))).def_72522))
(assert (let ((.def_72524 (= |ssl3_accept::s__s3__tmp__next_state___0| (_ bv8192 32)))).def_72524))
(assert (let ((.def_72526 (= |ssl3_accept::s__s3__tmp__next_state___0| (_ bv24576 32)))).def_72526))
(assert (let ((.def_72528 (= |ssl3_accept::s__s3__tmp__next_state___0| (_ bv8195 32)))).def_72528))
(assert (let ((.def_72530 (= |ssl3_accept::s__s3__tmp__next_state___0| (_ bv8480 32)))).def_72530))
(assert (let ((.def_72532 (= |ssl3_accept::s__s3__tmp__next_state___0| (_ bv8481 32)))).def_72532))
(assert (let ((.def_72535 (= |ssl3_accept::s__s3__tmp__new_cipher__algorithms| (_ bv4294967040 32)))).def_72535))
(assert (let ((.def_72537 (= |ssl3_accept::s__verify_mode| (_ bv4294967294 32)))).def_72537))
(assert (let ((.def_72540 (= |ssl3_accept::s__session__peer| (_ bv0 32)))).def_72540))
(assert (let ((.def_72542 (= |ssl3_accept::s__verify_mode| (_ bv4294967292 32)))).def_72542))
(assert (let ((.def_72544 (= |ssl3_accept::s__s3__tmp__next_state___0| (_ bv8497 32)))).def_72544))
(assert (let ((.def_72546 (= |ssl3_accept::s__s3__tmp__next_state___0| (_ bv8529 32)))).def_72546))
(assert (let ((.def_72548 (= |ssl3_accept::s__s3__tmp__next_state___0| (_ bv8513 32)))).def_72548))
(assert (let ((.def_72550 (= |ssl3_accept::s__s3__tmp__next_state___0| (_ bv3 32)))).def_72550))
(assert (let ((.def_72552 (= |ssl3_accept::s__s3__tmp__next_state___0| (_ bv8672 32)))).def_72552))
(assert (let ((.def_72554 (= |ssl3_accept::s__s3__tmp__next_state___0| (_ bv8657 32)))).def_72554))
(assert (let ((.def_72556 (= |ssl3_accept::s__s3__tmp__next_state___0| (_ bv8641 32)))).def_72556))
(assert (let ((.def_72559 (= |ssl3_accept::cb| (_ bv0 32)))).def_72559))

ssl3_accept N1208:
(assert false)

