(set-info :source |printed by MathSAT|)
(declare-fun |assert::arg| () (_ BitVec 8))
(declare-fun st1 () (_ BitVec 8))
(declare-fun st2 () (_ BitVec 8))
(declare-fun st3 () (_ BitVec 8))
(declare-fun st4 () (_ BitVec 8))
(declare-fun st5 () (_ BitVec 8))
(declare-fun st6 () (_ BitVec 8))
(declare-fun r1 () (_ BitVec 8))
(declare-fun p4_new () (_ BitVec 8))
(declare-fun nomsg () (_ BitVec 8))
(declare-fun p3_new () (_ BitVec 8))
(declare-fun p2_new () (_ BitVec 8))
(declare-fun p5_new () (_ BitVec 8))
(declare-fun mode1 () (_ BitVec 8))
(declare-fun mode2 () (_ BitVec 8))
(declare-fun mode3 () (_ BitVec 8))
(declare-fun mode4 () (_ BitVec 8))
(declare-fun mode5 () (_ BitVec 8))
(declare-fun mode6 () (_ BitVec 8))
(declare-fun id6 () (_ BitVec 8))
(declare-fun send5 () (_ BitVec 8))
(declare-fun send6 () (_ BitVec 8))
(declare-fun id1 () (_ BitVec 8))
(declare-fun id2 () (_ BitVec 8))
(declare-fun send1 () (_ BitVec 8))
(declare-fun id3 () (_ BitVec 8))
(declare-fun send2 () (_ BitVec 8))
(declare-fun id4 () (_ BitVec 8))
(declare-fun send3 () (_ BitVec 8))
(declare-fun id5 () (_ BitVec 8))
(declare-fun send4 () (_ BitVec 8))
(declare-fun p6_new () (_ BitVec 8))
(declare-fun p1_new () (_ BitVec 8))
(declare-fun p6_old () (_ BitVec 8))
(declare-fun p5_old () (_ BitVec 8))
(declare-fun p1_old () (_ BitVec 8))
(declare-fun p2_old () (_ BitVec 8))
(declare-fun p3_old () (_ BitVec 8))
(declare-fun p4_old () (_ BitVec 8))
(declare-fun |node5::__CPAchecker_TMP_0| () (_ BitVec 32))
(declare-fun |node4::__CPAchecker_TMP_0| () (_ BitVec 32))
(declare-fun |node2::__CPAchecker_TMP_0| () (_ BitVec 32))
(declare-fun |node3::__CPAchecker_TMP_0| () (_ BitVec 32))
(declare-fun |node1::__CPAchecker_TMP_0| () (_ BitVec 32))

assert:
(assert (let ((.def_2606 (= |assert::arg| (_ bv0 8)))).def_2606))

main1 N410:
(assert (let ((.def_2928 (= st1 (_ bv0 8)))).def_2928))
(assert (let ((.def_2931 (= st2 (_ bv0 8)))).def_2931))
(assert (let ((.def_2934 (= st3 (_ bv0 8)))).def_2934))
(assert (let ((.def_2937 (= st4 (_ bv0 8)))).def_2937))
(assert (let ((.def_2940 (= st5 (_ bv0 8)))).def_2940))
(assert (let ((.def_2943 (= st6 (_ bv0 8)))).def_2943))
(assert (let ((.def_2946 (= r1 (_ bv0 8)))).def_2946))
(assert (let ((.def_2950 (= p4_new nomsg))).def_2950))
(assert (let ((.def_2953 (= nomsg p3_new))).def_2953))
(assert (let ((.def_2956 (= nomsg p2_new))).def_2956))
(assert (let ((.def_2959 (= nomsg p5_new))).def_2959))
(assert (let ((.def_2962 (= mode1 (_ bv0 8)))).def_2962))
(assert (let ((.def_2965 (= mode2 (_ bv0 8)))).def_2965))
(assert (let ((.def_2968 (= mode3 (_ bv0 8)))).def_2968))
(assert (let ((.def_2971 (= mode4 (_ bv0 8)))).def_2971))
(assert (let ((.def_2974 (= mode5 (_ bv0 8)))).def_2974))
(assert (let ((.def_2977 (= mode6 (_ bv0 8)))).def_2977))
(assert (let ((.def_5190 (= st1 st6))).def_5190))
(assert (let ((.def_5192 (= st2 st6))).def_5192))
(assert (let ((.def_5194 (= st3 st6))).def_5194))
(assert (let ((.def_5196 (= st4 st6))).def_5196))
(assert (let ((.def_5198 (= st5 st6))).def_5198))
(assert (let ((.def_5202 (= id6 send5))).def_5202))
(assert (let ((.def_5205 ((_ sign_extend 24) send5)))(let ((.def_5204 ((_ sign_extend 24) id6)))(let ((.def_5206 (= .def_5204 .def_5205))).def_5206))))
(assert (let ((.def_5211 ((_ sign_extend 24) id1)))(let ((.def_5209 ((_ sign_extend 24) send6)))(let ((.def_5212 (= .def_5209 .def_5211))).def_5212))))
(assert (let ((.def_5217 ((_ sign_extend 24) send1)))(let ((.def_5215 ((_ sign_extend 24) id2)))(let ((.def_5218 (= .def_5215 .def_5217))).def_5218))))
(assert (let ((.def_5222 (= id3 send2))).def_5222))
(assert (let ((.def_5225 ((_ sign_extend 24) send2)))(let ((.def_5224 ((_ sign_extend 24) id3)))(let ((.def_5226 (= .def_5224 .def_5225))).def_5226))))
(assert (let ((.def_5231 ((_ sign_extend 24) send3)))(let ((.def_5229 ((_ sign_extend 24) id4)))(let ((.def_5232 (= .def_5229 .def_5231))).def_5232))))
(assert (let ((.def_5237 ((_ sign_extend 24) send4)))(let ((.def_5235 ((_ sign_extend 24) id5)))(let ((.def_5238 (= .def_5235 .def_5237))).def_5238))))
(assert (let ((.def_5240 ((_ sign_extend 24) nomsg)))(let ((.def_5231 ((_ sign_extend 24) send3)))(let ((.def_5241 (= .def_5231 .def_5240))).def_5241))))
(assert (let ((.def_5240 ((_ sign_extend 24) nomsg)))(let ((.def_5237 ((_ sign_extend 24) send4)))(let ((.def_5243 (= .def_5237 .def_5240))).def_5243))))
(assert (let ((.def_5240 ((_ sign_extend 24) nomsg)))(let ((.def_5205 ((_ sign_extend 24) send5)))(let ((.def_5245 (= .def_5205 .def_5240))).def_5245))))
(assert (let ((.def_5248 (= nomsg p6_new))).def_5248))
(assert (let ((.def_5251 (= nomsg p1_new))).def_5251))
(assert (let ((.def_5254 ((_ sign_extend 24) p6_old)))(let ((.def_5211 ((_ sign_extend 24) id1)))(let ((.def_5255 (= .def_5211 .def_5254))).def_5255))))
(assert (let ((.def_5258 ((_ sign_extend 24) p5_old)))(let ((.def_5204 ((_ sign_extend 24) id6)))(let ((.def_5259 (= .def_5204 .def_5258))).def_5259))))
(assert (let ((.def_5267 ((_ sign_extend 24) st1)))(let ((.def_5266 ((_ sign_extend 24) st2)))(let ((.def_5269 (bvadd .def_5266 .def_5267)))(let ((.def_5265 ((_ sign_extend 24) st3)))(let ((.def_5271 (bvadd .def_5265 .def_5269)))(let ((.def_5264 ((_ sign_extend 24) st4)))(let ((.def_5273 (bvadd .def_5264 .def_5271)))(let ((.def_5263 ((_ sign_extend 24) st5)))(let ((.def_5275 (bvadd .def_5263 .def_5273)))(let ((.def_5261 ((_ sign_extend 24) st6)))(let ((.def_5262 (bvneg .def_5261)))(let ((.def_5276 (= .def_5262 .def_5275))).def_5276)))))))))))))
(assert (let ((.def_5279 ((_ sign_extend 24) p1_old)))(let ((.def_5215 ((_ sign_extend 24) id2)))(let ((.def_5280 (= .def_5215 .def_5279))).def_5280))))
(assert (let ((.def_5283 ((_ sign_extend 24) p2_old)))(let ((.def_5224 ((_ sign_extend 24) id3)))(let ((.def_5284 (= .def_5224 .def_5283))).def_5284))))
(assert (let ((.def_5287 ((_ sign_extend 24) p3_old)))(let ((.def_5229 ((_ sign_extend 24) id4)))(let ((.def_5288 (= .def_5229 .def_5287))).def_5288))))
(assert (let ((.def_5291 ((_ sign_extend 24) p4_old)))(let ((.def_5235 ((_ sign_extend 24) id5)))(let ((.def_5292 (= .def_5235 .def_5291))).def_5292))))
(assert (let ((.def_5267 ((_ sign_extend 24) st1)))(let ((.def_5263 ((_ sign_extend 24) st5)))(let ((.def_11573 (= .def_5263 .def_5267))).def_11573))))
(assert (let ((.def_5267 ((_ sign_extend 24) st1)))(let ((.def_5264 ((_ sign_extend 24) st4)))(let ((.def_11575 (= .def_5264 .def_5267))).def_11575))))
(assert (let ((.def_5266 ((_ sign_extend 24) st2)))(let ((.def_5265 ((_ sign_extend 24) st3)))(let ((.def_11577 (= .def_5265 .def_5266))).def_11577))))
(assert (let ((.def_11579 (= st4 (_ bv1 8)))).def_11579))
(assert (let ((.def_11581 (= st5 (_ bv1 8)))).def_11581))
(assert (let ((.def_11583 (= st1 (_ bv1 8)))).def_11583))
(assert (let ((.def_5265 ((_ sign_extend 24) st3)))(let ((.def_5264 ((_ sign_extend 24) st4)))(let ((.def_11585 (= .def_5264 .def_5265))).def_11585))))
(assert (let ((.def_5266 ((_ sign_extend 24) st2)))(let ((.def_5264 ((_ sign_extend 24) st4)))(let ((.def_11587 (= .def_5264 .def_5266))).def_11587))))
(assert (let ((.def_5265 ((_ sign_extend 24) st3)))(let ((.def_5263 ((_ sign_extend 24) st5)))(let ((.def_11589 (= .def_5263 .def_5265))).def_11589))))
(assert (let ((.def_5267 ((_ sign_extend 24) st1)))(let ((.def_5265 ((_ sign_extend 24) st3)))(let ((.def_11591 (= .def_5265 .def_5267))).def_11591))))
(assert (let ((.def_11593 (= st3 (_ bv1 8)))).def_11593))
(assert (let ((.def_5267 ((_ sign_extend 24) st1)))(let ((.def_5266 ((_ sign_extend 24) st2)))(let ((.def_11595 (= .def_5266 .def_5267))).def_11595))))
(assert (let ((.def_11597 (= st2 (_ bv1 8)))).def_11597))
(assert (let ((.def_5266 ((_ sign_extend 24) st2)))(let ((.def_5263 ((_ sign_extend 24) st5)))(let ((.def_11599 (= .def_5263 .def_5266))).def_11599))))
(assert (let ((.def_5264 ((_ sign_extend 24) st4)))(let ((.def_5263 ((_ sign_extend 24) st5)))(let ((.def_11601 (= .def_5263 .def_5264))).def_11601))))
(assert (let ((.def_11603 ((_ sign_extend 24) r1)))(let ((.def_11604 (bvslt .def_11603 (_ bv6 32)))).def_11604)))
(assert (let ((.def_5209 ((_ sign_extend 24) send6)))(let ((.def_5211 ((_ sign_extend 24) id1)))(let ((.def_20720 (bvslt .def_5211 .def_5209))).def_20720))))
(assert (let ((.def_5205 ((_ sign_extend 24) send5)))(let ((.def_5204 ((_ sign_extend 24) id6)))(let ((.def_20722 (bvslt .def_5204 .def_5205))).def_20722))))
(assert (let ((.def_5237 ((_ sign_extend 24) send4)))(let ((.def_5204 ((_ sign_extend 24) id6)))(let ((.def_20724 (= .def_5204 .def_5237))).def_20724))))
(assert (let ((.def_5235 ((_ sign_extend 24) id5)))(let ((.def_5205 ((_ sign_extend 24) send5)))(let ((.def_20726 (= .def_5205 .def_5235))).def_20726))))
(assert (let ((.def_5215 ((_ sign_extend 24) id2)))(let ((.def_5209 ((_ sign_extend 24) send6)))(let ((.def_20728 (= .def_5209 .def_5215))).def_20728))))
(assert (let ((.def_5237 ((_ sign_extend 24) send4)))(let ((.def_5235 ((_ sign_extend 24) id5)))(let ((.def_20730 (bvslt .def_5235 .def_5237))).def_20730))))
(assert (let ((.def_5235 ((_ sign_extend 24) id5)))(let ((.def_5231 ((_ sign_extend 24) send3)))(let ((.def_20732 (= .def_5231 .def_5235))).def_20732))))
(assert (let ((.def_5211 ((_ sign_extend 24) id1)))(let ((.def_5205 ((_ sign_extend 24) send5)))(let ((.def_20734 (= .def_5205 .def_5211))).def_20734))))
(assert (let ((.def_20736 (= nomsg send5))).def_20736))
(assert (let ((.def_5225 ((_ sign_extend 24) send2)))(let ((.def_5224 ((_ sign_extend 24) id3)))(let ((.def_20738 (bvslt .def_5224 .def_5225))).def_20738))))
(assert (let ((.def_5224 ((_ sign_extend 24) id3)))(let ((.def_5217 ((_ sign_extend 24) send1)))(let ((.def_20740 (= .def_5217 .def_5224))).def_20740))))
(assert (let ((.def_5231 ((_ sign_extend 24) send3)))(let ((.def_5229 ((_ sign_extend 24) id4)))(let ((.def_20742 (bvslt .def_5229 .def_5231))).def_20742))))
(assert (let ((.def_5229 ((_ sign_extend 24) id4)))(let ((.def_5225 ((_ sign_extend 24) send2)))(let ((.def_20744 (= .def_5225 .def_5229))).def_20744))))
(assert (let ((.def_20746 (= nomsg (_ bv255 8)))).def_20746))
(assert (let ((.def_5217 ((_ sign_extend 24) send1)))(let ((.def_5211 ((_ sign_extend 24) id1)))(let ((.def_20748 (= .def_5211 .def_5217))).def_20748))))
(assert (let ((.def_5217 ((_ sign_extend 24) send1)))(let ((.def_5215 ((_ sign_extend 24) id2)))(let ((.def_20750 (bvslt .def_5215 .def_5217))).def_20750))))
(assert (let ((.def_20752 (= nomsg send1))).def_20752))
(assert (let ((.def_5240 ((_ sign_extend 24) nomsg)))(let ((.def_5217 ((_ sign_extend 24) send1)))(let ((.def_20754 (= .def_5217 .def_5240))).def_20754))))
(assert (let ((.def_5240 ((_ sign_extend 24) nomsg)))(let ((.def_5209 ((_ sign_extend 24) send6)))(let ((.def_20756 (= .def_5209 .def_5240))).def_20756))))
(assert (let ((.def_5225 ((_ sign_extend 24) send2)))(let ((.def_5215 ((_ sign_extend 24) id2)))(let ((.def_20758 (= .def_5215 .def_5225))).def_20758))))
(assert (let ((.def_5240 ((_ sign_extend 24) nomsg)))(let ((.def_5225 ((_ sign_extend 24) send2)))(let ((.def_20760 (= .def_5225 .def_5240))).def_20760))))
(assert (let ((.def_5254 ((_ sign_extend 24) p6_old)))(let ((.def_5215 ((_ sign_extend 24) id2)))(let ((.def_20762 (= .def_5215 .def_5254))).def_20762))))
(assert (let ((.def_5205 ((_ sign_extend 24) send5)))(let ((.def_20765 (= .def_5205 |node5::__CPAchecker_TMP_0|))).def_20765)))
(assert (let ((.def_20767 ((_ extract 7 0) |node5::__CPAchecker_TMP_0|)))(let ((.def_20768 (= p5_old .def_20767))).def_20768)))
(assert (let ((.def_5291 ((_ sign_extend 24) p4_old)))(let ((.def_5204 ((_ sign_extend 24) id6)))(let ((.def_20770 (= .def_5204 .def_5291))).def_20770))))
(assert (let ((.def_5258 ((_ sign_extend 24) p5_old)))(let ((.def_5204 ((_ sign_extend 24) id6)))(let ((.def_20772 (bvslt .def_5204 .def_5258))).def_20772))))
(assert (let ((.def_5287 ((_ sign_extend 24) p3_old)))(let ((.def_5235 ((_ sign_extend 24) id5)))(let ((.def_20774 (= .def_5235 .def_5287))).def_20774))))
(assert (let ((.def_5291 ((_ sign_extend 24) p4_old)))(let ((.def_5235 ((_ sign_extend 24) id5)))(let ((.def_20776 (bvslt .def_5235 .def_5291))).def_20776))))
(assert (let ((.def_5237 ((_ sign_extend 24) send4)))(let ((.def_20779 (= .def_5237 |node4::__CPAchecker_TMP_0|))).def_20779)))
(assert (let ((.def_20781 ((_ extract 7 0) |node4::__CPAchecker_TMP_0|)))(let ((.def_20782 (= p4_old .def_20781))).def_20782)))
(assert (let ((.def_5240 ((_ sign_extend 24) nomsg)))(let ((.def_5235 ((_ sign_extend 24) id5)))(let ((.def_20784 (= .def_5235 .def_5240))).def_20784))))
(assert (let ((.def_20786 (= send6 p6_old))).def_20786))
(assert (let ((.def_5254 ((_ sign_extend 24) p6_old)))(let ((.def_5211 ((_ sign_extend 24) id1)))(let ((.def_20788 (bvslt .def_5211 .def_5254))).def_20788))))
(assert (let ((.def_20790 (= id1 p5_old))).def_20790))
(assert (let ((.def_5258 ((_ sign_extend 24) p5_old)))(let ((.def_5211 ((_ sign_extend 24) id1)))(let ((.def_20792 (= .def_5211 .def_5258))).def_20792))))
(assert (let ((.def_5258 ((_ sign_extend 24) p5_old)))(let ((.def_5240 ((_ sign_extend 24) nomsg)))(let ((.def_20794 (= .def_5240 .def_5258))).def_20794))))
(assert (let ((.def_5283 ((_ sign_extend 24) p2_old)))(let ((.def_5224 ((_ sign_extend 24) id3)))(let ((.def_20796 (bvslt .def_5224 .def_5283))).def_20796))))
(assert (let ((.def_5225 ((_ sign_extend 24) send2)))(let ((.def_20799 (= .def_5225 |node2::__CPAchecker_TMP_0|))).def_20799)))
(assert (let ((.def_20801 ((_ extract 7 0) |node2::__CPAchecker_TMP_0|)))(let ((.def_20802 (= p2_old .def_20801))).def_20802)))
(assert (let ((.def_5279 ((_ sign_extend 24) p1_old)))(let ((.def_5224 ((_ sign_extend 24) id3)))(let ((.def_20804 (= .def_5224 .def_5279))).def_20804))))
(assert (let ((.def_5287 ((_ sign_extend 24) p3_old)))(let ((.def_5229 ((_ sign_extend 24) id4)))(let ((.def_20806 (bvslt .def_5229 .def_5287))).def_20806))))
(assert (let ((.def_5283 ((_ sign_extend 24) p2_old)))(let ((.def_5229 ((_ sign_extend 24) id4)))(let ((.def_20808 (= .def_5229 .def_5283))).def_20808))))
(assert (let ((.def_5231 ((_ sign_extend 24) send3)))(let ((.def_20811 (= .def_5231 |node3::__CPAchecker_TMP_0|))).def_20811)))
(assert (let ((.def_20813 ((_ extract 7 0) |node3::__CPAchecker_TMP_0|)))(let ((.def_20814 (= p3_old .def_20813))).def_20814)))
(assert (let ((.def_5211 ((_ sign_extend 24) id1)))(let ((.def_20817 (= .def_5211 |node1::__CPAchecker_TMP_0|))).def_20817)))
(assert (let ((.def_20819 ((_ extract 7 0) |node1::__CPAchecker_TMP_0|)))(let ((.def_20820 (= p1_old .def_20819))).def_20820)))
(assert (let ((.def_5279 ((_ sign_extend 24) p1_old)))(let ((.def_5215 ((_ sign_extend 24) id2)))(let ((.def_20822 (bvslt .def_5215 .def_5279))).def_20822))))
(assert (let ((.def_5240 ((_ sign_extend 24) nomsg)))(let ((.def_5215 ((_ sign_extend 24) id2)))(let ((.def_20824 (= .def_5215 .def_5240))).def_20824))))
(assert (let ((.def_5217 ((_ sign_extend 24) send1)))(let ((.def_20826 (= .def_5217 |node1::__CPAchecker_TMP_0|))).def_20826)))
(assert (let ((.def_5279 ((_ sign_extend 24) p1_old)))(let ((.def_5240 ((_ sign_extend 24) nomsg)))(let ((.def_20828 (= .def_5240 .def_5279))).def_20828))))
(assert (let ((.def_5254 ((_ sign_extend 24) p6_old)))(let ((.def_5240 ((_ sign_extend 24) nomsg)))(let ((.def_20830 (= .def_5240 .def_5254))).def_20830))))
(assert (let ((.def_20832 (= st6 (_ bv1 8)))).def_20832))
(assert (let ((.def_5240 ((_ sign_extend 24) nomsg)))(let ((.def_5229 ((_ sign_extend 24) id4)))(let ((.def_20834 (= .def_5229 .def_5240))).def_20834))))
(assert (let ((.def_20836 (= id4 send3))).def_20836))
(assert (let ((.def_5267 ((_ sign_extend 24) st1)))(let ((.def_5266 ((_ sign_extend 24) st2)))(let ((.def_5269 (bvadd .def_5266 .def_5267)))(let ((.def_5264 ((_ sign_extend 24) st4)))(let ((.def_20839 (bvadd .def_5264 .def_5269)))(let ((.def_20841 (bvadd .def_5264 .def_20839)))(let ((.def_5263 ((_ sign_extend 24) st5)))(let ((.def_20842 (bvadd .def_5263 .def_20841)))(let ((.def_5261 ((_ sign_extend 24) st6)))(let ((.def_5262 (bvneg .def_5261)))(let ((.def_20843 (= .def_5262 .def_20842))).def_20843))))))))))))
(assert (let ((.def_20845 (= st1 st4))).def_20845))
(assert (let ((.def_20847 (= send6 send1))).def_20847))
(assert (let ((.def_20849 (= r1 (_ bv1 8)))).def_20849))
(assert (let ((.def_5267 ((_ sign_extend 24) st1)))(let ((.def_5265 ((_ sign_extend 24) st3)))(let ((.def_20852 (bvadd .def_5265 .def_5267)))(let ((.def_5264 ((_ sign_extend 24) st4)))(let ((.def_20853 (bvadd .def_5264 .def_20852)))(let ((.def_5263 ((_ sign_extend 24) st5)))(let ((.def_20854 (bvadd .def_5263 .def_20853)))(let ((.def_5261 ((_ sign_extend 24) st6)))(let ((.def_5262 (bvneg .def_5261)))(let ((.def_20855 (= .def_5262 .def_20854))).def_20855)))))))))))
(assert (let ((.def_20857 (= st6 (_ bv255 8)))).def_20857))
(assert (let ((.def_5261 ((_ sign_extend 24) st6)))(let ((.def_20859 (= .def_5261 (_ bv4294967294 32)))).def_20859)))
(assert (let ((.def_5261 ((_ sign_extend 24) st6)))(let ((.def_20861 (= .def_5261 (_ bv4294967293 32)))).def_20861)))
(assert (let ((.def_5283 ((_ sign_extend 24) p2_old)))(let ((.def_5240 ((_ sign_extend 24) nomsg)))(let ((.def_20863 (= .def_5240 .def_5283))).def_20863))))
(assert (let ((.def_5240 ((_ sign_extend 24) nomsg)))(let ((.def_5224 ((_ sign_extend 24) id3)))(let ((.def_20865 (= .def_5224 .def_5240))).def_20865))))
(assert (let ((.def_5267 ((_ sign_extend 24) st1)))(let ((.def_5266 ((_ sign_extend 24) st2)))(let ((.def_5269 (bvadd .def_5266 .def_5267)))(let ((.def_5264 ((_ sign_extend 24) st4)))(let ((.def_20839 (bvadd .def_5264 .def_5269)))(let ((.def_5263 ((_ sign_extend 24) st5)))(let ((.def_20867 (bvadd .def_5263 .def_20839)))(let ((.def_20868 (bvadd (_ bv1 32) .def_20867)))(let ((.def_5261 ((_ sign_extend 24) st6)))(let ((.def_5262 (bvneg .def_5261)))(let ((.def_20869 (= .def_5262 .def_20868))).def_20869))))))))))))

assert N443:
(assert false)
(assert (let ((.def_2606 (= |assert::arg| (_ bv0 8)))).def_2606))

