(set-info :source |printed by MathSAT|)
(declare-fun |assert::arg| () (_ BitVec 8))
(declare-fun st1 () (_ BitVec 8))
(declare-fun st2 () (_ BitVec 8))
(declare-fun st3 () (_ BitVec 8))
(declare-fun st4 () (_ BitVec 8))
(declare-fun st5 () (_ BitVec 8))
(declare-fun st6 () (_ BitVec 8))
(declare-fun st7 () (_ BitVec 8))
(declare-fun st8 () (_ BitVec 8))
(declare-fun r1 () (_ BitVec 8))
(declare-fun p6_new () (_ BitVec 8))
(declare-fun nomsg () (_ BitVec 8))
(declare-fun p5_new () (_ BitVec 8))
(declare-fun p4_new () (_ BitVec 8))
(declare-fun p3_new () (_ BitVec 8))
(declare-fun p2_new () (_ BitVec 8))
(declare-fun p7_new () (_ BitVec 8))
(declare-fun mode1 () (_ BitVec 8))
(declare-fun mode2 () (_ BitVec 8))
(declare-fun mode3 () (_ BitVec 8))
(declare-fun mode4 () (_ BitVec 8))
(declare-fun mode5 () (_ BitVec 8))
(declare-fun mode6 () (_ BitVec 8))
(declare-fun mode7 () (_ BitVec 8))
(declare-fun mode8 () (_ BitVec 8))
(declare-fun send8 () (_ BitVec 8))
(declare-fun id1 () (_ BitVec 8))
(declare-fun id2 () (_ BitVec 8))
(declare-fun send1 () (_ BitVec 8))
(declare-fun id3 () (_ BitVec 8))
(declare-fun send2 () (_ BitVec 8))
(declare-fun p8_new () (_ BitVec 8))
(declare-fun id4 () (_ BitVec 8))
(declare-fun send3 () (_ BitVec 8))
(declare-fun id6 () (_ BitVec 8))
(declare-fun send5 () (_ BitVec 8))
(declare-fun id5 () (_ BitVec 8))
(declare-fun send4 () (_ BitVec 8))
(declare-fun id7 () (_ BitVec 8))
(declare-fun send6 () (_ BitVec 8))
(declare-fun id8 () (_ BitVec 8))
(declare-fun send7 () (_ BitVec 8))
(declare-fun p1_new () (_ BitVec 8))
(declare-fun p3_old () (_ BitVec 8))
(declare-fun p8_old () (_ BitVec 8))
(declare-fun p1_old () (_ BitVec 8))
(declare-fun p2_old () (_ BitVec 8))
(declare-fun p5_old () (_ BitVec 8))
(declare-fun p4_old () (_ BitVec 8))
(declare-fun p6_old () (_ BitVec 8))
(declare-fun p7_old () (_ BitVec 8))
(declare-fun |node1::__CPAchecker_TMP_0| () (_ BitVec 32))
(declare-fun |node8::__CPAchecker_TMP_0| () (_ BitVec 32))
(declare-fun |node4::__CPAchecker_TMP_0| () (_ BitVec 32))
(declare-fun |node7::__CPAchecker_TMP_0| () (_ BitVec 32))
(declare-fun |node5::__CPAchecker_TMP_0| () (_ BitVec 32))
(declare-fun |node3::__CPAchecker_TMP_0| () (_ BitVec 32))
(declare-fun |node6::__CPAchecker_TMP_0| () (_ BitVec 32))
(declare-fun |node2::__CPAchecker_TMP_0| () (_ BitVec 32))

assert:
(assert (let ((.def_3546 (= |assert::arg| (_ bv0 8)))).def_3546))

main1 N565:
(assert (let ((.def_3988 (= st1 (_ bv0 8)))).def_3988))
(assert (let ((.def_3991 (= st2 (_ bv0 8)))).def_3991))
(assert (let ((.def_3994 (= st3 (_ bv0 8)))).def_3994))
(assert (let ((.def_3997 (= st4 (_ bv0 8)))).def_3997))
(assert (let ((.def_4000 (= st5 (_ bv0 8)))).def_4000))
(assert (let ((.def_4003 (= st6 (_ bv0 8)))).def_4003))
(assert (let ((.def_4006 (= st7 (_ bv0 8)))).def_4006))
(assert (let ((.def_4009 (= st8 (_ bv0 8)))).def_4009))
(assert (let ((.def_4012 (= r1 (_ bv0 8)))).def_4012))
(assert (let ((.def_4016 (= p6_new nomsg))).def_4016))
(assert (let ((.def_4019 (= nomsg p5_new))).def_4019))
(assert (let ((.def_4022 (= nomsg p4_new))).def_4022))
(assert (let ((.def_4025 (= nomsg p3_new))).def_4025))
(assert (let ((.def_4028 (= nomsg p2_new))).def_4028))
(assert (let ((.def_4031 (= nomsg p7_new))).def_4031))
(assert (let ((.def_4034 (= mode1 (_ bv0 8)))).def_4034))
(assert (let ((.def_4037 (= mode2 (_ bv0 8)))).def_4037))
(assert (let ((.def_4040 (= mode3 (_ bv0 8)))).def_4040))
(assert (let ((.def_4043 (= mode4 (_ bv0 8)))).def_4043))
(assert (let ((.def_4046 (= mode5 (_ bv0 8)))).def_4046))
(assert (let ((.def_4049 (= mode6 (_ bv0 8)))).def_4049))
(assert (let ((.def_4052 (= mode7 (_ bv0 8)))).def_4052))
(assert (let ((.def_4055 (= mode8 (_ bv0 8)))).def_4055))
(assert (let ((.def_6933 (= st1 st8))).def_6933))
(assert (let ((.def_6935 (= st2 st8))).def_6935))
(assert (let ((.def_6937 (= st3 st8))).def_6937))
(assert (let ((.def_6939 (= st4 st8))).def_6939))
(assert (let ((.def_6941 (= st5 st8))).def_6941))
(assert (let ((.def_6943 (= st6 st8))).def_6943))
(assert (let ((.def_6945 (= st7 st8))).def_6945))
(assert (let ((.def_6950 ((_ sign_extend 24) id1)))(let ((.def_6948 ((_ sign_extend 24) send8)))(let ((.def_6951 (= .def_6948 .def_6950))).def_6951))))
(assert (let ((.def_6956 ((_ sign_extend 24) send1)))(let ((.def_6954 ((_ sign_extend 24) id2)))(let ((.def_6957 (= .def_6954 .def_6956))).def_6957))))
(assert (let ((.def_6961 (= id3 send2))).def_6961))
(assert (let ((.def_6964 ((_ sign_extend 24) send2)))(let ((.def_6963 ((_ sign_extend 24) id3)))(let ((.def_6965 (= .def_6963 .def_6964))).def_6965))))
(assert (let ((.def_6968 (= nomsg p8_new))).def_6968))
(assert (let ((.def_6973 ((_ sign_extend 24) send3)))(let ((.def_6971 ((_ sign_extend 24) id4)))(let ((.def_6974 (= .def_6971 .def_6973))).def_6974))))
(assert (let ((.def_6978 (= id6 send5))).def_6978))
(assert (let ((.def_6981 ((_ sign_extend 24) send5)))(let ((.def_6980 ((_ sign_extend 24) id6)))(let ((.def_6982 (= .def_6980 .def_6981))).def_6982))))
(assert (let ((.def_6987 ((_ sign_extend 24) send4)))(let ((.def_6985 ((_ sign_extend 24) id5)))(let ((.def_6988 (= .def_6985 .def_6987))).def_6988))))
(assert (let ((.def_6993 ((_ sign_extend 24) send6)))(let ((.def_6991 ((_ sign_extend 24) id7)))(let ((.def_6994 (= .def_6991 .def_6993))).def_6994))))
(assert (let ((.def_6999 ((_ sign_extend 24) send7)))(let ((.def_6997 ((_ sign_extend 24) id8)))(let ((.def_7000 (= .def_6997 .def_6999))).def_7000))))
(assert (let ((.def_7002 ((_ sign_extend 24) nomsg)))(let ((.def_6964 ((_ sign_extend 24) send2)))(let ((.def_7003 (= .def_6964 .def_7002))).def_7003))))
(assert (let ((.def_7002 ((_ sign_extend 24) nomsg)))(let ((.def_6973 ((_ sign_extend 24) send3)))(let ((.def_7005 (= .def_6973 .def_7002))).def_7005))))
(assert (let ((.def_7008 (= nomsg p1_new))).def_7008))
(assert (let ((.def_7011 ((_ sign_extend 24) p3_old)))(let ((.def_6971 ((_ sign_extend 24) id4)))(let ((.def_7012 (= .def_6971 .def_7011))).def_7012))))
(assert (let ((.def_7015 ((_ sign_extend 24) p8_old)))(let ((.def_6950 ((_ sign_extend 24) id1)))(let ((.def_7016 (= .def_6950 .def_7015))).def_7016))))
(assert (let ((.def_7026 ((_ sign_extend 24) st1)))(let ((.def_7025 ((_ sign_extend 24) st2)))(let ((.def_7028 (bvadd .def_7025 .def_7026)))(let ((.def_7024 ((_ sign_extend 24) st3)))(let ((.def_7030 (bvadd .def_7024 .def_7028)))(let ((.def_7023 ((_ sign_extend 24) st4)))(let ((.def_7032 (bvadd .def_7023 .def_7030)))(let ((.def_7022 ((_ sign_extend 24) st5)))(let ((.def_7034 (bvadd .def_7022 .def_7032)))(let ((.def_7021 ((_ sign_extend 24) st6)))(let ((.def_7036 (bvadd .def_7021 .def_7034)))(let ((.def_7020 ((_ sign_extend 24) st7)))(let ((.def_7038 (bvadd .def_7020 .def_7036)))(let ((.def_7018 ((_ sign_extend 24) st8)))(let ((.def_7019 (bvneg .def_7018)))(let ((.def_7039 (= .def_7019 .def_7038))).def_7039)))))))))))))))))
(assert (let ((.def_7042 ((_ sign_extend 24) p1_old)))(let ((.def_6954 ((_ sign_extend 24) id2)))(let ((.def_7043 (= .def_6954 .def_7042))).def_7043))))
(assert (let ((.def_7046 ((_ sign_extend 24) p2_old)))(let ((.def_6963 ((_ sign_extend 24) id3)))(let ((.def_7047 (= .def_6963 .def_7046))).def_7047))))
(assert (let ((.def_7050 ((_ sign_extend 24) p5_old)))(let ((.def_6980 ((_ sign_extend 24) id6)))(let ((.def_7051 (= .def_6980 .def_7050))).def_7051))))
(assert (let ((.def_7054 ((_ sign_extend 24) p4_old)))(let ((.def_6985 ((_ sign_extend 24) id5)))(let ((.def_7055 (= .def_6985 .def_7054))).def_7055))))
(assert (let ((.def_7058 ((_ sign_extend 24) p6_old)))(let ((.def_6991 ((_ sign_extend 24) id7)))(let ((.def_7059 (= .def_6991 .def_7058))).def_7059))))
(assert (let ((.def_7062 ((_ sign_extend 24) p7_old)))(let ((.def_6997 ((_ sign_extend 24) id8)))(let ((.def_7063 (= .def_6997 .def_7062))).def_7063))))
(assert (let ((.def_7023 ((_ sign_extend 24) st4)))(let ((.def_7021 ((_ sign_extend 24) st6)))(let ((.def_22836 (= .def_7021 .def_7023))).def_22836))))
(assert (let ((.def_7024 ((_ sign_extend 24) st3)))(let ((.def_7023 ((_ sign_extend 24) st4)))(let ((.def_22838 (= .def_7023 .def_7024))).def_22838))))
(assert (let ((.def_7023 ((_ sign_extend 24) st4)))(let ((.def_7020 ((_ sign_extend 24) st7)))(let ((.def_22840 (= .def_7020 .def_7023))).def_22840))))
(assert (let ((.def_7026 ((_ sign_extend 24) st1)))(let ((.def_7023 ((_ sign_extend 24) st4)))(let ((.def_22842 (= .def_7023 .def_7026))).def_22842))))
(assert (let ((.def_7025 ((_ sign_extend 24) st2)))(let ((.def_7022 ((_ sign_extend 24) st5)))(let ((.def_22844 (= .def_7022 .def_7025))).def_22844))))
(assert (let ((.def_22846 (= st4 (_ bv1 8)))).def_22846))
(assert (let ((.def_22848 (= st3 (_ bv1 8)))).def_22848))
(assert (let ((.def_22850 (= st6 (_ bv1 8)))).def_22850))
(assert (let ((.def_22852 (= st7 (_ bv1 8)))).def_22852))
(assert (let ((.def_22854 (= st1 (_ bv1 8)))).def_22854))
(assert (let ((.def_7025 ((_ sign_extend 24) st2)))(let ((.def_7023 ((_ sign_extend 24) st4)))(let ((.def_22856 (= .def_7023 .def_7025))).def_22856))))
(assert (let ((.def_7021 ((_ sign_extend 24) st6)))(let ((.def_7020 ((_ sign_extend 24) st7)))(let ((.def_22858 (= .def_7020 .def_7021))).def_22858))))
(assert (let ((.def_7024 ((_ sign_extend 24) st3)))(let ((.def_7020 ((_ sign_extend 24) st7)))(let ((.def_22860 (= .def_7020 .def_7024))).def_22860))))
(assert (let ((.def_7026 ((_ sign_extend 24) st1)))(let ((.def_7020 ((_ sign_extend 24) st7)))(let ((.def_22862 (= .def_7020 .def_7026))).def_22862))))
(assert (let ((.def_7024 ((_ sign_extend 24) st3)))(let ((.def_7022 ((_ sign_extend 24) st5)))(let ((.def_22864 (= .def_7022 .def_7024))).def_22864))))
(assert (let ((.def_7025 ((_ sign_extend 24) st2)))(let ((.def_7024 ((_ sign_extend 24) st3)))(let ((.def_22866 (= .def_7024 .def_7025))).def_22866))))
(assert (let ((.def_7024 ((_ sign_extend 24) st3)))(let ((.def_7021 ((_ sign_extend 24) st6)))(let ((.def_22868 (= .def_7021 .def_7024))).def_22868))))
(assert (let ((.def_7022 ((_ sign_extend 24) st5)))(let ((.def_7021 ((_ sign_extend 24) st6)))(let ((.def_22870 (= .def_7021 .def_7022))).def_22870))))
(assert (let ((.def_7025 ((_ sign_extend 24) st2)))(let ((.def_7021 ((_ sign_extend 24) st6)))(let ((.def_22872 (= .def_7021 .def_7025))).def_22872))))
(assert (let ((.def_7023 ((_ sign_extend 24) st4)))(let ((.def_7022 ((_ sign_extend 24) st5)))(let ((.def_22874 (= .def_7022 .def_7023))).def_22874))))
(assert (let ((.def_22876 (= st5 (_ bv1 8)))).def_22876))
(assert (let ((.def_7022 ((_ sign_extend 24) st5)))(let ((.def_7020 ((_ sign_extend 24) st7)))(let ((.def_22878 (= .def_7020 .def_7022))).def_22878))))
(assert (let ((.def_7026 ((_ sign_extend 24) st1)))(let ((.def_7024 ((_ sign_extend 24) st3)))(let ((.def_22880 (= .def_7024 .def_7026))).def_22880))))
(assert (let ((.def_7025 ((_ sign_extend 24) st2)))(let ((.def_7020 ((_ sign_extend 24) st7)))(let ((.def_22882 (= .def_7020 .def_7025))).def_22882))))
(assert (let ((.def_7026 ((_ sign_extend 24) st1)))(let ((.def_7022 ((_ sign_extend 24) st5)))(let ((.def_22884 (= .def_7022 .def_7026))).def_22884))))
(assert (let ((.def_7026 ((_ sign_extend 24) st1)))(let ((.def_7021 ((_ sign_extend 24) st6)))(let ((.def_22886 (= .def_7021 .def_7026))).def_22886))))
(assert (let ((.def_22888 (= st2 (_ bv1 8)))).def_22888))
(assert (let ((.def_7026 ((_ sign_extend 24) st1)))(let ((.def_7025 ((_ sign_extend 24) st2)))(let ((.def_22890 (= .def_7025 .def_7026))).def_22890))))
(assert (let ((.def_22892 ((_ zero_extend 24) r1)))(let ((.def_22893 (bvslt .def_22892 (_ bv8 32)))).def_22893)))
(assert (let ((.def_7026 ((_ sign_extend 24) st1)))(let ((.def_7025 ((_ sign_extend 24) st2)))(let ((.def_7028 (bvadd .def_7025 .def_7026)))(let ((.def_7024 ((_ sign_extend 24) st3)))(let ((.def_7030 (bvadd .def_7024 .def_7028)))(let ((.def_7023 ((_ sign_extend 24) st4)))(let ((.def_7032 (bvadd .def_7023 .def_7030)))(let ((.def_7022 ((_ sign_extend 24) st5)))(let ((.def_7034 (bvadd .def_7022 .def_7032)))(let ((.def_7021 ((_ sign_extend 24) st6)))(let ((.def_7036 (bvadd .def_7021 .def_7034)))(let ((.def_7020 ((_ sign_extend 24) st7)))(let ((.def_7038 (bvadd .def_7020 .def_7036)))(let ((.def_7018 ((_ sign_extend 24) st8)))(let ((.def_22896 (bvadd .def_7018 .def_7038)))(let ((.def_22897 (= .def_22896 (_ bv1 32)))).def_22897)))))))))))))))))
(assert (let ((.def_6956 ((_ sign_extend 24) send1)))(let ((.def_6954 ((_ sign_extend 24) id2)))(let ((.def_42622 (bvslt .def_6954 .def_6956))).def_42622))))
(assert (let ((.def_6954 ((_ sign_extend 24) id2)))(let ((.def_6948 ((_ sign_extend 24) send8)))(let ((.def_42624 (= .def_6948 .def_6954))).def_42624))))
(assert (let ((.def_6999 ((_ sign_extend 24) send7)))(let ((.def_6950 ((_ sign_extend 24) id1)))(let ((.def_42626 (= .def_6950 .def_6999))).def_42626))))
(assert (let ((.def_6948 ((_ sign_extend 24) send8)))(let ((.def_6950 ((_ sign_extend 24) id1)))(let ((.def_42628 (bvslt .def_6950 .def_6948))).def_42628))))
(assert (let ((.def_6987 ((_ sign_extend 24) send4)))(let ((.def_6985 ((_ sign_extend 24) id5)))(let ((.def_42630 (bvslt .def_6985 .def_6987))).def_42630))))
(assert (let ((.def_6985 ((_ sign_extend 24) id5)))(let ((.def_6973 ((_ sign_extend 24) send3)))(let ((.def_42632 (= .def_6973 .def_6985))).def_42632))))
(assert (let ((.def_6999 ((_ sign_extend 24) send7)))(let ((.def_6997 ((_ sign_extend 24) id8)))(let ((.def_42634 (bvslt .def_6997 .def_6999))).def_42634))))
(assert (let ((.def_6997 ((_ sign_extend 24) id8)))(let ((.def_6993 ((_ sign_extend 24) send6)))(let ((.def_42636 (= .def_6993 .def_6997))).def_42636))))
(assert (let ((.def_6981 ((_ sign_extend 24) send5)))(let ((.def_6980 ((_ sign_extend 24) id6)))(let ((.def_42638 (bvslt .def_6980 .def_6981))).def_42638))))
(assert (let ((.def_6987 ((_ sign_extend 24) send4)))(let ((.def_6980 ((_ sign_extend 24) id6)))(let ((.def_42640 (= .def_6980 .def_6987))).def_42640))))
(assert (let ((.def_6987 ((_ sign_extend 24) send4)))(let ((.def_6971 ((_ sign_extend 24) id4)))(let ((.def_42642 (= .def_6971 .def_6987))).def_42642))))
(assert (let ((.def_6973 ((_ sign_extend 24) send3)))(let ((.def_6971 ((_ sign_extend 24) id4)))(let ((.def_42644 (bvslt .def_6971 .def_6973))).def_42644))))
(assert (let ((.def_6971 ((_ sign_extend 24) id4)))(let ((.def_6964 ((_ sign_extend 24) send2)))(let ((.def_42646 (= .def_6964 .def_6971))).def_42646))))
(assert (let ((.def_6991 ((_ sign_extend 24) id7)))(let ((.def_6981 ((_ sign_extend 24) send5)))(let ((.def_42648 (= .def_6981 .def_6991))).def_42648))))
(assert (let ((.def_6993 ((_ sign_extend 24) send6)))(let ((.def_6991 ((_ sign_extend 24) id7)))(let ((.def_42650 (bvslt .def_6991 .def_6993))).def_42650))))
(assert (let ((.def_6964 ((_ sign_extend 24) send2)))(let ((.def_6963 ((_ sign_extend 24) id3)))(let ((.def_42652 (bvslt .def_6963 .def_6964))).def_42652))))
(assert (let ((.def_6963 ((_ sign_extend 24) id3)))(let ((.def_6956 ((_ sign_extend 24) send1)))(let ((.def_42654 (= .def_6956 .def_6963))).def_42654))))
(assert (let ((.def_42656 (= nomsg send5))).def_42656))
(assert (let ((.def_7002 ((_ sign_extend 24) nomsg)))(let ((.def_6981 ((_ sign_extend 24) send5)))(let ((.def_42658 (= .def_6981 .def_7002))).def_42658))))
(assert (let ((.def_6993 ((_ sign_extend 24) send6)))(let ((.def_6980 ((_ sign_extend 24) id6)))(let ((.def_42660 (= .def_6980 .def_6993))).def_42660))))
(assert (let ((.def_7002 ((_ sign_extend 24) nomsg)))(let ((.def_6993 ((_ sign_extend 24) send6)))(let ((.def_42662 (= .def_6993 .def_7002))).def_42662))))
(assert (let ((.def_6999 ((_ sign_extend 24) send7)))(let ((.def_6991 ((_ sign_extend 24) id7)))(let ((.def_42664 (= .def_6991 .def_6999))).def_42664))))
(assert (let ((.def_7002 ((_ sign_extend 24) nomsg)))(let ((.def_6999 ((_ sign_extend 24) send7)))(let ((.def_42666 (= .def_6999 .def_7002))).def_42666))))
(assert (let ((.def_7002 ((_ sign_extend 24) nomsg)))(let ((.def_6948 ((_ sign_extend 24) send8)))(let ((.def_42668 (= .def_6948 .def_7002))).def_42668))))
(assert (let ((.def_7002 ((_ sign_extend 24) nomsg)))(let ((.def_6956 ((_ sign_extend 24) send1)))(let ((.def_42670 (= .def_6956 .def_7002))).def_42670))))
(assert (let ((.def_42672 ((_ sign_extend 24) p4_new)))(let ((.def_6987 ((_ sign_extend 24) send4)))(let ((.def_42673 (= .def_6987 .def_42672))).def_42673))))
(assert (let ((.def_7042 ((_ sign_extend 24) p1_old)))(let ((.def_6954 ((_ sign_extend 24) id2)))(let ((.def_42675 (bvslt .def_6954 .def_7042))).def_42675))))
(assert (let ((.def_6956 ((_ sign_extend 24) send1)))(let ((.def_42678 (= .def_6956 |node1::__CPAchecker_TMP_0|))).def_42678)))
(assert (let ((.def_42680 ((_ extract 7 0) |node1::__CPAchecker_TMP_0|)))(let ((.def_42681 (= p1_old .def_42680))).def_42681)))
(assert (let ((.def_7015 ((_ sign_extend 24) p8_old)))(let ((.def_6954 ((_ sign_extend 24) id2)))(let ((.def_42683 (= .def_6954 .def_7015))).def_42683))))
(assert (let ((.def_7062 ((_ sign_extend 24) p7_old)))(let ((.def_6950 ((_ sign_extend 24) id1)))(let ((.def_42685 (= .def_6950 .def_7062))).def_42685))))
(assert (let ((.def_6948 ((_ sign_extend 24) send8)))(let ((.def_42688 (= .def_6948 |node8::__CPAchecker_TMP_0|))).def_42688)))
(assert (let ((.def_42690 ((_ extract 7 0) |node8::__CPAchecker_TMP_0|)))(let ((.def_42691 (= p8_old .def_42690))).def_42691)))
(assert (let ((.def_7015 ((_ sign_extend 24) p8_old)))(let ((.def_6950 ((_ sign_extend 24) id1)))(let ((.def_42693 (bvslt .def_6950 .def_7015))).def_42693))))
(assert (let ((.def_7054 ((_ sign_extend 24) p4_old)))(let ((.def_6985 ((_ sign_extend 24) id5)))(let ((.def_42695 (bvslt .def_6985 .def_7054))).def_42695))))
(assert (let ((.def_6987 ((_ sign_extend 24) send4)))(let ((.def_42698 (= .def_6987 |node4::__CPAchecker_TMP_0|))).def_42698)))
(assert (let ((.def_42700 ((_ extract 7 0) |node4::__CPAchecker_TMP_0|)))(let ((.def_42701 (= p4_old .def_42700))).def_42701)))
(assert (let ((.def_42703 (= send4 p4_old))).def_42703))
(assert (let ((.def_7011 ((_ sign_extend 24) p3_old)))(let ((.def_6985 ((_ sign_extend 24) id5)))(let ((.def_42705 (= .def_6985 .def_7011))).def_42705))))
(assert (let ((.def_7062 ((_ sign_extend 24) p7_old)))(let ((.def_6997 ((_ sign_extend 24) id8)))(let ((.def_42707 (bvslt .def_6997 .def_7062))).def_42707))))
(assert (let ((.def_6999 ((_ sign_extend 24) send7)))(let ((.def_42710 (= .def_6999 |node7::__CPAchecker_TMP_0|))).def_42710)))
(assert (let ((.def_42712 ((_ extract 7 0) |node7::__CPAchecker_TMP_0|)))(let ((.def_42713 (= p7_old .def_42712))).def_42713)))
(assert (let ((.def_7058 ((_ sign_extend 24) p6_old)))(let ((.def_6997 ((_ sign_extend 24) id8)))(let ((.def_42715 (= .def_6997 .def_7058))).def_42715))))
(assert (let ((.def_6981 ((_ sign_extend 24) send5)))(let ((.def_42718 (= .def_6981 |node5::__CPAchecker_TMP_0|))).def_42718)))
(assert (let ((.def_42720 ((_ extract 7 0) |node5::__CPAchecker_TMP_0|)))(let ((.def_42721 (= p5_old .def_42720))).def_42721)))
(assert (let ((.def_7054 ((_ sign_extend 24) p4_old)))(let ((.def_6980 ((_ sign_extend 24) id6)))(let ((.def_42723 (= .def_6980 .def_7054))).def_42723))))
(assert (let ((.def_7050 ((_ sign_extend 24) p5_old)))(let ((.def_6980 ((_ sign_extend 24) id6)))(let ((.def_42725 (bvslt .def_6980 .def_7050))).def_42725))))
(assert (let ((.def_7002 ((_ sign_extend 24) nomsg)))(let ((.def_6971 ((_ sign_extend 24) id4)))(let ((.def_42727 (= .def_6971 .def_7002))).def_42727))))
(assert (let ((.def_7011 ((_ sign_extend 24) p3_old)))(let ((.def_6971 ((_ sign_extend 24) id4)))(let ((.def_42729 (bvslt .def_6971 .def_7011))).def_42729))))
(assert (let ((.def_6973 ((_ sign_extend 24) send3)))(let ((.def_42732 (= .def_6973 |node3::__CPAchecker_TMP_0|))).def_42732)))
(assert (let ((.def_42734 ((_ extract 7 0) |node3::__CPAchecker_TMP_0|)))(let ((.def_42735 (= p3_old .def_42734))).def_42735)))
(assert (let ((.def_42737 (= id4 p2_old))).def_42737))
(assert (let ((.def_7046 ((_ sign_extend 24) p2_old)))(let ((.def_6971 ((_ sign_extend 24) id4)))(let ((.def_42739 (= .def_6971 .def_7046))).def_42739))))
(assert (let ((.def_7050 ((_ sign_extend 24) p5_old)))(let ((.def_6991 ((_ sign_extend 24) id7)))(let ((.def_42741 (= .def_6991 .def_7050))).def_42741))))
(assert (let ((.def_7058 ((_ sign_extend 24) p6_old)))(let ((.def_6991 ((_ sign_extend 24) id7)))(let ((.def_42743 (bvslt .def_6991 .def_7058))).def_42743))))
(assert (let ((.def_6993 ((_ sign_extend 24) send6)))(let ((.def_42746 (= .def_6993 |node6::__CPAchecker_TMP_0|))).def_42746)))
(assert (let ((.def_42748 ((_ extract 7 0) |node6::__CPAchecker_TMP_0|)))(let ((.def_42749 (= p6_old .def_42748))).def_42749)))
(assert (let ((.def_7046 ((_ sign_extend 24) p2_old)))(let ((.def_6963 ((_ sign_extend 24) id3)))(let ((.def_42751 (bvslt .def_6963 .def_7046))).def_42751))))
(assert (let ((.def_6964 ((_ sign_extend 24) send2)))(let ((.def_42754 (= .def_6964 |node2::__CPAchecker_TMP_0|))).def_42754)))
(assert (let ((.def_42756 ((_ extract 7 0) |node2::__CPAchecker_TMP_0|)))(let ((.def_42757 (= p2_old .def_42756))).def_42757)))
(assert (let ((.def_42759 (= id3 p1_old))).def_42759))
(assert (let ((.def_7042 ((_ sign_extend 24) p1_old)))(let ((.def_6963 ((_ sign_extend 24) id3)))(let ((.def_42761 (= .def_6963 .def_7042))).def_42761))))
(assert (let ((.def_7046 ((_ sign_extend 24) p2_old)))(let ((.def_7002 ((_ sign_extend 24) nomsg)))(let ((.def_42763 (= .def_7002 .def_7046))).def_42763))))
(assert (let ((.def_7050 ((_ sign_extend 24) p5_old)))(let ((.def_7002 ((_ sign_extend 24) nomsg)))(let ((.def_42765 (= .def_7002 .def_7050))).def_42765))))
(assert (let ((.def_7042 ((_ sign_extend 24) p1_old)))(let ((.def_7002 ((_ sign_extend 24) nomsg)))(let ((.def_42767 (= .def_7002 .def_7042))).def_42767))))
(assert (let ((.def_7015 ((_ sign_extend 24) p8_old)))(let ((.def_7002 ((_ sign_extend 24) nomsg)))(let ((.def_42769 (= .def_7002 .def_7015))).def_42769))))
(assert (let ((.def_7002 ((_ sign_extend 24) nomsg)))(let ((.def_6987 ((_ sign_extend 24) send4)))(let ((.def_42771 (= .def_6987 .def_7002))).def_42771))))
(assert (let ((.def_42773 (= st8 (_ bv1 8)))).def_42773))
(assert (let ((.def_6997 ((_ sign_extend 24) id8)))(let ((.def_6948 ((_ sign_extend 24) send8)))(let ((.def_42775 (= .def_6948 .def_6997))).def_42775))))
(assert (let ((.def_42777 (= send8 send7))).def_42777))
(assert (let ((.def_42779 (= send5 send6))).def_42779))
(assert (let ((.def_42781 (= id4 send3))).def_42781))
(assert (let ((.def_42783 (= id7 send6))).def_42783))
(assert (let ((.def_42785 (= r1 (_ bv1 8)))).def_42785))
(assert (let ((.def_7054 ((_ sign_extend 24) p4_old)))(let ((.def_7002 ((_ sign_extend 24) nomsg)))(let ((.def_42787 (= .def_7002 .def_7054))).def_42787))))
(assert (let ((.def_42789 (= send8 p7_old))).def_42789))
(assert (let ((.def_7062 ((_ sign_extend 24) p7_old)))(let ((.def_7002 ((_ sign_extend 24) nomsg)))(let ((.def_42791 (= .def_7002 .def_7062))).def_42791))))
(assert (let ((.def_42793 (= send6 p5_old))).def_42793))
(assert (let ((.def_7058 ((_ sign_extend 24) p6_old)))(let ((.def_7002 ((_ sign_extend 24) nomsg)))(let ((.def_42795 (= .def_7002 .def_7058))).def_42795))))

assert N601:
(assert false)
(assert (let ((.def_3546 (= |assert::arg| (_ bv0 8)))).def_3546))

