(set-info :source |printed by MathSAT|)
(declare-fun a20 () (_ BitVec 32))
(declare-fun a25 () (_ BitVec 32))
(declare-fun a12 () (_ BitVec 32))
(declare-fun a15 () (_ BitVec 32))
(declare-fun a16 () (_ BitVec 32))
(declare-fun a2 () (_ BitVec 32))
(declare-fun a27 () (_ BitVec 32))
(declare-fun a9 () (_ BitVec 32))
(declare-fun m_pc () (_ BitVec 32))
(declare-fun t1_pc () (_ BitVec 32))
(declare-fun t2_pc () (_ BitVec 32))
(declare-fun t3_pc () (_ BitVec 32))
(declare-fun t4_pc () (_ BitVec 32))
(declare-fun t5_pc () (_ BitVec 32))
(declare-fun t6_pc () (_ BitVec 32))
(declare-fun t7_pc () (_ BitVec 32))
(declare-fun t8_pc () (_ BitVec 32))
(declare-fun t9_pc () (_ BitVec 32))
(declare-fun t10_pc () (_ BitVec 32))
(declare-fun t11_pc () (_ BitVec 32))
(declare-fun t12_pc () (_ BitVec 32))
(declare-fun m_st () (_ BitVec 32))

*:
(assert (let ((.def_107366 (= a20 (_ bv5 32)))).def_107366))

calculate_output8 N29965:
(assert false)
(assert (let ((.def_107366 (= a20 (_ bv5 32)))).def_107366))

main1 N30136:
(assert (let ((.def_107366 (= a20 (_ bv5 32)))).def_107366))
(assert (let ((.def_154802 (= a25 (_ bv1 32)))).def_154802))
(assert (let ((.def_154805 (= a12 (_ bv4 32)))).def_154805))
(assert (let ((.def_154808 (= a15 (_ bv1 32)))).def_154808))
(assert (let ((.def_154811 (= a16 (_ bv1 32)))).def_154811))
(assert (let ((.def_154814 (= a2 (_ bv10 32)))).def_154814))
(assert (let ((.def_154817 (= a27 (_ bv1 32)))).def_154817))
(assert (let ((.def_154820 (= a9 (_ bv18 32)))).def_154820))
(assert (let ((.def_320767 (= a9 (_ bv17 32)))).def_320767))
(assert (let ((.def_320769 (= a2 (_ bv12 32)))).def_320769))
(assert (let ((.def_320771 (= a2 (_ bv11 32)))).def_320771))
(assert (let ((.def_320773 (= a2 (_ bv9 32)))).def_320773))
(assert (let ((.def_320775 (= a12 (_ bv3 32)))).def_320775))
(assert (let ((.def_320777 (= a20 (_ bv6 32)))).def_320777))
(assert (let ((.def_320779 (= a2 (_ bv13 32)))).def_320779))
(assert (let ((.def_320781 (= a9 (_ bv16 32)))).def_320781))
(assert (let ((.def_1062197 (= a12 (_ bv2 32)))).def_1062197))
(assert (let ((.def_1062199 (= a12 (_ bv5 32)))).def_1062199))
(assert (let ((.def_1062201 (= a12 (_ bv6 32)))).def_1062201))
(assert (let ((.def_1062203 (= a20 (_ bv7 32)))).def_1062203))

error N30154:
(assert false)
(assert (let ((.def_107366 (= a20 (_ bv5 32)))).def_107366))

eval N30882:
(assert (let ((.def_1204277 (= m_pc (_ bv0 32)))).def_1204277))
(assert (let ((.def_107366 (= a20 (_ bv5 32)))).def_107366))
(assert (let ((.def_1216826 (= t1_pc (_ bv0 32)))).def_1216826))
(assert (let ((.def_1216829 (= t2_pc (_ bv0 32)))).def_1216829))
(assert (let ((.def_1216832 (= t3_pc (_ bv0 32)))).def_1216832))
(assert (let ((.def_1216835 (= t4_pc (_ bv0 32)))).def_1216835))
(assert (let ((.def_1216838 (= t5_pc (_ bv0 32)))).def_1216838))
(assert (let ((.def_1216841 (= t6_pc (_ bv0 32)))).def_1216841))
(assert (let ((.def_1216844 (= t7_pc (_ bv0 32)))).def_1216844))
(assert (let ((.def_1216847 (= t8_pc (_ bv0 32)))).def_1216847))
(assert (let ((.def_1216850 (= t9_pc (_ bv0 32)))).def_1216850))
(assert (let ((.def_1216853 (= t10_pc (_ bv0 32)))).def_1216853))
(assert (let ((.def_1216856 (= t11_pc (_ bv0 32)))).def_1216856))
(assert (let ((.def_1216859 (= t12_pc (_ bv0 32)))).def_1216859))
(assert (let ((.def_1216861 (= m_pc (_ bv1 32)))).def_1216861))
(assert (let ((.def_1216863 (= t1_pc (_ bv1 32)))).def_1216863))
(assert (let ((.def_1216865 (= t2_pc (_ bv1 32)))).def_1216865))
(assert (let ((.def_1216867 (= t3_pc (_ bv1 32)))).def_1216867))
(assert (let ((.def_1216869 (= t4_pc (_ bv1 32)))).def_1216869))
(assert (let ((.def_1216871 (= t5_pc (_ bv1 32)))).def_1216871))
(assert (let ((.def_1216873 (= t6_pc (_ bv1 32)))).def_1216873))
(assert (let ((.def_1216875 (= t7_pc (_ bv1 32)))).def_1216875))
(assert (let ((.def_1216877 (= t8_pc (_ bv1 32)))).def_1216877))
(assert (let ((.def_1216879 (= t9_pc (_ bv1 32)))).def_1216879))
(assert (let ((.def_1216881 (= t10_pc (_ bv1 32)))).def_1216881))
(assert (let ((.def_1216883 (= t11_pc (_ bv1 32)))).def_1216883))
(assert (let ((.def_1216885 (= t12_pc (_ bv1 32)))).def_1216885))
(assert (let ((.def_1216888 (= m_st (_ bv0 32)))).def_1216888))

start_simulation N31483:
(assert (let ((.def_1204277 (= m_pc (_ bv0 32)))).def_1204277))
(assert (let ((.def_107366 (= a20 (_ bv5 32)))).def_107366))
(assert (let ((.def_1216826 (= t1_pc (_ bv0 32)))).def_1216826))
(assert (let ((.def_1216829 (= t2_pc (_ bv0 32)))).def_1216829))
(assert (let ((.def_1216832 (= t3_pc (_ bv0 32)))).def_1216832))
(assert (let ((.def_1216835 (= t4_pc (_ bv0 32)))).def_1216835))
(assert (let ((.def_1216838 (= t5_pc (_ bv0 32)))).def_1216838))
(assert (let ((.def_1216841 (= t6_pc (_ bv0 32)))).def_1216841))
(assert (let ((.def_1216844 (= t7_pc (_ bv0 32)))).def_1216844))
(assert (let ((.def_1216847 (= t8_pc (_ bv0 32)))).def_1216847))
(assert (let ((.def_1216850 (= t9_pc (_ bv0 32)))).def_1216850))
(assert (let ((.def_1216853 (= t10_pc (_ bv0 32)))).def_1216853))
(assert (let ((.def_1216856 (= t11_pc (_ bv0 32)))).def_1216856))
(assert (let ((.def_1216859 (= t12_pc (_ bv0 32)))).def_1216859))
(assert (let ((.def_1216861 (= m_pc (_ bv1 32)))).def_1216861))
(assert (let ((.def_1216863 (= t1_pc (_ bv1 32)))).def_1216863))
(assert (let ((.def_1216865 (= t2_pc (_ bv1 32)))).def_1216865))
(assert (let ((.def_1216867 (= t3_pc (_ bv1 32)))).def_1216867))
(assert (let ((.def_1216869 (= t4_pc (_ bv1 32)))).def_1216869))
(assert (let ((.def_1216871 (= t5_pc (_ bv1 32)))).def_1216871))
(assert (let ((.def_1216873 (= t6_pc (_ bv1 32)))).def_1216873))
(assert (let ((.def_1216875 (= t7_pc (_ bv1 32)))).def_1216875))
(assert (let ((.def_1216877 (= t8_pc (_ bv1 32)))).def_1216877))
(assert (let ((.def_1216879 (= t9_pc (_ bv1 32)))).def_1216879))
(assert (let ((.def_1216881 (= t10_pc (_ bv1 32)))).def_1216881))
(assert (let ((.def_1216883 (= t11_pc (_ bv1 32)))).def_1216883))
(assert (let ((.def_1216885 (= t12_pc (_ bv1 32)))).def_1216885))

