(set-info :source |printed by MathSAT|)
(declare-fun a20 () (_ BitVec 32))
(declare-fun a25 () (_ BitVec 32))
(declare-fun a12 () (_ BitVec 32))
(declare-fun a15 () (_ BitVec 32))
(declare-fun a16 () (_ BitVec 32))
(declare-fun a2 () (_ BitVec 32))
(declare-fun a27 () (_ BitVec 32))
(declare-fun a9 () (_ BitVec 32))
(declare-fun |calculate_output5::input| () (_ BitVec 32))
(declare-fun |calculate_output6::input| () (_ BitVec 32))
(declare-fun |calculate_output7::input| () (_ BitVec 32))
(declare-fun |calculate_output8::input| () (_ BitVec 32))
(declare-fun |calculate_output3::input| () (_ BitVec 32))
(declare-fun |calculate_output4::input| () (_ BitVec 32))
(declare-fun |calculate_output2::input| () (_ BitVec 32))

*:
(assert (let ((.def_106616 (= a20 (_ bv5 32)))).def_106616))

calculate_output8 N29800:
(assert false)
(assert (let ((.def_106616 (= a20 (_ bv5 32)))).def_106616))

main1 N30136:
(assert (let ((.def_106616 (= a20 (_ bv5 32)))).def_106616))
(assert (let ((.def_153794 (= a25 (_ bv1 32)))).def_153794))
(assert (let ((.def_153797 (= a12 (_ bv4 32)))).def_153797))
(assert (let ((.def_153800 (= a15 (_ bv1 32)))).def_153800))
(assert (let ((.def_153803 (= a16 (_ bv1 32)))).def_153803))
(assert (let ((.def_153806 (= a2 (_ bv10 32)))).def_153806))
(assert (let ((.def_153809 (= a27 (_ bv1 32)))).def_153809))
(assert (let ((.def_153812 (= a9 (_ bv18 32)))).def_153812))
(assert (let ((.def_319674 (= a2 (_ bv11 32)))).def_319674))
(assert (let ((.def_319676 (= a12 (_ bv2 32)))).def_319676))
(assert (let ((.def_319678 (= a9 (_ bv17 32)))).def_319678))
(assert (let ((.def_319680 (= a2 (_ bv13 32)))).def_319680))
(assert (let ((.def_319682 (= a20 (_ bv6 32)))).def_319682))
(assert (let ((.def_319684 (= a12 (_ bv6 32)))).def_319684))
(assert (let ((.def_319686 (= a2 (_ bv9 32)))).def_319686))
(assert (let ((.def_319688 (= a9 (_ bv16 32)))).def_319688))
(assert (let ((.def_1190156 (= a20 (_ bv7 32)))).def_1190156))
(assert (let ((.def_1190158 (= a2 (_ bv12 32)))).def_1190158))
(assert (let ((.def_1190160 (= a12 (_ bv3 32)))).def_1190160))
(assert (let ((.def_1190162 (= a12 (_ bv5 32)))).def_1190162))
(assert (let ((.def_1190165 (= |calculate_output5::input| (_ bv4 32)))).def_1190165))
(assert (let ((.def_1190167 (= |calculate_output5::input| (_ bv1 32)))).def_1190167))
(assert (let ((.def_1190170 (= |calculate_output6::input| (_ bv1 32)))).def_1190170))
(assert (let ((.def_1190172 (= |calculate_output5::input| |calculate_output6::input|))).def_1190172))
(assert (let ((.def_1190174 (= |calculate_output6::input| (_ bv4 32)))).def_1190174))
(assert (let ((.def_1190177 (= |calculate_output6::input| |calculate_output7::input|))).def_1190177))
(assert (let ((.def_1190180 (= |calculate_output7::input| |calculate_output8::input|))).def_1190180))
(assert (let ((.def_1190182 (= |calculate_output8::input| (_ bv1 32)))).def_1190182))
(assert (let ((.def_1190185 (= |calculate_output3::input| (_ bv2 32)))).def_1190185))
(assert (let ((.def_1190187 (= |calculate_output3::input| (_ bv5 32)))).def_1190187))
(assert (let ((.def_1190189 (= |calculate_output3::input| (_ bv3 32)))).def_1190189))
(assert (let ((.def_1190191 (= |calculate_output3::input| (_ bv4 32)))).def_1190191))
(assert (let ((.def_1190194 (= |calculate_output4::input| (_ bv2 32)))).def_1190194))
(assert (let ((.def_1190196 (= |calculate_output4::input| (_ bv5 32)))).def_1190196))
(assert (let ((.def_1190198 (= |calculate_output4::input| (_ bv3 32)))).def_1190198))
(assert (let ((.def_1190200 (= |calculate_output3::input| |calculate_output4::input|))).def_1190200))
(assert (let ((.def_1190202 (= |calculate_output5::input| (_ bv2 32)))).def_1190202))
(assert (let ((.def_1190204 (= |calculate_output5::input| (_ bv3 32)))).def_1190204))
(assert (let ((.def_1190206 (= |calculate_output5::input| (_ bv5 32)))).def_1190206))
(assert (let ((.def_1190208 (= |calculate_output5::input| |calculate_output4::input|))).def_1190208))
(assert (let ((.def_1190210 (= |calculate_output6::input| (_ bv2 32)))).def_1190210))
(assert (let ((.def_1190212 (= |calculate_output6::input| (_ bv5 32)))).def_1190212))
(assert (let ((.def_1190214 (= |calculate_output6::input| |calculate_output8::input|))).def_1190214))
(assert (let ((.def_1190216 (= |calculate_output8::input| (_ bv2 32)))).def_1190216))
(assert (let ((.def_1190218 (= |calculate_output7::input| (_ bv5 32)))).def_1190218))
(assert (let ((.def_1190220 (= |calculate_output7::input| (_ bv4 32)))).def_1190220))
(assert (let ((.def_1190223 (= |calculate_output2::input| (_ bv4 32)))).def_1190223))
(assert (let ((.def_1190225 (= |calculate_output3::input| |calculate_output2::input|))).def_1190225))
(assert (let ((.def_1190227 (= |calculate_output3::input| (_ bv1 32)))).def_1190227))
(assert (let ((.def_1190229 (= |calculate_output6::input| (_ bv3 32)))).def_1190229))
(assert (let ((.def_1190231 (= |calculate_output8::input| (_ bv5 32)))).def_1190231))
(assert (let ((.def_1190233 (= |calculate_output3::input| (_ bv6 32)))).def_1190233))
(assert (let ((.def_1190235 (= |calculate_output7::input| (_ bv1 32)))).def_1190235))
(assert (let ((.def_1190237 (= |calculate_output4::input| (_ bv6 32)))).def_1190237))
(assert (let ((.def_1190239 (= |calculate_output4::input| (_ bv4 32)))).def_1190239))
(assert (let ((.def_1190241 (= |calculate_output4::input| (_ bv1 32)))).def_1190241))
(assert (let ((.def_1190243 (= |calculate_output8::input| (_ bv3 32)))).def_1190243))

