(set-info :source |printed by MathSAT|)
(declare-fun a20 () (_ BitVec 32))
(declare-fun a25 () (_ BitVec 32))
(declare-fun a12 () (_ BitVec 32))
(declare-fun a15 () (_ BitVec 32))
(declare-fun a16 () (_ BitVec 32))
(declare-fun a2 () (_ BitVec 32))
(declare-fun a27 () (_ BitVec 32))
(declare-fun a9 () (_ BitVec 32))
(declare-fun m_pc () (_ BitVec 32))
(declare-fun t1_pc () (_ BitVec 32))
(declare-fun t2_pc () (_ BitVec 32))
(declare-fun t3_pc () (_ BitVec 32))
(declare-fun t4_pc () (_ BitVec 32))
(declare-fun t5_pc () (_ BitVec 32))
(declare-fun t6_pc () (_ BitVec 32))
(declare-fun t7_pc () (_ BitVec 32))
(declare-fun t8_pc () (_ BitVec 32))
(declare-fun t9_pc () (_ BitVec 32))
(declare-fun t10_pc () (_ BitVec 32))
(declare-fun t11_pc () (_ BitVec 32))
(declare-fun t12_pc () (_ BitVec 32))
(declare-fun m_st () (_ BitVec 32))

*:
(assert (let ((.def_107718 (= a20 (_ bv5 32)))).def_107718))

calculate_output8 N30053:
(assert false)
(assert (let ((.def_107718 (= a20 (_ bv5 32)))).def_107718))

main1 N30136:
(assert (let ((.def_107718 (= a20 (_ bv5 32)))).def_107718))
(assert (let ((.def_155325 (= a25 (_ bv1 32)))).def_155325))
(assert (let ((.def_155328 (= a12 (_ bv4 32)))).def_155328))
(assert (let ((.def_155331 (= a15 (_ bv1 32)))).def_155331))
(assert (let ((.def_155334 (= a16 (_ bv1 32)))).def_155334))
(assert (let ((.def_155337 (= a2 (_ bv10 32)))).def_155337))
(assert (let ((.def_155340 (= a27 (_ bv1 32)))).def_155340))
(assert (let ((.def_155343 (= a9 (_ bv18 32)))).def_155343))
(assert (let ((.def_321508 (= a20 (_ bv6 32)))).def_321508))
(assert (let ((.def_321510 (= a12 (_ bv3 32)))).def_321510))
(assert (let ((.def_321512 (= a12 (_ bv6 32)))).def_321512))
(assert (let ((.def_321514 (= a2 (_ bv9 32)))).def_321514))
(assert (let ((.def_321516 (= a9 (_ bv16 32)))).def_321516))
(assert (let ((.def_321518 (= a2 (_ bv12 32)))).def_321518))
(assert (let ((.def_321520 (= a2 (_ bv11 32)))).def_321520))
(assert (let ((.def_321522 (= a9 (_ bv17 32)))).def_321522))
(assert (let ((.def_321524 (= a12 (_ bv2 32)))).def_321524))
(assert (let ((.def_321526 (= a2 (_ bv13 32)))).def_321526))

error N30154:
(assert false)
(assert (let ((.def_107718 (= a20 (_ bv5 32)))).def_107718))

eval N30891:
(assert (let ((.def_747820 (= m_pc (_ bv0 32)))).def_747820))
(assert (let ((.def_107718 (= a20 (_ bv5 32)))).def_107718))
(assert (let ((.def_760410 (= t1_pc (_ bv0 32)))).def_760410))
(assert (let ((.def_760413 (= t2_pc (_ bv0 32)))).def_760413))
(assert (let ((.def_760416 (= t3_pc (_ bv0 32)))).def_760416))
(assert (let ((.def_760419 (= t4_pc (_ bv0 32)))).def_760419))
(assert (let ((.def_760422 (= t5_pc (_ bv0 32)))).def_760422))
(assert (let ((.def_760425 (= t6_pc (_ bv0 32)))).def_760425))
(assert (let ((.def_760428 (= t7_pc (_ bv0 32)))).def_760428))
(assert (let ((.def_760431 (= t8_pc (_ bv0 32)))).def_760431))
(assert (let ((.def_760434 (= t9_pc (_ bv0 32)))).def_760434))
(assert (let ((.def_760437 (= t10_pc (_ bv0 32)))).def_760437))
(assert (let ((.def_760440 (= t11_pc (_ bv0 32)))).def_760440))
(assert (let ((.def_760443 (= t12_pc (_ bv0 32)))).def_760443))
(assert (let ((.def_760445 (= m_pc (_ bv1 32)))).def_760445))
(assert (let ((.def_760447 (= t1_pc (_ bv1 32)))).def_760447))
(assert (let ((.def_760449 (= t2_pc (_ bv1 32)))).def_760449))
(assert (let ((.def_760451 (= t3_pc (_ bv1 32)))).def_760451))
(assert (let ((.def_760453 (= t4_pc (_ bv1 32)))).def_760453))
(assert (let ((.def_760455 (= t5_pc (_ bv1 32)))).def_760455))
(assert (let ((.def_760457 (= t6_pc (_ bv1 32)))).def_760457))
(assert (let ((.def_760459 (= t7_pc (_ bv1 32)))).def_760459))
(assert (let ((.def_760461 (= t8_pc (_ bv1 32)))).def_760461))
(assert (let ((.def_760463 (= t9_pc (_ bv1 32)))).def_760463))
(assert (let ((.def_760465 (= t10_pc (_ bv1 32)))).def_760465))
(assert (let ((.def_760467 (= t11_pc (_ bv1 32)))).def_760467))
(assert (let ((.def_760469 (= t12_pc (_ bv1 32)))).def_760469))
(assert (let ((.def_760472 (= m_st (_ bv0 32)))).def_760472))

start_simulation N31492:
(assert (let ((.def_747820 (= m_pc (_ bv0 32)))).def_747820))
(assert (let ((.def_107718 (= a20 (_ bv5 32)))).def_107718))
(assert (let ((.def_760410 (= t1_pc (_ bv0 32)))).def_760410))
(assert (let ((.def_760413 (= t2_pc (_ bv0 32)))).def_760413))
(assert (let ((.def_760416 (= t3_pc (_ bv0 32)))).def_760416))
(assert (let ((.def_760419 (= t4_pc (_ bv0 32)))).def_760419))
(assert (let ((.def_760422 (= t5_pc (_ bv0 32)))).def_760422))
(assert (let ((.def_760425 (= t6_pc (_ bv0 32)))).def_760425))
(assert (let ((.def_760428 (= t7_pc (_ bv0 32)))).def_760428))
(assert (let ((.def_760431 (= t8_pc (_ bv0 32)))).def_760431))
(assert (let ((.def_760434 (= t9_pc (_ bv0 32)))).def_760434))
(assert (let ((.def_760437 (= t10_pc (_ bv0 32)))).def_760437))
(assert (let ((.def_760440 (= t11_pc (_ bv0 32)))).def_760440))
(assert (let ((.def_760443 (= t12_pc (_ bv0 32)))).def_760443))
(assert (let ((.def_760445 (= m_pc (_ bv1 32)))).def_760445))
(assert (let ((.def_760447 (= t1_pc (_ bv1 32)))).def_760447))
(assert (let ((.def_760449 (= t2_pc (_ bv1 32)))).def_760449))
(assert (let ((.def_760451 (= t3_pc (_ bv1 32)))).def_760451))
(assert (let ((.def_760453 (= t4_pc (_ bv1 32)))).def_760453))
(assert (let ((.def_760455 (= t5_pc (_ bv1 32)))).def_760455))
(assert (let ((.def_760457 (= t6_pc (_ bv1 32)))).def_760457))
(assert (let ((.def_760459 (= t7_pc (_ bv1 32)))).def_760459))
(assert (let ((.def_760461 (= t8_pc (_ bv1 32)))).def_760461))
(assert (let ((.def_760463 (= t9_pc (_ bv1 32)))).def_760463))
(assert (let ((.def_760465 (= t10_pc (_ bv1 32)))).def_760465))
(assert (let ((.def_760467 (= t11_pc (_ bv1 32)))).def_760467))
(assert (let ((.def_760469 (= t12_pc (_ bv1 32)))).def_760469))

