(set-info :source |printed by MathSAT|)
(declare-fun |assert::arg| () (_ BitVec 8))
(declare-fun st1 () (_ BitVec 8))
(declare-fun st2 () (_ BitVec 8))
(declare-fun st3 () (_ BitVec 8))
(declare-fun st4 () (_ BitVec 8))
(declare-fun st5 () (_ BitVec 8))
(declare-fun st6 () (_ BitVec 8))
(declare-fun r1 () (_ BitVec 8))
(declare-fun p4_new () (_ BitVec 8))
(declare-fun nomsg () (_ BitVec 8))
(declare-fun p3_new () (_ BitVec 8))
(declare-fun p2_new () (_ BitVec 8))
(declare-fun p5_new () (_ BitVec 8))
(declare-fun mode1 () (_ BitVec 8))
(declare-fun mode2 () (_ BitVec 8))
(declare-fun mode3 () (_ BitVec 8))
(declare-fun mode4 () (_ BitVec 8))
(declare-fun mode5 () (_ BitVec 8))
(declare-fun mode6 () (_ BitVec 8))
(declare-fun id6 () (_ BitVec 8))
(declare-fun send5 () (_ BitVec 8))
(declare-fun send6 () (_ BitVec 8))
(declare-fun id1 () (_ BitVec 8))
(declare-fun id2 () (_ BitVec 8))
(declare-fun send1 () (_ BitVec 8))
(declare-fun id3 () (_ BitVec 8))
(declare-fun send2 () (_ BitVec 8))
(declare-fun id4 () (_ BitVec 8))
(declare-fun send3 () (_ BitVec 8))
(declare-fun id5 () (_ BitVec 8))
(declare-fun send4 () (_ BitVec 8))
(declare-fun p6_new () (_ BitVec 8))
(declare-fun p1_new () (_ BitVec 8))
(declare-fun p5_old () (_ BitVec 8))
(declare-fun p6_old () (_ BitVec 8))
(declare-fun p1_old () (_ BitVec 8))
(declare-fun p2_old () (_ BitVec 8))
(declare-fun p3_old () (_ BitVec 8))
(declare-fun p4_old () (_ BitVec 8))
(declare-fun |node3::__CPAchecker_TMP_0| () (_ BitVec 32))
(declare-fun |node5::__CPAchecker_TMP_0| () (_ BitVec 32))
(declare-fun |node4::__CPAchecker_TMP_0| () (_ BitVec 32))
(declare-fun |node1::__CPAchecker_TMP_0| () (_ BitVec 32))
(declare-fun |node2::__CPAchecker_TMP_0| () (_ BitVec 32))
(declare-fun |node6::__CPAchecker_TMP_0| () (_ BitVec 32))

assert:
(assert (let ((.def_2592 (= |assert::arg| (_ bv0 8)))).def_2592))

main1 N408:
(assert (let ((.def_2914 (= st1 (_ bv0 8)))).def_2914))
(assert (let ((.def_2917 (= st2 (_ bv0 8)))).def_2917))
(assert (let ((.def_2920 (= st3 (_ bv0 8)))).def_2920))
(assert (let ((.def_2923 (= st4 (_ bv0 8)))).def_2923))
(assert (let ((.def_2926 (= st5 (_ bv0 8)))).def_2926))
(assert (let ((.def_2929 (= st6 (_ bv0 8)))).def_2929))
(assert (let ((.def_2932 (= r1 (_ bv0 8)))).def_2932))
(assert (let ((.def_2936 (= p4_new nomsg))).def_2936))
(assert (let ((.def_2939 (= nomsg p3_new))).def_2939))
(assert (let ((.def_2942 (= nomsg p2_new))).def_2942))
(assert (let ((.def_2945 (= nomsg p5_new))).def_2945))
(assert (let ((.def_2948 (= mode1 (_ bv0 8)))).def_2948))
(assert (let ((.def_2951 (= mode2 (_ bv0 8)))).def_2951))
(assert (let ((.def_2954 (= mode3 (_ bv0 8)))).def_2954))
(assert (let ((.def_2957 (= mode4 (_ bv0 8)))).def_2957))
(assert (let ((.def_2960 (= mode5 (_ bv0 8)))).def_2960))
(assert (let ((.def_2963 (= mode6 (_ bv0 8)))).def_2963))
(assert (let ((.def_5176 (= st1 st6))).def_5176))
(assert (let ((.def_5178 (= st2 st6))).def_5178))
(assert (let ((.def_5180 (= st3 st6))).def_5180))
(assert (let ((.def_5182 (= st4 st6))).def_5182))
(assert (let ((.def_5184 (= st5 st6))).def_5184))
(assert (let ((.def_5188 (= id6 send5))).def_5188))
(assert (let ((.def_5191 ((_ sign_extend 24) send5)))(let ((.def_5190 ((_ sign_extend 24) id6)))(let ((.def_5192 (= .def_5190 .def_5191))).def_5192))))
(assert (let ((.def_5197 ((_ sign_extend 24) id1)))(let ((.def_5195 ((_ sign_extend 24) send6)))(let ((.def_5198 (= .def_5195 .def_5197))).def_5198))))
(assert (let ((.def_5203 ((_ sign_extend 24) send1)))(let ((.def_5201 ((_ sign_extend 24) id2)))(let ((.def_5204 (= .def_5201 .def_5203))).def_5204))))
(assert (let ((.def_5209 ((_ sign_extend 24) send2)))(let ((.def_5207 ((_ sign_extend 24) id3)))(let ((.def_5210 (= .def_5207 .def_5209))).def_5210))))
(assert (let ((.def_5215 ((_ sign_extend 24) send3)))(let ((.def_5213 ((_ sign_extend 24) id4)))(let ((.def_5216 (= .def_5213 .def_5215))).def_5216))))
(assert (let ((.def_5220 (= id5 send4))).def_5220))
(assert (let ((.def_5223 ((_ sign_extend 24) send4)))(let ((.def_5222 ((_ sign_extend 24) id5)))(let ((.def_5224 (= .def_5222 .def_5223))).def_5224))))
(assert (let ((.def_5226 ((_ sign_extend 24) nomsg)))(let ((.def_5215 ((_ sign_extend 24) send3)))(let ((.def_5227 (= .def_5215 .def_5226))).def_5227))))
(assert (let ((.def_5226 ((_ sign_extend 24) nomsg)))(let ((.def_5223 ((_ sign_extend 24) send4)))(let ((.def_5229 (= .def_5223 .def_5226))).def_5229))))
(assert (let ((.def_5226 ((_ sign_extend 24) nomsg)))(let ((.def_5191 ((_ sign_extend 24) send5)))(let ((.def_5231 (= .def_5191 .def_5226))).def_5231))))
(assert (let ((.def_5234 (= nomsg p6_new))).def_5234))
(assert (let ((.def_5237 (= nomsg p1_new))).def_5237))
(assert (let ((.def_5245 ((_ sign_extend 24) st1)))(let ((.def_5244 ((_ sign_extend 24) st2)))(let ((.def_5247 (bvadd .def_5244 .def_5245)))(let ((.def_5243 ((_ sign_extend 24) st3)))(let ((.def_5249 (bvadd .def_5243 .def_5247)))(let ((.def_5242 ((_ sign_extend 24) st4)))(let ((.def_5251 (bvadd .def_5242 .def_5249)))(let ((.def_5241 ((_ sign_extend 24) st5)))(let ((.def_5253 (bvadd .def_5241 .def_5251)))(let ((.def_5239 ((_ sign_extend 24) st6)))(let ((.def_5240 (bvneg .def_5239)))(let ((.def_5254 (= .def_5240 .def_5253))).def_5254)))))))))))))
(assert (let ((.def_5257 ((_ sign_extend 24) p5_old)))(let ((.def_5190 ((_ sign_extend 24) id6)))(let ((.def_5258 (= .def_5190 .def_5257))).def_5258))))
(assert (let ((.def_5261 ((_ sign_extend 24) p6_old)))(let ((.def_5197 ((_ sign_extend 24) id1)))(let ((.def_5262 (= .def_5197 .def_5261))).def_5262))))
(assert (let ((.def_5265 ((_ sign_extend 24) p1_old)))(let ((.def_5201 ((_ sign_extend 24) id2)))(let ((.def_5266 (= .def_5201 .def_5265))).def_5266))))
(assert (let ((.def_5269 ((_ sign_extend 24) p2_old)))(let ((.def_5207 ((_ sign_extend 24) id3)))(let ((.def_5270 (= .def_5207 .def_5269))).def_5270))))
(assert (let ((.def_5273 ((_ sign_extend 24) p3_old)))(let ((.def_5213 ((_ sign_extend 24) id4)))(let ((.def_5274 (= .def_5213 .def_5273))).def_5274))))
(assert (let ((.def_5277 ((_ sign_extend 24) p4_old)))(let ((.def_5222 ((_ sign_extend 24) id5)))(let ((.def_5278 (= .def_5222 .def_5277))).def_5278))))
(assert (let ((.def_5245 ((_ sign_extend 24) st1)))(let ((.def_5241 ((_ sign_extend 24) st5)))(let ((.def_11769 (= .def_5241 .def_5245))).def_11769))))
(assert (let ((.def_5245 ((_ sign_extend 24) st1)))(let ((.def_5242 ((_ sign_extend 24) st4)))(let ((.def_11771 (= .def_5242 .def_5245))).def_11771))))
(assert (let ((.def_5244 ((_ sign_extend 24) st2)))(let ((.def_5243 ((_ sign_extend 24) st3)))(let ((.def_11773 (= .def_5243 .def_5244))).def_11773))))
(assert (let ((.def_11775 (= st4 (_ bv1 8)))).def_11775))
(assert (let ((.def_11777 (= st5 (_ bv1 8)))).def_11777))
(assert (let ((.def_11779 (= st1 (_ bv1 8)))).def_11779))
(assert (let ((.def_5244 ((_ sign_extend 24) st2)))(let ((.def_5242 ((_ sign_extend 24) st4)))(let ((.def_11781 (= .def_5242 .def_5244))).def_11781))))
(assert (let ((.def_5243 ((_ sign_extend 24) st3)))(let ((.def_5241 ((_ sign_extend 24) st5)))(let ((.def_11783 (= .def_5241 .def_5243))).def_11783))))
(assert (let ((.def_5245 ((_ sign_extend 24) st1)))(let ((.def_5243 ((_ sign_extend 24) st3)))(let ((.def_11785 (= .def_5243 .def_5245))).def_11785))))
(assert (let ((.def_11787 (= st3 (_ bv1 8)))).def_11787))
(assert (let ((.def_5245 ((_ sign_extend 24) st1)))(let ((.def_5244 ((_ sign_extend 24) st2)))(let ((.def_11789 (= .def_5244 .def_5245))).def_11789))))
(assert (let ((.def_11791 (= st2 (_ bv1 8)))).def_11791))
(assert (let ((.def_5244 ((_ sign_extend 24) st2)))(let ((.def_5241 ((_ sign_extend 24) st5)))(let ((.def_11793 (= .def_5241 .def_5244))).def_11793))))
(assert (let ((.def_5243 ((_ sign_extend 24) st3)))(let ((.def_5242 ((_ sign_extend 24) st4)))(let ((.def_11795 (= .def_5242 .def_5243))).def_11795))))
(assert (let ((.def_5242 ((_ sign_extend 24) st4)))(let ((.def_5241 ((_ sign_extend 24) st5)))(let ((.def_11797 (= .def_5241 .def_5242))).def_11797))))
(assert (let ((.def_11799 ((_ zero_extend 24) r1)))(let ((.def_11800 (bvslt .def_11799 (_ bv6 32)))).def_11800)))
(assert (let ((.def_5213 ((_ sign_extend 24) id4)))(let ((.def_5209 ((_ sign_extend 24) send2)))(let ((.def_21702 (= .def_5209 .def_5213))).def_21702))))
(assert (let ((.def_5215 ((_ sign_extend 24) send3)))(let ((.def_5213 ((_ sign_extend 24) id4)))(let ((.def_21704 (bvslt .def_5213 .def_5215))).def_21704))))
(assert (let ((.def_5191 ((_ sign_extend 24) send5)))(let ((.def_5190 ((_ sign_extend 24) id6)))(let ((.def_21706 (bvslt .def_5190 .def_5191))).def_21706))))
(assert (let ((.def_5223 ((_ sign_extend 24) send4)))(let ((.def_5222 ((_ sign_extend 24) id5)))(let ((.def_21708 (bvslt .def_5222 .def_5223))).def_21708))))
(assert (let ((.def_5222 ((_ sign_extend 24) id5)))(let ((.def_5191 ((_ sign_extend 24) send5)))(let ((.def_21710 (= .def_5191 .def_5222))).def_21710))))
(assert (let ((.def_5222 ((_ sign_extend 24) id5)))(let ((.def_5215 ((_ sign_extend 24) send3)))(let ((.def_21712 (= .def_5215 .def_5222))).def_21712))))
(assert (let ((.def_21714 (= st4 st5))).def_21714))
(assert (let ((.def_21716 (= st1 st2))).def_21716))
(assert (let ((.def_21718 (= st1 st3))).def_21718))
(assert (let ((.def_21720 (= st1 st4))).def_21720))
(assert (let ((.def_21722 (= st1 st5))).def_21722))
(assert (let ((.def_21724 (= id4 send3))).def_21724))
(assert (let ((.def_5223 ((_ sign_extend 24) send4)))(let ((.def_5213 ((_ sign_extend 24) id4)))(let ((.def_21726 (= .def_5213 .def_5223))).def_21726))))
(assert (let ((.def_5223 ((_ sign_extend 24) send4)))(let ((.def_5190 ((_ sign_extend 24) id6)))(let ((.def_21728 (= .def_5190 .def_5223))).def_21728))))
(assert (let ((.def_5203 ((_ sign_extend 24) send1)))(let ((.def_5201 ((_ sign_extend 24) id2)))(let ((.def_21730 (bvslt .def_5201 .def_5203))).def_21730))))
(assert (let ((.def_5201 ((_ sign_extend 24) id2)))(let ((.def_5195 ((_ sign_extend 24) send6)))(let ((.def_21732 (= .def_5195 .def_5201))).def_21732))))
(assert (let ((.def_5209 ((_ sign_extend 24) send2)))(let ((.def_5201 ((_ sign_extend 24) id2)))(let ((.def_21734 (= .def_5201 .def_5209))).def_21734))))
(assert (let ((.def_5209 ((_ sign_extend 24) send2)))(let ((.def_5207 ((_ sign_extend 24) id3)))(let ((.def_21736 (bvslt .def_5207 .def_5209))).def_21736))))
(assert (let ((.def_5207 ((_ sign_extend 24) id3)))(let ((.def_5203 ((_ sign_extend 24) send1)))(let ((.def_21738 (= .def_5203 .def_5207))).def_21738))))
(assert (let ((.def_5195 ((_ sign_extend 24) send6)))(let ((.def_5197 ((_ sign_extend 24) id1)))(let ((.def_21740 (bvslt .def_5197 .def_5195))).def_21740))))
(assert (let ((.def_5226 ((_ sign_extend 24) nomsg)))(let ((.def_5195 ((_ sign_extend 24) send6)))(let ((.def_21742 (= .def_5195 .def_5226))).def_21742))))
(assert (let ((.def_5197 ((_ sign_extend 24) id1)))(let ((.def_5191 ((_ sign_extend 24) send5)))(let ((.def_21744 (= .def_5191 .def_5197))).def_21744))))
(assert (let ((.def_5226 ((_ sign_extend 24) nomsg)))(let ((.def_5209 ((_ sign_extend 24) send2)))(let ((.def_21746 (= .def_5209 .def_5226))).def_21746))))
(assert (let ((.def_21748 (= nomsg send5))).def_21748))
(assert (let ((.def_5215 ((_ sign_extend 24) send3)))(let ((.def_21751 (= .def_5215 |node3::__CPAchecker_TMP_0|))).def_21751)))
(assert (let ((.def_21753 ((_ extract 7 0) |node3::__CPAchecker_TMP_0|)))(let ((.def_21754 (= p3_old .def_21753))).def_21754)))
(assert (let ((.def_5269 ((_ sign_extend 24) p2_old)))(let ((.def_5213 ((_ sign_extend 24) id4)))(let ((.def_21756 (= .def_5213 .def_5269))).def_21756))))
(assert (let ((.def_5273 ((_ sign_extend 24) p3_old)))(let ((.def_5213 ((_ sign_extend 24) id4)))(let ((.def_21758 (bvslt .def_5213 .def_5273))).def_21758))))
(assert (let ((.def_5191 ((_ sign_extend 24) send5)))(let ((.def_21761 (= .def_5191 |node5::__CPAchecker_TMP_0|))).def_21761)))
(assert (let ((.def_21763 ((_ extract 7 0) |node5::__CPAchecker_TMP_0|)))(let ((.def_21764 (= p5_old .def_21763))).def_21764)))
(assert (let ((.def_5257 ((_ sign_extend 24) p5_old)))(let ((.def_5190 ((_ sign_extend 24) id6)))(let ((.def_21766 (bvslt .def_5190 .def_5257))).def_21766))))
(assert (let ((.def_5277 ((_ sign_extend 24) p4_old)))(let ((.def_5222 ((_ sign_extend 24) id5)))(let ((.def_21768 (bvslt .def_5222 .def_5277))).def_21768))))
(assert (let ((.def_5226 ((_ sign_extend 24) nomsg)))(let ((.def_5222 ((_ sign_extend 24) id5)))(let ((.def_21770 (= .def_5222 .def_5226))).def_21770))))
(assert (let ((.def_5223 ((_ sign_extend 24) send4)))(let ((.def_21773 (= .def_5223 |node4::__CPAchecker_TMP_0|))).def_21773)))
(assert (let ((.def_21775 ((_ extract 7 0) |node4::__CPAchecker_TMP_0|)))(let ((.def_21776 (= p4_old .def_21775))).def_21776)))
(assert (let ((.def_5273 ((_ sign_extend 24) p3_old)))(let ((.def_5222 ((_ sign_extend 24) id5)))(let ((.def_21778 (= .def_5222 .def_5273))).def_21778))))
(assert (let ((.def_5273 ((_ sign_extend 24) p3_old)))(let ((.def_5223 ((_ sign_extend 24) send4)))(let ((.def_21780 (= .def_5223 .def_5273))).def_21780))))
(assert (let ((.def_5213 ((_ sign_extend 24) id4)))(let ((.def_21782 (= .def_5213 |node4::__CPAchecker_TMP_0|))).def_21782)))
(assert (let ((.def_5277 ((_ sign_extend 24) p4_old)))(let ((.def_5190 ((_ sign_extend 24) id6)))(let ((.def_21784 (= .def_5190 .def_5277))).def_21784))))
(assert (let ((.def_5265 ((_ sign_extend 24) p1_old)))(let ((.def_5201 ((_ sign_extend 24) id2)))(let ((.def_21786 (bvslt .def_5201 .def_5265))).def_21786))))
(assert (let ((.def_5203 ((_ sign_extend 24) send1)))(let ((.def_21789 (= .def_5203 |node1::__CPAchecker_TMP_0|))).def_21789)))
(assert (let ((.def_21791 ((_ extract 7 0) |node1::__CPAchecker_TMP_0|)))(let ((.def_21792 (= p1_old .def_21791))).def_21792)))
(assert (let ((.def_5261 ((_ sign_extend 24) p6_old)))(let ((.def_5201 ((_ sign_extend 24) id2)))(let ((.def_21794 (= .def_5201 .def_5261))).def_21794))))
(assert (let ((.def_5226 ((_ sign_extend 24) nomsg)))(let ((.def_5201 ((_ sign_extend 24) id2)))(let ((.def_21796 (= .def_5201 .def_5226))).def_21796))))
(assert (let ((.def_5273 ((_ sign_extend 24) p3_old)))(let ((.def_5226 ((_ sign_extend 24) nomsg)))(let ((.def_21798 (= .def_5226 .def_5273))).def_21798))))
(assert (let ((.def_5269 ((_ sign_extend 24) p2_old)))(let ((.def_5207 ((_ sign_extend 24) id3)))(let ((.def_21800 (bvslt .def_5207 .def_5269))).def_21800))))
(assert (let ((.def_5209 ((_ sign_extend 24) send2)))(let ((.def_21803 (= .def_5209 |node2::__CPAchecker_TMP_0|))).def_21803)))
(assert (let ((.def_21805 ((_ extract 7 0) |node2::__CPAchecker_TMP_0|)))(let ((.def_21806 (= p2_old .def_21805))).def_21806)))
(assert (let ((.def_5265 ((_ sign_extend 24) p1_old)))(let ((.def_5207 ((_ sign_extend 24) id3)))(let ((.def_21808 (= .def_5207 .def_5265))).def_21808))))
(assert (let ((.def_5261 ((_ sign_extend 24) p6_old)))(let ((.def_5197 ((_ sign_extend 24) id1)))(let ((.def_21810 (bvslt .def_5197 .def_5261))).def_21810))))
(assert (let ((.def_21812 (= send6 p6_old))).def_21812))
(assert (let ((.def_5195 ((_ sign_extend 24) send6)))(let ((.def_21815 (= .def_5195 |node6::__CPAchecker_TMP_0|))).def_21815)))
(assert (let ((.def_21817 ((_ extract 7 0) |node6::__CPAchecker_TMP_0|)))(let ((.def_21818 (= p6_old .def_21817))).def_21818)))
(assert (let ((.def_5257 ((_ sign_extend 24) p5_old)))(let ((.def_5197 ((_ sign_extend 24) id1)))(let ((.def_21820 (= .def_5197 .def_5257))).def_21820))))
(assert (let ((.def_5269 ((_ sign_extend 24) p2_old)))(let ((.def_5226 ((_ sign_extend 24) nomsg)))(let ((.def_21822 (= .def_5226 .def_5269))).def_21822))))
(assert (let ((.def_5257 ((_ sign_extend 24) p5_old)))(let ((.def_5226 ((_ sign_extend 24) nomsg)))(let ((.def_21824 (= .def_5226 .def_5257))).def_21824))))
(assert (let ((.def_21826 (= st6 (_ bv1 8)))).def_21826))
(assert (let ((.def_5243 ((_ sign_extend 24) st3)))(let ((.def_21828 (= .def_5243 (_ bv4294967293 32)))).def_21828)))
(assert (let ((.def_5243 ((_ sign_extend 24) st3)))(let ((.def_21830 (= .def_5243 (_ bv4294967294 32)))).def_21830)))
(assert (let ((.def_21832 (= st3 (_ bv255 8)))).def_21832))
(assert (let ((.def_21834 (= send3 send4))).def_21834))
(assert (let ((.def_21836 (= r1 (_ bv1 8)))).def_21836))
(assert (let ((.def_5239 ((_ sign_extend 24) st6)))(let ((.def_21838 (= .def_5239 (_ bv4294967294 32)))).def_21838)))
(assert (let ((.def_5239 ((_ sign_extend 24) st6)))(let ((.def_21840 (= .def_5239 (_ bv4294967293 32)))).def_21840)))
(assert (let ((.def_5239 ((_ sign_extend 24) st6)))(let ((.def_21842 (= .def_5239 (_ bv4294967291 32)))).def_21842)))
(assert (let ((.def_5239 ((_ sign_extend 24) st6)))(let ((.def_21844 (= .def_5239 (_ bv4294967292 32)))).def_21844)))
(assert (let ((.def_21846 (= st6 (_ bv255 8)))).def_21846))
(assert (let ((.def_21848 (= send4 p3_old))).def_21848))
(assert (let ((.def_5261 ((_ sign_extend 24) p6_old)))(let ((.def_5226 ((_ sign_extend 24) nomsg)))(let ((.def_21850 (= .def_5226 .def_5261))).def_21850))))

assert N438:
(assert false)
(assert (let ((.def_2592 (= |assert::arg| (_ bv0 8)))).def_2592))

