(set-info :source |printed by MathSAT|)
(declare-fun c_last_read () (_ BitVec 32))
(declare-fun p_last_write () (_ BitVec 32))
(declare-fun c_num_read () (_ BitVec 32))
(declare-fun p_num_write () (_ BitVec 32))
(declare-fun c_dr_pc () (_ BitVec 32))
(declare-fun q_free () (_ BitVec 32))
(declare-fun q_buf_0 () (_ BitVec 32))
(declare-fun p_dw_pc () (_ BitVec 32))
(declare-fun q_read_ev () (_ BitVec 32))
(declare-fun c_dr_st () (_ BitVec 32))
(declare-fun p_dw_st () (_ BitVec 32))
(declare-fun m_pc () (_ BitVec 32))
(declare-fun t1_pc () (_ BitVec 32))
(declare-fun t2_pc () (_ BitVec 32))
(declare-fun t3_pc () (_ BitVec 32))
(declare-fun t4_pc () (_ BitVec 32))
(declare-fun t5_pc () (_ BitVec 32))
(declare-fun t6_pc () (_ BitVec 32))
(declare-fun t7_pc () (_ BitVec 32))
(declare-fun t8_pc () (_ BitVec 32))
(declare-fun t9_pc () (_ BitVec 32))
(declare-fun t10_pc () (_ BitVec 32))
(declare-fun t11_pc () (_ BitVec 32))
(declare-fun m_st () (_ BitVec 32))

*:
(assert (let ((.def_660 (= c_last_read p_last_write))).def_660))
(assert (let ((.def_669 (= c_num_read p_num_write))).def_669))

error1 N4:
(assert false)
(assert (let ((.def_660 (= c_last_read p_last_write))).def_660))
(assert (let ((.def_669 (= c_num_read p_num_write))).def_669))

do_write_p N64:
(assert (let ((.def_1004 (= c_dr_pc (_ bv0 32)))).def_1004))
(assert (let ((.def_660 (= c_last_read p_last_write))).def_660))
(assert (let ((.def_669 (= c_num_read p_num_write))).def_669))
(assert (let ((.def_1107 (= q_free (_ bv1 32)))).def_1107))
(assert false)
(assert (let ((.def_1450 (= p_last_write q_buf_0))).def_1450))
(assert (let ((.def_1110 (= p_dw_pc (_ bv1 32)))).def_1110))
(assert (let ((.def_1639 (bvadd (_ bv1 32) c_num_read)))(let ((.def_1640 (= p_num_write .def_1639))).def_1640)))
(assert (let ((.def_2531 (= q_free (_ bv0 32)))).def_2531))
(assert (let ((.def_1642 (= c_dr_pc (_ bv1 32)))).def_1642))
(assert (let ((.def_5332 (= q_read_ev (_ bv1 32)))).def_5332))

do_read_c N100:
(assert (let ((.def_1110 (= p_dw_pc (_ bv1 32)))).def_1110))
(assert (let ((.def_1107 (= q_free (_ bv1 32)))).def_1107))
(assert (let ((.def_660 (= c_last_read p_last_write))).def_660))
(assert (let ((.def_669 (= c_num_read p_num_write))).def_669))
(assert (let ((.def_1450 (= p_last_write q_buf_0))).def_1450))
(assert (let ((.def_1639 (bvadd (_ bv1 32) c_num_read)))(let ((.def_1640 (= p_num_write .def_1639))).def_1640)))
(assert (let ((.def_1642 (= c_dr_pc (_ bv1 32)))).def_1642))
(assert false)

eval1 N170:
(assert (let ((.def_1004 (= c_dr_pc (_ bv0 32)))).def_1004))
(assert (let ((.def_660 (= c_last_read p_last_write))).def_660))
(assert (let ((.def_669 (= c_num_read p_num_write))).def_669))
(assert (let ((.def_1107 (= q_free (_ bv1 32)))).def_1107))
(assert (let ((.def_1380 (= p_dw_pc (_ bv0 32)))).def_1380))
(assert (let ((.def_1642 (= c_dr_pc (_ bv1 32)))).def_1642))
(assert (let ((.def_3954 (= c_dr_st (_ bv0 32)))).def_3954))
(assert (let ((.def_1110 (= p_dw_pc (_ bv1 32)))).def_1110))
(assert (let ((.def_5332 (= q_read_ev (_ bv1 32)))).def_5332))
(assert (let ((.def_5335 (= p_dw_st (_ bv0 32)))).def_5335))
(assert (let ((.def_1450 (= p_last_write q_buf_0))).def_1450))
(assert (let ((.def_1639 (bvadd (_ bv1 32) c_num_read)))(let ((.def_1640 (= p_num_write .def_1639))).def_1640)))

start_simulation1 N221:
(assert (let ((.def_1004 (= c_dr_pc (_ bv0 32)))).def_1004))
(assert (let ((.def_660 (= c_last_read p_last_write))).def_660))
(assert (let ((.def_669 (= c_num_read p_num_write))).def_669))
(assert (let ((.def_1107 (= q_free (_ bv1 32)))).def_1107))
(assert (let ((.def_1380 (= p_dw_pc (_ bv0 32)))).def_1380))
(assert (let ((.def_5332 (= q_read_ev (_ bv1 32)))).def_5332))

error2 N260:
(assert false)
(assert (let ((.def_660 (= c_last_read p_last_write))).def_660))
(assert (let ((.def_669 (= c_num_read p_num_write))).def_669))

eval2 N947:
(assert (let ((.def_8262 (= m_pc (_ bv0 32)))).def_8262))
(assert (let ((.def_660 (= c_last_read p_last_write))).def_660))
(assert (let ((.def_669 (= c_num_read p_num_write))).def_669))
(assert (let ((.def_19127 (= t1_pc (_ bv0 32)))).def_19127))
(assert (let ((.def_19130 (= t2_pc (_ bv0 32)))).def_19130))
(assert (let ((.def_19133 (= t3_pc (_ bv0 32)))).def_19133))
(assert (let ((.def_19136 (= t4_pc (_ bv0 32)))).def_19136))
(assert (let ((.def_19139 (= t5_pc (_ bv0 32)))).def_19139))
(assert (let ((.def_19142 (= t6_pc (_ bv0 32)))).def_19142))
(assert (let ((.def_19145 (= t7_pc (_ bv0 32)))).def_19145))
(assert (let ((.def_19148 (= t8_pc (_ bv0 32)))).def_19148))
(assert (let ((.def_19151 (= t9_pc (_ bv0 32)))).def_19151))
(assert (let ((.def_19154 (= t10_pc (_ bv0 32)))).def_19154))
(assert (let ((.def_19157 (= t11_pc (_ bv0 32)))).def_19157))
(assert (let ((.def_19159 (= m_pc (_ bv1 32)))).def_19159))
(assert (let ((.def_19161 (= t1_pc (_ bv1 32)))).def_19161))
(assert (let ((.def_19163 (= t2_pc (_ bv1 32)))).def_19163))
(assert (let ((.def_19165 (= t3_pc (_ bv1 32)))).def_19165))
(assert (let ((.def_19167 (= t4_pc (_ bv1 32)))).def_19167))
(assert (let ((.def_19169 (= t5_pc (_ bv1 32)))).def_19169))
(assert (let ((.def_19171 (= t6_pc (_ bv1 32)))).def_19171))
(assert (let ((.def_19173 (= t7_pc (_ bv1 32)))).def_19173))
(assert (let ((.def_19175 (= t8_pc (_ bv1 32)))).def_19175))
(assert (let ((.def_19177 (= t9_pc (_ bv1 32)))).def_19177))
(assert (let ((.def_19179 (= t10_pc (_ bv1 32)))).def_19179))
(assert (let ((.def_19181 (= t11_pc (_ bv1 32)))).def_19181))
(assert (let ((.def_19184 (= m_st (_ bv0 32)))).def_19184))

start_simulation2 N1507:
(assert (let ((.def_8262 (= m_pc (_ bv0 32)))).def_8262))
(assert (let ((.def_660 (= c_last_read p_last_write))).def_660))
(assert (let ((.def_669 (= c_num_read p_num_write))).def_669))
(assert (let ((.def_19127 (= t1_pc (_ bv0 32)))).def_19127))
(assert (let ((.def_19130 (= t2_pc (_ bv0 32)))).def_19130))
(assert (let ((.def_19133 (= t3_pc (_ bv0 32)))).def_19133))
(assert (let ((.def_19136 (= t4_pc (_ bv0 32)))).def_19136))
(assert (let ((.def_19139 (= t5_pc (_ bv0 32)))).def_19139))
(assert (let ((.def_19142 (= t6_pc (_ bv0 32)))).def_19142))
(assert (let ((.def_19145 (= t7_pc (_ bv0 32)))).def_19145))
(assert (let ((.def_19148 (= t8_pc (_ bv0 32)))).def_19148))
(assert (let ((.def_19151 (= t9_pc (_ bv0 32)))).def_19151))
(assert (let ((.def_19154 (= t10_pc (_ bv0 32)))).def_19154))
(assert (let ((.def_19157 (= t11_pc (_ bv0 32)))).def_19157))
(assert (let ((.def_19159 (= m_pc (_ bv1 32)))).def_19159))
(assert (let ((.def_19161 (= t1_pc (_ bv1 32)))).def_19161))
(assert (let ((.def_19163 (= t2_pc (_ bv1 32)))).def_19163))
(assert (let ((.def_19165 (= t3_pc (_ bv1 32)))).def_19165))
(assert (let ((.def_19167 (= t4_pc (_ bv1 32)))).def_19167))
(assert (let ((.def_19169 (= t5_pc (_ bv1 32)))).def_19169))
(assert (let ((.def_19171 (= t6_pc (_ bv1 32)))).def_19171))
(assert (let ((.def_19173 (= t7_pc (_ bv1 32)))).def_19173))
(assert (let ((.def_19175 (= t8_pc (_ bv1 32)))).def_19175))
(assert (let ((.def_19177 (= t9_pc (_ bv1 32)))).def_19177))
(assert (let ((.def_19179 (= t10_pc (_ bv1 32)))).def_19179))
(assert (let ((.def_19181 (= t11_pc (_ bv1 32)))).def_19181))

