(set-info :source |printed by MathSAT|)
(declare-fun a20 () (_ BitVec 32))
(declare-fun a25 () (_ BitVec 32))
(declare-fun a12 () (_ BitVec 32))
(declare-fun a15 () (_ BitVec 32))
(declare-fun a16 () (_ BitVec 32))
(declare-fun a2 () (_ BitVec 32))
(declare-fun a27 () (_ BitVec 32))
(declare-fun a9 () (_ BitVec 32))
(declare-fun |calculate_output8::input| () (_ BitVec 32))
(declare-fun |calculate_output7::input| () (_ BitVec 32))
(declare-fun m_pc () (_ BitVec 32))
(declare-fun t1_pc () (_ BitVec 32))
(declare-fun t2_pc () (_ BitVec 32))
(declare-fun t3_pc () (_ BitVec 32))
(declare-fun t4_pc () (_ BitVec 32))
(declare-fun t5_pc () (_ BitVec 32))
(declare-fun t6_pc () (_ BitVec 32))
(declare-fun t7_pc () (_ BitVec 32))
(declare-fun t8_pc () (_ BitVec 32))
(declare-fun m_st () (_ BitVec 32))
(declare-fun t4_st () (_ BitVec 32))
(declare-fun t1_st () (_ BitVec 32))
(declare-fun E_5 () (_ BitVec 32))
(declare-fun E_3 () (_ BitVec 32))
(declare-fun E_6 () (_ BitVec 32))
(declare-fun E_4 () (_ BitVec 32))
(declare-fun E_2 () (_ BitVec 32))
(declare-fun E_M () (_ BitVec 32))
(declare-fun E_7 () (_ BitVec 32))
(declare-fun t6_st () (_ BitVec 32))
(declare-fun E_8 () (_ BitVec 32))
(declare-fun t2_st () (_ BitVec 32))
(declare-fun t5_st () (_ BitVec 32))
(declare-fun t3_st () (_ BitVec 32))
(declare-fun t7_st () (_ BitVec 32))
(declare-fun t8_st () (_ BitVec 32))
(declare-fun E_1 () (_ BitVec 32))
(declare-fun local () (_ BitVec 32))
(declare-fun token () (_ BitVec 32))

*:
(assert (let ((.def_107306 (= a20 (_ bv5 32)))).def_107306))

calculate_output8 N29965:
(assert false)
(assert (let ((.def_107306 (= a20 (_ bv5 32)))).def_107306))

main1 N30136:
(assert (let ((.def_107306 (= a20 (_ bv5 32)))).def_107306))
(assert (let ((.def_154722 (= a25 (_ bv1 32)))).def_154722))
(assert (let ((.def_154725 (= a12 (_ bv4 32)))).def_154725))
(assert (let ((.def_154728 (= a15 (_ bv1 32)))).def_154728))
(assert (let ((.def_154731 (= a16 (_ bv1 32)))).def_154731))
(assert (let ((.def_154734 (= a2 (_ bv10 32)))).def_154734))
(assert (let ((.def_154737 (= a27 (_ bv1 32)))).def_154737))
(assert (let ((.def_154740 (= a9 (_ bv18 32)))).def_154740))
(assert (let ((.def_320687 (= a9 (_ bv17 32)))).def_320687))
(assert (let ((.def_320689 (= a2 (_ bv12 32)))).def_320689))
(assert (let ((.def_320691 (= a2 (_ bv11 32)))).def_320691))
(assert (let ((.def_320693 (= a2 (_ bv9 32)))).def_320693))
(assert (let ((.def_320695 (= a12 (_ bv3 32)))).def_320695))
(assert (let ((.def_320697 (= a20 (_ bv6 32)))).def_320697))
(assert (let ((.def_320699 (= a2 (_ bv13 32)))).def_320699))
(assert (let ((.def_320701 (= a9 (_ bv16 32)))).def_320701))
(assert (let ((.def_1059072 (= a12 (_ bv5 32)))).def_1059072))
(assert (let ((.def_1059076 (= |calculate_output8::input| |calculate_output7::input|))).def_1059076))
(assert (let ((.def_1059078 (= |calculate_output7::input| (_ bv1 32)))).def_1059078))
(assert (let ((.def_1059080 (= |calculate_output8::input| (_ bv1 32)))).def_1059080))
(assert (let ((.def_1059082 (= a12 (_ bv6 32)))).def_1059082))
(assert (let ((.def_1059084 (= a12 (_ bv2 32)))).def_1059084))
(assert (let ((.def_1059086 (= a20 (_ bv7 32)))).def_1059086))

error N30154:
(assert false)
(assert (let ((.def_107306 (= a20 (_ bv5 32)))).def_107306))

eval N30666:
(assert (let ((.def_1269355 (= m_pc (_ bv0 32)))).def_1269355))
(assert (let ((.def_107306 (= a20 (_ bv5 32)))).def_107306))
(assert (let ((.def_1275761 (= t1_pc (_ bv0 32)))).def_1275761))
(assert (let ((.def_1275764 (= t2_pc (_ bv0 32)))).def_1275764))
(assert (let ((.def_1275767 (= t3_pc (_ bv0 32)))).def_1275767))
(assert (let ((.def_1275770 (= t4_pc (_ bv0 32)))).def_1275770))
(assert (let ((.def_1275773 (= t5_pc (_ bv0 32)))).def_1275773))
(assert (let ((.def_1275776 (= t6_pc (_ bv0 32)))).def_1275776))
(assert (let ((.def_1275779 (= t7_pc (_ bv0 32)))).def_1275779))
(assert (let ((.def_1275782 (= t8_pc (_ bv0 32)))).def_1275782))
(assert (let ((.def_1275784 (= m_pc (_ bv1 32)))).def_1275784))
(assert (let ((.def_1275786 (= t1_pc (_ bv1 32)))).def_1275786))
(assert (let ((.def_1275788 (= t2_pc (_ bv1 32)))).def_1275788))
(assert (let ((.def_1275790 (= t3_pc (_ bv1 32)))).def_1275790))
(assert (let ((.def_1275792 (= t4_pc (_ bv1 32)))).def_1275792))
(assert (let ((.def_1275794 (= t5_pc (_ bv1 32)))).def_1275794))
(assert (let ((.def_1275796 (= t6_pc (_ bv1 32)))).def_1275796))
(assert (let ((.def_1275798 (= t7_pc (_ bv1 32)))).def_1275798))
(assert (let ((.def_1275800 (= t8_pc (_ bv1 32)))).def_1275800))
(assert (let ((.def_1275803 (= m_st (_ bv0 32)))).def_1275803))
(assert (let ((.def_1293428 (= t4_st (_ bv0 32)))).def_1293428))
(assert (let ((.def_1293431 (= t1_st (_ bv0 32)))).def_1293431))
(assert (let ((.def_1293434 (= E_5 (_ bv2 32)))).def_1293434))
(assert (let ((.def_1293437 (= E_3 (_ bv1 32)))).def_1293437))
(assert (let ((.def_1293440 (= E_6 (_ bv1 32)))).def_1293440))
(assert (let ((.def_1293442 (= E_5 (_ bv1 32)))).def_1293442))
(assert (let ((.def_1293445 (= E_4 (_ bv1 32)))).def_1293445))
(assert (let ((.def_1293448 (= E_2 (_ bv1 32)))).def_1293448))
(assert (let ((.def_1293451 (= E_M (_ bv1 32)))).def_1293451))
(assert (let ((.def_1293454 (= E_7 (_ bv1 32)))).def_1293454))
(assert (let ((.def_1293457 (= t6_st (_ bv0 32)))).def_1293457))
(assert (let ((.def_1293460 (= E_8 (_ bv1 32)))).def_1293460))
(assert (let ((.def_1293463 (= t2_st (_ bv0 32)))).def_1293463))
(assert (let ((.def_1293466 (= t5_st (_ bv0 32)))).def_1293466))
(assert (let ((.def_1293469 (= t3_st (_ bv0 32)))).def_1293469))
(assert (let ((.def_1293472 (= t7_st (_ bv0 32)))).def_1293472))
(assert (let ((.def_1293475 (= t8_st (_ bv0 32)))).def_1293475))
(assert (let ((.def_1293477 (= m_st (_ bv2 32)))).def_1293477))
(assert (let ((.def_1293480 (= E_1 (_ bv1 32)))).def_1293480))
(assert (let ((.def_1293483 (bvadd (_ bv8 32) local)))(let ((.def_1293485 (= .def_1293483 token))).def_1293485)))
(assert (let ((.def_1355666 (= local (_ bv0 32)))).def_1355666))
(assert (let ((.def_1355668 (= token (_ bv0 32)))).def_1355668))
(assert (let ((.def_1355670 (= E_7 (_ bv2 32)))).def_1355670))
(assert (let ((.def_1355672 (= E_4 (_ bv2 32)))).def_1355672))
(assert (let ((.def_1355674 (= E_2 (_ bv2 32)))).def_1355674))
(assert (let ((.def_1355676 (= E_3 (_ bv2 32)))).def_1355676))
(assert (let ((.def_1355678 (= E_6 (_ bv2 32)))).def_1355678))
(assert (let ((.def_1355680 (= t8_st (_ bv2 32)))).def_1355680))
(assert (let ((.def_1355682 (= t5_st (_ bv2 32)))).def_1355682))
(assert (let ((.def_1355684 (= t3_st (_ bv2 32)))).def_1355684))
(assert (let ((.def_1355686 (bvadd (_ bv5 32) local)))(let ((.def_1355687 (= token .def_1355686))).def_1355687)))
(assert (let ((.def_1355689 (= local token))).def_1355689))
(assert (let ((.def_1355691 (bvadd (_ bv7 32) local)))(let ((.def_1355692 (= token .def_1355691))).def_1355692)))
(assert (let ((.def_1355694 (bvadd (_ bv3 32) local)))(let ((.def_1355695 (= token .def_1355694))).def_1355695)))
(assert (let ((.def_1355697 (bvadd (_ bv4 32) local)))(let ((.def_1355698 (= token .def_1355697))).def_1355698)))
(assert (let ((.def_1355700 (bvadd (_ bv6 32) local)))(let ((.def_1355701 (= token .def_1355700))).def_1355701)))
(assert (let ((.def_1355703 (bvadd (_ bv2 32) local)))(let ((.def_1355704 (= token .def_1355703))).def_1355704)))
(assert false)
(assert (let ((.def_1355708 (bvadd (_ bv1 32) local)))(let ((.def_1355709 (= token .def_1355708))).def_1355709)))

start_simulation N31103:
(assert (let ((.def_1269355 (= m_pc (_ bv0 32)))).def_1269355))
(assert (let ((.def_107306 (= a20 (_ bv5 32)))).def_107306))
(assert (let ((.def_1275761 (= t1_pc (_ bv0 32)))).def_1275761))
(assert (let ((.def_1275764 (= t2_pc (_ bv0 32)))).def_1275764))
(assert (let ((.def_1275767 (= t3_pc (_ bv0 32)))).def_1275767))
(assert (let ((.def_1275770 (= t4_pc (_ bv0 32)))).def_1275770))
(assert (let ((.def_1275773 (= t5_pc (_ bv0 32)))).def_1275773))
(assert (let ((.def_1275776 (= t6_pc (_ bv0 32)))).def_1275776))
(assert (let ((.def_1275779 (= t7_pc (_ bv0 32)))).def_1275779))
(assert (let ((.def_1275782 (= t8_pc (_ bv0 32)))).def_1275782))
(assert (let ((.def_1275784 (= m_pc (_ bv1 32)))).def_1275784))
(assert (let ((.def_1275786 (= t1_pc (_ bv1 32)))).def_1275786))
(assert (let ((.def_1275788 (= t2_pc (_ bv1 32)))).def_1275788))
(assert (let ((.def_1275790 (= t3_pc (_ bv1 32)))).def_1275790))
(assert (let ((.def_1275792 (= t4_pc (_ bv1 32)))).def_1275792))
(assert (let ((.def_1275794 (= t5_pc (_ bv1 32)))).def_1275794))
(assert (let ((.def_1275796 (= t6_pc (_ bv1 32)))).def_1275796))
(assert (let ((.def_1275798 (= t7_pc (_ bv1 32)))).def_1275798))
(assert (let ((.def_1275800 (= t8_pc (_ bv1 32)))).def_1275800))
(assert (let ((.def_1293428 (= t4_st (_ bv0 32)))).def_1293428))
(assert (let ((.def_1293431 (= t1_st (_ bv0 32)))).def_1293431))
(assert (let ((.def_1293434 (= E_5 (_ bv2 32)))).def_1293434))
(assert (let ((.def_1293437 (= E_3 (_ bv1 32)))).def_1293437))
(assert (let ((.def_1293440 (= E_6 (_ bv1 32)))).def_1293440))
(assert (let ((.def_1293442 (= E_5 (_ bv1 32)))).def_1293442))
(assert (let ((.def_1293445 (= E_4 (_ bv1 32)))).def_1293445))
(assert (let ((.def_1293448 (= E_2 (_ bv1 32)))).def_1293448))
(assert (let ((.def_1293451 (= E_M (_ bv1 32)))).def_1293451))
(assert (let ((.def_1293454 (= E_7 (_ bv1 32)))).def_1293454))
(assert (let ((.def_1293457 (= t6_st (_ bv0 32)))).def_1293457))
(assert (let ((.def_1293460 (= E_8 (_ bv1 32)))).def_1293460))
(assert (let ((.def_1293463 (= t2_st (_ bv0 32)))).def_1293463))
(assert (let ((.def_1275803 (= m_st (_ bv0 32)))).def_1275803))
(assert (let ((.def_1355666 (= local (_ bv0 32)))).def_1355666))
(assert (let ((.def_1355668 (= token (_ bv0 32)))).def_1355668))
(assert (let ((.def_1355670 (= E_7 (_ bv2 32)))).def_1355670))
(assert (let ((.def_1355672 (= E_4 (_ bv2 32)))).def_1355672))
(assert (let ((.def_1355674 (= E_2 (_ bv2 32)))).def_1355674))
(assert (let ((.def_1355676 (= E_3 (_ bv2 32)))).def_1355676))
(assert (let ((.def_1355678 (= E_6 (_ bv2 32)))).def_1355678))

