(set-info :source |printed by MathSAT|)
(declare-fun |ssl3_connect::blastFlag| () (_ BitVec 32))
(declare-fun |ssl3_connect::s__state| () (_ BitVec 32))
(declare-fun |ssl3_connect::skip| () (_ BitVec 32))
(declare-fun |ssl3_connect::cb| () (_ BitVec 32))
(declare-fun |ssl3_connect::s__s3__tmp__reuse_message| () (_ BitVec 32))
(declare-fun |ssl3_connect::s__s3__tmp__next_state___0| () (_ BitVec 32))
(declare-fun |ssl3_connect::s__hit| () (_ BitVec 32))
(declare-fun |ssl3_accept::blastFlag| () (_ BitVec 32))
(declare-fun |ssl3_accept::s__state| () (_ BitVec 32))
(declare-fun |ssl3_accept::s__s3__tmp__next_state___0| () (_ BitVec 32))
(declare-fun |ssl3_accept::s__hit| () (_ BitVec 32))

ssl3_connect:
(assert (let ((.def_686 (= |ssl3_connect::blastFlag| (_ bv5 32)))).def_686))

ssl3_connect N126:
(assert (let ((.def_1687 (= |ssl3_connect::s__state| (_ bv12292 32)))).def_1687))
(assert (let ((.def_1689 (= |ssl3_connect::blastFlag| (_ bv0 32)))).def_1689))
(assert (let ((.def_686 (= |ssl3_connect::blastFlag| (_ bv5 32)))).def_686))
(assert (let ((.def_3955 (= |ssl3_connect::skip| (_ bv0 32)))).def_3955))
(assert (let ((.def_3957 (= |ssl3_connect::s__state| (_ bv4368 32)))).def_3957))
(assert (let ((.def_3959 (= |ssl3_connect::blastFlag| (_ bv4 32)))).def_3959))
(assert (let ((.def_3961 (= |ssl3_connect::s__state| (_ bv4384 32)))).def_3961))
(assert (let ((.def_3963 (= |ssl3_connect::blastFlag| (_ bv1 32)))).def_3963))
(assert (let ((.def_3965 (= |ssl3_connect::blastFlag| (_ bv2 32)))).def_3965))
(assert (let ((.def_3967 (= |ssl3_connect::blastFlag| (_ bv3 32)))).def_3967))
(assert (let ((.def_8197 (= |ssl3_connect::s__state| (_ bv4385 32)))).def_8197))
(assert (let ((.def_8199 (= |ssl3_connect::s__state| (_ bv4400 32)))).def_8199))
(assert (let ((.def_8201 (= |ssl3_connect::s__state| (_ bv4433 32)))).def_8201))
(assert (let ((.def_8203 (= |ssl3_connect::s__state| (_ bv4432 32)))).def_8203))
(assert (let ((.def_8205 (= |ssl3_connect::s__state| (_ bv4416 32)))).def_8205))
(assert (let ((.def_15129 (= |ssl3_connect::s__state| (_ bv4099 32)))).def_15129))
(assert (let ((.def_15131 (= |ssl3_connect::s__state| (_ bv20480 32)))).def_15131))
(assert (let ((.def_15133 (= |ssl3_connect::s__state| (_ bv4096 32)))).def_15133))
(assert (let ((.def_15135 (= |ssl3_connect::s__state| (_ bv16384 32)))).def_15135))
(assert (let ((.def_15138 (= |ssl3_connect::cb| (_ bv0 32)))).def_15138))
(assert (let ((.def_15141 (= |ssl3_connect::s__s3__tmp__reuse_message| (_ bv0 32)))).def_15141))
(assert (let ((.def_15143 (= |ssl3_connect::s__state| (_ bv4512 32)))).def_15143))
(assert (let ((.def_15145 (= |ssl3_connect::s__state| (_ bv4369 32)))).def_15145))
(assert (let ((.def_15147 (= |ssl3_connect::s__state| (_ bv4352 32)))).def_15147))
(assert (let ((.def_15150 (= |ssl3_connect::s__s3__tmp__next_state___0| (_ bv4560 32)))).def_15150))
(assert (let ((.def_15153 (= |ssl3_connect::s__hit| (_ bv0 32)))).def_15153))
(assert (let ((.def_15155 (= |ssl3_connect::s__state| (_ bv4480 32)))).def_15155))
(assert (let ((.def_15157 (= |ssl3_connect::s__s3__tmp__next_state___0| (_ bv4496 32)))).def_15157))
(assert (let ((.def_15159 (= |ssl3_connect::s__s3__tmp__next_state___0| (_ bv4480 32)))).def_15159))
(assert (let ((.def_15161 (= |ssl3_connect::s__s3__tmp__next_state___0| (_ bv4464 32)))).def_15161))
(assert (let ((.def_15163 (= |ssl3_connect::s__s3__tmp__next_state___0| (_ bv4448 32)))).def_15163))
(assert (let ((.def_15165 (= |ssl3_connect::s__s3__tmp__next_state___0| (_ bv4432 32)))).def_15165))
(assert (let ((.def_15167 (= |ssl3_connect::s__s3__tmp__next_state___0| (_ bv4400 32)))).def_15167))
(assert (let ((.def_15169 (= |ssl3_connect::s__s3__tmp__next_state___0| (_ bv4384 32)))).def_15169))
(assert (let ((.def_15171 (= |ssl3_connect::s__s3__tmp__next_state___0| (_ bv4368 32)))).def_15171))
(assert (let ((.def_15173 (= |ssl3_connect::s__s3__tmp__next_state___0| (_ bv4512 32)))).def_15173))
(assert (let ((.def_15175 (= |ssl3_connect::s__state| |ssl3_connect::s__s3__tmp__next_state___0|))).def_15175))
(assert (let ((.def_15177 (= |ssl3_connect::s__state| (_ bv4560 32)))).def_15177))
(assert (let ((.def_15179 (= |ssl3_connect::s__state| (_ bv4561 32)))).def_15179))
(assert (let ((.def_15181 (= |ssl3_connect::s__s3__tmp__next_state___0| (_ bv4416 32)))).def_15181))
(assert (let ((.def_15183 (= |ssl3_connect::s__s3__tmp__next_state___0| (_ bv3 32)))).def_15183))
(assert (let ((.def_15185 (= |ssl3_connect::s__state| (_ bv4448 32)))).def_15185))
(assert (let ((.def_15187 (= |ssl3_connect::s__state| (_ bv4464 32)))).def_15187))
(assert (let ((.def_15189 (= |ssl3_connect::s__state| (_ bv4496 32)))).def_15189))
(assert (let ((.def_15191 (= |ssl3_connect::s__state| (_ bv4528 32)))).def_15191))
(assert (let ((.def_15193 (= |ssl3_connect::s__s3__tmp__next_state___0| (_ bv4369 32)))).def_15193))
(assert (let ((.def_15195 (= |ssl3_connect::s__state| (_ bv4513 32)))).def_15195))
(assert (let ((.def_15197 (= |ssl3_connect::s__state| (_ bv4497 32)))).def_15197))
(assert (let ((.def_15199 (= |ssl3_connect::s__state| (_ bv4481 32)))).def_15199))
(assert (let ((.def_15201 (= |ssl3_connect::s__state| (_ bv4467 32)))).def_15201))
(assert (let ((.def_15203 (= |ssl3_connect::s__state| (_ bv4466 32)))).def_15203))
(assert (let ((.def_15205 (= |ssl3_connect::s__state| (_ bv4465 32)))).def_15205))
(assert (let ((.def_15207 (= |ssl3_connect::s__state| (_ bv4449 32)))).def_15207))
(assert (let ((.def_15209 (= |ssl3_connect::s__s3__tmp__next_state___0| (_ bv4385 32)))).def_15209))
(assert (let ((.def_15211 (= |ssl3_connect::s__state| (_ bv4401 32)))).def_15211))
(assert (let ((.def_15213 (= |ssl3_connect::s__s3__tmp__next_state___0| (_ bv4417 32)))).def_15213))
(assert (let ((.def_15215 (= |ssl3_connect::s__s3__tmp__next_state___0| (_ bv4352 32)))).def_15215))
(assert (let ((.def_15217 (= |ssl3_connect::s__s3__tmp__next_state___0| (_ bv4401 32)))).def_15217))
(assert (let ((.def_15219 (= |ssl3_connect::s__state| (_ bv4529 32)))).def_15219))
(assert (let ((.def_15221 (= |ssl3_connect::s__state| (_ bv4417 32)))).def_15221))
(assert (let ((.def_15223 (= |ssl3_connect::s__s3__tmp__next_state___0| (_ bv4433 32)))).def_15223))

ssl3_connect N594:
(assert false)
(assert (let ((.def_686 (= |ssl3_connect::blastFlag| (_ bv5 32)))).def_686))

ssl3_accept N712:
(assert (let ((.def_25883 (= |ssl3_accept::blastFlag| (_ bv5 32)))).def_25883))
(assert (let ((.def_27151 (= |ssl3_accept::s__state| (_ bv8464 32)))).def_27151))
(assert (let ((.def_27153 (= |ssl3_accept::blastFlag| (_ bv0 32)))).def_27153))
(assert (let ((.def_27155 (= |ssl3_accept::blastFlag| (_ bv4 32)))).def_27155))
(assert (let ((.def_29914 (= |ssl3_accept::s__state| (_ bv8482 32)))).def_29914))
(assert (let ((.def_29916 (= |ssl3_accept::blastFlag| (_ bv1 32)))).def_29916))
(assert (let ((.def_29918 (= |ssl3_accept::blastFlag| (_ bv3 32)))).def_29918))
(assert (let ((.def_29920 (= |ssl3_accept::blastFlag| (_ bv2 32)))).def_29920))
(assert (let ((.def_29922 (= |ssl3_accept::s__state| (_ bv8448 32)))).def_29922))
(assert (let ((.def_34940 (= |ssl3_accept::s__state| (_ bv24576 32)))).def_34940))
(assert (let ((.def_34942 (= |ssl3_accept::s__state| (_ bv8192 32)))).def_34942))
(assert (let ((.def_34944 (= |ssl3_accept::s__state| (_ bv16384 32)))).def_34944))
(assert (let ((.def_34946 (= |ssl3_accept::s__state| (_ bv8195 32)))).def_34946))
(assert (let ((.def_34948 (= |ssl3_accept::s__state| (_ bv8481 32)))).def_34948))
(assert (let ((.def_34950 (= |ssl3_accept::s__state| (_ bv8480 32)))).def_34950))
(assert (let ((.def_34952 (= |ssl3_accept::s__state| (_ bv12292 32)))).def_34952))
(assert (let ((.def_34954 (= |ssl3_accept::s__state| (_ bv8496 32)))).def_34954))
(assert (let ((.def_34956 (= |ssl3_accept::s__state| (_ bv8512 32)))).def_34956))
(assert (let ((.def_34958 (= |ssl3_accept::s__state| (_ bv8656 32)))).def_34958))
(assert (let ((.def_34960 (= |ssl3_accept::s__state| (_ bv8466 32)))).def_34960))
(assert (let ((.def_34962 (= |ssl3_accept::s__state| (_ bv8592 32)))).def_34962))
(assert (let ((.def_34964 (= |ssl3_accept::s__state| (_ bv8608 32)))).def_34964))
(assert (let ((.def_34966 (= |ssl3_accept::s__state| (_ bv8640 32)))).def_34966))
(assert (let ((.def_34968 (= |ssl3_accept::s__state| (_ bv8544 32)))).def_34968))
(assert (let ((.def_34970 (= |ssl3_accept::s__state| (_ bv8560 32)))).def_34970))
(assert (let ((.def_34972 (= |ssl3_accept::s__state| (_ bv8657 32)))).def_34972))
(assert (let ((.def_34974 (= |ssl3_accept::s__state| (_ bv8528 32)))).def_34974))
(assert (let ((.def_34976 (= |ssl3_accept::s__state| (_ bv8529 32)))).def_34976))
(assert (let ((.def_34978 (= |ssl3_accept::s__state| (_ bv8513 32)))).def_34978))
(assert (let ((.def_34980 (= |ssl3_accept::s__state| (_ bv8673 32)))).def_34980))
(assert (let ((.def_34982 (= |ssl3_accept::s__state| (_ bv8672 32)))).def_34982))
(assert (let ((.def_34985 (= |ssl3_accept::s__s3__tmp__next_state___0| (_ bv3 32)))).def_34985))
(assert (let ((.def_34987 (= |ssl3_accept::s__s3__tmp__next_state___0| (_ bv8640 32)))).def_34987))
(assert (let ((.def_50595 (= |ssl3_accept::s__state| (_ bv8465 32)))).def_50595))
(assert (let ((.def_50597 (= |ssl3_accept::s__state| (_ bv8641 32)))).def_50597))
(assert (let ((.def_50599 (= |ssl3_accept::s__s3__tmp__next_state___0| (_ bv8593 32)))).def_50599))
(assert (let ((.def_50601 (= |ssl3_accept::s__state| (_ bv8497 32)))).def_50601))
(assert (let ((.def_50603 (= |ssl3_accept::s__state| (_ bv8545 32)))).def_50603))
(assert (let ((.def_50605 (= |ssl3_accept::s__state| (_ bv8561 32)))).def_50605))
(assert (let ((.def_50607 (= |ssl3_accept::s__state| (_ bv8576 32)))).def_50607))
(assert (let ((.def_50609 (= |ssl3_accept::s__state| (_ bv8577 32)))).def_50609))
(assert (let ((.def_50611 (= |ssl3_accept::s__state| (_ bv8593 32)))).def_50611))
(assert (let ((.def_50613 (= |ssl3_accept::s__state| (_ bv8609 32)))).def_50613))
(assert (let ((.def_50616 (= |ssl3_accept::s__hit| (_ bv0 32)))).def_50616))
(assert (let ((.def_50618 (= |ssl3_accept::s__s3__tmp__next_state___0| (_ bv8576 32)))).def_50618))
(assert (let ((.def_50620 (= |ssl3_accept::s__s3__tmp__next_state___0| (_ bv8609 32)))).def_50620))
(assert (let ((.def_50622 (= |ssl3_accept::s__s3__tmp__next_state___0| (_ bv8608 32)))).def_50622))
(assert (let ((.def_50624 (= |ssl3_accept::s__s3__tmp__next_state___0| (_ bv8592 32)))).def_50624))
(assert (let ((.def_50626 (= |ssl3_accept::s__s3__tmp__next_state___0| (_ bv8577 32)))).def_50626))
(assert (let ((.def_50628 (= |ssl3_accept::s__s3__tmp__next_state___0| (_ bv8448 32)))).def_50628))
(assert (let ((.def_50630 (= |ssl3_accept::s__s3__tmp__next_state___0| (_ bv8561 32)))).def_50630))
(assert (let ((.def_50632 (= |ssl3_accept::s__s3__tmp__next_state___0| (_ bv8560 32)))).def_50632))
(assert (let ((.def_50634 (= |ssl3_accept::s__s3__tmp__next_state___0| (_ bv8545 32)))).def_50634))
(assert (let ((.def_50636 (= |ssl3_accept::s__s3__tmp__next_state___0| (_ bv8544 32)))).def_50636))
(assert (let ((.def_50638 (= |ssl3_accept::s__s3__tmp__next_state___0| (_ bv8529 32)))).def_50638))
(assert (let ((.def_50640 (= |ssl3_accept::s__s3__tmp__next_state___0| (_ bv8528 32)))).def_50640))
(assert (let ((.def_50642 (= |ssl3_accept::s__s3__tmp__next_state___0| (_ bv8497 32)))).def_50642))
(assert (let ((.def_50644 (= |ssl3_accept::s__s3__tmp__next_state___0| (_ bv8496 32)))).def_50644))
(assert (let ((.def_50646 (= |ssl3_accept::s__s3__tmp__next_state___0| (_ bv8466 32)))).def_50646))
(assert (let ((.def_50648 (= |ssl3_accept::s__s3__tmp__next_state___0| (_ bv8465 32)))).def_50648))
(assert (let ((.def_50650 (= |ssl3_accept::s__s3__tmp__next_state___0| (_ bv8464 32)))).def_50650))
(assert (let ((.def_50652 (= |ssl3_accept::s__s3__tmp__next_state___0| (_ bv8482 32)))).def_50652))
(assert (let ((.def_50654 (= |ssl3_accept::s__s3__tmp__next_state___0| (_ bv8481 32)))).def_50654))
(assert (let ((.def_50656 (= |ssl3_accept::s__s3__tmp__next_state___0| (_ bv8480 32)))).def_50656))
(assert (let ((.def_50658 (= |ssl3_accept::s__s3__tmp__next_state___0| (_ bv8195 32)))).def_50658))
(assert (let ((.def_50660 (= |ssl3_accept::s__s3__tmp__next_state___0| (_ bv24576 32)))).def_50660))
(assert (let ((.def_50662 (= |ssl3_accept::s__s3__tmp__next_state___0| (_ bv8192 32)))).def_50662))
(assert (let ((.def_50664 (= |ssl3_accept::s__s3__tmp__next_state___0| (_ bv16384 32)))).def_50664))
(assert (let ((.def_50666 (= |ssl3_accept::s__s3__tmp__next_state___0| (_ bv12292 32)))).def_50666))
(assert (let ((.def_50668 (= |ssl3_accept::s__s3__tmp__next_state___0| (_ bv8672 32)))).def_50668))
(assert (let ((.def_50670 (= |ssl3_accept::s__s3__tmp__next_state___0| (_ bv8513 32)))).def_50670))
(assert (let ((.def_50672 (= |ssl3_accept::s__s3__tmp__next_state___0| (_ bv8512 32)))).def_50672))
(assert (let ((.def_50674 (= |ssl3_accept::s__state| |ssl3_accept::s__s3__tmp__next_state___0|))).def_50674))
(assert (let ((.def_50676 (= |ssl3_accept::s__s3__tmp__next_state___0| (_ bv8641 32)))).def_50676))
(assert (let ((.def_50678 (= |ssl3_accept::s__s3__tmp__next_state___0| (_ bv8656 32)))).def_50678))
(assert (let ((.def_50680 (= |ssl3_accept::s__s3__tmp__next_state___0| (_ bv8673 32)))).def_50680))

ERR N1240:
(assert false)

