(set-info :source |printed by MathSAT|)
(declare-fun a20 () (_ BitVec 32))
(declare-fun a9 () (_ BitVec 32))
(declare-fun a25 () (_ BitVec 32))
(declare-fun a12 () (_ BitVec 32))
(declare-fun a15 () (_ BitVec 32))
(declare-fun a16 () (_ BitVec 32))
(declare-fun a2 () (_ BitVec 32))
(declare-fun a27 () (_ BitVec 32))
(declare-fun |calculate_output8::input| () (_ BitVec 32))

*:
(assert (let ((.def_106057 (= a20 (_ bv5 32)))).def_106057))

calculate_output8 N29679:
(assert false)
(assert (let ((.def_106057 (= a20 (_ bv5 32)))).def_106057))

main1 N30136:
(assert (let ((.def_152940 (= a9 (_ bv18 32)))).def_152940))
(assert (let ((.def_106057 (= a20 (_ bv5 32)))).def_106057))
(assert (let ((.def_339543 (= a25 (_ bv1 32)))).def_339543))
(assert (let ((.def_339546 (= a12 (_ bv4 32)))).def_339546))
(assert (let ((.def_339549 (= a15 (_ bv1 32)))).def_339549))
(assert (let ((.def_339552 (= a16 (_ bv1 32)))).def_339552))
(assert (let ((.def_339555 (= a2 (_ bv10 32)))).def_339555))
(assert (let ((.def_339558 (= a27 (_ bv1 32)))).def_339558))
(assert (let ((.def_339560 (= a2 (_ bv13 32)))).def_339560))
(assert (let ((.def_339562 (= a9 (_ bv17 32)))).def_339562))
(assert (let ((.def_339564 (= a2 (_ bv9 32)))).def_339564))
(assert (let ((.def_339566 (= a2 (_ bv11 32)))).def_339566))
(assert (let ((.def_339568 (= a9 (_ bv16 32)))).def_339568))
(assert (let ((.def_339570 (= a2 (_ bv12 32)))).def_339570))
(assert (let ((.def_940345 (= a20 (_ bv7 32)))).def_940345))
(assert (let ((.def_940347 (= a20 (_ bv6 32)))).def_940347))
(assert (let ((.def_940349 (= a12 (_ bv2 32)))).def_940349))
(assert (let ((.def_940351 (= a12 (_ bv3 32)))).def_940351))
(assert (let ((.def_940353 (= a12 (_ bv5 32)))).def_940353))
(assert (let ((.def_940355 (= a12 (_ bv6 32)))).def_940355))
(assert (let ((.def_940358 (= |calculate_output8::input| (_ bv1 32)))).def_940358))
(assert (let ((.def_940360 (= |calculate_output8::input| (_ bv6 32)))).def_940360))
(assert (let ((.def_940362 (= |calculate_output8::input| (_ bv2 32)))).def_940362))
(assert (let ((.def_940364 (= |calculate_output8::input| (_ bv4 32)))).def_940364))

