(set-info :source |printed by MathSAT|)
(declare-fun |ssl3_connect::blastFlag| () (_ BitVec 32))
(declare-fun |ssl3_connect::s__state| () (_ BitVec 32))
(declare-fun |ssl3_connect::s__s3__tmp__reuse_message| () (_ BitVec 32))
(declare-fun |ssl3_connect::s__hit| () (_ BitVec 32))
(declare-fun |ssl3_connect::s__s3__tmp__next_state___0| () (_ BitVec 32))
(declare-fun |ssl3_connect::skip| () (_ BitVec 32))
(declare-fun |ssl3_connect::s__s3__tmp__new_cipher__algorithms| () (_ BitVec 32))
(declare-fun |ssl3_connect::cb| () (_ BitVec 32))
(declare-fun |ssl3_accept::s__state| () (_ BitVec 32))
(declare-fun |ssl3_accept::blastFlag| () (_ BitVec 32))
(declare-fun |ssl3_accept::s__hit| () (_ BitVec 32))
(declare-fun |ssl3_accept::skip| () (_ BitVec 32))
(declare-fun |ssl3_accept::s__s3__tmp__next_state___0| () (_ BitVec 32))

ssl3_connect:
(assert (let ((.def_558 (= |ssl3_connect::blastFlag| (_ bv5 32)))).def_558))

ssl3_connect N85:
(assert (let ((.def_1407 (= |ssl3_connect::s__state| (_ bv12292 32)))).def_1407))
(assert (let ((.def_1409 (= |ssl3_connect::blastFlag| (_ bv0 32)))).def_1409))
(assert (let ((.def_558 (= |ssl3_connect::blastFlag| (_ bv5 32)))).def_558))
(assert (let ((.def_3367 (= |ssl3_connect::s__s3__tmp__reuse_message| (_ bv0 32)))).def_3367))
(assert (let ((.def_3369 (= |ssl3_connect::blastFlag| (_ bv4 32)))).def_3369))
(assert (let ((.def_3371 (= |ssl3_connect::blastFlag| (_ bv3 32)))).def_3371))
(assert (let ((.def_3373 (= |ssl3_connect::s__state| (_ bv4384 32)))).def_3373))
(assert (let ((.def_3375 (= |ssl3_connect::blastFlag| (_ bv1 32)))).def_3375))
(assert (let ((.def_3377 (= |ssl3_connect::s__state| (_ bv4368 32)))).def_3377))
(assert (let ((.def_3379 (= |ssl3_connect::blastFlag| (_ bv2 32)))).def_3379))
(assert (let ((.def_7473 (= |ssl3_connect::s__hit| (_ bv0 32)))).def_7473))
(assert (let ((.def_7476 (= |ssl3_connect::s__state| |ssl3_connect::s__s3__tmp__next_state___0|))).def_7476))
(assert (let ((.def_7478 (= |ssl3_connect::s__s3__tmp__next_state___0| (_ bv4401 32)))).def_7478))
(assert (let ((.def_7480 (= |ssl3_connect::s__state| (_ bv4352 32)))).def_7480))
(assert (let ((.def_7482 (= |ssl3_connect::s__state| (_ bv4560 32)))).def_7482))
(assert (let ((.def_7484 (= |ssl3_connect::s__state| (_ bv4416 32)))).def_7484))
(assert (let ((.def_7486 (= |ssl3_connect::s__state| (_ bv4400 32)))).def_7486))
(assert (let ((.def_7488 (= |ssl3_connect::s__state| (_ bv4432 32)))).def_7488))
(assert (let ((.def_7490 (= |ssl3_connect::s__state| (_ bv4529 32)))).def_7490))
(assert (let ((.def_7492 (= |ssl3_connect::s__state| (_ bv4528 32)))).def_7492))
(assert (let ((.def_7494 (= |ssl3_connect::s__state| (_ bv4401 32)))).def_7494))
(assert (let ((.def_7497 (= |ssl3_connect::skip| (_ bv0 32)))).def_7497))
(assert (let ((.def_7499 (= |ssl3_connect::s__state| (_ bv4417 32)))).def_7499))
(assert (let ((.def_7501 (= |ssl3_connect::s__state| (_ bv4480 32)))).def_7501))
(assert (let ((.def_7503 (= |ssl3_connect::s__state| (_ bv4449 32)))).def_7503))
(assert (let ((.def_7505 (= |ssl3_connect::s__state| (_ bv4448 32)))).def_7505))
(assert (let ((.def_7507 (= |ssl3_connect::s__state| (_ bv4481 32)))).def_7507))
(assert (let ((.def_7509 (= |ssl3_connect::s__s3__tmp__next_state___0| (_ bv4432 32)))).def_7509))
(assert (let ((.def_7512 (= |ssl3_connect::s__s3__tmp__new_cipher__algorithms| (_ bv4294967040 32)))).def_7512))
(assert (let ((.def_7514 (= |ssl3_connect::s__state| (_ bv4433 32)))).def_7514))
(assert (let ((.def_7517 (= |ssl3_connect::cb| (_ bv0 32)))).def_7517))
(assert (let ((.def_7519 (= |ssl3_connect::s__s3__tmp__next_state___0| (_ bv4433 32)))).def_7519))
(assert (let ((.def_17058 (= |ssl3_connect::s__s3__tmp__next_state___0| (_ bv4099 32)))).def_17058))
(assert (let ((.def_17060 (= |ssl3_connect::s__s3__tmp__next_state___0| (_ bv12292 32)))).def_17060))
(assert (let ((.def_17062 (= |ssl3_connect::s__s3__tmp__next_state___0| (_ bv16384 32)))).def_17062))
(assert (let ((.def_17064 (= |ssl3_connect::s__s3__tmp__next_state___0| (_ bv4096 32)))).def_17064))
(assert (let ((.def_17066 (= |ssl3_connect::s__s3__tmp__next_state___0| (_ bv20480 32)))).def_17066))
(assert (let ((.def_17068 (= |ssl3_connect::s__state| (_ bv4096 32)))).def_17068))
(assert (let ((.def_17070 (= |ssl3_connect::s__state| (_ bv4099 32)))).def_17070))
(assert (let ((.def_17072 (= |ssl3_connect::s__state| (_ bv20480 32)))).def_17072))
(assert (let ((.def_17074 (= |ssl3_connect::s__state| (_ bv16384 32)))).def_17074))
(assert (let ((.def_17076 (= |ssl3_connect::s__s3__tmp__next_state___0| (_ bv4368 32)))).def_17076))
(assert (let ((.def_17078 (= |ssl3_connect::s__s3__tmp__next_state___0| (_ bv4369 32)))).def_17078))
(assert (let ((.def_17080 (= |ssl3_connect::s__state| (_ bv4385 32)))).def_17080))
(assert (let ((.def_17082 (= |ssl3_connect::s__state| (_ bv4369 32)))).def_17082))
(assert (let ((.def_17084 (= |ssl3_connect::s__s3__tmp__next_state___0| (_ bv4384 32)))).def_17084))
(assert (let ((.def_17086 (= |ssl3_connect::s__s3__tmp__next_state___0| (_ bv4385 32)))).def_17086))
(assert (let ((.def_17088 (= |ssl3_connect::s__state| (_ bv4496 32)))).def_17088))
(assert (let ((.def_17090 (= |ssl3_connect::s__s3__tmp__next_state___0| (_ bv4400 32)))).def_17090))
(assert (let ((.def_17092 (= |ssl3_connect::s__state| (_ bv4512 32)))).def_17092))
(assert (let ((.def_17094 (= |ssl3_connect::s__s3__tmp__next_state___0| (_ bv4528 32)))).def_17094))
(assert (let ((.def_17096 (= |ssl3_connect::s__s3__tmp__next_state___0| (_ bv4529 32)))).def_17096))
(assert (let ((.def_17098 (= |ssl3_connect::s__s3__tmp__next_state___0| (_ bv3 32)))).def_17098))
(assert (let ((.def_17100 (= |ssl3_connect::s__s3__tmp__next_state___0| (_ bv4560 32)))).def_17100))
(assert (let ((.def_17102 (= |ssl3_connect::s__s3__tmp__next_state___0| (_ bv4416 32)))).def_17102))
(assert (let ((.def_17104 (= |ssl3_connect::s__state| (_ bv4513 32)))).def_17104))
(assert (let ((.def_17106 (= |ssl3_connect::s__state| (_ bv4467 32)))).def_17106))
(assert (let ((.def_17108 (= |ssl3_connect::s__state| (_ bv4466 32)))).def_17108))
(assert (let ((.def_17110 (= |ssl3_connect::s__state| (_ bv4465 32)))).def_17110))
(assert (let ((.def_17112 (= |ssl3_connect::s__state| (_ bv4464 32)))).def_17112))

ssl3_connect N565:
(assert false)
(assert (let ((.def_558 (= |ssl3_connect::blastFlag| (_ bv5 32)))).def_558))

ssl3_accept N687:
(assert (let ((.def_30807 (= |ssl3_accept::s__state| (_ bv8560 32)))).def_30807))
(assert (let ((.def_30809 (= |ssl3_accept::s__state| (_ bv12292 32)))).def_30809))
(assert (let ((.def_30811 (= |ssl3_accept::s__state| (_ bv8464 32)))).def_30811))
(assert (let ((.def_30814 (= |ssl3_accept::blastFlag| (_ bv0 32)))).def_30814))
(assert (let ((.def_33980 (= |ssl3_accept::s__state| (_ bv8482 32)))).def_33980))
(assert (let ((.def_33982 (= |ssl3_accept::s__state| (_ bv8481 32)))).def_33982))
(assert (let ((.def_33984 (= |ssl3_accept::s__state| (_ bv8480 32)))).def_33984))
(assert (let ((.def_33986 (= |ssl3_accept::blastFlag| (_ bv1 32)))).def_33986))
(assert (let ((.def_33988 (= |ssl3_accept::s__state| (_ bv8496 32)))).def_33988))
(assert (let ((.def_36338 (= |ssl3_accept::s__state| (_ bv8192 32)))).def_36338))
(assert (let ((.def_36340 (= |ssl3_accept::s__state| (_ bv16384 32)))).def_36340))
(assert (let ((.def_36342 (= |ssl3_accept::s__state| (_ bv24576 32)))).def_36342))
(assert (let ((.def_36344 (= |ssl3_accept::s__state| (_ bv8195 32)))).def_36344))
(assert (let ((.def_36346 (= |ssl3_accept::s__state| (_ bv8466 32)))).def_36346))
(assert (let ((.def_36348 (= |ssl3_accept::s__state| (_ bv8465 32)))).def_36348))
(assert (let ((.def_36350 (= |ssl3_accept::blastFlag| (_ bv21 32)))).def_36350))
(assert (let ((.def_36352 (= |ssl3_accept::s__state| (_ bv8656 32)))).def_36352))
(assert (let ((.def_36354 (= |ssl3_accept::s__state| (_ bv8512 32)))).def_36354))
(assert (let ((.def_36357 (= |ssl3_accept::s__hit| (_ bv0 32)))).def_36357))
(assert (let ((.def_36359 (= |ssl3_accept::blastFlag| (_ bv2 32)))).def_36359))
(assert (let ((.def_43069 (= |ssl3_accept::s__state| (_ bv8577 32)))).def_43069))
(assert (let ((.def_43071 (= |ssl3_accept::s__state| (_ bv8576 32)))).def_43071))
(assert (let ((.def_43074 (= |ssl3_accept::skip| (_ bv1 32)))).def_43074))
(assert (let ((.def_43076 (= |ssl3_accept::s__state| (_ bv8609 32)))).def_43076))
(assert (let ((.def_43078 (= |ssl3_accept::s__state| (_ bv8608 32)))).def_43078))
(assert (let ((.def_43080 (= |ssl3_accept::s__state| (_ bv8593 32)))).def_43080))
(assert (let ((.def_43082 (= |ssl3_accept::s__state| (_ bv8592 32)))).def_43082))
(assert (let ((.def_43084 (= |ssl3_accept::s__state| (_ bv8528 32)))).def_43084))
(assert (let ((.def_43086 (= |ssl3_accept::s__state| (_ bv8529 32)))).def_43086))
(assert (let ((.def_43088 (= |ssl3_accept::blastFlag| (_ bv20 32)))).def_43088))
(assert (let ((.def_43090 (= |ssl3_accept::s__state| (_ bv8497 32)))).def_43090))
(assert (let ((.def_43092 (= |ssl3_accept::s__state| (_ bv8448 32)))).def_43092))
(assert (let ((.def_43095 (= |ssl3_accept::s__s3__tmp__next_state___0| (_ bv3 32)))).def_43095))
(assert (let ((.def_43097 (= |ssl3_accept::s__s3__tmp__next_state___0| (_ bv8576 32)))).def_43097))
(assert (let ((.def_43099 (= |ssl3_accept::s__s3__tmp__next_state___0| (_ bv8482 32)))).def_43099))
(assert (let ((.def_43101 (= |ssl3_accept::s__s3__tmp__next_state___0| (_ bv8560 32)))).def_43101))
(assert (let ((.def_43103 (= |ssl3_accept::s__state| (_ bv8544 32)))).def_43103))
(assert (let ((.def_43105 (= |ssl3_accept::s__state| (_ bv8545 32)))).def_43105))
(assert (let ((.def_43107 (= |ssl3_accept::s__state| (_ bv3 32)))).def_43107))
(assert (let ((.def_43109 (= |ssl3_accept::s__state| (_ bv8640 32)))).def_43109))
(assert (let ((.def_43111 (= |ssl3_accept::s__state| (_ bv8641 32)))).def_43111))

ssl3_accept N1296:
(assert false)

