(set-info :source |printed by MathSAT|)
(declare-fun a20 () (_ BitVec 32))
(declare-fun a25 () (_ BitVec 32))
(declare-fun a12 () (_ BitVec 32))
(declare-fun a15 () (_ BitVec 32))
(declare-fun a16 () (_ BitVec 32))
(declare-fun a2 () (_ BitVec 32))
(declare-fun a27 () (_ BitVec 32))
(declare-fun a9 () (_ BitVec 32))
(declare-fun m_pc () (_ BitVec 32))
(declare-fun t1_pc () (_ BitVec 32))
(declare-fun t2_pc () (_ BitVec 32))
(declare-fun t3_pc () (_ BitVec 32))
(declare-fun t4_pc () (_ BitVec 32))
(declare-fun m_st () (_ BitVec 32))

*:
(assert (let ((.def_107818 (= a20 (_ bv5 32)))).def_107818))

calculate_output8 N30108:
(assert false)
(assert (let ((.def_107818 (= a20 (_ bv5 32)))).def_107818))

main1 N30136:
(assert (let ((.def_107818 (= a20 (_ bv5 32)))).def_107818))
(assert (let ((.def_155526 (= a25 (_ bv1 32)))).def_155526))
(assert (let ((.def_155529 (= a12 (_ bv4 32)))).def_155529))
(assert (let ((.def_155532 (= a15 (_ bv1 32)))).def_155532))
(assert (let ((.def_155535 (= a16 (_ bv1 32)))).def_155535))
(assert (let ((.def_155538 (= a2 (_ bv10 32)))).def_155538))
(assert (let ((.def_155541 (= a27 (_ bv1 32)))).def_155541))
(assert (let ((.def_155544 (= a9 (_ bv18 32)))).def_155544))
(assert (let ((.def_321716 (= a12 (_ bv5 32)))).def_321716))
(assert (let ((.def_321718 (= a2 (_ bv13 32)))).def_321718))
(assert (let ((.def_321720 (= a12 (_ bv2 32)))).def_321720))
(assert (let ((.def_321722 (= a2 (_ bv12 32)))).def_321722))
(assert (let ((.def_321724 (= a12 (_ bv3 32)))).def_321724))
(assert (let ((.def_321726 (= a9 (_ bv16 32)))).def_321726))
(assert (let ((.def_321728 (= a20 (_ bv7 32)))).def_321728))
(assert (let ((.def_321730 (= a2 (_ bv9 32)))).def_321730))
(assert (let ((.def_321732 (= a9 (_ bv17 32)))).def_321732))

error N30154:
(assert false)
(assert (let ((.def_107818 (= a20 (_ bv5 32)))).def_107818))

eval N30463:
(assert (let ((.def_746768 (= m_pc (_ bv0 32)))).def_746768))
(assert (let ((.def_107818 (= a20 (_ bv5 32)))).def_107818))
(assert (let ((.def_749106 (= t1_pc (_ bv0 32)))).def_749106))
(assert (let ((.def_749109 (= t2_pc (_ bv0 32)))).def_749109))
(assert (let ((.def_749112 (= t3_pc (_ bv0 32)))).def_749112))
(assert (let ((.def_749115 (= t4_pc (_ bv0 32)))).def_749115))
(assert (let ((.def_749117 (= m_pc (_ bv1 32)))).def_749117))
(assert (let ((.def_749119 (= t1_pc (_ bv1 32)))).def_749119))
(assert (let ((.def_749121 (= t2_pc (_ bv1 32)))).def_749121))
(assert (let ((.def_749123 (= t3_pc (_ bv1 32)))).def_749123))
(assert (let ((.def_749125 (= t4_pc (_ bv1 32)))).def_749125))
(assert (let ((.def_749128 (= m_st (_ bv0 32)))).def_749128))

start_simulation N30736:
(assert (let ((.def_746768 (= m_pc (_ bv0 32)))).def_746768))
(assert (let ((.def_107818 (= a20 (_ bv5 32)))).def_107818))
(assert (let ((.def_749106 (= t1_pc (_ bv0 32)))).def_749106))
(assert (let ((.def_749109 (= t2_pc (_ bv0 32)))).def_749109))
(assert (let ((.def_749112 (= t3_pc (_ bv0 32)))).def_749112))
(assert (let ((.def_749115 (= t4_pc (_ bv0 32)))).def_749115))
(assert (let ((.def_749117 (= m_pc (_ bv1 32)))).def_749117))
(assert (let ((.def_749119 (= t1_pc (_ bv1 32)))).def_749119))
(assert (let ((.def_749121 (= t2_pc (_ bv1 32)))).def_749121))
(assert (let ((.def_749123 (= t3_pc (_ bv1 32)))).def_749123))
(assert (let ((.def_749125 (= t4_pc (_ bv1 32)))).def_749125))

