(set-info :source |printed by MathSAT|)
(declare-fun a20 () (_ BitVec 32))
(declare-fun a25 () (_ BitVec 32))
(declare-fun a12 () (_ BitVec 32))
(declare-fun a15 () (_ BitVec 32))
(declare-fun a16 () (_ BitVec 32))
(declare-fun a2 () (_ BitVec 32))
(declare-fun a27 () (_ BitVec 32))
(declare-fun a9 () (_ BitVec 32))
(declare-fun m_pc () (_ BitVec 32))
(declare-fun t1_pc () (_ BitVec 32))
(declare-fun t2_pc () (_ BitVec 32))
(declare-fun m_st () (_ BitVec 32))
(declare-fun E_2 () (_ BitVec 32))
(declare-fun E_M () (_ BitVec 32))
(declare-fun t1_st () (_ BitVec 32))
(declare-fun t2_st () (_ BitVec 32))
(declare-fun local () (_ BitVec 32))
(declare-fun token () (_ BitVec 32))
(declare-fun E_1 () (_ BitVec 32))

*:
(assert (let ((.def_107128 (= a20 (_ bv5 32)))).def_107128))

calculate_output8 N29943:
(assert false)
(assert (let ((.def_107128 (= a20 (_ bv5 32)))).def_107128))

main1 N30136:
(assert (let ((.def_107128 (= a20 (_ bv5 32)))).def_107128))
(assert (let ((.def_154475 (= a25 (_ bv1 32)))).def_154475))
(assert (let ((.def_154478 (= a12 (_ bv4 32)))).def_154478))
(assert (let ((.def_154481 (= a15 (_ bv1 32)))).def_154481))
(assert (let ((.def_154484 (= a16 (_ bv1 32)))).def_154484))
(assert (let ((.def_154487 (= a2 (_ bv10 32)))).def_154487))
(assert (let ((.def_154490 (= a27 (_ bv1 32)))).def_154490))
(assert (let ((.def_154493 (= a9 (_ bv18 32)))).def_154493))
(assert (let ((.def_584808 (= a20 (_ bv6 32)))).def_584808))
(assert (let ((.def_584810 (= a12 (_ bv6 32)))).def_584810))
(assert (let ((.def_584812 (= a9 (_ bv17 32)))).def_584812))
(assert (let ((.def_584814 (= a20 (_ bv7 32)))).def_584814))
(assert (let ((.def_584816 (= a2 (_ bv13 32)))).def_584816))
(assert (let ((.def_584818 (= a2 (_ bv9 32)))).def_584818))
(assert (let ((.def_584820 (= a12 (_ bv3 32)))).def_584820))
(assert (let ((.def_584822 (= a12 (_ bv2 32)))).def_584822))
(assert (let ((.def_584824 (= a12 (_ bv5 32)))).def_584824))
(assert (let ((.def_584826 (= a2 (_ bv11 32)))).def_584826))
(assert (let ((.def_584828 (= a2 (_ bv12 32)))).def_584828))
(assert (let ((.def_584830 (= a9 (_ bv16 32)))).def_584830))

error N30154:
(assert false)
(assert (let ((.def_107128 (= a20 (_ bv5 32)))).def_107128))

eval N30342:
(assert (let ((.def_921161 (= m_pc (_ bv0 32)))).def_921161))
(assert (let ((.def_107128 (= a20 (_ bv5 32)))).def_107128))
(assert (let ((.def_922169 (= t1_pc (_ bv0 32)))).def_922169))
(assert (let ((.def_922172 (= t2_pc (_ bv0 32)))).def_922172))
(assert (let ((.def_922174 (= m_pc (_ bv1 32)))).def_922174))
(assert (let ((.def_922176 (= t1_pc (_ bv1 32)))).def_922176))
(assert (let ((.def_922178 (= t2_pc (_ bv1 32)))).def_922178))
(assert (let ((.def_922181 (= m_st (_ bv0 32)))).def_922181))
(assert (let ((.def_923472 (= E_2 (_ bv1 32)))).def_923472))
(assert (let ((.def_923475 (= E_M (_ bv1 32)))).def_923475))
(assert (let ((.def_923478 (= t1_st (_ bv0 32)))).def_923478))
(assert (let ((.def_923480 (= m_st (_ bv2 32)))).def_923480))
(assert (let ((.def_923483 (= t2_st (_ bv0 32)))).def_923483))
(assert (let ((.def_923486 (bvadd (_ bv2 32) local)))(let ((.def_923488 (= .def_923486 token))).def_923488)))
(assert (let ((.def_926223 (= E_1 (_ bv1 32)))).def_926223))
(assert (let ((.def_926225 (= local token))).def_926225))
(assert (let ((.def_926227 (bvadd (_ bv1 32) local)))(let ((.def_926228 (= token .def_926227))).def_926228)))
(assert (let ((.def_928574 (= E_M (_ bv0 32)))).def_928574))
(assert (let ((.def_928576 (= E_2 (_ bv0 32)))).def_928576))
(assert (let ((.def_928578 (= E_1 (_ bv0 32)))).def_928578))

start_simulation N30533:
(assert (let ((.def_921161 (= m_pc (_ bv0 32)))).def_921161))
(assert (let ((.def_107128 (= a20 (_ bv5 32)))).def_107128))
(assert (let ((.def_922169 (= t1_pc (_ bv0 32)))).def_922169))
(assert (let ((.def_922172 (= t2_pc (_ bv0 32)))).def_922172))
(assert (let ((.def_922174 (= m_pc (_ bv1 32)))).def_922174))
(assert (let ((.def_922176 (= t1_pc (_ bv1 32)))).def_922176))
(assert (let ((.def_922178 (= t2_pc (_ bv1 32)))).def_922178))
(assert (let ((.def_923472 (= E_2 (_ bv1 32)))).def_923472))
(assert (let ((.def_923475 (= E_M (_ bv1 32)))).def_923475))
(assert (let ((.def_922181 (= m_st (_ bv0 32)))).def_922181))
(assert (let ((.def_923483 (= t2_st (_ bv0 32)))).def_923483))
(assert (let ((.def_923478 (= t1_st (_ bv0 32)))).def_923478))
(assert (let ((.def_926223 (= E_1 (_ bv1 32)))).def_926223))
(assert (let ((.def_928574 (= E_M (_ bv0 32)))).def_928574))
(assert (let ((.def_928576 (= E_2 (_ bv0 32)))).def_928576))

