(set-info :source |printed by MathSAT|)
(declare-fun |ssl3_connect::blastFlag| () (_ BitVec 32))
(declare-fun |ssl3_connect::s__state| () (_ BitVec 32))
(declare-fun |ssl3_connect::cb| () (_ BitVec 32))
(declare-fun |ssl3_connect::skip| () (_ BitVec 32))
(declare-fun |ssl3_connect::s__s3__tmp__reuse_message| () (_ BitVec 32))
(declare-fun |ssl3_connect::s__s3__tmp__next_state___0| () (_ BitVec 32))
(declare-fun |ssl3_connect::s__hit| () (_ BitVec 32))
(declare-fun |ssl3_connect::s__s3__tmp__cert_req| () (_ BitVec 32))
(declare-fun |ssl3_accept::blastFlag| () (_ BitVec 32))
(declare-fun |ssl3_accept::s__state| () (_ BitVec 32))
(declare-fun |ssl3_accept::s__hit| () (_ BitVec 32))
(declare-fun |ssl3_accept::s__s3__tmp__reuse_message| () (_ BitVec 32))
(declare-fun |ssl3_accept::s__s3__tmp__next_state___0| () (_ BitVec 32))
(declare-fun |ssl3_accept::s__verify_mode| () (_ BitVec 32))
(declare-fun |ssl3_accept::s__s3__tmp__new_cipher__algorithms| () (_ BitVec 32))
(declare-fun |ssl3_accept::s__session__peer| () (_ BitVec 32))
(declare-fun |ssl3_accept::skip| () (_ BitVec 32))
(declare-fun |ssl3_accept::cb| () (_ BitVec 32))

ssl3_connect:
(assert (let ((.def_698 (= |ssl3_connect::blastFlag| (_ bv5 32)))).def_698))

ssl3_connect N116:
(assert (let ((.def_1604 (= |ssl3_connect::s__state| (_ bv12292 32)))).def_1604))
(assert (let ((.def_1606 (= |ssl3_connect::blastFlag| (_ bv0 32)))).def_1606))
(assert (let ((.def_698 (= |ssl3_connect::blastFlag| (_ bv5 32)))).def_698))
(assert (let ((.def_3713 (= |ssl3_connect::cb| (_ bv0 32)))).def_3713))
(assert (let ((.def_3715 (= |ssl3_connect::blastFlag| (_ bv4 32)))).def_3715))
(assert (let ((.def_3717 (= |ssl3_connect::s__state| (_ bv4384 32)))).def_3717))
(assert (let ((.def_3719 (= |ssl3_connect::blastFlag| (_ bv1 32)))).def_3719))
(assert (let ((.def_3721 (= |ssl3_connect::blastFlag| (_ bv3 32)))).def_3721))
(assert (let ((.def_3723 (= |ssl3_connect::blastFlag| (_ bv2 32)))).def_3723))
(assert (let ((.def_3725 (= |ssl3_connect::s__state| (_ bv4416 32)))).def_3725))
(assert (let ((.def_3727 (= |ssl3_connect::s__state| (_ bv4400 32)))).def_3727))
(assert (let ((.def_3729 (= |ssl3_connect::s__state| (_ bv4432 32)))).def_3729))
(assert (let ((.def_9071 (= |ssl3_connect::s__state| (_ bv4368 32)))).def_9071))
(assert (let ((.def_9074 (= |ssl3_connect::skip| (_ bv0 32)))).def_9074))
(assert (let ((.def_9076 (= |ssl3_connect::s__state| (_ bv4099 32)))).def_9076))
(assert (let ((.def_9078 (= |ssl3_connect::s__state| (_ bv20480 32)))).def_9078))
(assert (let ((.def_9080 (= |ssl3_connect::s__state| (_ bv4096 32)))).def_9080))
(assert (let ((.def_9082 (= |ssl3_connect::s__state| (_ bv16384 32)))).def_9082))
(assert (let ((.def_9085 (= |ssl3_connect::s__s3__tmp__reuse_message| (_ bv0 32)))).def_9085))
(assert (let ((.def_9087 (= |ssl3_connect::s__state| (_ bv4369 32)))).def_9087))
(assert (let ((.def_9090 (= |ssl3_connect::s__state| |ssl3_connect::s__s3__tmp__next_state___0|))).def_9090))
(assert (let ((.def_9092 (= |ssl3_connect::s__state| (_ bv4352 32)))).def_9092))
(assert (let ((.def_9094 (= |ssl3_connect::s__state| (_ bv4512 32)))).def_9094))
(assert (let ((.def_9096 (= |ssl3_connect::s__state| (_ bv4496 32)))).def_9096))
(assert (let ((.def_9098 (= |ssl3_connect::s__state| (_ bv4480 32)))).def_9098))
(assert (let ((.def_9100 (= |ssl3_connect::s__state| (_ bv4464 32)))).def_9100))
(assert (let ((.def_9102 (= |ssl3_connect::s__s3__tmp__next_state___0| (_ bv4416 32)))).def_9102))
(assert (let ((.def_9104 (= |ssl3_connect::s__s3__tmp__next_state___0| (_ bv4432 32)))).def_9104))
(assert (let ((.def_9106 (= |ssl3_connect::s__s3__tmp__next_state___0| (_ bv4513 32)))).def_9106))
(assert (let ((.def_9108 (= |ssl3_connect::s__s3__tmp__next_state___0| (_ bv4512 32)))).def_9108))
(assert (let ((.def_9110 (= |ssl3_connect::s__s3__tmp__next_state___0| (_ bv4481 32)))).def_9110))
(assert (let ((.def_9112 (= |ssl3_connect::s__s3__tmp__next_state___0| (_ bv4480 32)))).def_9112))
(assert (let ((.def_9114 (= |ssl3_connect::s__s3__tmp__next_state___0| (_ bv4417 32)))).def_9114))
(assert (let ((.def_9116 (= |ssl3_connect::s__state| (_ bv4401 32)))).def_9116))
(assert (let ((.def_9118 (= |ssl3_connect::s__state| (_ bv4528 32)))).def_9118))
(assert (let ((.def_9120 (= |ssl3_connect::s__state| (_ bv4529 32)))).def_9120))
(assert (let ((.def_9122 (= |ssl3_connect::s__state| (_ bv4560 32)))).def_9122))
(assert (let ((.def_9124 (= |ssl3_connect::s__state| (_ bv4561 32)))).def_9124))
(assert (let ((.def_9126 (= |ssl3_connect::s__state| (_ bv4481 32)))).def_9126))
(assert (let ((.def_9128 (= |ssl3_connect::s__state| (_ bv4467 32)))).def_9128))
(assert (let ((.def_9130 (= |ssl3_connect::s__state| (_ bv4466 32)))).def_9130))
(assert (let ((.def_9132 (= |ssl3_connect::s__state| (_ bv4465 32)))).def_9132))
(assert (let ((.def_9134 (= |ssl3_connect::s__state| (_ bv4385 32)))).def_9134))
(assert (let ((.def_9136 (= |ssl3_connect::s__state| (_ bv4513 32)))).def_9136))
(assert (let ((.def_9138 (= |ssl3_connect::s__state| (_ bv4417 32)))).def_9138))
(assert (let ((.def_9141 (= |ssl3_connect::s__hit| (_ bv0 32)))).def_9141))
(assert (let ((.def_9143 (= |ssl3_connect::s__s3__tmp__next_state___0| (_ bv4433 32)))).def_9143))
(assert (let ((.def_9146 (= |ssl3_connect::s__s3__tmp__cert_req| (_ bv0 32)))).def_9146))
(assert (let ((.def_9148 (= |ssl3_connect::s__state| (_ bv4433 32)))).def_9148))
(assert (let ((.def_26402 (= |ssl3_connect::s__s3__tmp__next_state___0| (_ bv4352 32)))).def_26402))
(assert (let ((.def_26404 (= |ssl3_connect::s__s3__tmp__next_state___0| (_ bv4528 32)))).def_26404))
(assert (let ((.def_26406 (= |ssl3_connect::s__s3__tmp__next_state___0| (_ bv4449 32)))).def_26406))
(assert (let ((.def_26408 (= |ssl3_connect::s__s3__tmp__next_state___0| (_ bv4448 32)))).def_26408))
(assert (let ((.def_26410 (= |ssl3_connect::s__s3__tmp__next_state___0| (_ bv4529 32)))).def_26410))
(assert (let ((.def_26412 (= |ssl3_connect::s__s3__tmp__next_state___0| (_ bv4497 32)))).def_26412))
(assert (let ((.def_26414 (= |ssl3_connect::s__s3__tmp__next_state___0| (_ bv4496 32)))).def_26414))
(assert (let ((.def_26416 (= |ssl3_connect::s__s3__tmp__next_state___0| (_ bv4467 32)))).def_26416))
(assert (let ((.def_26418 (= |ssl3_connect::s__s3__tmp__next_state___0| (_ bv4466 32)))).def_26418))
(assert (let ((.def_26420 (= |ssl3_connect::s__s3__tmp__next_state___0| (_ bv4465 32)))).def_26420))
(assert (let ((.def_26422 (= |ssl3_connect::s__s3__tmp__next_state___0| (_ bv4464 32)))).def_26422))
(assert (let ((.def_26424 (= |ssl3_connect::s__s3__tmp__next_state___0| (_ bv12292 32)))).def_26424))
(assert (let ((.def_26426 (= |ssl3_connect::s__s3__tmp__next_state___0| (_ bv4096 32)))).def_26426))
(assert (let ((.def_26428 (= |ssl3_connect::s__s3__tmp__next_state___0| (_ bv20480 32)))).def_26428))
(assert (let ((.def_26430 (= |ssl3_connect::s__s3__tmp__next_state___0| (_ bv16384 32)))).def_26430))
(assert (let ((.def_26432 (= |ssl3_connect::s__s3__tmp__next_state___0| (_ bv4099 32)))).def_26432))
(assert (let ((.def_26434 (= |ssl3_connect::s__state| (_ bv4448 32)))).def_26434))
(assert (let ((.def_26436 (= |ssl3_connect::s__state| (_ bv4449 32)))).def_26436))
(assert (let ((.def_26438 (= |ssl3_connect::s__state| (_ bv4497 32)))).def_26438))
(assert (let ((.def_26440 (= |ssl3_connect::s__s3__tmp__next_state___0| (_ bv4368 32)))).def_26440))
(assert (let ((.def_26442 (= |ssl3_connect::s__s3__tmp__next_state___0| (_ bv4369 32)))).def_26442))
(assert (let ((.def_26444 (= |ssl3_connect::s__s3__tmp__next_state___0| (_ bv4385 32)))).def_26444))
(assert (let ((.def_26446 (= |ssl3_connect::s__s3__tmp__next_state___0| (_ bv4384 32)))).def_26446))
(assert (let ((.def_26448 (= |ssl3_connect::s__s3__tmp__next_state___0| (_ bv4400 32)))).def_26448))
(assert (let ((.def_26450 (= |ssl3_connect::s__s3__tmp__next_state___0| (_ bv4401 32)))).def_26450))

ssl3_connect N573:
(assert false)
(assert (let ((.def_698 (= |ssl3_connect::blastFlag| (_ bv5 32)))).def_698))

ssl3_accept N696:
(assert (let ((.def_34428 (= |ssl3_accept::blastFlag| (_ bv4 32)))).def_34428))
(assert (let ((.def_35576 (= |ssl3_accept::s__state| (_ bv8464 32)))).def_35576))
(assert (let ((.def_35578 (= |ssl3_accept::blastFlag| (_ bv0 32)))).def_35578))
(assert (let ((.def_36954 (= |ssl3_accept::s__state| (_ bv8481 32)))).def_36954))
(assert (let ((.def_36956 (= |ssl3_accept::s__state| (_ bv8480 32)))).def_36956))
(assert (let ((.def_36958 (= |ssl3_accept::s__state| (_ bv12292 32)))).def_36958))
(assert (let ((.def_36960 (= |ssl3_accept::s__state| (_ bv16384 32)))).def_36960))
(assert (let ((.def_36962 (= |ssl3_accept::s__state| (_ bv8192 32)))).def_36962))
(assert (let ((.def_36964 (= |ssl3_accept::s__state| (_ bv24576 32)))).def_36964))
(assert (let ((.def_36966 (= |ssl3_accept::s__state| (_ bv8195 32)))).def_36966))
(assert (let ((.def_36968 (= |ssl3_accept::s__state| (_ bv8482 32)))).def_36968))
(assert (let ((.def_36970 (= |ssl3_accept::blastFlag| (_ bv1 32)))).def_36970))
(assert (let ((.def_38916 (= |ssl3_accept::blastFlag| (_ bv3 32)))).def_38916))
(assert (let ((.def_38918 (= |ssl3_accept::blastFlag| (_ bv2 32)))).def_38918))
(assert (let ((.def_38920 (= |ssl3_accept::s__state| (_ bv8496 32)))).def_38920))
(assert (let ((.def_41225 (= |ssl3_accept::s__state| (_ bv8465 32)))).def_41225))
(assert (let ((.def_41227 (= |ssl3_accept::s__state| (_ bv8466 32)))).def_41227))
(assert (let ((.def_41230 (= |ssl3_accept::s__hit| (_ bv0 32)))).def_41230))
(assert (let ((.def_41232 (= |ssl3_accept::s__state| (_ bv8512 32)))).def_41232))
(assert (let ((.def_41234 (= |ssl3_accept::s__state| (_ bv8497 32)))).def_41234))
(assert (let ((.def_41236 (= |ssl3_accept::s__state| (_ bv8641 32)))).def_41236))
(assert (let ((.def_41238 (= |ssl3_accept::s__state| (_ bv8448 32)))).def_41238))
(assert (let ((.def_41240 (= |ssl3_accept::s__state| (_ bv8640 32)))).def_41240))
(assert (let ((.def_44365 (= |ssl3_accept::s__s3__tmp__reuse_message| (_ bv0 32)))).def_44365))
(assert (let ((.def_44367 (= |ssl3_accept::s__state| (_ bv8528 32)))).def_44367))
(assert (let ((.def_44369 (= |ssl3_accept::s__state| (_ bv8544 32)))).def_44369))
(assert (let ((.def_44371 (= |ssl3_accept::s__state| (_ bv8560 32)))).def_44371))
(assert (let ((.def_44373 (= |ssl3_accept::s__state| (_ bv8608 32)))).def_44373))
(assert (let ((.def_44375 (= |ssl3_accept::s__state| (_ bv8609 32)))).def_44375))
(assert (let ((.def_44378 (= |ssl3_accept::s__s3__tmp__next_state___0| (_ bv8482 32)))).def_44378))
(assert (let ((.def_44380 (= |ssl3_accept::s__state| (_ bv8657 32)))).def_44380))
(assert (let ((.def_44382 (= |ssl3_accept::s__state| (_ bv8656 32)))).def_44382))
(assert (let ((.def_44384 (= |ssl3_accept::s__state| (_ bv8592 32)))).def_44384))
(assert (let ((.def_44386 (= |ssl3_accept::s__state| |ssl3_accept::s__s3__tmp__next_state___0|))).def_44386))
(assert (let ((.def_44388 (= |ssl3_accept::s__s3__tmp__next_state___0| (_ bv8576 32)))).def_44388))
(assert (let ((.def_44390 (= |ssl3_accept::s__s3__tmp__next_state___0| (_ bv8640 32)))).def_44390))
(assert (let ((.def_44392 (= |ssl3_accept::s__state| (_ bv8576 32)))).def_44392))
(assert (let ((.def_48258 (= |ssl3_accept::s__state| (_ bv8672 32)))).def_48258))
(assert (let ((.def_48260 (= |ssl3_accept::s__state| (_ bv8593 32)))).def_48260))
(assert (let ((.def_48262 (= |ssl3_accept::s__state| (_ bv8577 32)))).def_48262))
(assert (let ((.def_48264 (= |ssl3_accept::s__state| (_ bv8561 32)))).def_48264))
(assert (let ((.def_48266 (= |ssl3_accept::s__state| (_ bv8545 32)))).def_48266))
(assert (let ((.def_48268 (= |ssl3_accept::s__state| (_ bv8529 32)))).def_48268))
(assert (let ((.def_48270 (= |ssl3_accept::s__state| (_ bv8513 32)))).def_48270))
(assert (let ((.def_48272 (= |ssl3_accept::s__s3__tmp__next_state___0| (_ bv8448 32)))).def_48272))
(assert (let ((.def_48274 (= |ssl3_accept::s__state| (_ bv8673 32)))).def_48274))
(assert (let ((.def_73230 (= |ssl3_accept::s__verify_mode| (_ bv4294967295 32)))).def_73230))
(assert (let ((.def_73232 (= |ssl3_accept::s__s3__tmp__next_state___0| (_ bv8512 32)))).def_73232))
(assert (let ((.def_73234 (= |ssl3_accept::s__s3__tmp__next_state___0| (_ bv8513 32)))).def_73234))
(assert (let ((.def_73237 (= |ssl3_accept::s__s3__tmp__new_cipher__algorithms| (_ bv4294967040 32)))).def_73237))
(assert (let ((.def_73239 (= |ssl3_accept::s__verify_mode| (_ bv4294967294 32)))).def_73239))
(assert (let ((.def_73242 (= |ssl3_accept::s__session__peer| (_ bv0 32)))).def_73242))
(assert (let ((.def_73244 (= |ssl3_accept::s__verify_mode| (_ bv4294967292 32)))).def_73244))
(assert (let ((.def_73246 (= |ssl3_accept::s__s3__tmp__next_state___0| (_ bv8577 32)))).def_73246))
(assert (let ((.def_73248 (= |ssl3_accept::s__s3__tmp__next_state___0| (_ bv8592 32)))).def_73248))
(assert (let ((.def_73250 (= |ssl3_accept::s__s3__tmp__next_state___0| (_ bv8497 32)))).def_73250))
(assert (let ((.def_73252 (= |ssl3_accept::s__s3__tmp__next_state___0| (_ bv8496 32)))).def_73252))
(assert (let ((.def_73254 (= |ssl3_accept::s__s3__tmp__next_state___0| (_ bv8561 32)))).def_73254))
(assert (let ((.def_73256 (= |ssl3_accept::s__s3__tmp__next_state___0| (_ bv8544 32)))).def_73256))
(assert (let ((.def_73258 (= |ssl3_accept::s__s3__tmp__next_state___0| (_ bv8560 32)))).def_73258))
(assert (let ((.def_73260 (= |ssl3_accept::s__s3__tmp__next_state___0| (_ bv8545 32)))).def_73260))
(assert (let ((.def_73262 (= |ssl3_accept::s__s3__tmp__next_state___0| (_ bv8529 32)))).def_73262))
(assert (let ((.def_73264 (= |ssl3_accept::s__s3__tmp__next_state___0| (_ bv8528 32)))).def_73264))
(assert (let ((.def_73266 (= |ssl3_accept::s__s3__tmp__next_state___0| (_ bv3 32)))).def_73266))
(assert (let ((.def_73269 (= |ssl3_accept::skip| (_ bv1 32)))).def_73269))
(assert (let ((.def_73271 (= |ssl3_accept::s__s3__tmp__next_state___0| (_ bv8593 32)))).def_73271))
(assert (let ((.def_73273 (= |ssl3_accept::s__s3__tmp__next_state___0| (_ bv8608 32)))).def_73273))
(assert (let ((.def_73275 (= |ssl3_accept::s__s3__tmp__next_state___0| (_ bv8609 32)))).def_73275))
(assert (let ((.def_73277 (= |ssl3_accept::s__s3__tmp__next_state___0| (_ bv8195 32)))).def_73277))
(assert (let ((.def_73279 (= |ssl3_accept::s__s3__tmp__next_state___0| (_ bv24576 32)))).def_73279))
(assert (let ((.def_73281 (= |ssl3_accept::s__s3__tmp__next_state___0| (_ bv8192 32)))).def_73281))
(assert (let ((.def_73283 (= |ssl3_accept::s__s3__tmp__next_state___0| (_ bv16384 32)))).def_73283))
(assert (let ((.def_73285 (= |ssl3_accept::s__s3__tmp__next_state___0| (_ bv12292 32)))).def_73285))
(assert (let ((.def_73287 (= |ssl3_accept::s__s3__tmp__next_state___0| (_ bv8466 32)))).def_73287))
(assert (let ((.def_73289 (= |ssl3_accept::s__s3__tmp__next_state___0| (_ bv8465 32)))).def_73289))
(assert (let ((.def_73291 (= |ssl3_accept::s__s3__tmp__next_state___0| (_ bv8464 32)))).def_73291))
(assert (let ((.def_73293 (= |ssl3_accept::s__s3__tmp__next_state___0| (_ bv8481 32)))).def_73293))
(assert (let ((.def_73295 (= |ssl3_accept::s__s3__tmp__next_state___0| (_ bv8480 32)))).def_73295))
(assert (let ((.def_73297 (= |ssl3_accept::s__s3__tmp__next_state___0| (_ bv8641 32)))).def_73297))
(assert (let ((.def_73300 (= |ssl3_accept::cb| (_ bv0 32)))).def_73300))

ssl3_accept N1216:
(assert false)

