(set-info :source |printed by MathSAT|)
(declare-fun a20 () (_ BitVec 32))
(declare-fun a25 () (_ BitVec 32))
(declare-fun a12 () (_ BitVec 32))
(declare-fun a15 () (_ BitVec 32))
(declare-fun a16 () (_ BitVec 32))
(declare-fun a2 () (_ BitVec 32))
(declare-fun a27 () (_ BitVec 32))
(declare-fun a9 () (_ BitVec 32))
(declare-fun |calculate_output4::input| () (_ BitVec 32))
(declare-fun |calculate_output3::input| () (_ BitVec 32))
(declare-fun |calculate_output5::input| () (_ BitVec 32))
(declare-fun |calculate_output6::input| () (_ BitVec 32))
(declare-fun |calculate_output7::input| () (_ BitVec 32))
(declare-fun |calculate_output8::input| () (_ BitVec 32))
(declare-fun |calculate_output2::input| () (_ BitVec 32))

*:
(assert (let ((.def_106556 (= a20 (_ bv5 32)))).def_106556))

calculate_output8 N29800:
(assert false)
(assert (let ((.def_106556 (= a20 (_ bv5 32)))).def_106556))

main1 N30136:
(assert (let ((.def_106556 (= a20 (_ bv5 32)))).def_106556))
(assert (let ((.def_153714 (= a25 (_ bv1 32)))).def_153714))
(assert (let ((.def_153717 (= a12 (_ bv4 32)))).def_153717))
(assert (let ((.def_153720 (= a15 (_ bv1 32)))).def_153720))
(assert (let ((.def_153723 (= a16 (_ bv1 32)))).def_153723))
(assert (let ((.def_153726 (= a2 (_ bv10 32)))).def_153726))
(assert (let ((.def_153729 (= a27 (_ bv1 32)))).def_153729))
(assert (let ((.def_153732 (= a9 (_ bv18 32)))).def_153732))
(assert (let ((.def_319594 (= a2 (_ bv11 32)))).def_319594))
(assert (let ((.def_319596 (= a12 (_ bv2 32)))).def_319596))
(assert (let ((.def_319598 (= a9 (_ bv17 32)))).def_319598))
(assert (let ((.def_319600 (= a2 (_ bv13 32)))).def_319600))
(assert (let ((.def_319602 (= a20 (_ bv6 32)))).def_319602))
(assert (let ((.def_319604 (= a12 (_ bv6 32)))).def_319604))
(assert (let ((.def_319606 (= a2 (_ bv9 32)))).def_319606))
(assert (let ((.def_319608 (= a9 (_ bv16 32)))).def_319608))
(assert (let ((.def_1258143 (= a20 (_ bv7 32)))).def_1258143))
(assert (let ((.def_1258145 (= a12 (_ bv5 32)))).def_1258145))
(assert (let ((.def_1258147 (= a12 (_ bv3 32)))).def_1258147))
(assert (let ((.def_1258149 (= a2 (_ bv12 32)))).def_1258149))
(assert (let ((.def_1258153 (= |calculate_output4::input| |calculate_output3::input|))).def_1258153))
(assert (let ((.def_1258155 (= |calculate_output3::input| (_ bv1 32)))).def_1258155))
(assert (let ((.def_1258158 (= |calculate_output4::input| |calculate_output5::input|))).def_1258158))
(assert (let ((.def_1258161 (= |calculate_output6::input| (_ bv5 32)))).def_1258161))
(assert (let ((.def_1258164 (= |calculate_output5::input| |calculate_output7::input|))).def_1258164))
(assert (let ((.def_1258166 (= |calculate_output7::input| (_ bv3 32)))).def_1258166))
(assert (let ((.def_1258168 (= |calculate_output7::input| (_ bv2 32)))).def_1258168))
(assert (let ((.def_1258170 (= |calculate_output5::input| (_ bv4 32)))).def_1258170))
(assert (let ((.def_1258172 (= |calculate_output3::input| (_ bv4 32)))).def_1258172))
(assert (let ((.def_1258174 (= |calculate_output4::input| (_ bv3 32)))).def_1258174))
(assert (let ((.def_1258176 (= |calculate_output7::input| (_ bv4 32)))).def_1258176))
(assert (let ((.def_1258178 (= |calculate_output7::input| (_ bv1 32)))).def_1258178))
(assert (let ((.def_1258180 (= |calculate_output6::input| |calculate_output7::input|))).def_1258180))
(assert (let ((.def_1258182 (= |calculate_output7::input| (_ bv5 32)))).def_1258182))
(assert (let ((.def_1258185 (= |calculate_output7::input| |calculate_output8::input|))).def_1258185))
(assert (let ((.def_1258187 (= |calculate_output8::input| (_ bv5 32)))).def_1258187))
(assert (let ((.def_1258189 (= |calculate_output5::input| (_ bv3 32)))).def_1258189))
(assert (let ((.def_1258191 (= |calculate_output3::input| (_ bv3 32)))).def_1258191))
(assert (let ((.def_1258193 (= |calculate_output3::input| (_ bv6 32)))).def_1258193))
(assert (let ((.def_1258195 (= |calculate_output4::input| (_ bv2 32)))).def_1258195))
(assert (let ((.def_1258197 (= |calculate_output4::input| (_ bv4 32)))).def_1258197))
(assert (let ((.def_1258199 (= |calculate_output4::input| (_ bv6 32)))).def_1258199))
(assert (let ((.def_1258201 (= |calculate_output5::input| (_ bv2 32)))).def_1258201))
(assert (let ((.def_1258203 (= |calculate_output5::input| (_ bv6 32)))).def_1258203))
(assert (let ((.def_1258205 (= |calculate_output6::input| (_ bv2 32)))).def_1258205))
(assert (let ((.def_1258207 (= |calculate_output6::input| (_ bv6 32)))).def_1258207))
(assert (let ((.def_1258209 (= |calculate_output5::input| |calculate_output6::input|))).def_1258209))
(assert (let ((.def_1258211 (= |calculate_output6::input| (_ bv3 32)))).def_1258211))
(assert (let ((.def_1258213 (= |calculate_output4::input| (_ bv1 32)))).def_1258213))
(assert (let ((.def_1258215 (= |calculate_output5::input| (_ bv1 32)))).def_1258215))
(assert (let ((.def_1258217 (= |calculate_output3::input| (_ bv2 32)))).def_1258217))
(assert (let ((.def_1258219 (= |calculate_output6::input| (_ bv1 32)))).def_1258219))
(assert (let ((.def_1258222 (= |calculate_output2::input| (_ bv4 32)))).def_1258222))
(assert (let ((.def_1258224 (= |calculate_output3::input| |calculate_output2::input|))).def_1258224))
(assert (let ((.def_1258226 (= |calculate_output6::input| (_ bv4 32)))).def_1258226))

