(set-info :source |printed by MathSAT|)
(declare-fun a20 () (_ BitVec 32))
(declare-fun a25 () (_ BitVec 32))
(declare-fun a12 () (_ BitVec 32))
(declare-fun a15 () (_ BitVec 32))
(declare-fun a16 () (_ BitVec 32))
(declare-fun a2 () (_ BitVec 32))
(declare-fun a27 () (_ BitVec 32))
(declare-fun a9 () (_ BitVec 32))
(declare-fun m_pc () (_ BitVec 32))
(declare-fun t1_pc () (_ BitVec 32))
(declare-fun t2_pc () (_ BitVec 32))
(declare-fun m_st () (_ BitVec 32))
(declare-fun E_2 () (_ BitVec 32))
(declare-fun E_M () (_ BitVec 32))
(declare-fun t1_st () (_ BitVec 32))
(declare-fun t2_st () (_ BitVec 32))
(declare-fun local () (_ BitVec 32))
(declare-fun token () (_ BitVec 32))
(declare-fun E_1 () (_ BitVec 32))

*:
(assert (let ((.def_107788 (= a20 (_ bv5 32)))).def_107788))

calculate_output8 N30108:
(assert false)
(assert (let ((.def_107788 (= a20 (_ bv5 32)))).def_107788))

main1 N30136:
(assert (let ((.def_107788 (= a20 (_ bv5 32)))).def_107788))
(assert (let ((.def_155486 (= a25 (_ bv1 32)))).def_155486))
(assert (let ((.def_155489 (= a12 (_ bv4 32)))).def_155489))
(assert (let ((.def_155492 (= a15 (_ bv1 32)))).def_155492))
(assert (let ((.def_155495 (= a16 (_ bv1 32)))).def_155495))
(assert (let ((.def_155498 (= a2 (_ bv10 32)))).def_155498))
(assert (let ((.def_155501 (= a27 (_ bv1 32)))).def_155501))
(assert (let ((.def_155504 (= a9 (_ bv18 32)))).def_155504))
(assert (let ((.def_321676 (= a12 (_ bv5 32)))).def_321676))
(assert (let ((.def_321678 (= a2 (_ bv13 32)))).def_321678))
(assert (let ((.def_321680 (= a12 (_ bv2 32)))).def_321680))
(assert (let ((.def_321682 (= a2 (_ bv12 32)))).def_321682))
(assert (let ((.def_321684 (= a12 (_ bv3 32)))).def_321684))
(assert (let ((.def_321686 (= a9 (_ bv16 32)))).def_321686))
(assert (let ((.def_321688 (= a20 (_ bv7 32)))).def_321688))
(assert (let ((.def_321690 (= a2 (_ bv9 32)))).def_321690))
(assert (let ((.def_321692 (= a9 (_ bv17 32)))).def_321692))

error N30154:
(assert false)
(assert (let ((.def_107788 (= a20 (_ bv5 32)))).def_107788))

eval N30342:
(assert (let ((.def_746466 (= m_pc (_ bv0 32)))).def_746466))
(assert (let ((.def_107788 (= a20 (_ bv5 32)))).def_107788))
(assert (let ((.def_747474 (= t1_pc (_ bv0 32)))).def_747474))
(assert (let ((.def_747477 (= t2_pc (_ bv0 32)))).def_747477))
(assert (let ((.def_747479 (= m_pc (_ bv1 32)))).def_747479))
(assert (let ((.def_747481 (= t1_pc (_ bv1 32)))).def_747481))
(assert (let ((.def_747483 (= t2_pc (_ bv1 32)))).def_747483))
(assert (let ((.def_747486 (= m_st (_ bv0 32)))).def_747486))
(assert (let ((.def_748778 (= E_2 (_ bv1 32)))).def_748778))
(assert (let ((.def_748781 (= E_M (_ bv1 32)))).def_748781))
(assert (let ((.def_748784 (= t1_st (_ bv0 32)))).def_748784))
(assert (let ((.def_748786 (= m_st (_ bv2 32)))).def_748786))
(assert (let ((.def_748789 (= t2_st (_ bv0 32)))).def_748789))
(assert (let ((.def_748792 (bvadd (_ bv2 32) local)))(let ((.def_748794 (= .def_748792 token))).def_748794)))
(assert (let ((.def_751529 (= E_1 (_ bv1 32)))).def_751529))
(assert (let ((.def_751531 (= local token))).def_751531))
(assert (let ((.def_751533 (bvadd (_ bv1 32) local)))(let ((.def_751534 (= token .def_751533))).def_751534)))
(assert (let ((.def_753880 (= E_M (_ bv0 32)))).def_753880))
(assert (let ((.def_753882 (= E_2 (_ bv0 32)))).def_753882))
(assert (let ((.def_753884 (= E_1 (_ bv0 32)))).def_753884))

start_simulation N30533:
(assert (let ((.def_746466 (= m_pc (_ bv0 32)))).def_746466))
(assert (let ((.def_107788 (= a20 (_ bv5 32)))).def_107788))
(assert (let ((.def_747474 (= t1_pc (_ bv0 32)))).def_747474))
(assert (let ((.def_747477 (= t2_pc (_ bv0 32)))).def_747477))
(assert (let ((.def_747479 (= m_pc (_ bv1 32)))).def_747479))
(assert (let ((.def_747481 (= t1_pc (_ bv1 32)))).def_747481))
(assert (let ((.def_747483 (= t2_pc (_ bv1 32)))).def_747483))
(assert (let ((.def_748778 (= E_2 (_ bv1 32)))).def_748778))
(assert (let ((.def_748781 (= E_M (_ bv1 32)))).def_748781))
(assert (let ((.def_747486 (= m_st (_ bv0 32)))).def_747486))
(assert (let ((.def_748789 (= t2_st (_ bv0 32)))).def_748789))
(assert (let ((.def_748784 (= t1_st (_ bv0 32)))).def_748784))
(assert (let ((.def_751529 (= E_1 (_ bv1 32)))).def_751529))
(assert (let ((.def_753880 (= E_M (_ bv0 32)))).def_753880))
(assert (let ((.def_753882 (= E_2 (_ bv0 32)))).def_753882))

