(set-info :source |printed by MathSAT|)
(declare-fun c_last_read () (_ BitVec 32))
(declare-fun p_last_write () (_ BitVec 32))
(declare-fun c_num_read () (_ BitVec 32))
(declare-fun p_num_write () (_ BitVec 32))
(declare-fun c_dr_pc () (_ BitVec 32))
(declare-fun q_free () (_ BitVec 32))
(declare-fun q_buf_0 () (_ BitVec 32))
(declare-fun p_dw_pc () (_ BitVec 32))
(declare-fun q_read_ev () (_ BitVec 32))
(declare-fun c_dr_st () (_ BitVec 32))
(declare-fun p_dw_st () (_ BitVec 32))
(declare-fun m_pc () (_ BitVec 32))
(declare-fun t1_pc () (_ BitVec 32))
(declare-fun t2_pc () (_ BitVec 32))
(declare-fun t3_pc () (_ BitVec 32))
(declare-fun t4_pc () (_ BitVec 32))
(declare-fun t5_pc () (_ BitVec 32))
(declare-fun t6_pc () (_ BitVec 32))
(declare-fun t7_pc () (_ BitVec 32))
(declare-fun t8_pc () (_ BitVec 32))
(declare-fun m_st () (_ BitVec 32))
(declare-fun E_8 () (_ BitVec 32))
(declare-fun E_6 () (_ BitVec 32))
(declare-fun E_5 () (_ BitVec 32))
(declare-fun E_4 () (_ BitVec 32))
(declare-fun E_3 () (_ BitVec 32))
(declare-fun E_2 () (_ BitVec 32))
(declare-fun E_M () (_ BitVec 32))
(declare-fun E_7 () (_ BitVec 32))
(declare-fun t1_st () (_ BitVec 32))
(declare-fun t7_st () (_ BitVec 32))
(declare-fun t5_st () (_ BitVec 32))
(declare-fun t6_st () (_ BitVec 32))
(declare-fun t4_st () (_ BitVec 32))
(declare-fun t2_st () (_ BitVec 32))
(declare-fun t8_st () (_ BitVec 32))
(declare-fun t3_st () (_ BitVec 32))
(declare-fun E_1 () (_ BitVec 32))
(declare-fun local () (_ BitVec 32))
(declare-fun token () (_ BitVec 32))

*:
(assert (let ((.def_615 (= c_last_read p_last_write))).def_615))
(assert (let ((.def_624 (= c_num_read p_num_write))).def_624))

error1 N4:
(assert false)
(assert (let ((.def_615 (= c_last_read p_last_write))).def_615))
(assert (let ((.def_624 (= c_num_read p_num_write))).def_624))

do_write_p N64:
(assert (let ((.def_959 (= c_dr_pc (_ bv0 32)))).def_959))
(assert (let ((.def_615 (= c_last_read p_last_write))).def_615))
(assert (let ((.def_624 (= c_num_read p_num_write))).def_624))
(assert (let ((.def_1062 (= q_free (_ bv1 32)))).def_1062))
(assert false)
(assert (let ((.def_1405 (= p_last_write q_buf_0))).def_1405))
(assert (let ((.def_1065 (= p_dw_pc (_ bv1 32)))).def_1065))
(assert (let ((.def_1594 (bvadd (_ bv1 32) c_num_read)))(let ((.def_1595 (= p_num_write .def_1594))).def_1595)))
(assert (let ((.def_2486 (= q_free (_ bv0 32)))).def_2486))
(assert (let ((.def_1597 (= c_dr_pc (_ bv1 32)))).def_1597))
(assert (let ((.def_5287 (= q_read_ev (_ bv1 32)))).def_5287))

do_read_c N100:
(assert (let ((.def_1065 (= p_dw_pc (_ bv1 32)))).def_1065))
(assert (let ((.def_1062 (= q_free (_ bv1 32)))).def_1062))
(assert (let ((.def_615 (= c_last_read p_last_write))).def_615))
(assert (let ((.def_624 (= c_num_read p_num_write))).def_624))
(assert (let ((.def_1405 (= p_last_write q_buf_0))).def_1405))
(assert (let ((.def_1594 (bvadd (_ bv1 32) c_num_read)))(let ((.def_1595 (= p_num_write .def_1594))).def_1595)))
(assert (let ((.def_1597 (= c_dr_pc (_ bv1 32)))).def_1597))
(assert false)

eval1 N170:
(assert (let ((.def_959 (= c_dr_pc (_ bv0 32)))).def_959))
(assert (let ((.def_615 (= c_last_read p_last_write))).def_615))
(assert (let ((.def_624 (= c_num_read p_num_write))).def_624))
(assert (let ((.def_1062 (= q_free (_ bv1 32)))).def_1062))
(assert (let ((.def_1335 (= p_dw_pc (_ bv0 32)))).def_1335))
(assert (let ((.def_1597 (= c_dr_pc (_ bv1 32)))).def_1597))
(assert (let ((.def_3909 (= c_dr_st (_ bv0 32)))).def_3909))
(assert (let ((.def_1065 (= p_dw_pc (_ bv1 32)))).def_1065))
(assert (let ((.def_5287 (= q_read_ev (_ bv1 32)))).def_5287))
(assert (let ((.def_5290 (= p_dw_st (_ bv0 32)))).def_5290))
(assert (let ((.def_1405 (= p_last_write q_buf_0))).def_1405))
(assert (let ((.def_1594 (bvadd (_ bv1 32) c_num_read)))(let ((.def_1595 (= p_num_write .def_1594))).def_1595)))

start_simulation1 N221:
(assert (let ((.def_959 (= c_dr_pc (_ bv0 32)))).def_959))
(assert (let ((.def_615 (= c_last_read p_last_write))).def_615))
(assert (let ((.def_624 (= c_num_read p_num_write))).def_624))
(assert (let ((.def_1062 (= q_free (_ bv1 32)))).def_1062))
(assert (let ((.def_1335 (= p_dw_pc (_ bv0 32)))).def_1335))
(assert (let ((.def_5287 (= q_read_ev (_ bv1 32)))).def_5287))

error2 N260:
(assert false)
(assert (let ((.def_615 (= c_last_read p_last_write))).def_615))
(assert (let ((.def_624 (= c_num_read p_num_write))).def_624))

eval2 N772:
(assert (let ((.def_7835 (= m_pc (_ bv0 32)))).def_7835))
(assert (let ((.def_615 (= c_last_read p_last_write))).def_615))
(assert (let ((.def_624 (= c_num_read p_num_write))).def_624))
(assert (let ((.def_14242 (= t1_pc (_ bv0 32)))).def_14242))
(assert (let ((.def_14245 (= t2_pc (_ bv0 32)))).def_14245))
(assert (let ((.def_14248 (= t3_pc (_ bv0 32)))).def_14248))
(assert (let ((.def_14251 (= t4_pc (_ bv0 32)))).def_14251))
(assert (let ((.def_14254 (= t5_pc (_ bv0 32)))).def_14254))
(assert (let ((.def_14257 (= t6_pc (_ bv0 32)))).def_14257))
(assert (let ((.def_14260 (= t7_pc (_ bv0 32)))).def_14260))
(assert (let ((.def_14263 (= t8_pc (_ bv0 32)))).def_14263))
(assert (let ((.def_14265 (= m_pc (_ bv1 32)))).def_14265))
(assert (let ((.def_14267 (= t1_pc (_ bv1 32)))).def_14267))
(assert (let ((.def_14269 (= t2_pc (_ bv1 32)))).def_14269))
(assert (let ((.def_14271 (= t3_pc (_ bv1 32)))).def_14271))
(assert (let ((.def_14273 (= t4_pc (_ bv1 32)))).def_14273))
(assert (let ((.def_14275 (= t5_pc (_ bv1 32)))).def_14275))
(assert (let ((.def_14277 (= t6_pc (_ bv1 32)))).def_14277))
(assert (let ((.def_14279 (= t7_pc (_ bv1 32)))).def_14279))
(assert (let ((.def_14281 (= t8_pc (_ bv1 32)))).def_14281))
(assert (let ((.def_14284 (= m_st (_ bv0 32)))).def_14284))
(assert (let ((.def_31813 (= E_8 (_ bv1 32)))).def_31813))
(assert (let ((.def_31816 (= E_6 (_ bv1 32)))).def_31816))
(assert (let ((.def_31819 (= E_5 (_ bv1 32)))).def_31819))
(assert (let ((.def_31822 (= E_4 (_ bv1 32)))).def_31822))
(assert (let ((.def_31825 (= E_3 (_ bv1 32)))).def_31825))
(assert (let ((.def_31828 (= E_2 (_ bv1 32)))).def_31828))
(assert (let ((.def_31831 (= E_M (_ bv1 32)))).def_31831))
(assert (let ((.def_31834 (= E_7 (_ bv1 32)))).def_31834))
(assert (let ((.def_31837 (= t1_st (_ bv0 32)))).def_31837))
(assert (let ((.def_31840 (= t7_st (_ bv0 32)))).def_31840))
(assert (let ((.def_31843 (= t5_st (_ bv0 32)))).def_31843))
(assert (let ((.def_31846 (= t6_st (_ bv0 32)))).def_31846))
(assert (let ((.def_31849 (= t4_st (_ bv0 32)))).def_31849))
(assert (let ((.def_31852 (= t2_st (_ bv0 32)))).def_31852))
(assert (let ((.def_31855 (= t8_st (_ bv0 32)))).def_31855))
(assert (let ((.def_31858 (= t3_st (_ bv0 32)))).def_31858))
(assert (let ((.def_31861 (= E_1 (_ bv1 32)))).def_31861))
(assert (let ((.def_31864 (bvadd (_ bv8 32) local)))(let ((.def_31866 (= .def_31864 token))).def_31866)))

start_simulation2 N1209:
(assert (let ((.def_7835 (= m_pc (_ bv0 32)))).def_7835))
(assert (let ((.def_615 (= c_last_read p_last_write))).def_615))
(assert (let ((.def_624 (= c_num_read p_num_write))).def_624))
(assert (let ((.def_14242 (= t1_pc (_ bv0 32)))).def_14242))
(assert (let ((.def_14245 (= t2_pc (_ bv0 32)))).def_14245))
(assert (let ((.def_14248 (= t3_pc (_ bv0 32)))).def_14248))
(assert (let ((.def_14251 (= t4_pc (_ bv0 32)))).def_14251))
(assert (let ((.def_14254 (= t5_pc (_ bv0 32)))).def_14254))
(assert (let ((.def_14257 (= t6_pc (_ bv0 32)))).def_14257))
(assert (let ((.def_14260 (= t7_pc (_ bv0 32)))).def_14260))
(assert (let ((.def_14263 (= t8_pc (_ bv0 32)))).def_14263))
(assert (let ((.def_14265 (= m_pc (_ bv1 32)))).def_14265))
(assert (let ((.def_14267 (= t1_pc (_ bv1 32)))).def_14267))
(assert (let ((.def_14269 (= t2_pc (_ bv1 32)))).def_14269))
(assert (let ((.def_14271 (= t3_pc (_ bv1 32)))).def_14271))
(assert (let ((.def_14273 (= t4_pc (_ bv1 32)))).def_14273))
(assert (let ((.def_14275 (= t5_pc (_ bv1 32)))).def_14275))
(assert (let ((.def_14277 (= t6_pc (_ bv1 32)))).def_14277))
(assert (let ((.def_14279 (= t7_pc (_ bv1 32)))).def_14279))
(assert (let ((.def_14281 (= t8_pc (_ bv1 32)))).def_14281))
(assert (let ((.def_31813 (= E_8 (_ bv1 32)))).def_31813))
(assert (let ((.def_31816 (= E_6 (_ bv1 32)))).def_31816))
(assert (let ((.def_31819 (= E_5 (_ bv1 32)))).def_31819))
(assert (let ((.def_31822 (= E_4 (_ bv1 32)))).def_31822))
(assert (let ((.def_31825 (= E_3 (_ bv1 32)))).def_31825))
(assert (let ((.def_31828 (= E_2 (_ bv1 32)))).def_31828))
(assert (let ((.def_31831 (= E_M (_ bv1 32)))).def_31831))
(assert (let ((.def_31834 (= E_7 (_ bv1 32)))).def_31834))
(assert (let ((.def_14284 (= m_st (_ bv0 32)))).def_14284))

