(set-info :source |printed by MathSAT|)
(declare-fun a20 () (_ BitVec 32))
(declare-fun a25 () (_ BitVec 32))
(declare-fun a12 () (_ BitVec 32))
(declare-fun a15 () (_ BitVec 32))
(declare-fun a16 () (_ BitVec 32))
(declare-fun a2 () (_ BitVec 32))
(declare-fun a27 () (_ BitVec 32))
(declare-fun a9 () (_ BitVec 32))
(declare-fun m_pc () (_ BitVec 32))
(declare-fun t1_pc () (_ BitVec 32))
(declare-fun t2_pc () (_ BitVec 32))
(declare-fun t3_pc () (_ BitVec 32))
(declare-fun t4_pc () (_ BitVec 32))
(declare-fun t5_pc () (_ BitVec 32))
(declare-fun m_st () (_ BitVec 32))

*:
(assert (let ((.def_107173 (= a20 (_ bv5 32)))).def_107173))

calculate_output8 N29943:
(assert false)
(assert (let ((.def_107173 (= a20 (_ bv5 32)))).def_107173))

main1 N30136:
(assert (let ((.def_107173 (= a20 (_ bv5 32)))).def_107173))
(assert (let ((.def_154535 (= a25 (_ bv1 32)))).def_154535))
(assert (let ((.def_154538 (= a12 (_ bv4 32)))).def_154538))
(assert (let ((.def_154541 (= a15 (_ bv1 32)))).def_154541))
(assert (let ((.def_154544 (= a16 (_ bv1 32)))).def_154544))
(assert (let ((.def_154547 (= a2 (_ bv10 32)))).def_154547))
(assert (let ((.def_154550 (= a27 (_ bv1 32)))).def_154550))
(assert (let ((.def_154553 (= a9 (_ bv18 32)))).def_154553))
(assert (let ((.def_608960 (= a2 (_ bv12 32)))).def_608960))
(assert (let ((.def_608962 (= a20 (_ bv7 32)))).def_608962))
(assert (let ((.def_608964 (= a20 (_ bv6 32)))).def_608964))
(assert (let ((.def_608966 (= a9 (_ bv16 32)))).def_608966))
(assert (let ((.def_608968 (= a9 (_ bv17 32)))).def_608968))
(assert (let ((.def_608970 (= a12 (_ bv6 32)))).def_608970))
(assert (let ((.def_608972 (= a12 (_ bv5 32)))).def_608972))
(assert (let ((.def_608974 (= a12 (_ bv3 32)))).def_608974))
(assert (let ((.def_608976 (= a12 (_ bv2 32)))).def_608976))
(assert (let ((.def_608978 (= a2 (_ bv11 32)))).def_608978))
(assert (let ((.def_608980 (= a2 (_ bv9 32)))).def_608980))
(assert (let ((.def_608982 (= a2 (_ bv13 32)))).def_608982))

error N30154:
(assert false)
(assert (let ((.def_107173 (= a20 (_ bv5 32)))).def_107173))

eval N30517:
(assert (let ((.def_945479 (= m_pc (_ bv0 32)))).def_945479))
(assert (let ((.def_107173 (= a20 (_ bv5 32)))).def_107173))
(assert (let ((.def_948653 (= t1_pc (_ bv0 32)))).def_948653))
(assert (let ((.def_948656 (= t2_pc (_ bv0 32)))).def_948656))
(assert (let ((.def_948659 (= t3_pc (_ bv0 32)))).def_948659))
(assert (let ((.def_948662 (= t4_pc (_ bv0 32)))).def_948662))
(assert (let ((.def_948665 (= t5_pc (_ bv0 32)))).def_948665))
(assert (let ((.def_948667 (= m_pc (_ bv1 32)))).def_948667))
(assert (let ((.def_948669 (= t1_pc (_ bv1 32)))).def_948669))
(assert (let ((.def_948671 (= t2_pc (_ bv1 32)))).def_948671))
(assert (let ((.def_948673 (= t3_pc (_ bv1 32)))).def_948673))
(assert (let ((.def_948675 (= t4_pc (_ bv1 32)))).def_948675))
(assert (let ((.def_948677 (= t5_pc (_ bv1 32)))).def_948677))
(assert (let ((.def_948680 (= m_st (_ bv0 32)))).def_948680))

start_simulation N30831:
(assert (let ((.def_945479 (= m_pc (_ bv0 32)))).def_945479))
(assert (let ((.def_107173 (= a20 (_ bv5 32)))).def_107173))
(assert (let ((.def_948653 (= t1_pc (_ bv0 32)))).def_948653))
(assert (let ((.def_948656 (= t2_pc (_ bv0 32)))).def_948656))
(assert (let ((.def_948659 (= t3_pc (_ bv0 32)))).def_948659))
(assert (let ((.def_948662 (= t4_pc (_ bv0 32)))).def_948662))
(assert (let ((.def_948665 (= t5_pc (_ bv0 32)))).def_948665))
(assert (let ((.def_948667 (= m_pc (_ bv1 32)))).def_948667))
(assert (let ((.def_948669 (= t1_pc (_ bv1 32)))).def_948669))
(assert (let ((.def_948671 (= t2_pc (_ bv1 32)))).def_948671))
(assert (let ((.def_948673 (= t3_pc (_ bv1 32)))).def_948673))
(assert (let ((.def_948675 (= t4_pc (_ bv1 32)))).def_948675))
(assert (let ((.def_948677 (= t5_pc (_ bv1 32)))).def_948677))

