(set-info :source |printed by MathSAT|)
(declare-fun a20 () (_ BitVec 32))
(declare-fun a25 () (_ BitVec 32))
(declare-fun a12 () (_ BitVec 32))
(declare-fun a15 () (_ BitVec 32))
(declare-fun a16 () (_ BitVec 32))
(declare-fun a2 () (_ BitVec 32))
(declare-fun a27 () (_ BitVec 32))
(declare-fun a9 () (_ BitVec 32))
(declare-fun m_pc () (_ BitVec 32))
(declare-fun t1_pc () (_ BitVec 32))
(declare-fun t2_pc () (_ BitVec 32))
(declare-fun t3_pc () (_ BitVec 32))
(declare-fun t4_pc () (_ BitVec 32))
(declare-fun t5_pc () (_ BitVec 32))
(declare-fun t6_pc () (_ BitVec 32))
(declare-fun t7_pc () (_ BitVec 32))
(declare-fun m_st () (_ BitVec 32))

*:
(assert (let ((.def_107203 (= a20 (_ bv5 32)))).def_107203))

calculate_output8 N29943:
(assert false)
(assert (let ((.def_107203 (= a20 (_ bv5 32)))).def_107203))

main1 N30136:
(assert (let ((.def_107203 (= a20 (_ bv5 32)))).def_107203))
(assert (let ((.def_154575 (= a25 (_ bv1 32)))).def_154575))
(assert (let ((.def_154578 (= a12 (_ bv4 32)))).def_154578))
(assert (let ((.def_154581 (= a15 (_ bv1 32)))).def_154581))
(assert (let ((.def_154584 (= a16 (_ bv1 32)))).def_154584))
(assert (let ((.def_154587 (= a2 (_ bv10 32)))).def_154587))
(assert (let ((.def_154590 (= a27 (_ bv1 32)))).def_154590))
(assert (let ((.def_154593 (= a9 (_ bv18 32)))).def_154593))
(assert (let ((.def_585317 (= a2 (_ bv12 32)))).def_585317))
(assert (let ((.def_585319 (= a20 (_ bv6 32)))).def_585319))
(assert (let ((.def_585321 (= a20 (_ bv7 32)))).def_585321))
(assert (let ((.def_585323 (= a2 (_ bv11 32)))).def_585323))
(assert (let ((.def_585325 (= a2 (_ bv13 32)))).def_585325))
(assert (let ((.def_585327 (= a2 (_ bv9 32)))).def_585327))
(assert (let ((.def_585329 (= a12 (_ bv3 32)))).def_585329))
(assert (let ((.def_585331 (= a12 (_ bv2 32)))).def_585331))
(assert (let ((.def_585333 (= a12 (_ bv5 32)))).def_585333))
(assert (let ((.def_585335 (= a9 (_ bv16 32)))).def_585335))
(assert (let ((.def_585337 (= a12 (_ bv6 32)))).def_585337))
(assert (let ((.def_585339 (= a9 (_ bv17 32)))).def_585339))

error N30154:
(assert false)
(assert (let ((.def_107203 (= a20 (_ bv5 32)))).def_107203))

eval N30625:
(assert (let ((.def_922270 (= m_pc (_ bv0 32)))).def_922270))
(assert (let ((.def_107203 (= a20 (_ bv5 32)))).def_107203))
(assert (let ((.def_927499 (= t1_pc (_ bv0 32)))).def_927499))
(assert (let ((.def_927502 (= t2_pc (_ bv0 32)))).def_927502))
(assert (let ((.def_927505 (= t3_pc (_ bv0 32)))).def_927505))
(assert (let ((.def_927508 (= t4_pc (_ bv0 32)))).def_927508))
(assert (let ((.def_927511 (= t5_pc (_ bv0 32)))).def_927511))
(assert (let ((.def_927514 (= t6_pc (_ bv0 32)))).def_927514))
(assert (let ((.def_927517 (= t7_pc (_ bv0 32)))).def_927517))
(assert (let ((.def_927519 (= m_pc (_ bv1 32)))).def_927519))
(assert (let ((.def_927521 (= t1_pc (_ bv1 32)))).def_927521))
(assert (let ((.def_927523 (= t2_pc (_ bv1 32)))).def_927523))
(assert (let ((.def_927525 (= t3_pc (_ bv1 32)))).def_927525))
(assert (let ((.def_927527 (= t4_pc (_ bv1 32)))).def_927527))
(assert (let ((.def_927529 (= t5_pc (_ bv1 32)))).def_927529))
(assert (let ((.def_927531 (= t6_pc (_ bv1 32)))).def_927531))
(assert (let ((.def_927533 (= t7_pc (_ bv1 32)))).def_927533))
(assert (let ((.def_927536 (= m_st (_ bv0 32)))).def_927536))

start_simulation N31021:
(assert (let ((.def_922270 (= m_pc (_ bv0 32)))).def_922270))
(assert (let ((.def_107203 (= a20 (_ bv5 32)))).def_107203))
(assert (let ((.def_927499 (= t1_pc (_ bv0 32)))).def_927499))
(assert (let ((.def_927502 (= t2_pc (_ bv0 32)))).def_927502))
(assert (let ((.def_927505 (= t3_pc (_ bv0 32)))).def_927505))
(assert (let ((.def_927508 (= t4_pc (_ bv0 32)))).def_927508))
(assert (let ((.def_927511 (= t5_pc (_ bv0 32)))).def_927511))
(assert (let ((.def_927514 (= t6_pc (_ bv0 32)))).def_927514))
(assert (let ((.def_927517 (= t7_pc (_ bv0 32)))).def_927517))
(assert (let ((.def_927519 (= m_pc (_ bv1 32)))).def_927519))
(assert (let ((.def_927521 (= t1_pc (_ bv1 32)))).def_927521))
(assert (let ((.def_927523 (= t2_pc (_ bv1 32)))).def_927523))
(assert (let ((.def_927525 (= t3_pc (_ bv1 32)))).def_927525))
(assert (let ((.def_927527 (= t4_pc (_ bv1 32)))).def_927527))
(assert (let ((.def_927529 (= t5_pc (_ bv1 32)))).def_927529))
(assert (let ((.def_927531 (= t6_pc (_ bv1 32)))).def_927531))
(assert (let ((.def_927533 (= t7_pc (_ bv1 32)))).def_927533))

