(set-info :source |printed by MathSAT|)
(declare-fun a20 () (_ BitVec 32))
(declare-fun a25 () (_ BitVec 32))
(declare-fun a12 () (_ BitVec 32))
(declare-fun a15 () (_ BitVec 32))
(declare-fun a16 () (_ BitVec 32))
(declare-fun a2 () (_ BitVec 32))
(declare-fun a27 () (_ BitVec 32))
(declare-fun a9 () (_ BitVec 32))
(declare-fun |calculate_output3::input| () (_ BitVec 32))
(declare-fun |calculate_output2::input| () (_ BitVec 32))
(declare-fun |calculate_output4::input| () (_ BitVec 32))
(declare-fun |calculate_output5::input| () (_ BitVec 32))
(declare-fun |calculate_output7::input| () (_ BitVec 32))
(declare-fun |calculate_output6::input| () (_ BitVec 32))

*:
(assert (let ((.def_106631 (= a20 (_ bv5 32)))).def_106631))

calculate_output8 N29800:
(assert false)
(assert (let ((.def_106631 (= a20 (_ bv5 32)))).def_106631))

main1 N30136:
(assert (let ((.def_106631 (= a20 (_ bv5 32)))).def_106631))
(assert (let ((.def_153814 (= a25 (_ bv1 32)))).def_153814))
(assert (let ((.def_153817 (= a12 (_ bv4 32)))).def_153817))
(assert (let ((.def_153820 (= a15 (_ bv1 32)))).def_153820))
(assert (let ((.def_153823 (= a16 (_ bv1 32)))).def_153823))
(assert (let ((.def_153826 (= a2 (_ bv10 32)))).def_153826))
(assert (let ((.def_153829 (= a27 (_ bv1 32)))).def_153829))
(assert (let ((.def_153832 (= a9 (_ bv18 32)))).def_153832))
(assert (let ((.def_319694 (= a2 (_ bv11 32)))).def_319694))
(assert (let ((.def_319696 (= a12 (_ bv2 32)))).def_319696))
(assert (let ((.def_319698 (= a9 (_ bv17 32)))).def_319698))
(assert (let ((.def_319700 (= a2 (_ bv13 32)))).def_319700))
(assert (let ((.def_319702 (= a20 (_ bv6 32)))).def_319702))
(assert (let ((.def_319704 (= a12 (_ bv6 32)))).def_319704))
(assert (let ((.def_319706 (= a2 (_ bv9 32)))).def_319706))
(assert (let ((.def_319708 (= a9 (_ bv16 32)))).def_319708))
(assert (let ((.def_1193165 (= a20 (_ bv7 32)))).def_1193165))
(assert (let ((.def_1193167 (= a12 (_ bv3 32)))).def_1193167))
(assert (let ((.def_1193169 (= a2 (_ bv12 32)))).def_1193169))
(assert (let ((.def_1193171 (= a12 (_ bv5 32)))).def_1193171))
(assert (let ((.def_1193174 (= |calculate_output3::input| (_ bv4 32)))).def_1193174))
(assert (let ((.def_1193177 (= |calculate_output2::input| (_ bv4 32)))).def_1193177))
(assert (let ((.def_1193179 (= |calculate_output3::input| |calculate_output2::input|))).def_1193179))
(assert (let ((.def_1193181 (= |calculate_output3::input| (_ bv1 32)))).def_1193181))
(assert (let ((.def_1193183 (= |calculate_output3::input| (_ bv6 32)))).def_1193183))
(assert (let ((.def_1193185 (= |calculate_output3::input| (_ bv2 32)))).def_1193185))
(assert (let ((.def_1193187 (= |calculate_output3::input| (_ bv3 32)))).def_1193187))
(assert (let ((.def_1193190 (= |calculate_output4::input| (_ bv4 32)))).def_1193190))
(assert (let ((.def_1193192 (= |calculate_output4::input| (_ bv1 32)))).def_1193192))
(assert (let ((.def_1193194 (= |calculate_output4::input| (_ bv6 32)))).def_1193194))
(assert (let ((.def_1193196 (= |calculate_output4::input| (_ bv2 32)))).def_1193196))
(assert (let ((.def_1193198 (= |calculate_output4::input| (_ bv3 32)))).def_1193198))
(assert (let ((.def_1193200 (= |calculate_output3::input| |calculate_output4::input|))).def_1193200))
(assert (let ((.def_1193203 (= |calculate_output5::input| (_ bv4 32)))).def_1193203))
(assert (let ((.def_1193205 (= |calculate_output5::input| (_ bv1 32)))).def_1193205))
(assert (let ((.def_1193207 (= |calculate_output5::input| (_ bv2 32)))).def_1193207))
(assert (let ((.def_1193209 (= |calculate_output5::input| (_ bv3 32)))).def_1193209))
(assert (let ((.def_1193211 (= |calculate_output5::input| (_ bv6 32)))).def_1193211))
(assert (let ((.def_1193213 (= |calculate_output4::input| |calculate_output5::input|))).def_1193213))
(assert (let ((.def_1193216 (= |calculate_output7::input| (_ bv4 32)))).def_1193216))
(assert (let ((.def_1193218 (= |calculate_output7::input| (_ bv2 32)))).def_1193218))
(assert (let ((.def_1193220 (= |calculate_output5::input| |calculate_output7::input|))).def_1193220))
(assert (let ((.def_1193223 (= |calculate_output6::input| (_ bv6 32)))).def_1193223))
(assert (let ((.def_1193225 (= |calculate_output5::input| |calculate_output6::input|))).def_1193225))
(assert (let ((.def_1193227 (= |calculate_output7::input| (_ bv1 32)))).def_1193227))
(assert (let ((.def_1193229 (= |calculate_output7::input| (_ bv6 32)))).def_1193229))
(assert (let ((.def_1193231 (= |calculate_output7::input| |calculate_output6::input|))).def_1193231))

