(set-info :source |printed by MathSAT|)
(declare-fun a20 () (_ BitVec 32))
(declare-fun a2 () (_ BitVec 32))
(declare-fun a27 () (_ BitVec 32))
(declare-fun a16 () (_ BitVec 32))
(declare-fun a15 () (_ BitVec 32))
(declare-fun a12 () (_ BitVec 32))
(declare-fun a25 () (_ BitVec 32))
(declare-fun a9 () (_ BitVec 32))

*:
(assert (let ((.def_106353 (= a20 (_ bv5 32)))).def_106353))

calculate_output8 N29723:
(assert false)
(assert (let ((.def_106353 (= a20 (_ bv5 32)))).def_106353))

main1 N30136:
(assert (let ((.def_153345 (= a2 (_ bv10 32)))).def_153345))
(assert (let ((.def_153348 (= a27 (_ bv1 32)))).def_153348))
(assert (let ((.def_153351 (= a16 (_ bv1 32)))).def_153351))
(assert (let ((.def_153354 (= a15 (_ bv1 32)))).def_153354))
(assert (let ((.def_153357 (= a12 (_ bv4 32)))).def_153357))
(assert (let ((.def_153360 (= a25 (_ bv1 32)))).def_153360))
(assert (let ((.def_106353 (= a20 (_ bv5 32)))).def_106353))
(assert (let ((.def_321336 (= a9 (_ bv18 32)))).def_321336))
(assert (let ((.def_321338 (= a20 (_ bv6 32)))).def_321338))
(assert (let ((.def_321340 (= a12 (_ bv3 32)))).def_321340))
(assert (let ((.def_321342 (= a2 (_ bv13 32)))).def_321342))
(assert (let ((.def_321344 (= a2 (_ bv9 32)))).def_321344))
(assert (let ((.def_321346 (= a12 (_ bv2 32)))).def_321346))
(assert (let ((.def_321348 (= a2 (_ bv11 32)))).def_321348))
(assert (let ((.def_321350 (= a9 (_ bv16 32)))).def_321350))
(assert (let ((.def_321352 (= a9 (_ bv17 32)))).def_321352))

