(set-info :source |printed by MathSAT|)
(declare-fun a20 () (_ BitVec 32))
(declare-fun a25 () (_ BitVec 32))
(declare-fun a12 () (_ BitVec 32))
(declare-fun a15 () (_ BitVec 32))
(declare-fun a16 () (_ BitVec 32))
(declare-fun a2 () (_ BitVec 32))
(declare-fun a27 () (_ BitVec 32))
(declare-fun a9 () (_ BitVec 32))
(declare-fun m_pc () (_ BitVec 32))
(declare-fun t1_pc () (_ BitVec 32))
(declare-fun t2_pc () (_ BitVec 32))
(declare-fun t3_pc () (_ BitVec 32))
(declare-fun t4_pc () (_ BitVec 32))
(declare-fun t5_pc () (_ BitVec 32))
(declare-fun t6_pc () (_ BitVec 32))
(declare-fun t7_pc () (_ BitVec 32))
(declare-fun t8_pc () (_ BitVec 32))
(declare-fun t9_pc () (_ BitVec 32))
(declare-fun t10_pc () (_ BitVec 32))
(declare-fun t11_pc () (_ BitVec 32))
(declare-fun t12_pc () (_ BitVec 32))
(declare-fun t13_pc () (_ BitVec 32))
(declare-fun m_st () (_ BitVec 32))

*:
(assert (let ((.def_107293 (= a20 (_ bv5 32)))).def_107293))

calculate_output8 N29943:
(assert false)
(assert (let ((.def_107293 (= a20 (_ bv5 32)))).def_107293))

main1 N30136:
(assert (let ((.def_107293 (= a20 (_ bv5 32)))).def_107293))
(assert (let ((.def_154695 (= a25 (_ bv1 32)))).def_154695))
(assert (let ((.def_154698 (= a12 (_ bv4 32)))).def_154698))
(assert (let ((.def_154701 (= a15 (_ bv1 32)))).def_154701))
(assert (let ((.def_154704 (= a16 (_ bv1 32)))).def_154704))
(assert (let ((.def_154707 (= a2 (_ bv10 32)))).def_154707))
(assert (let ((.def_154710 (= a27 (_ bv1 32)))).def_154710))
(assert (let ((.def_154713 (= a9 (_ bv18 32)))).def_154713))
(assert (let ((.def_585165 (= a12 (_ bv6 32)))).def_585165))
(assert (let ((.def_585167 (= a12 (_ bv5 32)))).def_585167))
(assert (let ((.def_585169 (= a12 (_ bv3 32)))).def_585169))
(assert (let ((.def_585171 (= a20 (_ bv7 32)))).def_585171))
(assert (let ((.def_585173 (= a20 (_ bv6 32)))).def_585173))
(assert (let ((.def_585175 (= a9 (_ bv17 32)))).def_585175))
(assert (let ((.def_585177 (= a2 (_ bv13 32)))).def_585177))
(assert (let ((.def_585179 (= a2 (_ bv12 32)))).def_585179))
(assert (let ((.def_585181 (= a2 (_ bv9 32)))).def_585181))
(assert (let ((.def_585183 (= a12 (_ bv2 32)))).def_585183))
(assert (let ((.def_585185 (= a2 (_ bv11 32)))).def_585185))
(assert (let ((.def_585187 (= a9 (_ bv16 32)))).def_585187))

error N30154:
(assert false)
(assert (let ((.def_107293 (= a20 (_ bv5 32)))).def_107293))

eval N30936:
(assert (let ((.def_922783 (= m_pc (_ bv0 32)))).def_922783))
(assert (let ((.def_107293 (= a20 (_ bv5 32)))).def_107293))
(assert (let ((.def_937185 (= t1_pc (_ bv0 32)))).def_937185))
(assert (let ((.def_937188 (= t2_pc (_ bv0 32)))).def_937188))
(assert (let ((.def_937191 (= t3_pc (_ bv0 32)))).def_937191))
(assert (let ((.def_937194 (= t4_pc (_ bv0 32)))).def_937194))
(assert (let ((.def_937197 (= t5_pc (_ bv0 32)))).def_937197))
(assert (let ((.def_937200 (= t6_pc (_ bv0 32)))).def_937200))
(assert (let ((.def_937203 (= t7_pc (_ bv0 32)))).def_937203))
(assert (let ((.def_937206 (= t8_pc (_ bv0 32)))).def_937206))
(assert (let ((.def_937209 (= t9_pc (_ bv0 32)))).def_937209))
(assert (let ((.def_937212 (= t10_pc (_ bv0 32)))).def_937212))
(assert (let ((.def_937215 (= t11_pc (_ bv0 32)))).def_937215))
(assert (let ((.def_937218 (= t12_pc (_ bv0 32)))).def_937218))
(assert (let ((.def_937221 (= t13_pc (_ bv0 32)))).def_937221))
(assert (let ((.def_937223 (= m_pc (_ bv1 32)))).def_937223))
(assert (let ((.def_937225 (= t1_pc (_ bv1 32)))).def_937225))
(assert (let ((.def_937227 (= t2_pc (_ bv1 32)))).def_937227))
(assert (let ((.def_937229 (= t3_pc (_ bv1 32)))).def_937229))
(assert (let ((.def_937231 (= t4_pc (_ bv1 32)))).def_937231))
(assert (let ((.def_937233 (= t5_pc (_ bv1 32)))).def_937233))
(assert (let ((.def_937235 (= t6_pc (_ bv1 32)))).def_937235))
(assert (let ((.def_937237 (= t7_pc (_ bv1 32)))).def_937237))
(assert (let ((.def_937239 (= t8_pc (_ bv1 32)))).def_937239))
(assert (let ((.def_937241 (= t9_pc (_ bv1 32)))).def_937241))
(assert (let ((.def_937243 (= t10_pc (_ bv1 32)))).def_937243))
(assert (let ((.def_937245 (= t11_pc (_ bv1 32)))).def_937245))
(assert (let ((.def_937247 (= t12_pc (_ bv1 32)))).def_937247))
(assert (let ((.def_937249 (= t13_pc (_ bv1 32)))).def_937249))
(assert (let ((.def_937252 (= m_st (_ bv0 32)))).def_937252))

start_simulation N31578:
(assert (let ((.def_922783 (= m_pc (_ bv0 32)))).def_922783))
(assert (let ((.def_107293 (= a20 (_ bv5 32)))).def_107293))
(assert (let ((.def_937185 (= t1_pc (_ bv0 32)))).def_937185))
(assert (let ((.def_937188 (= t2_pc (_ bv0 32)))).def_937188))
(assert (let ((.def_937191 (= t3_pc (_ bv0 32)))).def_937191))
(assert (let ((.def_937194 (= t4_pc (_ bv0 32)))).def_937194))
(assert (let ((.def_937197 (= t5_pc (_ bv0 32)))).def_937197))
(assert (let ((.def_937200 (= t6_pc (_ bv0 32)))).def_937200))
(assert (let ((.def_937203 (= t7_pc (_ bv0 32)))).def_937203))
(assert (let ((.def_937206 (= t8_pc (_ bv0 32)))).def_937206))
(assert (let ((.def_937209 (= t9_pc (_ bv0 32)))).def_937209))
(assert (let ((.def_937212 (= t10_pc (_ bv0 32)))).def_937212))
(assert (let ((.def_937215 (= t11_pc (_ bv0 32)))).def_937215))
(assert (let ((.def_937218 (= t12_pc (_ bv0 32)))).def_937218))
(assert (let ((.def_937221 (= t13_pc (_ bv0 32)))).def_937221))
(assert (let ((.def_937223 (= m_pc (_ bv1 32)))).def_937223))
(assert (let ((.def_937225 (= t1_pc (_ bv1 32)))).def_937225))
(assert (let ((.def_937227 (= t2_pc (_ bv1 32)))).def_937227))
(assert (let ((.def_937229 (= t3_pc (_ bv1 32)))).def_937229))
(assert (let ((.def_937231 (= t4_pc (_ bv1 32)))).def_937231))
(assert (let ((.def_937233 (= t5_pc (_ bv1 32)))).def_937233))
(assert (let ((.def_937235 (= t6_pc (_ bv1 32)))).def_937235))
(assert (let ((.def_937237 (= t7_pc (_ bv1 32)))).def_937237))
(assert (let ((.def_937239 (= t8_pc (_ bv1 32)))).def_937239))
(assert (let ((.def_937241 (= t9_pc (_ bv1 32)))).def_937241))
(assert (let ((.def_937243 (= t10_pc (_ bv1 32)))).def_937243))
(assert (let ((.def_937245 (= t11_pc (_ bv1 32)))).def_937245))
(assert (let ((.def_937247 (= t12_pc (_ bv1 32)))).def_937247))
(assert (let ((.def_937249 (= t13_pc (_ bv1 32)))).def_937249))

