(set-info :source |printed by MathSAT|)
(declare-fun a20 () (_ BitVec 32))
(declare-fun a25 () (_ BitVec 32))
(declare-fun a12 () (_ BitVec 32))
(declare-fun a15 () (_ BitVec 32))
(declare-fun a16 () (_ BitVec 32))
(declare-fun a2 () (_ BitVec 32))
(declare-fun a27 () (_ BitVec 32))
(declare-fun a9 () (_ BitVec 32))
(declare-fun m_pc () (_ BitVec 32))
(declare-fun t1_pc () (_ BitVec 32))
(declare-fun t2_pc () (_ BitVec 32))
(declare-fun t3_pc () (_ BitVec 32))
(declare-fun t4_pc () (_ BitVec 32))
(declare-fun t5_pc () (_ BitVec 32))
(declare-fun t6_pc () (_ BitVec 32))
(declare-fun t7_pc () (_ BitVec 32))
(declare-fun m_st () (_ BitVec 32))
(declare-fun t1_st () (_ BitVec 32))
(declare-fun E_3 () (_ BitVec 32))
(declare-fun E_2 () (_ BitVec 32))
(declare-fun E_5 () (_ BitVec 32))
(declare-fun E_4 () (_ BitVec 32))
(declare-fun E_M () (_ BitVec 32))
(declare-fun E_6 () (_ BitVec 32))
(declare-fun E_7 () (_ BitVec 32))
(declare-fun t2_st () (_ BitVec 32))
(declare-fun t3_st () (_ BitVec 32))
(declare-fun t4_st () (_ BitVec 32))
(declare-fun t6_st () (_ BitVec 32))
(declare-fun t5_st () (_ BitVec 32))
(declare-fun t7_st () (_ BitVec 32))
(declare-fun E_1 () (_ BitVec 32))
(declare-fun local () (_ BitVec 32))
(declare-fun token () (_ BitVec 32))
(declare-fun T7_E () (_ BitVec 32))
(declare-fun T6_E () (_ BitVec 32))
(declare-fun T5_E () (_ BitVec 32))
(declare-fun T4_E () (_ BitVec 32))
(declare-fun T3_E () (_ BitVec 32))
(declare-fun T2_E () (_ BitVec 32))
(declare-fun T1_E () (_ BitVec 32))
(declare-fun M_E () (_ BitVec 32))

*:
(assert (let ((.def_107291 (= a20 (_ bv5 32)))).def_107291))

calculate_output8 N29965:
(assert false)
(assert (let ((.def_107291 (= a20 (_ bv5 32)))).def_107291))

main1 N30136:
(assert (let ((.def_107291 (= a20 (_ bv5 32)))).def_107291))
(assert (let ((.def_154702 (= a25 (_ bv1 32)))).def_154702))
(assert (let ((.def_154705 (= a12 (_ bv4 32)))).def_154705))
(assert (let ((.def_154708 (= a15 (_ bv1 32)))).def_154708))
(assert (let ((.def_154711 (= a16 (_ bv1 32)))).def_154711))
(assert (let ((.def_154714 (= a2 (_ bv10 32)))).def_154714))
(assert (let ((.def_154717 (= a27 (_ bv1 32)))).def_154717))
(assert (let ((.def_154720 (= a9 (_ bv18 32)))).def_154720))
(assert (let ((.def_320667 (= a9 (_ bv17 32)))).def_320667))
(assert (let ((.def_320669 (= a2 (_ bv12 32)))).def_320669))
(assert (let ((.def_320671 (= a2 (_ bv11 32)))).def_320671))
(assert (let ((.def_320673 (= a2 (_ bv9 32)))).def_320673))
(assert (let ((.def_320675 (= a12 (_ bv3 32)))).def_320675))
(assert (let ((.def_320677 (= a20 (_ bv6 32)))).def_320677))
(assert (let ((.def_320679 (= a2 (_ bv13 32)))).def_320679))
(assert (let ((.def_320681 (= a9 (_ bv16 32)))).def_320681))
(assert (let ((.def_1081072 (= a20 (_ bv7 32)))).def_1081072))
(assert (let ((.def_1081074 (= a12 (_ bv2 32)))).def_1081074))
(assert (let ((.def_1081076 (= a12 (_ bv5 32)))).def_1081076))
(assert (let ((.def_1081078 (= a12 (_ bv6 32)))).def_1081078))

error N30154:
(assert false)
(assert (let ((.def_107291 (= a20 (_ bv5 32)))).def_107291))

eval N30612:
(assert (let ((.def_1222521 (= m_pc (_ bv0 32)))).def_1222521))
(assert (let ((.def_107291 (= a20 (_ bv5 32)))).def_107291))
(assert (let ((.def_1227710 (= t1_pc (_ bv0 32)))).def_1227710))
(assert (let ((.def_1227713 (= t2_pc (_ bv0 32)))).def_1227713))
(assert (let ((.def_1227716 (= t3_pc (_ bv0 32)))).def_1227716))
(assert (let ((.def_1227719 (= t4_pc (_ bv0 32)))).def_1227719))
(assert (let ((.def_1227722 (= t5_pc (_ bv0 32)))).def_1227722))
(assert (let ((.def_1227725 (= t6_pc (_ bv0 32)))).def_1227725))
(assert (let ((.def_1227728 (= t7_pc (_ bv0 32)))).def_1227728))
(assert (let ((.def_1227730 (= m_pc (_ bv1 32)))).def_1227730))
(assert (let ((.def_1227732 (= t1_pc (_ bv1 32)))).def_1227732))
(assert (let ((.def_1227734 (= t2_pc (_ bv1 32)))).def_1227734))
(assert (let ((.def_1227736 (= t3_pc (_ bv1 32)))).def_1227736))
(assert (let ((.def_1227738 (= t4_pc (_ bv1 32)))).def_1227738))
(assert (let ((.def_1227740 (= t5_pc (_ bv1 32)))).def_1227740))
(assert (let ((.def_1227742 (= t6_pc (_ bv1 32)))).def_1227742))
(assert (let ((.def_1227744 (= t7_pc (_ bv1 32)))).def_1227744))
(assert (let ((.def_1227747 (= m_st (_ bv0 32)))).def_1227747))
(assert (let ((.def_1238481 (= t1_st (_ bv0 32)))).def_1238481))
(assert (let ((.def_1238484 (= E_3 (_ bv1 32)))).def_1238484))
(assert (let ((.def_1238487 (= E_2 (_ bv1 32)))).def_1238487))
(assert (let ((.def_1238490 (= E_5 (_ bv1 32)))).def_1238490))
(assert (let ((.def_1238493 (= E_4 (_ bv1 32)))).def_1238493))
(assert (let ((.def_1238496 (= E_M (_ bv1 32)))).def_1238496))
(assert (let ((.def_1238499 (= E_6 (_ bv1 32)))).def_1238499))
(assert (let ((.def_1238502 (= E_7 (_ bv1 32)))).def_1238502))
(assert (let ((.def_1238505 (= t2_st (_ bv0 32)))).def_1238505))
(assert (let ((.def_1238508 (= t3_st (_ bv0 32)))).def_1238508))
(assert (let ((.def_1238511 (= t4_st (_ bv0 32)))).def_1238511))
(assert (let ((.def_1238514 (= t6_st (_ bv0 32)))).def_1238514))
(assert (let ((.def_1238517 (= t5_st (_ bv0 32)))).def_1238517))
(assert (let ((.def_1238520 (= t7_st (_ bv0 32)))).def_1238520))
(assert (let ((.def_1238522 (= m_st (_ bv2 32)))).def_1238522))
(assert (let ((.def_1238525 (= E_1 (_ bv1 32)))).def_1238525))
(assert (let ((.def_1238528 (bvadd (_ bv7 32) local)))(let ((.def_1238530 (= .def_1238528 token))).def_1238530)))
(assert (let ((.def_1274882 (= E_2 (_ bv2 32)))).def_1274882))
(assert (let ((.def_1274884 (= local token))).def_1274884))
(assert (let ((.def_1274886 (= E_4 (_ bv2 32)))).def_1274886))
(assert (let ((.def_1274888 (= E_5 (_ bv2 32)))).def_1274888))
(assert (let ((.def_1274890 (= E_6 (_ bv2 32)))).def_1274890))
(assert (let ((.def_1274892 (= t5_st (_ bv2 32)))).def_1274892))
(assert (let ((.def_1274894 (= t7_st (_ bv2 32)))).def_1274894))
(assert (let ((.def_1274896 (bvadd (_ bv5 32) local)))(let ((.def_1274897 (= token .def_1274896))).def_1274897)))
(assert (let ((.def_1274899 (bvadd (_ bv6 32) local)))(let ((.def_1274900 (= token .def_1274899))).def_1274900)))
(assert (let ((.def_1274902 (bvadd (_ bv4 32) local)))(let ((.def_1274903 (= token .def_1274902))).def_1274903)))
(assert (let ((.def_1274905 (bvadd (_ bv3 32) local)))(let ((.def_1274906 (= token .def_1274905))).def_1274906)))
(assert (let ((.def_1274908 (bvadd (_ bv2 32) local)))(let ((.def_1274909 (= token .def_1274908))).def_1274909)))
(assert (let ((.def_1274911 (bvadd (_ bv1 32) local)))(let ((.def_1274912 (= token .def_1274911))).def_1274912)))
(assert (let ((.def_1306612 (= E_M (_ bv0 32)))).def_1306612))
(assert (let ((.def_1306614 (= E_1 (_ bv0 32)))).def_1306614))
(assert (let ((.def_1338778 (= E_3 (_ bv0 32)))).def_1338778))
(assert (let ((.def_1338780 (= E_5 (_ bv0 32)))).def_1338780))
(assert (let ((.def_1338782 (= E_6 (_ bv0 32)))).def_1338782))
(assert (let ((.def_1338785 (= T7_E (_ bv0 32)))).def_1338785))
(assert (let ((.def_1338788 (= T6_E (_ bv0 32)))).def_1338788))
(assert (let ((.def_1338791 (= T5_E (_ bv0 32)))).def_1338791))
(assert (let ((.def_1338794 (= T4_E (_ bv0 32)))).def_1338794))
(assert (let ((.def_1338797 (= T3_E (_ bv0 32)))).def_1338797))
(assert (let ((.def_1338800 (= T2_E (_ bv0 32)))).def_1338800))
(assert (let ((.def_1338803 (= T1_E (_ bv0 32)))).def_1338803))
(assert (let ((.def_1338805 (= E_2 (_ bv0 32)))).def_1338805))
(assert (let ((.def_1338807 (= E_7 (_ bv0 32)))).def_1338807))
(assert (let ((.def_1338809 (= E_4 (_ bv0 32)))).def_1338809))
(assert (let ((.def_1338812 (= M_E (_ bv0 32)))).def_1338812))
(assert false)

start_simulation N31008:
(assert (let ((.def_1222521 (= m_pc (_ bv0 32)))).def_1222521))
(assert (let ((.def_107291 (= a20 (_ bv5 32)))).def_107291))
(assert (let ((.def_1227710 (= t1_pc (_ bv0 32)))).def_1227710))
(assert (let ((.def_1227713 (= t2_pc (_ bv0 32)))).def_1227713))
(assert (let ((.def_1227716 (= t3_pc (_ bv0 32)))).def_1227716))
(assert (let ((.def_1227719 (= t4_pc (_ bv0 32)))).def_1227719))
(assert (let ((.def_1227722 (= t5_pc (_ bv0 32)))).def_1227722))
(assert (let ((.def_1227725 (= t6_pc (_ bv0 32)))).def_1227725))
(assert (let ((.def_1227728 (= t7_pc (_ bv0 32)))).def_1227728))
(assert (let ((.def_1227730 (= m_pc (_ bv1 32)))).def_1227730))
(assert (let ((.def_1227732 (= t1_pc (_ bv1 32)))).def_1227732))
(assert (let ((.def_1227734 (= t2_pc (_ bv1 32)))).def_1227734))
(assert (let ((.def_1227736 (= t3_pc (_ bv1 32)))).def_1227736))
(assert (let ((.def_1227738 (= t4_pc (_ bv1 32)))).def_1227738))
(assert (let ((.def_1227740 (= t5_pc (_ bv1 32)))).def_1227740))
(assert (let ((.def_1227742 (= t6_pc (_ bv1 32)))).def_1227742))
(assert (let ((.def_1227744 (= t7_pc (_ bv1 32)))).def_1227744))
(assert (let ((.def_1238481 (= t1_st (_ bv0 32)))).def_1238481))
(assert (let ((.def_1238484 (= E_3 (_ bv1 32)))).def_1238484))
(assert (let ((.def_1238487 (= E_2 (_ bv1 32)))).def_1238487))
(assert (let ((.def_1238490 (= E_5 (_ bv1 32)))).def_1238490))
(assert (let ((.def_1238493 (= E_4 (_ bv1 32)))).def_1238493))
(assert (let ((.def_1238496 (= E_M (_ bv1 32)))).def_1238496))
(assert (let ((.def_1238499 (= E_6 (_ bv1 32)))).def_1238499))
(assert (let ((.def_1238502 (= E_7 (_ bv1 32)))).def_1238502))
(assert (let ((.def_1227747 (= m_st (_ bv0 32)))).def_1227747))
(assert (let ((.def_1238517 (= t5_st (_ bv0 32)))).def_1238517))
(assert (let ((.def_1238511 (= t4_st (_ bv0 32)))).def_1238511))
(assert (let ((.def_1238520 (= t7_st (_ bv0 32)))).def_1238520))
(assert (let ((.def_1274882 (= E_2 (_ bv2 32)))).def_1274882))
(assert (let ((.def_1274884 (= local token))).def_1274884))
(assert (let ((.def_1238525 (= E_1 (_ bv1 32)))).def_1238525))
(assert (let ((.def_1274886 (= E_4 (_ bv2 32)))).def_1274886))
(assert (let ((.def_1274888 (= E_5 (_ bv2 32)))).def_1274888))
(assert (let ((.def_1274890 (= E_6 (_ bv2 32)))).def_1274890))
(assert (let ((.def_1238505 (= t2_st (_ bv0 32)))).def_1238505))
(assert (let ((.def_1306612 (= E_M (_ bv0 32)))).def_1306612))
(assert (let ((.def_1338778 (= E_3 (_ bv0 32)))).def_1338778))
(assert (let ((.def_1238514 (= t6_st (_ bv0 32)))).def_1238514))
(assert (let ((.def_1338780 (= E_5 (_ bv0 32)))).def_1338780))
(assert (let ((.def_1338782 (= E_6 (_ bv0 32)))).def_1338782))
(assert (let ((.def_1338785 (= T7_E (_ bv0 32)))).def_1338785))
(assert (let ((.def_1338788 (= T6_E (_ bv0 32)))).def_1338788))
(assert (let ((.def_1338791 (= T5_E (_ bv0 32)))).def_1338791))
(assert (let ((.def_1338794 (= T4_E (_ bv0 32)))).def_1338794))
(assert (let ((.def_1338797 (= T3_E (_ bv0 32)))).def_1338797))
(assert (let ((.def_1338800 (= T2_E (_ bv0 32)))).def_1338800))
(assert (let ((.def_1338803 (= T1_E (_ bv0 32)))).def_1338803))
(assert (let ((.def_1338805 (= E_2 (_ bv0 32)))).def_1338805))
(assert (let ((.def_1338807 (= E_7 (_ bv0 32)))).def_1338807))
(assert (let ((.def_1338809 (= E_4 (_ bv0 32)))).def_1338809))
(assert (let ((.def_1238508 (= t3_st (_ bv0 32)))).def_1238508))
(assert (let ((.def_1338812 (= M_E (_ bv0 32)))).def_1338812))

