(set-info :source |printed by MathSAT|)
(declare-fun a20 () (_ BitVec 32))
(declare-fun a25 () (_ BitVec 32))
(declare-fun a12 () (_ BitVec 32))
(declare-fun a15 () (_ BitVec 32))
(declare-fun a16 () (_ BitVec 32))
(declare-fun a2 () (_ BitVec 32))
(declare-fun a27 () (_ BitVec 32))
(declare-fun a9 () (_ BitVec 32))
(declare-fun m_pc () (_ BitVec 32))
(declare-fun t1_pc () (_ BitVec 32))
(declare-fun t2_pc () (_ BitVec 32))
(declare-fun t3_pc () (_ BitVec 32))
(declare-fun t4_pc () (_ BitVec 32))
(declare-fun t5_pc () (_ BitVec 32))
(declare-fun t6_pc () (_ BitVec 32))
(declare-fun m_st () (_ BitVec 32))
(declare-fun E_1 () (_ BitVec 32))
(declare-fun E_2 () (_ BitVec 32))
(declare-fun E_4 () (_ BitVec 32))
(declare-fun E_3 () (_ BitVec 32))
(declare-fun E_M () (_ BitVec 32))
(declare-fun E_5 () (_ BitVec 32))
(declare-fun E_6 () (_ BitVec 32))
(declare-fun t2_st () (_ BitVec 32))
(declare-fun t1_st () (_ BitVec 32))
(declare-fun t3_st () (_ BitVec 32))
(declare-fun t4_st () (_ BitVec 32))
(declare-fun t6_st () (_ BitVec 32))
(declare-fun t5_st () (_ BitVec 32))
(declare-fun local () (_ BitVec 32))
(declare-fun token () (_ BitVec 32))
(declare-fun T6_E () (_ BitVec 32))
(declare-fun T5_E () (_ BitVec 32))
(declare-fun T4_E () (_ BitVec 32))
(declare-fun T3_E () (_ BitVec 32))
(declare-fun T2_E () (_ BitVec 32))
(declare-fun T1_E () (_ BitVec 32))
(declare-fun M_E () (_ BitVec 32))

*:
(assert (let ((.def_107276 (= a20 (_ bv5 32)))).def_107276))

calculate_output8 N29965:
(assert false)
(assert (let ((.def_107276 (= a20 (_ bv5 32)))).def_107276))

main1 N30136:
(assert (let ((.def_107276 (= a20 (_ bv5 32)))).def_107276))
(assert (let ((.def_154682 (= a25 (_ bv1 32)))).def_154682))
(assert (let ((.def_154685 (= a12 (_ bv4 32)))).def_154685))
(assert (let ((.def_154688 (= a15 (_ bv1 32)))).def_154688))
(assert (let ((.def_154691 (= a16 (_ bv1 32)))).def_154691))
(assert (let ((.def_154694 (= a2 (_ bv10 32)))).def_154694))
(assert (let ((.def_154697 (= a27 (_ bv1 32)))).def_154697))
(assert (let ((.def_154700 (= a9 (_ bv18 32)))).def_154700))
(assert (let ((.def_320647 (= a9 (_ bv17 32)))).def_320647))
(assert (let ((.def_320649 (= a2 (_ bv12 32)))).def_320649))
(assert (let ((.def_320651 (= a2 (_ bv11 32)))).def_320651))
(assert (let ((.def_320653 (= a2 (_ bv9 32)))).def_320653))
(assert (let ((.def_320655 (= a12 (_ bv3 32)))).def_320655))
(assert (let ((.def_320657 (= a20 (_ bv6 32)))).def_320657))
(assert (let ((.def_320659 (= a2 (_ bv13 32)))).def_320659))
(assert (let ((.def_320661 (= a9 (_ bv16 32)))).def_320661))
(assert (let ((.def_1057744 (= a12 (_ bv2 32)))).def_1057744))
(assert (let ((.def_1057746 (= a20 (_ bv7 32)))).def_1057746))
(assert (let ((.def_1057748 (= a12 (_ bv6 32)))).def_1057748))
(assert (let ((.def_1057750 (= a12 (_ bv5 32)))).def_1057750))

error N30154:
(assert false)
(assert (let ((.def_107276 (= a20 (_ bv5 32)))).def_107276))

eval N30558:
(assert (let ((.def_1199090 (= m_pc (_ bv0 32)))).def_1199090))
(assert (let ((.def_107276 (= a20 (_ bv5 32)))).def_107276))
(assert (let ((.def_1203188 (= t1_pc (_ bv0 32)))).def_1203188))
(assert (let ((.def_1203191 (= t2_pc (_ bv0 32)))).def_1203191))
(assert (let ((.def_1203194 (= t3_pc (_ bv0 32)))).def_1203194))
(assert (let ((.def_1203197 (= t4_pc (_ bv0 32)))).def_1203197))
(assert (let ((.def_1203200 (= t5_pc (_ bv0 32)))).def_1203200))
(assert (let ((.def_1203203 (= t6_pc (_ bv0 32)))).def_1203203))
(assert (let ((.def_1203205 (= m_pc (_ bv1 32)))).def_1203205))
(assert (let ((.def_1203207 (= t1_pc (_ bv1 32)))).def_1203207))
(assert (let ((.def_1203209 (= t2_pc (_ bv1 32)))).def_1203209))
(assert (let ((.def_1203211 (= t3_pc (_ bv1 32)))).def_1203211))
(assert (let ((.def_1203213 (= t4_pc (_ bv1 32)))).def_1203213))
(assert (let ((.def_1203215 (= t5_pc (_ bv1 32)))).def_1203215))
(assert (let ((.def_1203217 (= t6_pc (_ bv1 32)))).def_1203217))
(assert (let ((.def_1203220 (= m_st (_ bv0 32)))).def_1203220))
(assert (let ((.def_1210309 (= E_1 (_ bv1 32)))).def_1210309))
(assert (let ((.def_1210312 (= E_2 (_ bv1 32)))).def_1210312))
(assert (let ((.def_1210315 (= E_4 (_ bv2 32)))).def_1210315))
(assert (let ((.def_1210317 (= E_4 (_ bv1 32)))).def_1210317))
(assert (let ((.def_1210320 (= E_3 (_ bv1 32)))).def_1210320))
(assert (let ((.def_1210323 (= E_M (_ bv1 32)))).def_1210323))
(assert (let ((.def_1210326 (= E_5 (_ bv1 32)))).def_1210326))
(assert (let ((.def_1210329 (= E_6 (_ bv1 32)))).def_1210329))
(assert (let ((.def_1210332 (= t2_st (_ bv0 32)))).def_1210332))
(assert (let ((.def_1210335 (= t1_st (_ bv0 32)))).def_1210335))
(assert (let ((.def_1210338 (= t3_st (_ bv0 32)))).def_1210338))
(assert (let ((.def_1210341 (= t4_st (_ bv0 32)))).def_1210341))
(assert (let ((.def_1210344 (= t6_st (_ bv0 32)))).def_1210344))
(assert (let ((.def_1210347 (= t5_st (_ bv0 32)))).def_1210347))
(assert (let ((.def_1210349 (= m_st (_ bv2 32)))).def_1210349))
(assert (let ((.def_1210352 (bvadd (_ bv6 32) local)))(let ((.def_1210354 (= .def_1210352 token))).def_1210354)))
(assert (let ((.def_1235586 (= E_5 (_ bv2 32)))).def_1235586))
(assert (let ((.def_1235588 (= local (_ bv0 32)))).def_1235588))
(assert (let ((.def_1235590 (= token (_ bv0 32)))).def_1235590))
(assert (let ((.def_1235592 (= E_2 (_ bv2 32)))).def_1235592))
(assert (let ((.def_1235594 (= t4_st (_ bv2 32)))).def_1235594))
(assert (let ((.def_1235596 (= t5_st (_ bv2 32)))).def_1235596))
(assert (let ((.def_1235598 (= t6_st (_ bv2 32)))).def_1235598))
(assert (let ((.def_1235600 (bvadd (_ bv5 32) local)))(let ((.def_1235601 (= token .def_1235600))).def_1235601)))
(assert (let ((.def_1235603 (= local token))).def_1235603))
(assert (let ((.def_1235605 (bvadd (_ bv4 32) local)))(let ((.def_1235606 (= token .def_1235605))).def_1235606)))
(assert (let ((.def_1235608 (bvadd (_ bv3 32) local)))(let ((.def_1235609 (= token .def_1235608))).def_1235609)))
(assert (let ((.def_1235611 (bvadd (_ bv2 32) local)))(let ((.def_1235612 (= token .def_1235611))).def_1235612)))
(assert (let ((.def_1235614 (bvadd (_ bv1 32) local)))(let ((.def_1235615 (= token .def_1235614))).def_1235615)))
(assert (let ((.def_1260616 (= T6_E (_ bv0 32)))).def_1260616))
(assert (let ((.def_1260619 (= T5_E (_ bv0 32)))).def_1260619))
(assert (let ((.def_1260622 (= T4_E (_ bv0 32)))).def_1260622))
(assert (let ((.def_1260625 (= T3_E (_ bv0 32)))).def_1260625))
(assert (let ((.def_1260628 (= T2_E (_ bv0 32)))).def_1260628))
(assert (let ((.def_1260631 (= T1_E (_ bv0 32)))).def_1260631))
(assert (let ((.def_1260633 (= E_M (_ bv0 32)))).def_1260633))
(assert (let ((.def_1260636 (= M_E (_ bv0 32)))).def_1260636))
(assert (let ((.def_1260638 (= E_1 (_ bv0 32)))).def_1260638))
(assert (let ((.def_1288453 (= E_4 (_ bv0 32)))).def_1288453))
(assert (let ((.def_1288455 (= E_5 (_ bv0 32)))).def_1288455))
(assert (let ((.def_1288457 (= E_3 (_ bv0 32)))).def_1288457))
(assert (let ((.def_1288459 (= E_2 (_ bv0 32)))).def_1288459))
(assert (let ((.def_1288461 (= E_6 (_ bv0 32)))).def_1288461))
(assert false)

start_simulation N30913:
(assert (let ((.def_1199090 (= m_pc (_ bv0 32)))).def_1199090))
(assert (let ((.def_107276 (= a20 (_ bv5 32)))).def_107276))
(assert (let ((.def_1203188 (= t1_pc (_ bv0 32)))).def_1203188))
(assert (let ((.def_1203191 (= t2_pc (_ bv0 32)))).def_1203191))
(assert (let ((.def_1203194 (= t3_pc (_ bv0 32)))).def_1203194))
(assert (let ((.def_1203197 (= t4_pc (_ bv0 32)))).def_1203197))
(assert (let ((.def_1203200 (= t5_pc (_ bv0 32)))).def_1203200))
(assert (let ((.def_1203203 (= t6_pc (_ bv0 32)))).def_1203203))
(assert (let ((.def_1203205 (= m_pc (_ bv1 32)))).def_1203205))
(assert (let ((.def_1203207 (= t1_pc (_ bv1 32)))).def_1203207))
(assert (let ((.def_1203209 (= t2_pc (_ bv1 32)))).def_1203209))
(assert (let ((.def_1203211 (= t3_pc (_ bv1 32)))).def_1203211))
(assert (let ((.def_1203213 (= t4_pc (_ bv1 32)))).def_1203213))
(assert (let ((.def_1203215 (= t5_pc (_ bv1 32)))).def_1203215))
(assert (let ((.def_1203217 (= t6_pc (_ bv1 32)))).def_1203217))
(assert (let ((.def_1210309 (= E_1 (_ bv1 32)))).def_1210309))
(assert (let ((.def_1210312 (= E_2 (_ bv1 32)))).def_1210312))
(assert (let ((.def_1210315 (= E_4 (_ bv2 32)))).def_1210315))
(assert (let ((.def_1210317 (= E_4 (_ bv1 32)))).def_1210317))
(assert (let ((.def_1210320 (= E_3 (_ bv1 32)))).def_1210320))
(assert (let ((.def_1210323 (= E_M (_ bv1 32)))).def_1210323))
(assert (let ((.def_1210326 (= E_5 (_ bv1 32)))).def_1210326))
(assert (let ((.def_1210329 (= E_6 (_ bv1 32)))).def_1210329))
(assert (let ((.def_1210332 (= t2_st (_ bv0 32)))).def_1210332))
(assert (let ((.def_1210335 (= t1_st (_ bv0 32)))).def_1210335))
(assert (let ((.def_1203220 (= m_st (_ bv0 32)))).def_1203220))
(assert (let ((.def_1235586 (= E_5 (_ bv2 32)))).def_1235586))
(assert (let ((.def_1235588 (= local (_ bv0 32)))).def_1235588))
(assert (let ((.def_1235590 (= token (_ bv0 32)))).def_1235590))
(assert (let ((.def_1235592 (= E_2 (_ bv2 32)))).def_1235592))
(assert (let ((.def_1210344 (= t6_st (_ bv0 32)))).def_1210344))
(assert (let ((.def_1260616 (= T6_E (_ bv0 32)))).def_1260616))
(assert (let ((.def_1260619 (= T5_E (_ bv0 32)))).def_1260619))
(assert (let ((.def_1260622 (= T4_E (_ bv0 32)))).def_1260622))
(assert (let ((.def_1260625 (= T3_E (_ bv0 32)))).def_1260625))
(assert (let ((.def_1260628 (= T2_E (_ bv0 32)))).def_1260628))
(assert (let ((.def_1260631 (= T1_E (_ bv0 32)))).def_1260631))
(assert (let ((.def_1260633 (= E_M (_ bv0 32)))).def_1260633))
(assert (let ((.def_1260636 (= M_E (_ bv0 32)))).def_1260636))
(assert (let ((.def_1210341 (= t4_st (_ bv0 32)))).def_1210341))
(assert (let ((.def_1210347 (= t5_st (_ bv0 32)))).def_1210347))
(assert (let ((.def_1288453 (= E_4 (_ bv0 32)))).def_1288453))
(assert (let ((.def_1288455 (= E_5 (_ bv0 32)))).def_1288455))
(assert (let ((.def_1288457 (= E_3 (_ bv0 32)))).def_1288457))
(assert (let ((.def_1288459 (= E_2 (_ bv0 32)))).def_1288459))
(assert (let ((.def_1288461 (= E_6 (_ bv0 32)))).def_1288461))
(assert (let ((.def_1260638 (= E_1 (_ bv0 32)))).def_1260638))
(assert (let ((.def_1210338 (= t3_st (_ bv0 32)))).def_1210338))

