(set-info :source |printed by MathSAT|)
(declare-fun a20 () (_ BitVec 32))
(declare-fun a9 () (_ BitVec 32))
(declare-fun a25 () (_ BitVec 32))
(declare-fun a12 () (_ BitVec 32))
(declare-fun a15 () (_ BitVec 32))
(declare-fun a16 () (_ BitVec 32))
(declare-fun a2 () (_ BitVec 32))
(declare-fun a27 () (_ BitVec 32))

*:
(assert (let ((.def_106177 (= a20 (_ bv5 32)))).def_106177))

calculate_output8 N29679:
(assert false)
(assert (let ((.def_106177 (= a20 (_ bv5 32)))).def_106177))

main1 N30136:
(assert (let ((.def_153100 (= a9 (_ bv18 32)))).def_153100))
(assert (let ((.def_106177 (= a20 (_ bv5 32)))).def_106177))
(assert (let ((.def_339703 (= a25 (_ bv1 32)))).def_339703))
(assert (let ((.def_339706 (= a12 (_ bv4 32)))).def_339706))
(assert (let ((.def_339709 (= a15 (_ bv1 32)))).def_339709))
(assert (let ((.def_339712 (= a16 (_ bv1 32)))).def_339712))
(assert (let ((.def_339715 (= a2 (_ bv10 32)))).def_339715))
(assert (let ((.def_339718 (= a27 (_ bv1 32)))).def_339718))
(assert (let ((.def_339720 (= a2 (_ bv13 32)))).def_339720))
(assert (let ((.def_339722 (= a9 (_ bv17 32)))).def_339722))
(assert (let ((.def_339724 (= a2 (_ bv9 32)))).def_339724))
(assert (let ((.def_339726 (= a2 (_ bv11 32)))).def_339726))
(assert (let ((.def_339728 (= a9 (_ bv16 32)))).def_339728))
(assert (let ((.def_339730 (= a2 (_ bv12 32)))).def_339730))
(assert (let ((.def_868207 (= a12 (_ bv2 32)))).def_868207))
(assert (let ((.def_868209 (= a20 (_ bv7 32)))).def_868209))
(assert (let ((.def_868211 (= a20 (_ bv6 32)))).def_868211))
(assert (let ((.def_868213 (= a12 (_ bv3 32)))).def_868213))
(assert (let ((.def_868215 (= a12 (_ bv6 32)))).def_868215))
(assert (let ((.def_868217 (= a12 (_ bv5 32)))).def_868217))

