(set-info :source |printed by MathSAT|)
(declare-fun |main1::result| () (_ FloatingPoint 8 24))
(declare-fun |base2flt::m| () (_ BitVec 32))
(declare-fun |base2flt::e| () (_ BitVec 32))
(declare-fun |main2::one| () (_ BitVec 32))

main1:
(assert (let ((.def_96 (fp.leq (fp #b0 #b00000000 #b00000000000000000000000) |main1::result|))).def_96))
(assert (let ((.def_101 (fp.lt |main1::result| (fp #b0 #b01111111 #b10000000000000000000000)))).def_101))

__VERIFIER_assert N24:
(assert false)

base2flt N39:
(assert false)
(assert (let ((.def_5068 (= |base2flt::m| (_ bv1 32)))).def_5068))
(assert (let ((.def_5071 (= |base2flt::e| (_ bv0 32)))).def_5071))
(assert (let ((.def_7140 (= |base2flt::e| (_ bv4294967295 32)))).def_7140))
(assert (let ((.def_7142 (= |base2flt::m| (_ bv2 32)))).def_7142))
(assert (let ((.def_9369 (= |base2flt::e| (_ bv4294967294 32)))).def_9369))
(assert (let ((.def_9371 (= |base2flt::m| (_ bv4 32)))).def_9371))
(assert (let ((.def_12042 (= |base2flt::e| (_ bv4294967293 32)))).def_12042))
(assert (let ((.def_12044 (= |base2flt::m| (_ bv8 32)))).def_12044))
(assert (let ((.def_15256 (= |base2flt::e| (_ bv4294967292 32)))).def_15256))
(assert (let ((.def_15258 (= |base2flt::m| (_ bv16 32)))).def_15258))
(assert (let ((.def_19121 (= |base2flt::e| (_ bv4294967291 32)))).def_19121))
(assert (let ((.def_19123 (= |base2flt::m| (_ bv32 32)))).def_19123))
(assert (let ((.def_23738 (= |base2flt::e| (_ bv4294967290 32)))).def_23738))
(assert (let ((.def_23740 (= |base2flt::m| (_ bv64 32)))).def_23740))
(assert (let ((.def_29207 (= |base2flt::e| (_ bv4294967289 32)))).def_29207))
(assert (let ((.def_29209 (= |base2flt::m| (_ bv128 32)))).def_29209))
(assert (let ((.def_35629 (= |base2flt::e| (_ bv4294967288 32)))).def_35629))
(assert (let ((.def_35631 (= |base2flt::m| (_ bv256 32)))).def_35631))
(assert (let ((.def_43102 (= |base2flt::e| (_ bv4294967287 32)))).def_43102))
(assert (let ((.def_43104 (= |base2flt::m| (_ bv512 32)))).def_43104))
(assert (let ((.def_51728 (= |base2flt::e| (_ bv4294967286 32)))).def_51728))
(assert (let ((.def_51730 (= |base2flt::m| (_ bv1024 32)))).def_51730))
(assert (let ((.def_61605 (= |base2flt::e| (_ bv4294967285 32)))).def_61605))
(assert (let ((.def_61607 (= |base2flt::m| (_ bv2048 32)))).def_61607))
(assert (let ((.def_72835 (= |base2flt::e| (_ bv4294967284 32)))).def_72835))
(assert (let ((.def_72837 (= |base2flt::m| (_ bv4096 32)))).def_72837))
(assert (let ((.def_85516 (= |base2flt::e| (_ bv4294967283 32)))).def_85516))
(assert (let ((.def_85518 (= |base2flt::m| (_ bv8192 32)))).def_85518))
(assert (let ((.def_99750 (= |base2flt::e| (_ bv4294967282 32)))).def_99750))
(assert (let ((.def_99752 (= |base2flt::m| (_ bv16384 32)))).def_99752))
(assert (let ((.def_115635 (= |base2flt::e| (_ bv4294967281 32)))).def_115635))
(assert (let ((.def_115637 (= |base2flt::m| (_ bv32768 32)))).def_115637))
(assert (let ((.def_133273 (= |base2flt::e| (_ bv4294967280 32)))).def_133273))
(assert (let ((.def_133275 (= |base2flt::m| (_ bv65536 32)))).def_133275))
(assert (let ((.def_152762 (= |base2flt::e| (_ bv4294967279 32)))).def_152762))
(assert (let ((.def_152764 (= |base2flt::m| (_ bv131072 32)))).def_152764))
(assert (let ((.def_174204 (= |base2flt::e| (_ bv4294967278 32)))).def_174204))
(assert (let ((.def_174206 (= |base2flt::m| (_ bv262144 32)))).def_174206))
(assert (let ((.def_197697 (= |base2flt::e| (_ bv4294967277 32)))).def_197697))
(assert (let ((.def_197699 (= |base2flt::m| (_ bv524288 32)))).def_197699))
(assert (let ((.def_223343 (= |base2flt::e| (_ bv4294967276 32)))).def_223343))
(assert (let ((.def_223345 (= |base2flt::m| (_ bv1048576 32)))).def_223345))
(assert (let ((.def_251240 (= |base2flt::e| (_ bv4294967275 32)))).def_251240))
(assert (let ((.def_251242 (= |base2flt::m| (_ bv2097152 32)))).def_251242))
(assert (let ((.def_281490 (= |base2flt::e| (_ bv4294967274 32)))).def_281490))
(assert (let ((.def_281492 (= |base2flt::m| (_ bv4194304 32)))).def_281492))
(assert (let ((.def_314225 (= |base2flt::e| (_ bv4294967273 32)))).def_314225))
(assert (let ((.def_314227 (= |base2flt::m| (_ bv8388608 32)))).def_314227))
(assert (let ((.def_314230 (= |main2::one| (_ bv1744830464 32)))).def_314230))

base2flt N56:
(assert false)
(assert (let ((.def_314230 (= |main2::one| (_ bv1744830464 32)))).def_314230))

