(set-info :source |printed by MathSAT|)
(declare-fun a20 () (_ BitVec 32))
(declare-fun a9 () (_ BitVec 32))
(declare-fun a25 () (_ BitVec 32))
(declare-fun a12 () (_ BitVec 32))
(declare-fun a15 () (_ BitVec 32))
(declare-fun a16 () (_ BitVec 32))
(declare-fun a2 () (_ BitVec 32))
(declare-fun a27 () (_ BitVec 32))

*:
(assert (let ((.def_105868 (= a20 (_ bv5 32)))).def_105868))

calculate_output8 N29613:
(assert false)
(assert (let ((.def_105868 (= a20 (_ bv5 32)))).def_105868))

main1 N30136:
(assert (let ((.def_152689 (= a9 (_ bv18 32)))).def_152689))
(assert (let ((.def_105868 (= a20 (_ bv5 32)))).def_105868))
(assert (let ((.def_339319 (= a25 (_ bv1 32)))).def_339319))
(assert (let ((.def_339322 (= a12 (_ bv4 32)))).def_339322))
(assert (let ((.def_339325 (= a15 (_ bv1 32)))).def_339325))
(assert (let ((.def_339328 (= a16 (_ bv1 32)))).def_339328))
(assert (let ((.def_339331 (= a2 (_ bv10 32)))).def_339331))
(assert (let ((.def_339334 (= a27 (_ bv1 32)))).def_339334))
(assert (let ((.def_339336 (= a12 (_ bv6 32)))).def_339336))
(assert (let ((.def_339338 (= a20 (_ bv6 32)))).def_339338))
(assert (let ((.def_339340 (= a12 (_ bv3 32)))).def_339340))
(assert (let ((.def_339342 (= a2 (_ bv12 32)))).def_339342))
(assert (let ((.def_339344 (= a12 (_ bv2 32)))).def_339344))
(assert (let ((.def_339346 (= a9 (_ bv16 32)))).def_339346))
(assert (let ((.def_339348 (= a12 (_ bv5 32)))).def_339348))
(assert (let ((.def_339350 (= a9 (_ bv17 32)))).def_339350))
(assert (let ((.def_921246 (= a2 (_ bv9 32)))).def_921246))
(assert (let ((.def_921248 (= a20 (_ bv7 32)))).def_921248))
(assert (let ((.def_921250 (= a2 (_ bv11 32)))).def_921250))
(assert (let ((.def_921252 (= a2 (_ bv13 32)))).def_921252))

