(set-info :source |printed by MathSAT|)
(declare-fun a20 () (_ BitVec 32))
(declare-fun a9 () (_ BitVec 32))
(declare-fun a25 () (_ BitVec 32))
(declare-fun a12 () (_ BitVec 32))
(declare-fun a15 () (_ BitVec 32))
(declare-fun a16 () (_ BitVec 32))
(declare-fun a2 () (_ BitVec 32))
(declare-fun a27 () (_ BitVec 32))

*:
(assert (let ((.def_106237 (= a20 (_ bv5 32)))).def_106237))

calculate_output8 N29679:
(assert false)
(assert (let ((.def_106237 (= a20 (_ bv5 32)))).def_106237))

main1 N30136:
(assert (let ((.def_153180 (= a9 (_ bv18 32)))).def_153180))
(assert (let ((.def_106237 (= a20 (_ bv5 32)))).def_106237))
(assert (let ((.def_339783 (= a25 (_ bv1 32)))).def_339783))
(assert (let ((.def_339786 (= a12 (_ bv4 32)))).def_339786))
(assert (let ((.def_339789 (= a15 (_ bv1 32)))).def_339789))
(assert (let ((.def_339792 (= a16 (_ bv1 32)))).def_339792))
(assert (let ((.def_339795 (= a2 (_ bv10 32)))).def_339795))
(assert (let ((.def_339798 (= a27 (_ bv1 32)))).def_339798))
(assert (let ((.def_339800 (= a2 (_ bv13 32)))).def_339800))
(assert (let ((.def_339802 (= a9 (_ bv17 32)))).def_339802))
(assert (let ((.def_339804 (= a2 (_ bv9 32)))).def_339804))
(assert (let ((.def_339806 (= a2 (_ bv11 32)))).def_339806))
(assert (let ((.def_339808 (= a9 (_ bv16 32)))).def_339808))
(assert (let ((.def_339810 (= a2 (_ bv12 32)))).def_339810))
(assert (let ((.def_866179 (= a20 (_ bv6 32)))).def_866179))
(assert (let ((.def_866181 (= a20 (_ bv7 32)))).def_866181))
(assert (let ((.def_866183 (= a12 (_ bv5 32)))).def_866183))
(assert (let ((.def_866185 (= a12 (_ bv3 32)))).def_866185))
(assert (let ((.def_866187 (= a12 (_ bv2 32)))).def_866187))
(assert (let ((.def_866189 (= a12 (_ bv6 32)))).def_866189))

