(set-info :source |printed by MathSAT|)
(declare-fun a20 () (_ BitVec 32))
(declare-fun a25 () (_ BitVec 32))
(declare-fun a12 () (_ BitVec 32))
(declare-fun a15 () (_ BitVec 32))
(declare-fun a16 () (_ BitVec 32))
(declare-fun a2 () (_ BitVec 32))
(declare-fun a27 () (_ BitVec 32))
(declare-fun a9 () (_ BitVec 32))
(declare-fun m_pc () (_ BitVec 32))
(declare-fun t1_pc () (_ BitVec 32))
(declare-fun t2_pc () (_ BitVec 32))
(declare-fun t3_pc () (_ BitVec 32))
(declare-fun t4_pc () (_ BitVec 32))
(declare-fun t5_pc () (_ BitVec 32))
(declare-fun t6_pc () (_ BitVec 32))
(declare-fun t7_pc () (_ BitVec 32))
(declare-fun t8_pc () (_ BitVec 32))
(declare-fun t9_pc () (_ BitVec 32))
(declare-fun t10_pc () (_ BitVec 32))
(declare-fun m_st () (_ BitVec 32))

*:
(assert (let ((.def_107908 (= a20 (_ bv5 32)))).def_107908))

calculate_output8 N30108:
(assert false)
(assert (let ((.def_107908 (= a20 (_ bv5 32)))).def_107908))

main1 N30136:
(assert (let ((.def_107908 (= a20 (_ bv5 32)))).def_107908))
(assert (let ((.def_155646 (= a25 (_ bv1 32)))).def_155646))
(assert (let ((.def_155649 (= a12 (_ bv4 32)))).def_155649))
(assert (let ((.def_155652 (= a15 (_ bv1 32)))).def_155652))
(assert (let ((.def_155655 (= a16 (_ bv1 32)))).def_155655))
(assert (let ((.def_155658 (= a2 (_ bv10 32)))).def_155658))
(assert (let ((.def_155661 (= a27 (_ bv1 32)))).def_155661))
(assert (let ((.def_155664 (= a9 (_ bv18 32)))).def_155664))
(assert (let ((.def_321836 (= a12 (_ bv5 32)))).def_321836))
(assert (let ((.def_321838 (= a2 (_ bv13 32)))).def_321838))
(assert (let ((.def_321840 (= a12 (_ bv2 32)))).def_321840))
(assert (let ((.def_321842 (= a2 (_ bv12 32)))).def_321842))
(assert (let ((.def_321844 (= a12 (_ bv3 32)))).def_321844))
(assert (let ((.def_321846 (= a9 (_ bv16 32)))).def_321846))
(assert (let ((.def_321848 (= a20 (_ bv7 32)))).def_321848))
(assert (let ((.def_321850 (= a2 (_ bv9 32)))).def_321850))
(assert (let ((.def_321852 (= a9 (_ bv17 32)))).def_321852))

error N30154:
(assert false)
(assert (let ((.def_107908 (= a20 (_ bv5 32)))).def_107908))

eval N30787:
(assert (let ((.def_747602 (= m_pc (_ bv0 32)))).def_747602))
(assert (let ((.def_107908 (= a20 (_ bv5 32)))).def_107908))
(assert (let ((.def_756867 (= t1_pc (_ bv0 32)))).def_756867))
(assert (let ((.def_756870 (= t2_pc (_ bv0 32)))).def_756870))
(assert (let ((.def_756873 (= t3_pc (_ bv0 32)))).def_756873))
(assert (let ((.def_756876 (= t4_pc (_ bv0 32)))).def_756876))
(assert (let ((.def_756879 (= t5_pc (_ bv0 32)))).def_756879))
(assert (let ((.def_756882 (= t6_pc (_ bv0 32)))).def_756882))
(assert (let ((.def_756885 (= t7_pc (_ bv0 32)))).def_756885))
(assert (let ((.def_756888 (= t8_pc (_ bv0 32)))).def_756888))
(assert (let ((.def_756891 (= t9_pc (_ bv0 32)))).def_756891))
(assert (let ((.def_756894 (= t10_pc (_ bv0 32)))).def_756894))
(assert (let ((.def_756896 (= m_pc (_ bv1 32)))).def_756896))
(assert (let ((.def_756898 (= t1_pc (_ bv1 32)))).def_756898))
(assert (let ((.def_756900 (= t2_pc (_ bv1 32)))).def_756900))
(assert (let ((.def_756902 (= t3_pc (_ bv1 32)))).def_756902))
(assert (let ((.def_756904 (= t4_pc (_ bv1 32)))).def_756904))
(assert (let ((.def_756906 (= t5_pc (_ bv1 32)))).def_756906))
(assert (let ((.def_756908 (= t6_pc (_ bv1 32)))).def_756908))
(assert (let ((.def_756910 (= t7_pc (_ bv1 32)))).def_756910))
(assert (let ((.def_756912 (= t8_pc (_ bv1 32)))).def_756912))
(assert (let ((.def_756914 (= t9_pc (_ bv1 32)))).def_756914))
(assert (let ((.def_756916 (= t10_pc (_ bv1 32)))).def_756916))
(assert (let ((.def_756919 (= m_st (_ bv0 32)))).def_756919))

start_simulation N31306:
(assert (let ((.def_747602 (= m_pc (_ bv0 32)))).def_747602))
(assert (let ((.def_107908 (= a20 (_ bv5 32)))).def_107908))
(assert (let ((.def_756867 (= t1_pc (_ bv0 32)))).def_756867))
(assert (let ((.def_756870 (= t2_pc (_ bv0 32)))).def_756870))
(assert (let ((.def_756873 (= t3_pc (_ bv0 32)))).def_756873))
(assert (let ((.def_756876 (= t4_pc (_ bv0 32)))).def_756876))
(assert (let ((.def_756879 (= t5_pc (_ bv0 32)))).def_756879))
(assert (let ((.def_756882 (= t6_pc (_ bv0 32)))).def_756882))
(assert (let ((.def_756885 (= t7_pc (_ bv0 32)))).def_756885))
(assert (let ((.def_756888 (= t8_pc (_ bv0 32)))).def_756888))
(assert (let ((.def_756891 (= t9_pc (_ bv0 32)))).def_756891))
(assert (let ((.def_756894 (= t10_pc (_ bv0 32)))).def_756894))
(assert (let ((.def_756896 (= m_pc (_ bv1 32)))).def_756896))
(assert (let ((.def_756898 (= t1_pc (_ bv1 32)))).def_756898))
(assert (let ((.def_756900 (= t2_pc (_ bv1 32)))).def_756900))
(assert (let ((.def_756902 (= t3_pc (_ bv1 32)))).def_756902))
(assert (let ((.def_756904 (= t4_pc (_ bv1 32)))).def_756904))
(assert (let ((.def_756906 (= t5_pc (_ bv1 32)))).def_756906))
(assert (let ((.def_756908 (= t6_pc (_ bv1 32)))).def_756908))
(assert (let ((.def_756910 (= t7_pc (_ bv1 32)))).def_756910))
(assert (let ((.def_756912 (= t8_pc (_ bv1 32)))).def_756912))
(assert (let ((.def_756914 (= t9_pc (_ bv1 32)))).def_756914))
(assert (let ((.def_756916 (= t10_pc (_ bv1 32)))).def_756916))

