(set-info :source |printed by MathSAT|)
(declare-fun a20 () (_ BitVec 32))
(declare-fun a25 () (_ BitVec 32))
(declare-fun a12 () (_ BitVec 32))
(declare-fun a15 () (_ BitVec 32))
(declare-fun a16 () (_ BitVec 32))
(declare-fun a2 () (_ BitVec 32))
(declare-fun a27 () (_ BitVec 32))
(declare-fun a9 () (_ BitVec 32))
(declare-fun m_pc () (_ BitVec 32))
(declare-fun t1_pc () (_ BitVec 32))
(declare-fun t2_pc () (_ BitVec 32))
(declare-fun t3_pc () (_ BitVec 32))
(declare-fun t4_pc () (_ BitVec 32))
(declare-fun t5_pc () (_ BitVec 32))
(declare-fun t6_pc () (_ BitVec 32))
(declare-fun t7_pc () (_ BitVec 32))
(declare-fun t8_pc () (_ BitVec 32))
(declare-fun t9_pc () (_ BitVec 32))
(declare-fun m_st () (_ BitVec 32))
(declare-fun E_1 () (_ BitVec 32))
(declare-fun E_2 () (_ BitVec 32))
(declare-fun E_9 () (_ BitVec 32))
(declare-fun E_7 () (_ BitVec 32))
(declare-fun E_5 () (_ BitVec 32))
(declare-fun E_4 () (_ BitVec 32))
(declare-fun E_3 () (_ BitVec 32))
(declare-fun E_M () (_ BitVec 32))
(declare-fun E_8 () (_ BitVec 32))
(declare-fun E_6 () (_ BitVec 32))
(declare-fun t3_st () (_ BitVec 32))
(declare-fun t4_st () (_ BitVec 32))
(declare-fun t1_st () (_ BitVec 32))
(declare-fun t6_st () (_ BitVec 32))
(declare-fun t7_st () (_ BitVec 32))
(declare-fun t5_st () (_ BitVec 32))
(declare-fun t2_st () (_ BitVec 32))
(declare-fun t9_st () (_ BitVec 32))
(declare-fun t8_st () (_ BitVec 32))
(declare-fun local () (_ BitVec 32))
(declare-fun token () (_ BitVec 32))

*:
(assert (let ((.def_107673 (= a20 (_ bv5 32)))).def_107673))

calculate_output8 N30053:
(assert false)
(assert (let ((.def_107673 (= a20 (_ bv5 32)))).def_107673))

main1 N30136:
(assert (let ((.def_107673 (= a20 (_ bv5 32)))).def_107673))
(assert (let ((.def_155265 (= a25 (_ bv1 32)))).def_155265))
(assert (let ((.def_155268 (= a12 (_ bv4 32)))).def_155268))
(assert (let ((.def_155271 (= a15 (_ bv1 32)))).def_155271))
(assert (let ((.def_155274 (= a16 (_ bv1 32)))).def_155274))
(assert (let ((.def_155277 (= a2 (_ bv10 32)))).def_155277))
(assert (let ((.def_155280 (= a27 (_ bv1 32)))).def_155280))
(assert (let ((.def_155283 (= a9 (_ bv18 32)))).def_155283))
(assert (let ((.def_321448 (= a20 (_ bv6 32)))).def_321448))
(assert (let ((.def_321450 (= a12 (_ bv3 32)))).def_321450))
(assert (let ((.def_321452 (= a12 (_ bv6 32)))).def_321452))
(assert (let ((.def_321454 (= a2 (_ bv9 32)))).def_321454))
(assert (let ((.def_321456 (= a9 (_ bv16 32)))).def_321456))
(assert (let ((.def_321458 (= a2 (_ bv12 32)))).def_321458))
(assert (let ((.def_321460 (= a2 (_ bv11 32)))).def_321460))
(assert (let ((.def_321462 (= a9 (_ bv17 32)))).def_321462))
(assert (let ((.def_321464 (= a12 (_ bv2 32)))).def_321464))
(assert (let ((.def_321466 (= a2 (_ bv13 32)))).def_321466))

error N30154:
(assert false)
(assert (let ((.def_107673 (= a20 (_ bv5 32)))).def_107673))

eval N30720:
(assert (let ((.def_747379 (= m_pc (_ bv0 32)))).def_747379))
(assert (let ((.def_107673 (= a20 (_ bv5 32)))).def_107673))
(assert (let ((.def_755132 (= t1_pc (_ bv0 32)))).def_755132))
(assert (let ((.def_755135 (= t2_pc (_ bv0 32)))).def_755135))
(assert (let ((.def_755138 (= t3_pc (_ bv0 32)))).def_755138))
(assert (let ((.def_755141 (= t4_pc (_ bv0 32)))).def_755141))
(assert (let ((.def_755144 (= t5_pc (_ bv0 32)))).def_755144))
(assert (let ((.def_755147 (= t6_pc (_ bv0 32)))).def_755147))
(assert (let ((.def_755150 (= t7_pc (_ bv0 32)))).def_755150))
(assert (let ((.def_755153 (= t8_pc (_ bv0 32)))).def_755153))
(assert (let ((.def_755156 (= t9_pc (_ bv0 32)))).def_755156))
(assert (let ((.def_755158 (= m_pc (_ bv1 32)))).def_755158))
(assert (let ((.def_755160 (= t1_pc (_ bv1 32)))).def_755160))
(assert (let ((.def_755162 (= t2_pc (_ bv1 32)))).def_755162))
(assert (let ((.def_755164 (= t3_pc (_ bv1 32)))).def_755164))
(assert (let ((.def_755166 (= t4_pc (_ bv1 32)))).def_755166))
(assert (let ((.def_755168 (= t5_pc (_ bv1 32)))).def_755168))
(assert (let ((.def_755170 (= t6_pc (_ bv1 32)))).def_755170))
(assert (let ((.def_755172 (= t7_pc (_ bv1 32)))).def_755172))
(assert (let ((.def_755174 (= t8_pc (_ bv1 32)))).def_755174))
(assert (let ((.def_755176 (= t9_pc (_ bv1 32)))).def_755176))
(assert (let ((.def_755179 (= m_st (_ bv0 32)))).def_755179))
(assert (let ((.def_784179 (= E_1 (_ bv1 32)))).def_784179))
(assert (let ((.def_784181 (= E_1 (_ bv2 32)))).def_784181))
(assert (let ((.def_784184 (= E_2 (_ bv1 32)))).def_784184))
(assert (let ((.def_784187 (= E_9 (_ bv1 32)))).def_784187))
(assert (let ((.def_784190 (= E_7 (_ bv1 32)))).def_784190))
(assert (let ((.def_784193 (= E_5 (_ bv1 32)))).def_784193))
(assert (let ((.def_784196 (= E_4 (_ bv1 32)))).def_784196))
(assert (let ((.def_784199 (= E_3 (_ bv1 32)))).def_784199))
(assert (let ((.def_784202 (= E_M (_ bv1 32)))).def_784202))
(assert (let ((.def_784205 (= E_8 (_ bv1 32)))).def_784205))
(assert (let ((.def_784208 (= E_6 (_ bv1 32)))).def_784208))
(assert (let ((.def_784211 (= t3_st (_ bv0 32)))).def_784211))
(assert (let ((.def_784214 (= t4_st (_ bv0 32)))).def_784214))
(assert (let ((.def_784217 (= t1_st (_ bv0 32)))).def_784217))
(assert (let ((.def_784220 (= t6_st (_ bv0 32)))).def_784220))
(assert (let ((.def_784223 (= t7_st (_ bv0 32)))).def_784223))
(assert (let ((.def_784226 (= t5_st (_ bv0 32)))).def_784226))
(assert (let ((.def_784229 (= t2_st (_ bv0 32)))).def_784229))
(assert (let ((.def_784232 (= t9_st (_ bv0 32)))).def_784232))
(assert (let ((.def_784235 (= t8_st (_ bv0 32)))).def_784235))
(assert (let ((.def_784238 (bvadd (_ bv9 32) local)))(let ((.def_784240 (= .def_784238 token))).def_784240)))

start_simulation N31198:
(assert (let ((.def_747379 (= m_pc (_ bv0 32)))).def_747379))
(assert (let ((.def_107673 (= a20 (_ bv5 32)))).def_107673))
(assert (let ((.def_755132 (= t1_pc (_ bv0 32)))).def_755132))
(assert (let ((.def_755135 (= t2_pc (_ bv0 32)))).def_755135))
(assert (let ((.def_755138 (= t3_pc (_ bv0 32)))).def_755138))
(assert (let ((.def_755141 (= t4_pc (_ bv0 32)))).def_755141))
(assert (let ((.def_755144 (= t5_pc (_ bv0 32)))).def_755144))
(assert (let ((.def_755147 (= t6_pc (_ bv0 32)))).def_755147))
(assert (let ((.def_755150 (= t7_pc (_ bv0 32)))).def_755150))
(assert (let ((.def_755153 (= t8_pc (_ bv0 32)))).def_755153))
(assert (let ((.def_755156 (= t9_pc (_ bv0 32)))).def_755156))
(assert (let ((.def_755158 (= m_pc (_ bv1 32)))).def_755158))
(assert (let ((.def_755160 (= t1_pc (_ bv1 32)))).def_755160))
(assert (let ((.def_755162 (= t2_pc (_ bv1 32)))).def_755162))
(assert (let ((.def_755164 (= t3_pc (_ bv1 32)))).def_755164))
(assert (let ((.def_755166 (= t4_pc (_ bv1 32)))).def_755166))
(assert (let ((.def_755168 (= t5_pc (_ bv1 32)))).def_755168))
(assert (let ((.def_755170 (= t6_pc (_ bv1 32)))).def_755170))
(assert (let ((.def_755172 (= t7_pc (_ bv1 32)))).def_755172))
(assert (let ((.def_755174 (= t8_pc (_ bv1 32)))).def_755174))
(assert (let ((.def_755176 (= t9_pc (_ bv1 32)))).def_755176))
(assert (let ((.def_784179 (= E_1 (_ bv1 32)))).def_784179))
(assert (let ((.def_784181 (= E_1 (_ bv2 32)))).def_784181))
(assert (let ((.def_784184 (= E_2 (_ bv1 32)))).def_784184))
(assert (let ((.def_784187 (= E_9 (_ bv1 32)))).def_784187))
(assert (let ((.def_784190 (= E_7 (_ bv1 32)))).def_784190))
(assert (let ((.def_784193 (= E_5 (_ bv1 32)))).def_784193))
(assert (let ((.def_784196 (= E_4 (_ bv1 32)))).def_784196))
(assert (let ((.def_784199 (= E_3 (_ bv1 32)))).def_784199))
(assert (let ((.def_784202 (= E_M (_ bv1 32)))).def_784202))
(assert (let ((.def_784205 (= E_8 (_ bv1 32)))).def_784205))
(assert (let ((.def_784208 (= E_6 (_ bv1 32)))).def_784208))
(assert (let ((.def_755179 (= m_st (_ bv0 32)))).def_755179))

