(set-info :source |printed by MathSAT|)
(declare-fun a20 () (_ BitVec 32))
(declare-fun a25 () (_ BitVec 32))
(declare-fun a12 () (_ BitVec 32))
(declare-fun a15 () (_ BitVec 32))
(declare-fun a16 () (_ BitVec 32))
(declare-fun a2 () (_ BitVec 32))
(declare-fun a27 () (_ BitVec 32))
(declare-fun a9 () (_ BitVec 32))
(declare-fun m_pc () (_ BitVec 32))
(declare-fun t1_pc () (_ BitVec 32))
(declare-fun t2_pc () (_ BitVec 32))
(declare-fun t3_pc () (_ BitVec 32))
(declare-fun t4_pc () (_ BitVec 32))
(declare-fun t5_pc () (_ BitVec 32))
(declare-fun m_st () (_ BitVec 32))
(declare-fun E_3 () (_ BitVec 32))
(declare-fun E_2 () (_ BitVec 32))
(declare-fun E_5 () (_ BitVec 32))
(declare-fun E_M () (_ BitVec 32))
(declare-fun E_4 () (_ BitVec 32))
(declare-fun t1_st () (_ BitVec 32))
(declare-fun t2_st () (_ BitVec 32))
(declare-fun t4_st () (_ BitVec 32))
(declare-fun t3_st () (_ BitVec 32))
(declare-fun t5_st () (_ BitVec 32))
(declare-fun local () (_ BitVec 32))
(declare-fun token () (_ BitVec 32))
(declare-fun E_1 () (_ BitVec 32))
(declare-fun T5_E () (_ BitVec 32))
(declare-fun T4_E () (_ BitVec 32))
(declare-fun T3_E () (_ BitVec 32))
(declare-fun T2_E () (_ BitVec 32))
(declare-fun T1_E () (_ BitVec 32))
(declare-fun M_E () (_ BitVec 32))

*:
(assert (let ((.def_107613 (= a20 (_ bv5 32)))).def_107613))

calculate_output8 N30053:
(assert false)
(assert (let ((.def_107613 (= a20 (_ bv5 32)))).def_107613))

main1 N30136:
(assert (let ((.def_107613 (= a20 (_ bv5 32)))).def_107613))
(assert (let ((.def_155185 (= a25 (_ bv1 32)))).def_155185))
(assert (let ((.def_155188 (= a12 (_ bv4 32)))).def_155188))
(assert (let ((.def_155191 (= a15 (_ bv1 32)))).def_155191))
(assert (let ((.def_155194 (= a16 (_ bv1 32)))).def_155194))
(assert (let ((.def_155197 (= a2 (_ bv10 32)))).def_155197))
(assert (let ((.def_155200 (= a27 (_ bv1 32)))).def_155200))
(assert (let ((.def_155203 (= a9 (_ bv18 32)))).def_155203))
(assert (let ((.def_321368 (= a20 (_ bv6 32)))).def_321368))
(assert (let ((.def_321370 (= a12 (_ bv3 32)))).def_321370))
(assert (let ((.def_321372 (= a12 (_ bv6 32)))).def_321372))
(assert (let ((.def_321374 (= a2 (_ bv9 32)))).def_321374))
(assert (let ((.def_321376 (= a9 (_ bv16 32)))).def_321376))
(assert (let ((.def_321378 (= a2 (_ bv12 32)))).def_321378))
(assert (let ((.def_321380 (= a2 (_ bv11 32)))).def_321380))
(assert (let ((.def_321382 (= a9 (_ bv17 32)))).def_321382))
(assert (let ((.def_321384 (= a12 (_ bv2 32)))).def_321384))
(assert (let ((.def_321386 (= a2 (_ bv13 32)))).def_321386))

error N30154:
(assert false)
(assert (let ((.def_107613 (= a20 (_ bv5 32)))).def_107613))

eval N30504:
(assert (let ((.def_746823 (= m_pc (_ bv0 32)))).def_746823))
(assert (let ((.def_107613 (= a20 (_ bv5 32)))).def_107613))
(assert (let ((.def_749958 (= t1_pc (_ bv0 32)))).def_749958))
(assert (let ((.def_749961 (= t2_pc (_ bv0 32)))).def_749961))
(assert (let ((.def_749964 (= t3_pc (_ bv0 32)))).def_749964))
(assert (let ((.def_749967 (= t4_pc (_ bv0 32)))).def_749967))
(assert (let ((.def_749970 (= t5_pc (_ bv0 32)))).def_749970))
(assert (let ((.def_749972 (= m_pc (_ bv1 32)))).def_749972))
(assert (let ((.def_749974 (= t1_pc (_ bv1 32)))).def_749974))
(assert (let ((.def_749976 (= t2_pc (_ bv1 32)))).def_749976))
(assert (let ((.def_749978 (= t3_pc (_ bv1 32)))).def_749978))
(assert (let ((.def_749980 (= t4_pc (_ bv1 32)))).def_749980))
(assert (let ((.def_749982 (= t5_pc (_ bv1 32)))).def_749982))
(assert (let ((.def_749985 (= m_st (_ bv0 32)))).def_749985))
(assert (let ((.def_754652 (= E_3 (_ bv1 32)))).def_754652))
(assert (let ((.def_754655 (= E_2 (_ bv1 32)))).def_754655))
(assert (let ((.def_754658 (= E_5 (_ bv1 32)))).def_754658))
(assert (let ((.def_754661 (= E_M (_ bv1 32)))).def_754661))
(assert (let ((.def_754664 (= E_4 (_ bv1 32)))).def_754664))
(assert (let ((.def_754667 (= t1_st (_ bv0 32)))).def_754667))
(assert (let ((.def_754670 (= t2_st (_ bv0 32)))).def_754670))
(assert (let ((.def_754673 (= t4_st (_ bv0 32)))).def_754673))
(assert (let ((.def_754676 (= t3_st (_ bv0 32)))).def_754676))
(assert (let ((.def_754679 (= t5_st (_ bv0 32)))).def_754679))
(assert (let ((.def_754682 (bvadd (_ bv5 32) local)))(let ((.def_754684 (= .def_754682 token))).def_754684)))
(assert (let ((.def_767915 (= E_3 (_ bv2 32)))).def_767915))
(assert (let ((.def_767917 (= t4_st (_ bv2 32)))).def_767917))
(assert (let ((.def_767920 (= E_1 (_ bv1 32)))).def_767920))
(assert (let ((.def_767922 (= t5_st (_ bv2 32)))).def_767922))
(assert (let ((.def_767924 (= m_st (_ bv2 32)))).def_767924))
(assert (let ((.def_767926 (= t3_st (_ bv2 32)))).def_767926))
(assert (let ((.def_767928 (bvadd (_ bv1 32) local)))(let ((.def_767929 (= token .def_767928))).def_767929)))
(assert (let ((.def_767931 (= local token))).def_767931))
(assert (let ((.def_767933 (bvadd (_ bv2 32) local)))(let ((.def_767934 (= token .def_767933))).def_767934)))
(assert (let ((.def_767936 (bvadd (_ bv3 32) local)))(let ((.def_767937 (= token .def_767936))).def_767937)))
(assert (let ((.def_767939 (bvadd (_ bv4 32) local)))(let ((.def_767940 (= token .def_767939))).def_767940)))
(assert (let ((.def_779046 (= E_M (_ bv0 32)))).def_779046))
(assert (let ((.def_779048 (= E_2 (_ bv0 32)))).def_779048))
(assert (let ((.def_779050 (= E_1 (_ bv0 32)))).def_779050))
(assert (let ((.def_790520 (= E_5 (_ bv0 32)))).def_790520))
(assert (let ((.def_790522 (= E_4 (_ bv0 32)))).def_790522))
(assert (let ((.def_790524 (= E_3 (_ bv0 32)))).def_790524))
(assert (let ((.def_790527 (= T5_E (_ bv0 32)))).def_790527))
(assert (let ((.def_790530 (= T4_E (_ bv0 32)))).def_790530))
(assert (let ((.def_790533 (= T3_E (_ bv0 32)))).def_790533))
(assert (let ((.def_790536 (= T2_E (_ bv0 32)))).def_790536))
(assert (let ((.def_790539 (= T1_E (_ bv0 32)))).def_790539))
(assert (let ((.def_790542 (= M_E (_ bv0 32)))).def_790542))
(assert false)

start_simulation N30818:
(assert (let ((.def_746823 (= m_pc (_ bv0 32)))).def_746823))
(assert (let ((.def_107613 (= a20 (_ bv5 32)))).def_107613))
(assert (let ((.def_749958 (= t1_pc (_ bv0 32)))).def_749958))
(assert (let ((.def_749961 (= t2_pc (_ bv0 32)))).def_749961))
(assert (let ((.def_749964 (= t3_pc (_ bv0 32)))).def_749964))
(assert (let ((.def_749967 (= t4_pc (_ bv0 32)))).def_749967))
(assert (let ((.def_749970 (= t5_pc (_ bv0 32)))).def_749970))
(assert (let ((.def_749972 (= m_pc (_ bv1 32)))).def_749972))
(assert (let ((.def_749974 (= t1_pc (_ bv1 32)))).def_749974))
(assert (let ((.def_749976 (= t2_pc (_ bv1 32)))).def_749976))
(assert (let ((.def_749978 (= t3_pc (_ bv1 32)))).def_749978))
(assert (let ((.def_749980 (= t4_pc (_ bv1 32)))).def_749980))
(assert (let ((.def_749982 (= t5_pc (_ bv1 32)))).def_749982))
(assert (let ((.def_754652 (= E_3 (_ bv1 32)))).def_754652))
(assert (let ((.def_754655 (= E_2 (_ bv1 32)))).def_754655))
(assert (let ((.def_754658 (= E_5 (_ bv1 32)))).def_754658))
(assert (let ((.def_754661 (= E_M (_ bv1 32)))).def_754661))
(assert (let ((.def_754664 (= E_4 (_ bv1 32)))).def_754664))
(assert (let ((.def_749985 (= m_st (_ bv0 32)))).def_749985))
(assert (let ((.def_754679 (= t5_st (_ bv0 32)))).def_754679))
(assert (let ((.def_754676 (= t3_st (_ bv0 32)))).def_754676))
(assert (let ((.def_754670 (= t2_st (_ bv0 32)))).def_754670))
(assert (let ((.def_754667 (= t1_st (_ bv0 32)))).def_754667))
(assert (let ((.def_767915 (= E_3 (_ bv2 32)))).def_767915))
(assert (let ((.def_767917 (= t4_st (_ bv2 32)))).def_767917))
(assert (let ((.def_754673 (= t4_st (_ bv0 32)))).def_754673))
(assert (let ((.def_767920 (= E_1 (_ bv1 32)))).def_767920))
(assert (let ((.def_779046 (= E_M (_ bv0 32)))).def_779046))
(assert (let ((.def_779048 (= E_2 (_ bv0 32)))).def_779048))
(assert (let ((.def_790520 (= E_5 (_ bv0 32)))).def_790520))
(assert (let ((.def_790522 (= E_4 (_ bv0 32)))).def_790522))
(assert (let ((.def_790524 (= E_3 (_ bv0 32)))).def_790524))
(assert (let ((.def_790527 (= T5_E (_ bv0 32)))).def_790527))
(assert (let ((.def_790530 (= T4_E (_ bv0 32)))).def_790530))
(assert (let ((.def_790533 (= T3_E (_ bv0 32)))).def_790533))
(assert (let ((.def_790536 (= T2_E (_ bv0 32)))).def_790536))
(assert (let ((.def_790539 (= T1_E (_ bv0 32)))).def_790539))
(assert (let ((.def_790542 (= M_E (_ bv0 32)))).def_790542))

