(set-info :source |printed by MathSAT|)
(declare-fun c_last_read () (_ BitVec 32))
(declare-fun p_last_write () (_ BitVec 32))
(declare-fun c_num_read () (_ BitVec 32))
(declare-fun p_num_write () (_ BitVec 32))
(declare-fun c_dr_pc () (_ BitVec 32))
(declare-fun c_dr_st () (_ BitVec 32))
(declare-fun m_pc () (_ BitVec 32))
(declare-fun t1_pc () (_ BitVec 32))
(declare-fun t2_pc () (_ BitVec 32))
(declare-fun t3_pc () (_ BitVec 32))
(declare-fun t4_pc () (_ BitVec 32))
(declare-fun t5_pc () (_ BitVec 32))
(declare-fun t6_pc () (_ BitVec 32))
(declare-fun t7_pc () (_ BitVec 32))
(declare-fun t8_pc () (_ BitVec 32))
(declare-fun t9_pc () (_ BitVec 32))
(declare-fun t10_pc () (_ BitVec 32))
(declare-fun m_st () (_ BitVec 32))

*:
(assert (let ((.def_767 (= c_last_read p_last_write))).def_767))
(assert (let ((.def_776 (= c_num_read p_num_write))).def_776))

error1 N4:
(assert false)
(assert (let ((.def_767 (= c_last_read p_last_write))).def_767))
(assert (let ((.def_776 (= c_num_read p_num_write))).def_776))

eval1 N282:
(assert (let ((.def_927 (= c_dr_pc (_ bv0 32)))).def_927))
(assert (let ((.def_767 (= c_last_read p_last_write))).def_767))
(assert (let ((.def_776 (= c_num_read p_num_write))).def_776))
(assert (let ((.def_1418 (= c_dr_pc (_ bv2 32)))).def_1418))
(assert (let ((.def_1421 (= c_dr_st (_ bv0 32)))).def_1421))

start_simulation1 N338:
(assert (let ((.def_927 (= c_dr_pc (_ bv0 32)))).def_927))
(assert (let ((.def_767 (= c_last_read p_last_write))).def_767))
(assert (let ((.def_776 (= c_num_read p_num_write))).def_776))
(assert (let ((.def_1418 (= c_dr_pc (_ bv2 32)))).def_1418))

error2 N393:
(assert false)
(assert (let ((.def_767 (= c_last_read p_last_write))).def_767))
(assert (let ((.def_776 (= c_num_read p_num_write))).def_776))

eval2 N1026:
(assert (let ((.def_5160 (= m_pc (_ bv0 32)))).def_5160))
(assert (let ((.def_767 (= c_last_read p_last_write))).def_767))
(assert (let ((.def_776 (= c_num_read p_num_write))).def_776))
(assert (let ((.def_14426 (= t1_pc (_ bv0 32)))).def_14426))
(assert (let ((.def_14429 (= t2_pc (_ bv0 32)))).def_14429))
(assert (let ((.def_14432 (= t3_pc (_ bv0 32)))).def_14432))
(assert (let ((.def_14435 (= t4_pc (_ bv0 32)))).def_14435))
(assert (let ((.def_14438 (= t5_pc (_ bv0 32)))).def_14438))
(assert (let ((.def_14441 (= t6_pc (_ bv0 32)))).def_14441))
(assert (let ((.def_14444 (= t7_pc (_ bv0 32)))).def_14444))
(assert (let ((.def_14447 (= t8_pc (_ bv0 32)))).def_14447))
(assert (let ((.def_14450 (= t9_pc (_ bv0 32)))).def_14450))
(assert (let ((.def_14453 (= t10_pc (_ bv0 32)))).def_14453))
(assert (let ((.def_14455 (= m_pc (_ bv1 32)))).def_14455))
(assert (let ((.def_14457 (= t1_pc (_ bv1 32)))).def_14457))
(assert (let ((.def_14459 (= t2_pc (_ bv1 32)))).def_14459))
(assert (let ((.def_14461 (= t3_pc (_ bv1 32)))).def_14461))
(assert (let ((.def_14463 (= t4_pc (_ bv1 32)))).def_14463))
(assert (let ((.def_14465 (= t5_pc (_ bv1 32)))).def_14465))
(assert (let ((.def_14467 (= t6_pc (_ bv1 32)))).def_14467))
(assert (let ((.def_14469 (= t7_pc (_ bv1 32)))).def_14469))
(assert (let ((.def_14471 (= t8_pc (_ bv1 32)))).def_14471))
(assert (let ((.def_14473 (= t9_pc (_ bv1 32)))).def_14473))
(assert (let ((.def_14475 (= t10_pc (_ bv1 32)))).def_14475))
(assert (let ((.def_14478 (= m_st (_ bv0 32)))).def_14478))

start_simulation2 N1545:
(assert (let ((.def_5160 (= m_pc (_ bv0 32)))).def_5160))
(assert (let ((.def_767 (= c_last_read p_last_write))).def_767))
(assert (let ((.def_776 (= c_num_read p_num_write))).def_776))
(assert (let ((.def_14426 (= t1_pc (_ bv0 32)))).def_14426))
(assert (let ((.def_14429 (= t2_pc (_ bv0 32)))).def_14429))
(assert (let ((.def_14432 (= t3_pc (_ bv0 32)))).def_14432))
(assert (let ((.def_14435 (= t4_pc (_ bv0 32)))).def_14435))
(assert (let ((.def_14438 (= t5_pc (_ bv0 32)))).def_14438))
(assert (let ((.def_14441 (= t6_pc (_ bv0 32)))).def_14441))
(assert (let ((.def_14444 (= t7_pc (_ bv0 32)))).def_14444))
(assert (let ((.def_14447 (= t8_pc (_ bv0 32)))).def_14447))
(assert (let ((.def_14450 (= t9_pc (_ bv0 32)))).def_14450))
(assert (let ((.def_14453 (= t10_pc (_ bv0 32)))).def_14453))
(assert (let ((.def_14455 (= m_pc (_ bv1 32)))).def_14455))
(assert (let ((.def_14457 (= t1_pc (_ bv1 32)))).def_14457))
(assert (let ((.def_14459 (= t2_pc (_ bv1 32)))).def_14459))
(assert (let ((.def_14461 (= t3_pc (_ bv1 32)))).def_14461))
(assert (let ((.def_14463 (= t4_pc (_ bv1 32)))).def_14463))
(assert (let ((.def_14465 (= t5_pc (_ bv1 32)))).def_14465))
(assert (let ((.def_14467 (= t6_pc (_ bv1 32)))).def_14467))
(assert (let ((.def_14469 (= t7_pc (_ bv1 32)))).def_14469))
(assert (let ((.def_14471 (= t8_pc (_ bv1 32)))).def_14471))
(assert (let ((.def_14473 (= t9_pc (_ bv1 32)))).def_14473))
(assert (let ((.def_14475 (= t10_pc (_ bv1 32)))).def_14475))

