(set-info :source |printed by MathSAT|)
(declare-fun a20 () (_ BitVec 32))
(declare-fun a2 () (_ BitVec 32))
(declare-fun a27 () (_ BitVec 32))
(declare-fun a16 () (_ BitVec 32))
(declare-fun a15 () (_ BitVec 32))
(declare-fun a12 () (_ BitVec 32))
(declare-fun a25 () (_ BitVec 32))
(declare-fun a9 () (_ BitVec 32))

*:
(assert (let ((.def_106263 (= a20 (_ bv5 32)))).def_106263))

calculate_output8 N29723:
(assert false)
(assert (let ((.def_106263 (= a20 (_ bv5 32)))).def_106263))

main1 N30136:
(assert (let ((.def_153225 (= a2 (_ bv10 32)))).def_153225))
(assert (let ((.def_153228 (= a27 (_ bv1 32)))).def_153228))
(assert (let ((.def_153231 (= a16 (_ bv1 32)))).def_153231))
(assert (let ((.def_153234 (= a15 (_ bv1 32)))).def_153234))
(assert (let ((.def_153237 (= a12 (_ bv4 32)))).def_153237))
(assert (let ((.def_153240 (= a25 (_ bv1 32)))).def_153240))
(assert (let ((.def_106263 (= a20 (_ bv5 32)))).def_106263))
(assert (let ((.def_321216 (= a9 (_ bv18 32)))).def_321216))
(assert (let ((.def_321218 (= a20 (_ bv6 32)))).def_321218))
(assert (let ((.def_321220 (= a12 (_ bv3 32)))).def_321220))
(assert (let ((.def_321222 (= a2 (_ bv13 32)))).def_321222))
(assert (let ((.def_321224 (= a2 (_ bv9 32)))).def_321224))
(assert (let ((.def_321226 (= a12 (_ bv2 32)))).def_321226))
(assert (let ((.def_321228 (= a2 (_ bv11 32)))).def_321228))
(assert (let ((.def_321230 (= a9 (_ bv16 32)))).def_321230))
(assert (let ((.def_321232 (= a9 (_ bv17 32)))).def_321232))

