(set-info :source |printed by MathSAT|)
(declare-fun a20 () (_ BitVec 32))
(declare-fun a9 () (_ BitVec 32))
(declare-fun a25 () (_ BitVec 32))
(declare-fun a12 () (_ BitVec 32))
(declare-fun a15 () (_ BitVec 32))
(declare-fun a16 () (_ BitVec 32))
(declare-fun a2 () (_ BitVec 32))
(declare-fun a27 () (_ BitVec 32))
(declare-fun |calculate_output6::input| () (_ BitVec 32))
(declare-fun |calculate_output7::input| () (_ BitVec 32))
(declare-fun |calculate_output4::input| () (_ BitVec 32))
(declare-fun |calculate_output3::input| () (_ BitVec 32))
(declare-fun |calculate_output5::input| () (_ BitVec 32))

*:
(assert (let ((.def_106280 (= a20 (_ bv5 32)))).def_106280))

calculate_output8 N29701:
(assert false)
(assert (let ((.def_106280 (= a20 (_ bv5 32)))).def_106280))

main1 N30136:
(assert (let ((.def_153154 (= a9 (_ bv18 32)))).def_153154))
(assert (let ((.def_106280 (= a20 (_ bv5 32)))).def_106280))
(assert (let ((.def_339853 (= a25 (_ bv1 32)))).def_339853))
(assert (let ((.def_339856 (= a12 (_ bv4 32)))).def_339856))
(assert (let ((.def_339859 (= a15 (_ bv1 32)))).def_339859))
(assert (let ((.def_339862 (= a16 (_ bv1 32)))).def_339862))
(assert (let ((.def_339865 (= a2 (_ bv10 32)))).def_339865))
(assert (let ((.def_339868 (= a27 (_ bv1 32)))).def_339868))
(assert (let ((.def_339870 (= a20 (_ bv6 32)))).def_339870))
(assert (let ((.def_339872 (= a2 (_ bv13 32)))).def_339872))
(assert (let ((.def_339874 (= a12 (_ bv2 32)))).def_339874))
(assert (let ((.def_339876 (= a2 (_ bv12 32)))).def_339876))
(assert (let ((.def_339878 (= a2 (_ bv11 32)))).def_339878))
(assert (let ((.def_339880 (= a9 (_ bv16 32)))).def_339880))
(assert (let ((.def_339882 (= a9 (_ bv17 32)))).def_339882))
(assert (let ((.def_1057515 (= a20 (_ bv7 32)))).def_1057515))
(assert (let ((.def_1057517 (= a2 (_ bv9 32)))).def_1057517))
(assert (let ((.def_1057519 (= a12 (_ bv5 32)))).def_1057519))
(assert (let ((.def_1057521 (= a12 (_ bv3 32)))).def_1057521))
(assert (let ((.def_1057523 (= a12 (_ bv6 32)))).def_1057523))
(assert (let ((.def_1057526 (= |calculate_output6::input| (_ bv5 32)))).def_1057526))
(assert (let ((.def_1057529 (= |calculate_output7::input| (_ bv2 32)))).def_1057529))
(assert (let ((.def_1057531 (= |calculate_output7::input| (_ bv1 32)))).def_1057531))
(assert (let ((.def_1057535 (= |calculate_output4::input| |calculate_output3::input|))).def_1057535))
(assert (let ((.def_1057537 (= |calculate_output3::input| (_ bv4 32)))).def_1057537))
(assert (let ((.def_1057540 (= |calculate_output4::input| |calculate_output5::input|))).def_1057540))
(assert (let ((.def_1057542 (= |calculate_output5::input| (_ bv4 32)))).def_1057542))
(assert (let ((.def_1057544 (= |calculate_output7::input| |calculate_output5::input|))).def_1057544))
(assert (let ((.def_1057546 (= |calculate_output7::input| (_ bv4 32)))).def_1057546))
(assert (let ((.def_1057548 (= |calculate_output7::input| (_ bv6 32)))).def_1057548))
(assert (let ((.def_1057550 (= |calculate_output6::input| |calculate_output7::input|))).def_1057550))
(assert (let ((.def_1057552 (= |calculate_output7::input| (_ bv5 32)))).def_1057552))

