(set-info :source |printed by MathSAT|)
(declare-fun c_num_read () (_ BitVec 32))
(declare-fun p_num_write () (_ BitVec 32))
(declare-fun c_last_read () (_ BitVec 32))
(declare-fun p_last_write () (_ BitVec 32))
(declare-fun c_dr_pc () (_ BitVec 32))
(declare-fun c_dr_st () (_ BitVec 32))
(declare-fun m_pc () (_ BitVec 32))
(declare-fun t1_pc () (_ BitVec 32))
(declare-fun t2_pc () (_ BitVec 32))
(declare-fun t3_pc () (_ BitVec 32))
(declare-fun t4_pc () (_ BitVec 32))
(declare-fun t5_pc () (_ BitVec 32))
(declare-fun t6_pc () (_ BitVec 32))
(declare-fun t7_pc () (_ BitVec 32))
(declare-fun t8_pc () (_ BitVec 32))
(declare-fun t9_pc () (_ BitVec 32))
(declare-fun t10_pc () (_ BitVec 32))
(declare-fun t11_pc () (_ BitVec 32))
(declare-fun t12_pc () (_ BitVec 32))
(declare-fun t13_pc () (_ BitVec 32))
(declare-fun m_st () (_ BitVec 32))

*:
(assert (let ((.def_812 (= c_num_read p_num_write))).def_812))
(assert (let ((.def_821 (= c_last_read p_last_write))).def_821))

error1 N4:
(assert false)
(assert (let ((.def_812 (= c_num_read p_num_write))).def_812))
(assert (let ((.def_821 (= c_last_read p_last_write))).def_821))

eval1 N282:
(assert (let ((.def_972 (= c_dr_pc (_ bv0 32)))).def_972))
(assert (let ((.def_812 (= c_num_read p_num_write))).def_812))
(assert (let ((.def_821 (= c_last_read p_last_write))).def_821))
(assert (let ((.def_1463 (= c_dr_pc (_ bv2 32)))).def_1463))
(assert (let ((.def_1466 (= c_dr_st (_ bv0 32)))).def_1466))

start_simulation1 N338:
(assert (let ((.def_972 (= c_dr_pc (_ bv0 32)))).def_972))
(assert (let ((.def_812 (= c_num_read p_num_write))).def_812))
(assert (let ((.def_821 (= c_last_read p_last_write))).def_821))
(assert (let ((.def_1463 (= c_dr_pc (_ bv2 32)))).def_1463))

error2 N393:
(assert false)
(assert (let ((.def_812 (= c_num_read p_num_write))).def_812))
(assert (let ((.def_821 (= c_last_read p_last_write))).def_821))

eval2 N1184:
(assert (let ((.def_5562 (= m_pc (_ bv0 32)))).def_5562))
(assert (let ((.def_812 (= c_num_read p_num_write))).def_812))
(assert (let ((.def_821 (= c_last_read p_last_write))).def_821))
(assert (let ((.def_20006 (= t1_pc (_ bv0 32)))).def_20006))
(assert (let ((.def_20009 (= t2_pc (_ bv0 32)))).def_20009))
(assert (let ((.def_20012 (= t3_pc (_ bv0 32)))).def_20012))
(assert (let ((.def_20015 (= t4_pc (_ bv0 32)))).def_20015))
(assert (let ((.def_20018 (= t5_pc (_ bv0 32)))).def_20018))
(assert (let ((.def_20021 (= t6_pc (_ bv0 32)))).def_20021))
(assert (let ((.def_20024 (= t7_pc (_ bv0 32)))).def_20024))
(assert (let ((.def_20027 (= t8_pc (_ bv0 32)))).def_20027))
(assert (let ((.def_20030 (= t9_pc (_ bv0 32)))).def_20030))
(assert (let ((.def_20033 (= t10_pc (_ bv0 32)))).def_20033))
(assert (let ((.def_20036 (= t11_pc (_ bv0 32)))).def_20036))
(assert (let ((.def_20039 (= t12_pc (_ bv0 32)))).def_20039))
(assert (let ((.def_20042 (= t13_pc (_ bv0 32)))).def_20042))
(assert (let ((.def_20044 (= m_pc (_ bv1 32)))).def_20044))
(assert (let ((.def_20046 (= t1_pc (_ bv1 32)))).def_20046))
(assert (let ((.def_20048 (= t2_pc (_ bv1 32)))).def_20048))
(assert (let ((.def_20050 (= t3_pc (_ bv1 32)))).def_20050))
(assert (let ((.def_20052 (= t4_pc (_ bv1 32)))).def_20052))
(assert (let ((.def_20054 (= t5_pc (_ bv1 32)))).def_20054))
(assert (let ((.def_20056 (= t6_pc (_ bv1 32)))).def_20056))
(assert (let ((.def_20058 (= t7_pc (_ bv1 32)))).def_20058))
(assert (let ((.def_20060 (= t8_pc (_ bv1 32)))).def_20060))
(assert (let ((.def_20062 (= t9_pc (_ bv1 32)))).def_20062))
(assert (let ((.def_20064 (= t10_pc (_ bv1 32)))).def_20064))
(assert (let ((.def_20066 (= t11_pc (_ bv1 32)))).def_20066))
(assert (let ((.def_20068 (= t12_pc (_ bv1 32)))).def_20068))
(assert (let ((.def_20070 (= t13_pc (_ bv1 32)))).def_20070))
(assert (let ((.def_20073 (= m_st (_ bv0 32)))).def_20073))

start_simulation2 N1826:
(assert (let ((.def_5562 (= m_pc (_ bv0 32)))).def_5562))
(assert (let ((.def_812 (= c_num_read p_num_write))).def_812))
(assert (let ((.def_821 (= c_last_read p_last_write))).def_821))
(assert (let ((.def_20006 (= t1_pc (_ bv0 32)))).def_20006))
(assert (let ((.def_20009 (= t2_pc (_ bv0 32)))).def_20009))
(assert (let ((.def_20012 (= t3_pc (_ bv0 32)))).def_20012))
(assert (let ((.def_20015 (= t4_pc (_ bv0 32)))).def_20015))
(assert (let ((.def_20018 (= t5_pc (_ bv0 32)))).def_20018))
(assert (let ((.def_20021 (= t6_pc (_ bv0 32)))).def_20021))
(assert (let ((.def_20024 (= t7_pc (_ bv0 32)))).def_20024))
(assert (let ((.def_20027 (= t8_pc (_ bv0 32)))).def_20027))
(assert (let ((.def_20030 (= t9_pc (_ bv0 32)))).def_20030))
(assert (let ((.def_20033 (= t10_pc (_ bv0 32)))).def_20033))
(assert (let ((.def_20036 (= t11_pc (_ bv0 32)))).def_20036))
(assert (let ((.def_20039 (= t12_pc (_ bv0 32)))).def_20039))
(assert (let ((.def_20042 (= t13_pc (_ bv0 32)))).def_20042))
(assert (let ((.def_20044 (= m_pc (_ bv1 32)))).def_20044))
(assert (let ((.def_20046 (= t1_pc (_ bv1 32)))).def_20046))
(assert (let ((.def_20048 (= t2_pc (_ bv1 32)))).def_20048))
(assert (let ((.def_20050 (= t3_pc (_ bv1 32)))).def_20050))
(assert (let ((.def_20052 (= t4_pc (_ bv1 32)))).def_20052))
(assert (let ((.def_20054 (= t5_pc (_ bv1 32)))).def_20054))
(assert (let ((.def_20056 (= t6_pc (_ bv1 32)))).def_20056))
(assert (let ((.def_20058 (= t7_pc (_ bv1 32)))).def_20058))
(assert (let ((.def_20060 (= t8_pc (_ bv1 32)))).def_20060))
(assert (let ((.def_20062 (= t9_pc (_ bv1 32)))).def_20062))
(assert (let ((.def_20064 (= t10_pc (_ bv1 32)))).def_20064))
(assert (let ((.def_20066 (= t11_pc (_ bv1 32)))).def_20066))
(assert (let ((.def_20068 (= t12_pc (_ bv1 32)))).def_20068))
(assert (let ((.def_20070 (= t13_pc (_ bv1 32)))).def_20070))

