(set-info :source |printed by MathSAT|)
(declare-fun c_num_read () (_ BitVec 32))
(declare-fun p_num_write () (_ BitVec 32))
(declare-fun c_last_read () (_ BitVec 32))
(declare-fun p_last_write () (_ BitVec 32))
(declare-fun c_dr_pc () (_ BitVec 32))
(declare-fun q_free () (_ BitVec 32))
(declare-fun q_buf_0 () (_ BitVec 32))
(declare-fun c_dr_st () (_ BitVec 32))
(declare-fun q_req_up () (_ BitVec 32))
(declare-fun q_write_ev () (_ BitVec 32))
(declare-fun q_read_ev () (_ BitVec 32))
(declare-fun p_dw_pc () (_ BitVec 32))
(declare-fun p_dw_st () (_ BitVec 32))
(declare-fun m_pc () (_ BitVec 32))
(declare-fun t1_pc () (_ BitVec 32))
(declare-fun t2_pc () (_ BitVec 32))
(declare-fun m_st () (_ BitVec 32))
(declare-fun E_2 () (_ BitVec 32))
(declare-fun E_M () (_ BitVec 32))
(declare-fun t1_st () (_ BitVec 32))
(declare-fun t2_st () (_ BitVec 32))
(declare-fun local () (_ BitVec 32))
(declare-fun token () (_ BitVec 32))
(declare-fun E_1 () (_ BitVec 32))

*:
(assert (let ((.def_514 (= c_num_read p_num_write))).def_514))
(assert (let ((.def_523 (= c_last_read p_last_write))).def_523))

error1 N4:
(assert false)
(assert (let ((.def_514 (= c_num_read p_num_write))).def_514))
(assert (let ((.def_523 (= c_last_read p_last_write))).def_523))

do_write_p N78:
(assert (let ((.def_710 (= c_dr_pc (_ bv0 32)))).def_710))
(assert (let ((.def_514 (= c_num_read p_num_write))).def_514))
(assert (let ((.def_523 (= c_last_read p_last_write))).def_523))
(assert (let ((.def_778 (= q_free (_ bv1 32)))).def_778))
(assert false)
(assert (let ((.def_962 (= p_last_write q_buf_0))).def_962))
(assert (let ((.def_1102 (= c_dr_pc (_ bv1 32)))).def_1102))
(assert (let ((.def_1104 (= q_free (_ bv0 32)))).def_1104))
(assert (let ((.def_1108 (bvadd (_ bv1 32) c_num_read)))(let ((.def_1109 (= p_num_write .def_1108))).def_1109)))
(assert (let ((.def_1790 (= c_dr_st (_ bv0 32)))).def_1790))
(assert (let ((.def_4190 (= q_req_up (_ bv1 32)))).def_4190))
(assert (let ((.def_5823 (= q_write_ev (_ bv1 32)))).def_5823))
(assert (let ((.def_5825 (= q_write_ev (_ bv0 32)))).def_5825))
(assert (let ((.def_8160 (= q_read_ev (_ bv1 32)))).def_8160))
(assert (let ((.def_8162 (= q_read_ev (_ bv0 32)))).def_8162))

do_read_c N112:
(assert (let ((.def_778 (= q_free (_ bv1 32)))).def_778))
(assert (let ((.def_514 (= c_num_read p_num_write))).def_514))
(assert (let ((.def_523 (= c_last_read p_last_write))).def_523))
(assert (let ((.def_962 (= p_last_write q_buf_0))).def_962))
(assert (let ((.def_1108 (bvadd (_ bv1 32) c_num_read)))(let ((.def_1109 (= p_num_write .def_1108))).def_1109)))
(assert false)
(assert (let ((.def_1104 (= q_free (_ bv0 32)))).def_1104))
(assert (let ((.def_5823 (= q_write_ev (_ bv1 32)))).def_5823))
(assert (let ((.def_5825 (= q_write_ev (_ bv0 32)))).def_5825))
(assert (let ((.def_1106 (= p_dw_pc (_ bv1 32)))).def_1106))
(assert (let ((.def_4190 (= q_req_up (_ bv1 32)))).def_4190))
(assert (let ((.def_2264 (= p_dw_st (_ bv0 32)))).def_2264))
(assert (let ((.def_8160 (= q_read_ev (_ bv1 32)))).def_8160))
(assert (let ((.def_8162 (= q_read_ev (_ bv0 32)))).def_8162))

eval1 N228:
(assert (let ((.def_710 (= c_dr_pc (_ bv0 32)))).def_710))
(assert (let ((.def_514 (= c_num_read p_num_write))).def_514))
(assert (let ((.def_523 (= c_last_read p_last_write))).def_523))
(assert (let ((.def_778 (= q_free (_ bv1 32)))).def_778))
(assert (let ((.def_920 (= p_dw_pc (_ bv0 32)))).def_920))
(assert (let ((.def_1102 (= c_dr_pc (_ bv1 32)))).def_1102))
(assert (let ((.def_1104 (= q_free (_ bv0 32)))).def_1104))
(assert (let ((.def_1106 (= p_dw_pc (_ bv1 32)))).def_1106))
(assert (let ((.def_2264 (= p_dw_st (_ bv0 32)))).def_2264))
(assert (let ((.def_962 (= p_last_write q_buf_0))).def_962))
(assert (let ((.def_1108 (bvadd (_ bv1 32) c_num_read)))(let ((.def_1109 (= p_num_write .def_1108))).def_1109)))
(assert (let ((.def_1790 (= c_dr_st (_ bv0 32)))).def_1790))
(assert (let ((.def_4190 (= q_req_up (_ bv1 32)))).def_4190))
(assert (let ((.def_5823 (= q_write_ev (_ bv1 32)))).def_5823))
(assert (let ((.def_5825 (= q_write_ev (_ bv0 32)))).def_5825))
(assert (let ((.def_8160 (= q_read_ev (_ bv1 32)))).def_8160))
(assert (let ((.def_8162 (= q_read_ev (_ bv0 32)))).def_8162))

start_simulation1 N283:
(assert (let ((.def_710 (= c_dr_pc (_ bv0 32)))).def_710))
(assert (let ((.def_514 (= c_num_read p_num_write))).def_514))
(assert (let ((.def_523 (= c_last_read p_last_write))).def_523))
(assert (let ((.def_778 (= q_free (_ bv1 32)))).def_778))
(assert (let ((.def_920 (= p_dw_pc (_ bv0 32)))).def_920))
(assert (let ((.def_1102 (= c_dr_pc (_ bv1 32)))).def_1102))
(assert (let ((.def_1104 (= q_free (_ bv0 32)))).def_1104))
(assert (let ((.def_1106 (= p_dw_pc (_ bv1 32)))).def_1106))
(assert (let ((.def_1790 (= c_dr_st (_ bv0 32)))).def_1790))
(assert (let ((.def_2264 (= p_dw_st (_ bv0 32)))).def_2264))
(assert (let ((.def_962 (= p_last_write q_buf_0))).def_962))
(assert (let ((.def_5823 (= q_write_ev (_ bv1 32)))).def_5823))
(assert (let ((.def_5825 (= q_write_ev (_ bv0 32)))).def_5825))
(assert (let ((.def_8160 (= q_read_ev (_ bv1 32)))).def_8160))
(assert (let ((.def_8162 (= q_read_ev (_ bv0 32)))).def_8162))
(assert (let ((.def_1108 (bvadd (_ bv1 32) c_num_read)))(let ((.def_1109 (= p_num_write .def_1108))).def_1109)))

error2 N328:
(assert false)
(assert (let ((.def_514 (= c_num_read p_num_write))).def_514))
(assert (let ((.def_523 (= c_last_read p_last_write))).def_523))

eval2 N516:
(assert (let ((.def_10409 (= m_pc (_ bv0 32)))).def_10409))
(assert (let ((.def_514 (= c_num_read p_num_write))).def_514))
(assert (let ((.def_523 (= c_last_read p_last_write))).def_523))
(assert (let ((.def_11420 (= t1_pc (_ bv0 32)))).def_11420))
(assert (let ((.def_11423 (= t2_pc (_ bv0 32)))).def_11423))
(assert (let ((.def_11425 (= m_pc (_ bv1 32)))).def_11425))
(assert (let ((.def_11427 (= t1_pc (_ bv1 32)))).def_11427))
(assert (let ((.def_11429 (= t2_pc (_ bv1 32)))).def_11429))
(assert (let ((.def_11432 (= m_st (_ bv0 32)))).def_11432))
(assert (let ((.def_12728 (= E_2 (_ bv1 32)))).def_12728))
(assert (let ((.def_12731 (= E_M (_ bv1 32)))).def_12731))
(assert (let ((.def_12734 (= t1_st (_ bv0 32)))).def_12734))
(assert (let ((.def_12736 (= m_st (_ bv2 32)))).def_12736))
(assert (let ((.def_12739 (= t2_st (_ bv0 32)))).def_12739))
(assert (let ((.def_12742 (bvadd (_ bv2 32) local)))(let ((.def_12744 (= .def_12742 token))).def_12744)))
(assert (let ((.def_15491 (= E_1 (_ bv1 32)))).def_15491))
(assert (let ((.def_15493 (= local token))).def_15493))
(assert (let ((.def_15495 (bvadd (_ bv1 32) local)))(let ((.def_15496 (= token .def_15495))).def_15496)))
(assert (let ((.def_17856 (= E_M (_ bv0 32)))).def_17856))
(assert (let ((.def_17858 (= E_2 (_ bv0 32)))).def_17858))
(assert (let ((.def_17860 (= E_1 (_ bv0 32)))).def_17860))

start_simulation2 N707:
(assert (let ((.def_10409 (= m_pc (_ bv0 32)))).def_10409))
(assert (let ((.def_514 (= c_num_read p_num_write))).def_514))
(assert (let ((.def_523 (= c_last_read p_last_write))).def_523))
(assert (let ((.def_11420 (= t1_pc (_ bv0 32)))).def_11420))
(assert (let ((.def_11423 (= t2_pc (_ bv0 32)))).def_11423))
(assert (let ((.def_11425 (= m_pc (_ bv1 32)))).def_11425))
(assert (let ((.def_11427 (= t1_pc (_ bv1 32)))).def_11427))
(assert (let ((.def_11429 (= t2_pc (_ bv1 32)))).def_11429))
(assert (let ((.def_12728 (= E_2 (_ bv1 32)))).def_12728))
(assert (let ((.def_12731 (= E_M (_ bv1 32)))).def_12731))
(assert (let ((.def_11432 (= m_st (_ bv0 32)))).def_11432))
(assert (let ((.def_12739 (= t2_st (_ bv0 32)))).def_12739))
(assert (let ((.def_12734 (= t1_st (_ bv0 32)))).def_12734))
(assert (let ((.def_15491 (= E_1 (_ bv1 32)))).def_15491))
(assert (let ((.def_17856 (= E_M (_ bv0 32)))).def_17856))
(assert (let ((.def_17858 (= E_2 (_ bv0 32)))).def_17858))

