(set-info :source |printed by MathSAT|)
(declare-fun a20 () (_ BitVec 32))
(declare-fun a9 () (_ BitVec 32))
(declare-fun a25 () (_ BitVec 32))
(declare-fun a12 () (_ BitVec 32))
(declare-fun a15 () (_ BitVec 32))
(declare-fun a16 () (_ BitVec 32))
(declare-fun a2 () (_ BitVec 32))
(declare-fun a27 () (_ BitVec 32))
(declare-fun |calculate_output5::input| () (_ BitVec 32))
(declare-fun |calculate_output4::input| () (_ BitVec 32))
(declare-fun |calculate_output6::input| () (_ BitVec 32))
(declare-fun |calculate_output7::input| () (_ BitVec 32))
(declare-fun |calculate_output8::input| () (_ BitVec 32))

*:
(assert (let ((.def_106265 (= a20 (_ bv5 32)))).def_106265))

calculate_output8 N29701:
(assert false)
(assert (let ((.def_106265 (= a20 (_ bv5 32)))).def_106265))

main1 N30136:
(assert (let ((.def_153134 (= a9 (_ bv18 32)))).def_153134))
(assert (let ((.def_106265 (= a20 (_ bv5 32)))).def_106265))
(assert (let ((.def_339833 (= a25 (_ bv1 32)))).def_339833))
(assert (let ((.def_339836 (= a12 (_ bv4 32)))).def_339836))
(assert (let ((.def_339839 (= a15 (_ bv1 32)))).def_339839))
(assert (let ((.def_339842 (= a16 (_ bv1 32)))).def_339842))
(assert (let ((.def_339845 (= a2 (_ bv10 32)))).def_339845))
(assert (let ((.def_339848 (= a27 (_ bv1 32)))).def_339848))
(assert (let ((.def_339850 (= a20 (_ bv6 32)))).def_339850))
(assert (let ((.def_339852 (= a2 (_ bv13 32)))).def_339852))
(assert (let ((.def_339854 (= a12 (_ bv2 32)))).def_339854))
(assert (let ((.def_339856 (= a2 (_ bv12 32)))).def_339856))
(assert (let ((.def_339858 (= a2 (_ bv11 32)))).def_339858))
(assert (let ((.def_339860 (= a9 (_ bv16 32)))).def_339860))
(assert (let ((.def_339862 (= a9 (_ bv17 32)))).def_339862))
(assert (let ((.def_1311738 (= a12 (_ bv3 32)))).def_1311738))
(assert (let ((.def_1311740 (= a12 (_ bv6 32)))).def_1311740))
(assert (let ((.def_1311742 (= a12 (_ bv5 32)))).def_1311742))
(assert (let ((.def_1311744 (= a2 (_ bv9 32)))).def_1311744))
(assert (let ((.def_1311746 (= a20 (_ bv7 32)))).def_1311746))
(assert (let ((.def_1311750 (= |calculate_output5::input| |calculate_output4::input|))).def_1311750))
(assert (let ((.def_1311752 (= |calculate_output4::input| (_ bv6 32)))).def_1311752))
(assert (let ((.def_1311754 (= |calculate_output5::input| (_ bv6 32)))).def_1311754))
(assert (let ((.def_1311757 (= |calculate_output6::input| (_ bv4 32)))).def_1311757))
(assert (let ((.def_1311759 (= |calculate_output5::input| (_ bv4 32)))).def_1311759))
(assert (let ((.def_1311761 (= |calculate_output5::input| |calculate_output6::input|))).def_1311761))
(assert (let ((.def_1311764 (= |calculate_output7::input| (_ bv5 32)))).def_1311764))
(assert (let ((.def_1311766 (= |calculate_output7::input| (_ bv4 32)))).def_1311766))
(assert (let ((.def_1311768 (= |calculate_output7::input| (_ bv3 32)))).def_1311768))
(assert (let ((.def_1311770 (= |calculate_output7::input| (_ bv6 32)))).def_1311770))
(assert (let ((.def_1311772 (= |calculate_output4::input| (_ bv3 32)))).def_1311772))
(assert (let ((.def_1311775 (= |calculate_output8::input| (_ bv3 32)))).def_1311775))
(assert (let ((.def_1311777 (= |calculate_output6::input| (_ bv6 32)))).def_1311777))
(assert (let ((.def_1311779 (= |calculate_output7::input| |calculate_output8::input|))).def_1311779))
(assert (let ((.def_1311781 (= |calculate_output6::input| (_ bv3 32)))).def_1311781))
(assert (let ((.def_1311783 (= |calculate_output6::input| (_ bv2 32)))).def_1311783))
(assert (let ((.def_1311785 (= |calculate_output8::input| (_ bv1 32)))).def_1311785))
(assert (let ((.def_1311787 (= |calculate_output6::input| (_ bv5 32)))).def_1311787))
(assert (let ((.def_1311789 (= |calculate_output6::input| |calculate_output7::input|))).def_1311789))

