(set-info :source |printed by MathSAT|)
(declare-fun |assert::arg| () (_ BitVec 8))
(declare-fun st1 () (_ BitVec 8))
(declare-fun st2 () (_ BitVec 8))
(declare-fun st3 () (_ BitVec 8))
(declare-fun st4 () (_ BitVec 8))
(declare-fun r1 () (_ BitVec 8))
(declare-fun p2_new () (_ BitVec 8))
(declare-fun nomsg () (_ BitVec 8))
(declare-fun p3_new () (_ BitVec 8))
(declare-fun mode1 () (_ BitVec 8))
(declare-fun mode2 () (_ BitVec 8))
(declare-fun mode3 () (_ BitVec 8))
(declare-fun mode4 () (_ BitVec 8))
(declare-fun send4 () (_ BitVec 8))
(declare-fun id1 () (_ BitVec 8))
(declare-fun id2 () (_ BitVec 8))
(declare-fun send1 () (_ BitVec 8))
(declare-fun id3 () (_ BitVec 8))
(declare-fun send2 () (_ BitVec 8))
(declare-fun id4 () (_ BitVec 8))
(declare-fun send3 () (_ BitVec 8))
(declare-fun p4_new () (_ BitVec 8))
(declare-fun p1_new () (_ BitVec 8))
(declare-fun p4_old () (_ BitVec 8))
(declare-fun p1_old () (_ BitVec 8))
(declare-fun p2_old () (_ BitVec 8))
(declare-fun p3_old () (_ BitVec 8))
(declare-fun |node3::__CPAchecker_TMP_0| () (_ BitVec 32))
(declare-fun |node2::__CPAchecker_TMP_0| () (_ BitVec 32))
(declare-fun |node1::__CPAchecker_TMP_0| () (_ BitVec 32))
(declare-fun |node4::__CPAchecker_TMP_0| () (_ BitVec 32))

assert:
(assert (let ((.def_1771 (= |assert::arg| (_ bv0 8)))).def_1771))

main1 N275:
(assert (let ((.def_1981 (= st1 (_ bv0 8)))).def_1981))
(assert (let ((.def_1984 (= st2 (_ bv0 8)))).def_1984))
(assert (let ((.def_1987 (= st3 (_ bv0 8)))).def_1987))
(assert (let ((.def_1990 (= st4 (_ bv0 8)))).def_1990))
(assert (let ((.def_1993 (= r1 (_ bv0 8)))).def_1993))
(assert (let ((.def_1997 (= p2_new nomsg))).def_1997))
(assert (let ((.def_2000 (= nomsg p3_new))).def_2000))
(assert (let ((.def_2003 (= mode1 (_ bv0 8)))).def_2003))
(assert (let ((.def_2006 (= mode2 (_ bv0 8)))).def_2006))
(assert (let ((.def_2009 (= mode3 (_ bv0 8)))).def_2009))
(assert (let ((.def_2012 (= mode4 (_ bv0 8)))).def_2012))
(assert (let ((.def_3551 (= send4 id1))).def_3551))
(assert (let ((.def_3554 ((_ sign_extend 24) id1)))(let ((.def_3553 ((_ sign_extend 24) send4)))(let ((.def_3555 (= .def_3553 .def_3554))).def_3555))))
(assert (let ((.def_3557 (= st1 st4))).def_3557))
(assert (let ((.def_3559 (= st2 st4))).def_3559))
(assert (let ((.def_3561 (= st3 st4))).def_3561))
(assert (let ((.def_3565 (= id2 send1))).def_3565))
(assert (let ((.def_3568 ((_ sign_extend 24) send1)))(let ((.def_3567 ((_ sign_extend 24) id2)))(let ((.def_3569 (= .def_3567 .def_3568))).def_3569))))
(assert (let ((.def_3574 ((_ sign_extend 24) send2)))(let ((.def_3572 ((_ sign_extend 24) id3)))(let ((.def_3575 (= .def_3572 .def_3574))).def_3575))))
(assert (let ((.def_3579 (= id4 send3))).def_3579))
(assert (let ((.def_3582 ((_ sign_extend 24) send3)))(let ((.def_3581 ((_ sign_extend 24) id4)))(let ((.def_3583 (= .def_3581 .def_3582))).def_3583))))
(assert (let ((.def_3585 ((_ sign_extend 24) nomsg)))(let ((.def_3574 ((_ sign_extend 24) send2)))(let ((.def_3586 (= .def_3574 .def_3585))).def_3586))))
(assert (let ((.def_3585 ((_ sign_extend 24) nomsg)))(let ((.def_3582 ((_ sign_extend 24) send3)))(let ((.def_3588 (= .def_3582 .def_3585))).def_3588))))
(assert (let ((.def_3591 (= nomsg p4_new))).def_3591))
(assert (let ((.def_3594 (= nomsg p1_new))).def_3594))
(assert (let ((.def_3597 ((_ sign_extend 24) p4_old)))(let ((.def_3554 ((_ sign_extend 24) id1)))(let ((.def_3598 (= .def_3554 .def_3597))).def_3598))))
(assert (let ((.def_3604 ((_ sign_extend 24) st1)))(let ((.def_3603 ((_ sign_extend 24) st2)))(let ((.def_3606 (bvadd .def_3603 .def_3604)))(let ((.def_3602 ((_ sign_extend 24) st3)))(let ((.def_3608 (bvadd .def_3602 .def_3606)))(let ((.def_3600 ((_ sign_extend 24) st4)))(let ((.def_3601 (bvneg .def_3600)))(let ((.def_3609 (= .def_3601 .def_3608))).def_3609)))))))))
(assert (let ((.def_3612 ((_ sign_extend 24) p1_old)))(let ((.def_3567 ((_ sign_extend 24) id2)))(let ((.def_3613 (= .def_3567 .def_3612))).def_3613))))
(assert (let ((.def_3616 ((_ sign_extend 24) p2_old)))(let ((.def_3572 ((_ sign_extend 24) id3)))(let ((.def_3617 (= .def_3572 .def_3616))).def_3617))))
(assert (let ((.def_3620 ((_ sign_extend 24) p3_old)))(let ((.def_3581 ((_ sign_extend 24) id4)))(let ((.def_3621 (= .def_3581 .def_3620))).def_3621))))
(assert (let ((.def_3604 ((_ sign_extend 24) st1)))(let ((.def_3603 ((_ sign_extend 24) st2)))(let ((.def_6530 (= .def_3603 .def_3604))).def_6530))))
(assert (let ((.def_3603 ((_ sign_extend 24) st2)))(let ((.def_3602 ((_ sign_extend 24) st3)))(let ((.def_6532 (= .def_3602 .def_3603))).def_6532))))
(assert (let ((.def_6534 (= st2 (_ bv1 8)))).def_6534))
(assert (let ((.def_6536 (= st3 (_ bv1 8)))).def_6536))
(assert (let ((.def_6538 (= st1 (_ bv1 8)))).def_6538))
(assert (let ((.def_3604 ((_ sign_extend 24) st1)))(let ((.def_3602 ((_ sign_extend 24) st3)))(let ((.def_6540 (= .def_3602 .def_3604))).def_6540))))
(assert (let ((.def_6542 ((_ zero_extend 24) r1)))(let ((.def_6543 (bvslt .def_6542 (_ bv4 32)))).def_6543)))
(assert (let ((.def_3604 ((_ sign_extend 24) st1)))(let ((.def_3603 ((_ sign_extend 24) st2)))(let ((.def_3606 (bvadd .def_3603 .def_3604)))(let ((.def_3602 ((_ sign_extend 24) st3)))(let ((.def_3608 (bvadd .def_3602 .def_3606)))(let ((.def_3600 ((_ sign_extend 24) st4)))(let ((.def_6546 (bvadd .def_3600 .def_3608)))(let ((.def_6547 (= .def_6546 (_ bv1 32)))).def_6547)))))))))
(assert (let ((.def_3582 ((_ sign_extend 24) send3)))(let ((.def_3581 ((_ sign_extend 24) id4)))(let ((.def_10251 (bvslt .def_3581 .def_3582))).def_10251))))
(assert (let ((.def_3581 ((_ sign_extend 24) id4)))(let ((.def_3574 ((_ sign_extend 24) send2)))(let ((.def_10253 (= .def_3574 .def_3581))).def_10253))))
(assert (let ((.def_3582 ((_ sign_extend 24) send3)))(let ((.def_3554 ((_ sign_extend 24) id1)))(let ((.def_10255 (= .def_3554 .def_3582))).def_10255))))
(assert (let ((.def_3568 ((_ sign_extend 24) send1)))(let ((.def_3567 ((_ sign_extend 24) id2)))(let ((.def_10257 (bvslt .def_3567 .def_3568))).def_10257))))
(assert (let ((.def_3574 ((_ sign_extend 24) send2)))(let ((.def_3572 ((_ sign_extend 24) id3)))(let ((.def_10259 (bvslt .def_3572 .def_3574))).def_10259))))
(assert (let ((.def_3582 ((_ sign_extend 24) send3)))(let ((.def_3572 ((_ sign_extend 24) id3)))(let ((.def_10261 (= .def_3572 .def_3582))).def_10261))))
(assert (let ((.def_3572 ((_ sign_extend 24) id3)))(let ((.def_3568 ((_ sign_extend 24) send1)))(let ((.def_10263 (= .def_3568 .def_3572))).def_10263))))
(assert (let ((.def_10265 (= nomsg send4))).def_10265))
(assert (let ((.def_3585 ((_ sign_extend 24) nomsg)))(let ((.def_3553 ((_ sign_extend 24) send4)))(let ((.def_10267 (= .def_3553 .def_3585))).def_10267))))
(assert (let ((.def_3585 ((_ sign_extend 24) nomsg)))(let ((.def_3568 ((_ sign_extend 24) send1)))(let ((.def_10269 (= .def_3568 .def_3585))).def_10269))))
(assert (let ((.def_3553 ((_ sign_extend 24) send4)))(let ((.def_3554 ((_ sign_extend 24) id1)))(let ((.def_10271 (bvslt .def_3554 .def_3553))).def_10271))))
(assert (let ((.def_3554 ((_ sign_extend 24) id1)))(let ((.def_10273 ((_ extract 31 31) .def_3554)))(let ((.def_10274 (= .def_10273 (_ bv1 1)))).def_10274))))
(assert (let ((.def_3568 ((_ sign_extend 24) send1)))(let ((.def_3554 ((_ sign_extend 24) id1)))(let ((.def_10276 (= .def_3554 .def_3568))).def_10276))))
(assert (let ((.def_3567 ((_ sign_extend 24) id2)))(let ((.def_3553 ((_ sign_extend 24) send4)))(let ((.def_10278 (= .def_3553 .def_3567))).def_10278))))
(assert (let ((.def_10280 (= send4 p4_old))).def_10280))
(assert (let ((.def_3620 ((_ sign_extend 24) p3_old)))(let ((.def_3581 ((_ sign_extend 24) id4)))(let ((.def_10282 (bvslt .def_3581 .def_3620))).def_10282))))
(assert (let ((.def_3582 ((_ sign_extend 24) send3)))(let ((.def_10285 (= .def_3582 |node3::__CPAchecker_TMP_0|))).def_10285)))
(assert (let ((.def_10287 ((_ extract 7 0) |node3::__CPAchecker_TMP_0|)))(let ((.def_10288 (= p3_old .def_10287))).def_10288)))
(assert (let ((.def_3616 ((_ sign_extend 24) p2_old)))(let ((.def_3581 ((_ sign_extend 24) id4)))(let ((.def_10290 (= .def_3581 .def_3616))).def_10290))))
(assert (let ((.def_10292 (= id1 p3_old))).def_10292))
(assert (let ((.def_3620 ((_ sign_extend 24) p3_old)))(let ((.def_3554 ((_ sign_extend 24) id1)))(let ((.def_10294 (= .def_3554 .def_3620))).def_10294))))
(assert (let ((.def_3612 ((_ sign_extend 24) p1_old)))(let ((.def_3567 ((_ sign_extend 24) id2)))(let ((.def_10296 (bvslt .def_3567 .def_3612))).def_10296))))
(assert (let ((.def_3616 ((_ sign_extend 24) p2_old)))(let ((.def_3572 ((_ sign_extend 24) id3)))(let ((.def_10298 (bvslt .def_3572 .def_3616))).def_10298))))
(assert (let ((.def_3585 ((_ sign_extend 24) nomsg)))(let ((.def_3572 ((_ sign_extend 24) id3)))(let ((.def_10300 (= .def_3572 .def_3585))).def_10300))))
(assert (let ((.def_3574 ((_ sign_extend 24) send2)))(let ((.def_10303 (= .def_3574 |node2::__CPAchecker_TMP_0|))).def_10303)))
(assert (let ((.def_10305 ((_ extract 7 0) |node2::__CPAchecker_TMP_0|)))(let ((.def_10306 (= p2_old .def_10305))).def_10306)))
(assert (let ((.def_3612 ((_ sign_extend 24) p1_old)))(let ((.def_3572 ((_ sign_extend 24) id3)))(let ((.def_10308 (= .def_3572 .def_3612))).def_10308))))
(assert (let ((.def_3597 ((_ sign_extend 24) p4_old)))(let ((.def_3585 ((_ sign_extend 24) nomsg)))(let ((.def_10310 (= .def_3585 .def_3597))).def_10310))))
(assert (let ((.def_3568 ((_ sign_extend 24) send1)))(let ((.def_10313 (= .def_3568 |node1::__CPAchecker_TMP_0|))).def_10313)))
(assert (let ((.def_10315 ((_ extract 7 0) |node1::__CPAchecker_TMP_0|)))(let ((.def_10316 (= p1_old .def_10315))).def_10316)))
(assert (let ((.def_3597 ((_ sign_extend 24) p4_old)))(let ((.def_3554 ((_ sign_extend 24) id1)))(let ((.def_10318 (bvslt .def_3554 .def_3597))).def_10318))))
(assert (let ((.def_3553 ((_ sign_extend 24) send4)))(let ((.def_10321 (= .def_3553 |node4::__CPAchecker_TMP_0|))).def_10321)))
(assert (let ((.def_10323 ((_ extract 7 0) |node4::__CPAchecker_TMP_0|)))(let ((.def_10324 (= p4_old .def_10323))).def_10324)))
(assert (let ((.def_3597 ((_ sign_extend 24) p4_old)))(let ((.def_3567 ((_ sign_extend 24) id2)))(let ((.def_10326 (= .def_3567 .def_3597))).def_10326))))
(assert (let ((.def_10328 (= r1 (_ bv4 8)))).def_10328))
(assert (let ((.def_10330 (= r1 (_ bv1 8)))).def_10330))
(assert (let ((.def_3585 ((_ sign_extend 24) nomsg)))(let ((.def_3581 ((_ sign_extend 24) id4)))(let ((.def_10332 (= .def_3581 .def_3585))).def_10332))))
(assert (let ((.def_10334 (= id3 send2))).def_10334))
(assert (let ((.def_10336 (= nomsg send1))).def_10336))
(assert (let ((.def_3585 ((_ sign_extend 24) nomsg)))(let ((.def_3554 ((_ sign_extend 24) id1)))(let ((.def_10338 (= .def_3554 .def_3585))).def_10338))))
(assert (let ((.def_3612 ((_ sign_extend 24) p1_old)))(let ((.def_3585 ((_ sign_extend 24) nomsg)))(let ((.def_10340 (= .def_3585 .def_3612))).def_10340))))
(assert (let ((.def_3568 ((_ sign_extend 24) send1)))(let ((.def_3572 ((_ sign_extend 24) id3)))(let ((.def_92882 (bvslt .def_3572 .def_3568))).def_92882))))
(assert (let ((.def_3567 ((_ sign_extend 24) id2)))(let ((.def_92884 ((_ extract 31 31) .def_3567)))(let ((.def_92885 (= .def_92884 (_ bv1 1)))).def_92885))))
(assert (let ((.def_3574 ((_ sign_extend 24) send2)))(let ((.def_3567 ((_ sign_extend 24) id2)))(let ((.def_92887 (= .def_3567 .def_3574))).def_92887))))
(assert (let ((.def_3572 ((_ sign_extend 24) id3)))(let ((.def_92889 ((_ extract 31 31) .def_3572)))(let ((.def_92890 (= .def_92889 (_ bv1 1)))).def_92890))))
(assert (let ((.def_3581 ((_ sign_extend 24) id4)))(let ((.def_92892 ((_ extract 31 31) .def_3581)))(let ((.def_92893 (= .def_92892 (_ bv1 1)))).def_92893))))
(assert (let ((.def_3582 ((_ sign_extend 24) send3)))(let ((.def_3554 ((_ sign_extend 24) id1)))(let ((.def_92895 (bvslt .def_3554 .def_3582))).def_92895))))
(assert (let ((.def_92897 (= send4 id2))).def_92897))
(assert (let ((.def_3581 ((_ sign_extend 24) id4)))(let ((.def_3553 ((_ sign_extend 24) send4)))(let ((.def_92899 (= .def_3553 .def_3581))).def_92899))))
(assert (let ((.def_92901 (= nomsg send3))).def_92901))
(assert (let ((.def_3574 ((_ sign_extend 24) send2)))(let ((.def_3554 ((_ sign_extend 24) id1)))(let ((.def_92903 (= .def_3554 .def_3574))).def_92903))))
(assert (let ((.def_3574 ((_ sign_extend 24) send2)))(let ((.def_3581 ((_ sign_extend 24) id4)))(let ((.def_92905 (bvslt .def_3581 .def_3574))).def_92905))))
(assert (let ((.def_3553 ((_ sign_extend 24) send4)))(let ((.def_3567 ((_ sign_extend 24) id2)))(let ((.def_92907 (bvslt .def_3567 .def_3553))).def_92907))))
(assert (let ((.def_3582 ((_ sign_extend 24) send3)))(let ((.def_3574 ((_ sign_extend 24) send2)))(let ((.def_92909 (= .def_3574 .def_3582))).def_92909))))
(assert (let ((.def_92911 (= send2 send3))).def_92911))
(assert (let ((.def_3572 ((_ sign_extend 24) id3)))(let ((.def_3553 ((_ sign_extend 24) send4)))(let ((.def_92913 (= .def_3553 .def_3572))).def_92913))))
(assert (let ((.def_92915 (= send1 send2))).def_92915))
(assert (let ((.def_3574 ((_ sign_extend 24) send2)))(let ((.def_3568 ((_ sign_extend 24) send1)))(let ((.def_92917 (= .def_3568 .def_3574))).def_92917))))
(assert (let ((.def_92919 (= nomsg (_ bv255 8)))).def_92919))
(assert (let ((.def_3612 ((_ sign_extend 24) p1_old)))(let ((.def_3572 ((_ sign_extend 24) id3)))(let ((.def_92921 (bvslt .def_3572 .def_3612))).def_92921))))
(assert (let ((.def_3620 ((_ sign_extend 24) p3_old)))(let ((.def_3567 ((_ sign_extend 24) id2)))(let ((.def_92923 (= .def_3567 .def_3620))).def_92923))))
(assert (let ((.def_3616 ((_ sign_extend 24) p2_old)))(let ((.def_3581 ((_ sign_extend 24) id4)))(let ((.def_92925 (bvslt .def_3581 .def_3616))).def_92925))))
(assert (let ((.def_3616 ((_ sign_extend 24) p2_old)))(let ((.def_3554 ((_ sign_extend 24) id1)))(let ((.def_92927 (= .def_3554 .def_3616))).def_92927))))
(assert (let ((.def_92929 (= send2 p2_old))).def_92929))
(assert (let ((.def_3620 ((_ sign_extend 24) p3_old)))(let ((.def_3554 ((_ sign_extend 24) id1)))(let ((.def_92931 (bvslt .def_3554 .def_3620))).def_92931))))
(assert (let ((.def_3620 ((_ sign_extend 24) p3_old)))(let ((.def_3585 ((_ sign_extend 24) nomsg)))(let ((.def_92933 (= .def_3585 .def_3620))).def_92933))))
(assert (let ((.def_10323 ((_ extract 7 0) |node4::__CPAchecker_TMP_0|)))(let ((.def_92935 ((_ sign_extend 24) .def_10323)))(let ((.def_3567 ((_ sign_extend 24) id2)))(let ((.def_92936 (= .def_3567 .def_92935))).def_92936)))))
(assert (let ((.def_10323 ((_ extract 7 0) |node4::__CPAchecker_TMP_0|)))(let ((.def_92935 ((_ sign_extend 24) .def_10323)))(let ((.def_3554 ((_ sign_extend 24) id1)))(let ((.def_92938 (bvslt .def_3554 .def_92935))).def_92938)))))
(assert (let ((.def_10323 ((_ extract 7 0) |node4::__CPAchecker_TMP_0|)))(let ((.def_92935 ((_ sign_extend 24) .def_10323)))(let ((.def_3554 ((_ sign_extend 24) id1)))(let ((.def_92940 (= .def_3554 .def_92935))).def_92940)))))
(assert (let ((.def_3554 ((_ sign_extend 24) id1)))(let ((.def_92942 (= .def_3554 |node1::__CPAchecker_TMP_0|))).def_92942)))
(assert (let ((.def_3581 ((_ sign_extend 24) id4)))(let ((.def_92944 (= .def_3581 |node4::__CPAchecker_TMP_0|))).def_92944)))
(assert (let ((.def_92946 (= id2 p2_old))).def_92946))
(assert (let ((.def_3572 ((_ sign_extend 24) id3)))(let ((.def_92948 (= .def_3572 |node3::__CPAchecker_TMP_0|))).def_92948)))
(assert (let ((.def_3616 ((_ sign_extend 24) p2_old)))(let ((.def_3574 ((_ sign_extend 24) send2)))(let ((.def_92950 (= .def_3574 .def_3616))).def_92950))))
(assert (let ((.def_92952 (= send1 p1_old))).def_92952))
(assert (let ((.def_92956 ((_ extract 3 3) p4_old)))(let ((.def_92954 ((_ extract 3 3) id4)))(let ((.def_92955 (bvnot .def_92954)))(let ((.def_92958 (bvand .def_92955 .def_92956)))(let ((.def_92959 (= .def_92958 (_ bv0 1)))).def_92959))))))
(assert (let ((.def_92963 ((_ extract 2 2) p4_old)))(let ((.def_92961 ((_ extract 2 2) id4)))(let ((.def_92962 (bvnot .def_92961)))(let ((.def_92965 (bvand .def_92962 .def_92963)))(let ((.def_92966 (= .def_92965 (_ bv0 1)))).def_92966))))))
(assert (let ((.def_92970 ((_ extract 1 1) p4_old)))(let ((.def_92968 ((_ extract 1 1) id4)))(let ((.def_92969 (bvnot .def_92968)))(let ((.def_92972 (bvand .def_92969 .def_92970)))(let ((.def_92973 (= .def_92972 (_ bv0 1)))).def_92973))))))
(assert (let ((.def_92978 ((_ extract 0 0) id4)))(let ((.def_92979 (bvnot .def_92978)))(let ((.def_92975 ((_ extract 0 0) p4_old)))(let ((.def_92970 ((_ extract 1 1) p4_old)))(let ((.def_92968 ((_ extract 1 1) id4)))(let ((.def_92969 (bvnot .def_92968)))(let ((.def_92972 (bvand .def_92969 .def_92970)))(let ((.def_92977 (bvor .def_92972 .def_92975)))(let ((.def_92981 (bvand .def_92977 .def_92979)))(let ((.def_92982 (= .def_92981 (_ bv0 1)))).def_92982)))))))))))
(assert (let ((.def_92986 ((_ extract 4 4) p4_old)))(let ((.def_92984 ((_ extract 4 4) id4)))(let ((.def_92985 (bvnot .def_92984)))(let ((.def_92988 (bvand .def_92985 .def_92986)))(let ((.def_92989 (= .def_92988 (_ bv0 1)))).def_92989))))))
(assert (let ((.def_92993 ((_ extract 5 5) p4_old)))(let ((.def_92991 ((_ extract 5 5) id4)))(let ((.def_92992 (bvnot .def_92991)))(let ((.def_92995 (bvand .def_92992 .def_92993)))(let ((.def_92996 (= .def_92995 (_ bv0 1)))).def_92996))))))
(assert (let ((.def_92986 ((_ extract 4 4) p4_old)))(let ((.def_92984 ((_ extract 4 4) id4)))(let ((.def_92985 (bvnot .def_92984)))(let ((.def_92988 (bvand .def_92985 .def_92986)))(let ((.def_93008 (bvnot .def_92988)))(let ((.def_92956 ((_ extract 3 3) p4_old)))(let ((.def_92954 ((_ extract 3 3) id4)))(let ((.def_92955 (bvnot .def_92954)))(let ((.def_92958 (bvand .def_92955 .def_92956)))(let ((.def_93005 (bvnot .def_92958)))(let ((.def_92963 ((_ extract 2 2) p4_old)))(let ((.def_92961 ((_ extract 2 2) id4)))(let ((.def_92962 (bvnot .def_92961)))(let ((.def_92965 (bvand .def_92962 .def_92963)))(let ((.def_93002 (bvnot .def_92965)))(let ((.def_92970 ((_ extract 1 1) p4_old)))(let ((.def_92968 ((_ extract 1 1) id4)))(let ((.def_92969 (bvnot .def_92968)))(let ((.def_92972 (bvand .def_92969 .def_92970)))(let ((.def_92999 (bvnot .def_92972)))(let ((.def_92978 ((_ extract 0 0) id4)))(let ((.def_92979 (bvnot .def_92978)))(let ((.def_92975 ((_ extract 0 0) p4_old)))(let ((.def_92977 (bvor .def_92972 .def_92975)))(let ((.def_92981 (bvand .def_92977 .def_92979)))(let ((.def_92998 (bvnot .def_92981)))(let ((.def_93001 (bvand .def_92998 .def_92999)))(let ((.def_93004 (bvand .def_93001 .def_93002)))(let ((.def_93007 (bvand .def_93004 .def_93005)))(let ((.def_93010 (bvand .def_93007 .def_93008)))(let ((.def_93011 (= .def_93010 (_ bv1 1)))).def_93011))))))))))))))))))))))))))))))))
(assert (let ((.def_92993 ((_ extract 5 5) p4_old)))(let ((.def_92991 ((_ extract 5 5) id4)))(let ((.def_92992 (bvnot .def_92991)))(let ((.def_92995 (bvand .def_92992 .def_92993)))(let ((.def_93027 (bvnot .def_92995)))(let ((.def_93023 ((_ extract 7 7) id1)))(let ((.def_93024 (bvnot .def_93023)))(let ((.def_93019 ((_ extract 7 7) id4)))(let ((.def_93020 (bvnot .def_93019)))(let ((.def_93015 ((_ extract 6 6) p4_old)))(let ((.def_93013 ((_ extract 6 6) id4)))(let ((.def_93014 (bvnot .def_93013)))(let ((.def_93017 (bvand .def_93014 .def_93015)))(let ((.def_93018 (bvnot .def_93017)))(let ((.def_93022 (bvand .def_93018 .def_93020)))(let ((.def_93026 (bvand .def_93022 .def_93024)))(let ((.def_93029 (bvand .def_93026 .def_93027)))(let ((.def_93030 (= .def_93029 (_ bv1 1)))).def_93030)))))))))))))))))))
(assert (let ((.def_93023 ((_ extract 7 7) id1)))(let ((.def_93024 (bvnot .def_93023)))(let ((.def_93019 ((_ extract 7 7) id4)))(let ((.def_93020 (bvnot .def_93019)))(let ((.def_93015 ((_ extract 6 6) p4_old)))(let ((.def_93013 ((_ extract 6 6) id4)))(let ((.def_93014 (bvnot .def_93013)))(let ((.def_93017 (bvand .def_93014 .def_93015)))(let ((.def_93018 (bvnot .def_93017)))(let ((.def_93022 (bvand .def_93018 .def_93020)))(let ((.def_93026 (bvand .def_93022 .def_93024)))(let ((.def_93032 (= .def_93026 (_ bv1 1)))).def_93032)))))))))))))
(assert (let ((.def_93015 ((_ extract 6 6) p4_old)))(let ((.def_93013 ((_ extract 6 6) id4)))(let ((.def_93014 (bvnot .def_93013)))(let ((.def_93017 (bvand .def_93014 .def_93015)))(let ((.def_93034 (= .def_93017 (_ bv0 1)))).def_93034))))))
(assert (let ((.def_92993 ((_ extract 5 5) p4_old)))(let ((.def_92991 ((_ extract 5 5) id4)))(let ((.def_92992 (bvnot .def_92991)))(let ((.def_92995 (bvand .def_92992 .def_92993)))(let ((.def_93027 (bvnot .def_92995)))(let ((.def_93023 ((_ extract 7 7) id1)))(let ((.def_93024 (bvnot .def_93023)))(let ((.def_93019 ((_ extract 7 7) id4)))(let ((.def_93020 (bvnot .def_93019)))(let ((.def_93015 ((_ extract 6 6) p4_old)))(let ((.def_93013 ((_ extract 6 6) id4)))(let ((.def_93014 (bvnot .def_93013)))(let ((.def_93017 (bvand .def_93014 .def_93015)))(let ((.def_93018 (bvnot .def_93017)))(let ((.def_93022 (bvand .def_93018 .def_93020)))(let ((.def_93026 (bvand .def_93022 .def_93024)))(let ((.def_93029 (bvand .def_93026 .def_93027)))(let ((.def_92986 ((_ extract 4 4) p4_old)))(let ((.def_92984 ((_ extract 4 4) id4)))(let ((.def_92985 (bvnot .def_92984)))(let ((.def_92988 (bvand .def_92985 .def_92986)))(let ((.def_93008 (bvnot .def_92988)))(let ((.def_92956 ((_ extract 3 3) p4_old)))(let ((.def_92954 ((_ extract 3 3) id4)))(let ((.def_92955 (bvnot .def_92954)))(let ((.def_92958 (bvand .def_92955 .def_92956)))(let ((.def_93005 (bvnot .def_92958)))(let ((.def_92963 ((_ extract 2 2) p4_old)))(let ((.def_92961 ((_ extract 2 2) id4)))(let ((.def_92962 (bvnot .def_92961)))(let ((.def_92965 (bvand .def_92962 .def_92963)))(let ((.def_93002 (bvnot .def_92965)))(let ((.def_92970 ((_ extract 1 1) p4_old)))(let ((.def_92968 ((_ extract 1 1) id4)))(let ((.def_92969 (bvnot .def_92968)))(let ((.def_92972 (bvand .def_92969 .def_92970)))(let ((.def_92999 (bvnot .def_92972)))(let ((.def_92978 ((_ extract 0 0) id4)))(let ((.def_92979 (bvnot .def_92978)))(let ((.def_92975 ((_ extract 0 0) p4_old)))(let ((.def_92977 (bvor .def_92972 .def_92975)))(let ((.def_92981 (bvand .def_92977 .def_92979)))(let ((.def_92998 (bvnot .def_92981)))(let ((.def_93001 (bvand .def_92998 .def_92999)))(let ((.def_93004 (bvand .def_93001 .def_93002)))(let ((.def_93007 (bvand .def_93004 .def_93005)))(let ((.def_93010 (bvand .def_93007 .def_93008)))(let ((.def_93036 (bvand .def_93010 .def_93029)))(let ((.def_93037 (bvand .def_93027 .def_93036)))(let ((.def_93038 (bvand .def_93010 .def_93037)))(let ((.def_93039 (bvand .def_93029 .def_93038)))(let ((.def_93040 (bvand .def_93026 .def_93039)))(let ((.def_93041 (= .def_93040 (_ bv1 1)))).def_93041))))))))))))))))))))))))))))))))))))))))))))))))))))))
(assert (let ((.def_93019 ((_ extract 7 7) id4)))(let ((.def_93043 (= .def_93019 (_ bv0 1)))).def_93043)))
(assert (let ((.def_93023 ((_ extract 7 7) id1)))(let ((.def_93045 (= .def_93023 (_ bv0 1)))).def_93045)))
(assert (let ((.def_3616 ((_ sign_extend 24) p2_old)))(let ((.def_3567 ((_ sign_extend 24) id2)))(let ((.def_93047 (= .def_3567 .def_3616))).def_93047))))
(assert (let ((.def_3620 ((_ sign_extend 24) p3_old)))(let ((.def_3572 ((_ sign_extend 24) id3)))(let ((.def_93049 (bvslt .def_3572 .def_3620))).def_93049))))
(assert (let ((.def_3620 ((_ sign_extend 24) p3_old)))(let ((.def_3616 ((_ sign_extend 24) p2_old)))(let ((.def_93051 (= .def_3616 .def_3620))).def_93051))))
(assert (let ((.def_93053 (= p2_old p3_old))).def_93053))
(assert (let ((.def_3597 ((_ sign_extend 24) p4_old)))(let ((.def_3572 ((_ sign_extend 24) id3)))(let ((.def_93055 (= .def_3572 .def_3597))).def_93055))))
(assert (let ((.def_93058 ((_ extract 6 6) p2_old)))(let ((.def_93057 ((_ extract 6 6) id3)))(let ((.def_93075 (bvand .def_93057 .def_93058)))(let ((.def_93076 (bvnot .def_93075)))(let ((.def_93061 ((_ extract 6 6) p3_old)))(let ((.def_93077 (bvand .def_93061 .def_93076)))(let ((.def_93065 ((_ extract 6 6) id2)))(let ((.def_93078 (bvand .def_93065 .def_93077)))(let ((.def_93079 (bvnot .def_93078)))(let ((.def_93070 ((_ extract 7 7) id3)))(let ((.def_93071 (bvnot .def_93070)))(let ((.def_93066 (bvnot .def_93065)))(let ((.def_93062 (bvnot .def_93061)))(let ((.def_93060 (bvor .def_93057 .def_93058)))(let ((.def_93064 (bvand .def_93060 .def_93062)))(let ((.def_93068 (bvand .def_93064 .def_93066)))(let ((.def_93069 (bvnot .def_93068)))(let ((.def_93073 (bvand .def_93069 .def_93071)))(let ((.def_93081 (bvand .def_93073 .def_93079)))(let ((.def_93082 (bvand .def_93071 .def_93081)))(let ((.def_93083 (= .def_93082 (_ bv1 1)))).def_93083))))))))))))))))))))))
(assert (let ((.def_93070 ((_ extract 7 7) id3)))(let ((.def_93085 (= .def_93070 (_ bv0 1)))).def_93085)))
(assert (let ((.def_93065 ((_ extract 6 6) id2)))(let ((.def_93066 (bvnot .def_93065)))(let ((.def_93061 ((_ extract 6 6) p3_old)))(let ((.def_93062 (bvnot .def_93061)))(let ((.def_93058 ((_ extract 6 6) p2_old)))(let ((.def_93057 ((_ extract 6 6) id3)))(let ((.def_93060 (bvor .def_93057 .def_93058)))(let ((.def_93064 (bvand .def_93060 .def_93062)))(let ((.def_93068 (bvand .def_93064 .def_93066)))(let ((.def_93087 (= .def_93068 (_ bv0 1)))).def_93087)))))))))))
(assert (let ((.def_93058 ((_ extract 6 6) p2_old)))(let ((.def_93057 ((_ extract 6 6) id3)))(let ((.def_93075 (bvand .def_93057 .def_93058)))(let ((.def_93076 (bvnot .def_93075)))(let ((.def_93061 ((_ extract 6 6) p3_old)))(let ((.def_93077 (bvand .def_93061 .def_93076)))(let ((.def_93065 ((_ extract 6 6) id2)))(let ((.def_93078 (bvand .def_93065 .def_93077)))(let ((.def_93089 (= .def_93078 (_ bv0 1)))).def_93089))))))))))
(assert (let ((.def_93099 ((_ extract 5 5) id2)))(let ((.def_93100 (bvnot .def_93099)))(let ((.def_93095 ((_ extract 5 5) p3_old)))(let ((.def_93096 (bvnot .def_93095)))(let ((.def_93092 ((_ extract 5 5) p2_old)))(let ((.def_93091 ((_ extract 5 5) id3)))(let ((.def_93094 (bvor .def_93091 .def_93092)))(let ((.def_93098 (bvand .def_93094 .def_93096)))(let ((.def_93102 (bvand .def_93098 .def_93100)))(let ((.def_93103 (= .def_93102 (_ bv0 1)))).def_93103)))))))))))
(assert (let ((.def_93092 ((_ extract 5 5) p2_old)))(let ((.def_93091 ((_ extract 5 5) id3)))(let ((.def_93106 (bvand .def_93091 .def_93092)))(let ((.def_93107 (bvnot .def_93106)))(let ((.def_93095 ((_ extract 5 5) p3_old)))(let ((.def_93108 (bvand .def_93095 .def_93107)))(let ((.def_93099 ((_ extract 5 5) id2)))(let ((.def_93109 (bvand .def_93099 .def_93108)))(let ((.def_93110 (= .def_93109 (_ bv0 1)))).def_93110))))))))))
(assert (let ((.def_93120 ((_ extract 4 4) id2)))(let ((.def_93121 (bvnot .def_93120)))(let ((.def_93116 ((_ extract 4 4) p3_old)))(let ((.def_93117 (bvnot .def_93116)))(let ((.def_93113 ((_ extract 4 4) p2_old)))(let ((.def_93112 ((_ extract 4 4) id3)))(let ((.def_93115 (bvor .def_93112 .def_93113)))(let ((.def_93119 (bvand .def_93115 .def_93117)))(let ((.def_93123 (bvand .def_93119 .def_93121)))(let ((.def_93124 (= .def_93123 (_ bv0 1)))).def_93124)))))))))))
(assert (let ((.def_93113 ((_ extract 4 4) p2_old)))(let ((.def_93112 ((_ extract 4 4) id3)))(let ((.def_93127 (bvand .def_93112 .def_93113)))(let ((.def_93128 (bvnot .def_93127)))(let ((.def_93116 ((_ extract 4 4) p3_old)))(let ((.def_93129 (bvand .def_93116 .def_93128)))(let ((.def_93120 ((_ extract 4 4) id2)))(let ((.def_93130 (bvand .def_93120 .def_93129)))(let ((.def_93131 (= .def_93130 (_ bv0 1)))).def_93131))))))))))
(assert (let ((.def_93141 ((_ extract 3 3) id2)))(let ((.def_93142 (bvnot .def_93141)))(let ((.def_93137 ((_ extract 3 3) p3_old)))(let ((.def_93138 (bvnot .def_93137)))(let ((.def_93134 ((_ extract 3 3) p2_old)))(let ((.def_93133 ((_ extract 3 3) id3)))(let ((.def_93136 (bvor .def_93133 .def_93134)))(let ((.def_93140 (bvand .def_93136 .def_93138)))(let ((.def_93144 (bvand .def_93140 .def_93142)))(let ((.def_93145 (= .def_93144 (_ bv0 1)))).def_93145)))))))))))
(assert (let ((.def_93134 ((_ extract 3 3) p2_old)))(let ((.def_93133 ((_ extract 3 3) id3)))(let ((.def_93148 (bvand .def_93133 .def_93134)))(let ((.def_93149 (bvnot .def_93148)))(let ((.def_93137 ((_ extract 3 3) p3_old)))(let ((.def_93150 (bvand .def_93137 .def_93149)))(let ((.def_93141 ((_ extract 3 3) id2)))(let ((.def_93151 (bvand .def_93141 .def_93150)))(let ((.def_93152 (= .def_93151 (_ bv0 1)))).def_93152))))))))))
(assert (let ((.def_93163 ((_ extract 2 2) id3)))(let ((.def_93164 (bvnot .def_93163)))(let ((.def_93160 ((_ extract 2 2) p2_old)))(let ((.def_93155 ((_ extract 2 2) p3_old)))(let ((.def_93156 (bvnot .def_93155)))(let ((.def_93154 ((_ extract 2 2) id2)))(let ((.def_93158 (bvand .def_93154 .def_93156)))(let ((.def_93159 (bvnot .def_93158)))(let ((.def_93162 (bvand .def_93159 .def_93160)))(let ((.def_93166 (bvand .def_93162 .def_93164)))(let ((.def_93167 (= .def_93166 (_ bv0 1)))).def_93167))))))))))))
(assert (let ((.def_93092 ((_ extract 5 5) p2_old)))(let ((.def_93091 ((_ extract 5 5) id3)))(let ((.def_93106 (bvand .def_93091 .def_93092)))(let ((.def_93107 (bvnot .def_93106)))(let ((.def_93095 ((_ extract 5 5) p3_old)))(let ((.def_93108 (bvand .def_93095 .def_93107)))(let ((.def_93099 ((_ extract 5 5) id2)))(let ((.def_93109 (bvand .def_93099 .def_93108)))(let ((.def_93172 (bvnot .def_93109)))(let ((.def_93100 (bvnot .def_93099)))(let ((.def_93096 (bvnot .def_93095)))(let ((.def_93094 (bvor .def_93091 .def_93092)))(let ((.def_93098 (bvand .def_93094 .def_93096)))(let ((.def_93102 (bvand .def_93098 .def_93100)))(let ((.def_93169 (bvnot .def_93102)))(let ((.def_93058 ((_ extract 6 6) p2_old)))(let ((.def_93057 ((_ extract 6 6) id3)))(let ((.def_93075 (bvand .def_93057 .def_93058)))(let ((.def_93076 (bvnot .def_93075)))(let ((.def_93061 ((_ extract 6 6) p3_old)))(let ((.def_93077 (bvand .def_93061 .def_93076)))(let ((.def_93065 ((_ extract 6 6) id2)))(let ((.def_93078 (bvand .def_93065 .def_93077)))(let ((.def_93079 (bvnot .def_93078)))(let ((.def_93070 ((_ extract 7 7) id3)))(let ((.def_93071 (bvnot .def_93070)))(let ((.def_93066 (bvnot .def_93065)))(let ((.def_93062 (bvnot .def_93061)))(let ((.def_93060 (bvor .def_93057 .def_93058)))(let ((.def_93064 (bvand .def_93060 .def_93062)))(let ((.def_93068 (bvand .def_93064 .def_93066)))(let ((.def_93069 (bvnot .def_93068)))(let ((.def_93073 (bvand .def_93069 .def_93071)))(let ((.def_93081 (bvand .def_93073 .def_93079)))(let ((.def_93082 (bvand .def_93071 .def_93081)))(let ((.def_93171 (bvand .def_93082 .def_93169)))(let ((.def_93174 (bvand .def_93171 .def_93172)))(let ((.def_93175 (bvand .def_93082 .def_93174)))(let ((.def_93176 (= .def_93175 (_ bv1 1)))).def_93176))))))))))))))))))))))))))))))))))))))))
(assert (let ((.def_93113 ((_ extract 4 4) p2_old)))(let ((.def_93112 ((_ extract 4 4) id3)))(let ((.def_93127 (bvand .def_93112 .def_93113)))(let ((.def_93128 (bvnot .def_93127)))(let ((.def_93116 ((_ extract 4 4) p3_old)))(let ((.def_93129 (bvand .def_93116 .def_93128)))(let ((.def_93120 ((_ extract 4 4) id2)))(let ((.def_93130 (bvand .def_93120 .def_93129)))(let ((.def_93181 (bvnot .def_93130)))(let ((.def_93121 (bvnot .def_93120)))(let ((.def_93117 (bvnot .def_93116)))(let ((.def_93115 (bvor .def_93112 .def_93113)))(let ((.def_93119 (bvand .def_93115 .def_93117)))(let ((.def_93123 (bvand .def_93119 .def_93121)))(let ((.def_93178 (bvnot .def_93123)))(let ((.def_93092 ((_ extract 5 5) p2_old)))(let ((.def_93091 ((_ extract 5 5) id3)))(let ((.def_93106 (bvand .def_93091 .def_93092)))(let ((.def_93107 (bvnot .def_93106)))(let ((.def_93095 ((_ extract 5 5) p3_old)))(let ((.def_93108 (bvand .def_93095 .def_93107)))(let ((.def_93099 ((_ extract 5 5) id2)))(let ((.def_93109 (bvand .def_93099 .def_93108)))(let ((.def_93172 (bvnot .def_93109)))(let ((.def_93100 (bvnot .def_93099)))(let ((.def_93096 (bvnot .def_93095)))(let ((.def_93094 (bvor .def_93091 .def_93092)))(let ((.def_93098 (bvand .def_93094 .def_93096)))(let ((.def_93102 (bvand .def_93098 .def_93100)))(let ((.def_93169 (bvnot .def_93102)))(let ((.def_93058 ((_ extract 6 6) p2_old)))(let ((.def_93057 ((_ extract 6 6) id3)))(let ((.def_93075 (bvand .def_93057 .def_93058)))(let ((.def_93076 (bvnot .def_93075)))(let ((.def_93061 ((_ extract 6 6) p3_old)))(let ((.def_93077 (bvand .def_93061 .def_93076)))(let ((.def_93065 ((_ extract 6 6) id2)))(let ((.def_93078 (bvand .def_93065 .def_93077)))(let ((.def_93079 (bvnot .def_93078)))(let ((.def_93070 ((_ extract 7 7) id3)))(let ((.def_93071 (bvnot .def_93070)))(let ((.def_93066 (bvnot .def_93065)))(let ((.def_93062 (bvnot .def_93061)))(let ((.def_93060 (bvor .def_93057 .def_93058)))(let ((.def_93064 (bvand .def_93060 .def_93062)))(let ((.def_93068 (bvand .def_93064 .def_93066)))(let ((.def_93069 (bvnot .def_93068)))(let ((.def_93073 (bvand .def_93069 .def_93071)))(let ((.def_93081 (bvand .def_93073 .def_93079)))(let ((.def_93082 (bvand .def_93071 .def_93081)))(let ((.def_93171 (bvand .def_93082 .def_93169)))(let ((.def_93174 (bvand .def_93171 .def_93172)))(let ((.def_93175 (bvand .def_93082 .def_93174)))(let ((.def_93180 (bvand .def_93175 .def_93178)))(let ((.def_93183 (bvand .def_93180 .def_93181)))(let ((.def_93184 (bvand .def_93175 .def_93183)))(let ((.def_93185 (= .def_93184 (_ bv1 1)))).def_93185))))))))))))))))))))))))))))))))))))))))))))))))))))))))))
(assert (let ((.def_93196 ((_ extract 1 1) id3)))(let ((.def_93197 (bvnot .def_93196)))(let ((.def_93193 ((_ extract 1 1) p2_old)))(let ((.def_93188 ((_ extract 1 1) p3_old)))(let ((.def_93189 (bvnot .def_93188)))(let ((.def_93187 ((_ extract 1 1) id2)))(let ((.def_93191 (bvand .def_93187 .def_93189)))(let ((.def_93192 (bvnot .def_93191)))(let ((.def_93195 (bvand .def_93192 .def_93193)))(let ((.def_93199 (bvand .def_93195 .def_93197)))(let ((.def_93200 (= .def_93199 (_ bv0 1)))).def_93200))))))))))))
(assert (let ((.def_93211 ((_ extract 0 0) id3)))(let ((.def_93212 (bvnot .def_93211)))(let ((.def_93208 ((_ extract 0 0) p2_old)))(let ((.def_93203 ((_ extract 0 0) p3_old)))(let ((.def_93204 (bvnot .def_93203)))(let ((.def_93202 ((_ extract 0 0) id2)))(let ((.def_93206 (bvand .def_93202 .def_93204)))(let ((.def_93207 (bvnot .def_93206)))(let ((.def_93210 (bvand .def_93207 .def_93208)))(let ((.def_93214 (bvand .def_93210 .def_93212)))(let ((.def_93215 (= .def_93214 (_ bv0 1)))).def_93215))))))))))))
(assert (let ((.def_93134 ((_ extract 3 3) p2_old)))(let ((.def_93133 ((_ extract 3 3) id3)))(let ((.def_93148 (bvand .def_93133 .def_93134)))(let ((.def_93149 (bvnot .def_93148)))(let ((.def_93137 ((_ extract 3 3) p3_old)))(let ((.def_93150 (bvand .def_93137 .def_93149)))(let ((.def_93141 ((_ extract 3 3) id2)))(let ((.def_93151 (bvand .def_93141 .def_93150)))(let ((.def_93220 (bvnot .def_93151)))(let ((.def_93142 (bvnot .def_93141)))(let ((.def_93138 (bvnot .def_93137)))(let ((.def_93136 (bvor .def_93133 .def_93134)))(let ((.def_93140 (bvand .def_93136 .def_93138)))(let ((.def_93144 (bvand .def_93140 .def_93142)))(let ((.def_93217 (bvnot .def_93144)))(let ((.def_93113 ((_ extract 4 4) p2_old)))(let ((.def_93112 ((_ extract 4 4) id3)))(let ((.def_93127 (bvand .def_93112 .def_93113)))(let ((.def_93128 (bvnot .def_93127)))(let ((.def_93116 ((_ extract 4 4) p3_old)))(let ((.def_93129 (bvand .def_93116 .def_93128)))(let ((.def_93120 ((_ extract 4 4) id2)))(let ((.def_93130 (bvand .def_93120 .def_93129)))(let ((.def_93181 (bvnot .def_93130)))(let ((.def_93121 (bvnot .def_93120)))(let ((.def_93117 (bvnot .def_93116)))(let ((.def_93115 (bvor .def_93112 .def_93113)))(let ((.def_93119 (bvand .def_93115 .def_93117)))(let ((.def_93123 (bvand .def_93119 .def_93121)))(let ((.def_93178 (bvnot .def_93123)))(let ((.def_93092 ((_ extract 5 5) p2_old)))(let ((.def_93091 ((_ extract 5 5) id3)))(let ((.def_93106 (bvand .def_93091 .def_93092)))(let ((.def_93107 (bvnot .def_93106)))(let ((.def_93095 ((_ extract 5 5) p3_old)))(let ((.def_93108 (bvand .def_93095 .def_93107)))(let ((.def_93099 ((_ extract 5 5) id2)))(let ((.def_93109 (bvand .def_93099 .def_93108)))(let ((.def_93172 (bvnot .def_93109)))(let ((.def_93100 (bvnot .def_93099)))(let ((.def_93096 (bvnot .def_93095)))(let ((.def_93094 (bvor .def_93091 .def_93092)))(let ((.def_93098 (bvand .def_93094 .def_93096)))(let ((.def_93102 (bvand .def_93098 .def_93100)))(let ((.def_93169 (bvnot .def_93102)))(let ((.def_93058 ((_ extract 6 6) p2_old)))(let ((.def_93057 ((_ extract 6 6) id3)))(let ((.def_93075 (bvand .def_93057 .def_93058)))(let ((.def_93076 (bvnot .def_93075)))(let ((.def_93061 ((_ extract 6 6) p3_old)))(let ((.def_93077 (bvand .def_93061 .def_93076)))(let ((.def_93065 ((_ extract 6 6) id2)))(let ((.def_93078 (bvand .def_93065 .def_93077)))(let ((.def_93079 (bvnot .def_93078)))(let ((.def_93070 ((_ extract 7 7) id3)))(let ((.def_93071 (bvnot .def_93070)))(let ((.def_93066 (bvnot .def_93065)))(let ((.def_93062 (bvnot .def_93061)))(let ((.def_93060 (bvor .def_93057 .def_93058)))(let ((.def_93064 (bvand .def_93060 .def_93062)))(let ((.def_93068 (bvand .def_93064 .def_93066)))(let ((.def_93069 (bvnot .def_93068)))(let ((.def_93073 (bvand .def_93069 .def_93071)))(let ((.def_93081 (bvand .def_93073 .def_93079)))(let ((.def_93082 (bvand .def_93071 .def_93081)))(let ((.def_93171 (bvand .def_93082 .def_93169)))(let ((.def_93174 (bvand .def_93171 .def_93172)))(let ((.def_93175 (bvand .def_93082 .def_93174)))(let ((.def_93180 (bvand .def_93175 .def_93178)))(let ((.def_93183 (bvand .def_93180 .def_93181)))(let ((.def_93184 (bvand .def_93175 .def_93183)))(let ((.def_93219 (bvand .def_93184 .def_93217)))(let ((.def_93222 (bvand .def_93219 .def_93220)))(let ((.def_93223 (bvand .def_93184 .def_93222)))(let ((.def_93224 (= .def_93223 (_ bv1 1)))).def_93224))))))))))))))))))))))))))))))))))))))))))))))))))))))))))))))))))))))))))))
(assert (let ((.def_3597 ((_ sign_extend 24) p4_old)))(let ((.def_3567 ((_ sign_extend 24) id2)))(let ((.def_93226 (bvslt .def_3567 .def_3597))).def_93226))))
(assert (let ((.def_3620 ((_ sign_extend 24) p3_old)))(let ((.def_3574 ((_ sign_extend 24) send2)))(let ((.def_93228 (= .def_3574 .def_3620))).def_93228))))
(assert (let ((.def_93230 (= send2 p3_old))).def_93230))
(assert (let ((.def_3620 ((_ sign_extend 24) p3_old)))(let ((.def_3582 ((_ sign_extend 24) send3)))(let ((.def_93232 (= .def_3582 .def_3620))).def_93232))))
(assert (let ((.def_93234 (= send3 p3_old))).def_93234))
(assert (let ((.def_93236 (= id4 p4_old))).def_93236))
(assert (let ((.def_93238 (= id3 p3_old))).def_93238))
(assert (let ((.def_3597 ((_ sign_extend 24) p4_old)))(let ((.def_3581 ((_ sign_extend 24) id4)))(let ((.def_93240 (= .def_3581 .def_3597))).def_93240))))
(assert (let ((.def_3597 ((_ sign_extend 24) p4_old)))(let ((.def_3581 ((_ sign_extend 24) id4)))(let ((.def_93242 (bvslt .def_3581 .def_3597))).def_93242))))
(assert (let ((.def_3620 ((_ sign_extend 24) p3_old)))(let ((.def_3597 ((_ sign_extend 24) p4_old)))(let ((.def_93244 (= .def_3597 .def_3620))).def_93244))))
(assert (let ((.def_93246 (= p4_old p3_old))).def_93246))
(assert (let ((.def_3582 ((_ sign_extend 24) send3)))(let ((.def_3567 ((_ sign_extend 24) id2)))(let ((.def_93248 (= .def_3567 .def_3582))).def_93248))))
(assert (let ((.def_93250 (= p1_old p2_old))).def_93250))
(assert (let ((.def_3616 ((_ sign_extend 24) p2_old)))(let ((.def_3585 ((_ sign_extend 24) nomsg)))(let ((.def_93252 (= .def_3585 .def_3616))).def_93252))))
(assert (let ((.def_3612 ((_ sign_extend 24) p1_old)))(let ((.def_3581 ((_ sign_extend 24) id4)))(let ((.def_93254 (= .def_3581 .def_3612))).def_93254))))
(assert (let ((.def_10315 ((_ extract 7 0) |node1::__CPAchecker_TMP_0|)))(let ((.def_93256 ((_ sign_extend 24) .def_10315)))(let ((.def_3567 ((_ sign_extend 24) id2)))(let ((.def_93257 (bvslt .def_3567 .def_93256))).def_93257)))))
(assert (let ((.def_10305 ((_ extract 7 0) |node2::__CPAchecker_TMP_0|)))(let ((.def_93259 (= id4 .def_10305))).def_93259)))
(assert (let ((.def_10305 ((_ extract 7 0) |node2::__CPAchecker_TMP_0|)))(let ((.def_93261 ((_ sign_extend 24) .def_10305)))(let ((.def_3581 ((_ sign_extend 24) id4)))(let ((.def_93262 (= .def_3581 .def_93261))).def_93262)))))
(assert (let ((.def_93264 (= nomsg send2))).def_93264))
(assert (let ((.def_3574 ((_ sign_extend 24) send2)))(let ((.def_3567 ((_ sign_extend 24) id2)))(let ((.def_93266 (bvslt .def_3567 .def_3574))).def_93266))))
(assert (let ((.def_93268 (= send4 send3))).def_93268))
(assert (let ((.def_10323 ((_ extract 7 0) |node4::__CPAchecker_TMP_0|)))(let ((.def_93270 (= id2 .def_10323))).def_93270)))
(assert (let ((.def_10323 ((_ extract 7 0) |node4::__CPAchecker_TMP_0|)))(let ((.def_93272 (= send4 .def_10323))).def_93272)))
(assert (let ((.def_10323 ((_ extract 7 0) |node4::__CPAchecker_TMP_0|)))(let ((.def_92935 ((_ sign_extend 24) .def_10323)))(let ((.def_93274 (= |node4::__CPAchecker_TMP_0| .def_92935))).def_93274))))
(assert (let ((.def_10323 ((_ extract 7 0) |node4::__CPAchecker_TMP_0|)))(let ((.def_92935 ((_ sign_extend 24) .def_10323)))(let ((.def_3553 ((_ sign_extend 24) send4)))(let ((.def_93276 (= .def_3553 .def_92935))).def_93276)))))
(assert (let ((.def_93278 (= send4 send1))).def_93278))
(assert (let ((.def_3554 ((_ sign_extend 24) id1)))(let ((.def_3567 ((_ sign_extend 24) id2)))(let ((.def_93280 (bvslt .def_3567 .def_3554))).def_93280))))
(assert (let ((.def_3581 ((_ sign_extend 24) id4)))(let ((.def_3554 ((_ sign_extend 24) id1)))(let ((.def_93282 (bvslt .def_3554 .def_3581))).def_93282))))
(assert (let ((.def_3567 ((_ sign_extend 24) id2)))(let ((.def_3554 ((_ sign_extend 24) id1)))(let ((.def_93284 (= .def_3554 .def_3567))).def_93284))))
(assert (let ((.def_93286 (= id2 send3))).def_93286))
(assert (let ((.def_93332 ((_ extract 6 6) id1)))(let ((.def_93013 ((_ extract 6 6) id4)))(let ((.def_93353 (bvor .def_93013 .def_93332)))(let ((.def_93326 ((_ extract 5 5) id1)))(let ((.def_92991 ((_ extract 5 5) id4)))(let ((.def_93341 (bvor .def_92991 .def_93326)))(let ((.def_93014 (bvnot .def_93013)))(let ((.def_93333 (bvand .def_93014 .def_93332)))(let ((.def_93334 (bvnot .def_93333)))(let ((.def_93019 ((_ extract 7 7) id4)))(let ((.def_93020 (bvnot .def_93019)))(let ((.def_93335 (bvand .def_93020 .def_93334)))(let ((.def_93023 ((_ extract 7 7) id1)))(let ((.def_93024 (bvnot .def_93023)))(let ((.def_93336 (bvand .def_93024 .def_93335)))(let ((.def_92992 (bvnot .def_92991)))(let ((.def_93330 (bvand .def_92992 .def_93326)))(let ((.def_93331 (bvnot .def_93330)))(let ((.def_93338 (bvand .def_93331 .def_93336)))(let ((.def_93288 ((_ extract 4 4) id1)))(let ((.def_92984 ((_ extract 4 4) id4)))(let ((.def_92985 (bvnot .def_92984)))(let ((.def_93323 (bvand .def_92985 .def_93288)))(let ((.def_93292 ((_ extract 3 3) id1)))(let ((.def_92954 ((_ extract 3 3) id4)))(let ((.def_92955 (bvnot .def_92954)))(let ((.def_93318 (bvand .def_92955 .def_93292)))(let ((.def_93296 ((_ extract 2 2) id1)))(let ((.def_92961 ((_ extract 2 2) id4)))(let ((.def_92962 (bvnot .def_92961)))(let ((.def_93313 (bvand .def_92962 .def_93296)))(let ((.def_93300 ((_ extract 1 1) id1)))(let ((.def_92968 ((_ extract 1 1) id4)))(let ((.def_92969 (bvnot .def_92968)))(let ((.def_93308 (bvand .def_92969 .def_93300)))(let ((.def_93304 ((_ extract 0 0) id1)))(let ((.def_93301 (bvnot .def_93300)))(let ((.def_93302 (bvand .def_92968 .def_93301)))(let ((.def_93303 (bvnot .def_93302)))(let ((.def_93306 (bvand .def_93303 .def_93304)))(let ((.def_92978 ((_ extract 0 0) id4)))(let ((.def_92979 (bvnot .def_92978)))(let ((.def_93307 (bvand .def_92979 .def_93306)))(let ((.def_93310 (bvor .def_93307 .def_93308)))(let ((.def_93297 (bvnot .def_93296)))(let ((.def_93298 (bvand .def_92961 .def_93297)))(let ((.def_93299 (bvnot .def_93298)))(let ((.def_93312 (bvand .def_93299 .def_93310)))(let ((.def_93315 (bvor .def_93312 .def_93313)))(let ((.def_93293 (bvnot .def_93292)))(let ((.def_93294 (bvand .def_92954 .def_93293)))(let ((.def_93295 (bvnot .def_93294)))(let ((.def_93317 (bvand .def_93295 .def_93315)))(let ((.def_93320 (bvor .def_93317 .def_93318)))(let ((.def_93289 (bvnot .def_93288)))(let ((.def_93290 (bvand .def_92984 .def_93289)))(let ((.def_93291 (bvnot .def_93290)))(let ((.def_93322 (bvand .def_93291 .def_93320)))(let ((.def_93325 (bvor .def_93322 .def_93323)))(let ((.def_93328 (bvand .def_93325 .def_93326)))(let ((.def_93329 (bvnot .def_93328)))(let ((.def_93340 (bvand .def_93329 .def_93338)))(let ((.def_93343 (bvand .def_93340 .def_93341)))(let ((.def_93344 (bvnot .def_93343)))(let ((.def_93345 (bvand .def_93325 .def_93344)))(let ((.def_93346 (bvnot .def_93345)))(let ((.def_93347 (bvand .def_93338 .def_93346)))(let ((.def_93348 (bvand .def_93336 .def_93347)))(let ((.def_93349 (bvnot .def_93348)))(let ((.def_93350 (bvand .def_93332 .def_93349)))(let ((.def_93351 (bvnot .def_93350)))(let ((.def_93352 (bvand .def_93024 .def_93351)))(let ((.def_93355 (bvand .def_93352 .def_93353)))(let ((.def_93356 (bvor .def_93348 .def_93355)))(let ((.def_93357 (bvand .def_93020 .def_93356)))(let ((.def_93358 (bvor .def_93023 .def_93357)))(let ((.def_93359 (= .def_93358 (_ bv1 1)))).def_93359))))))))))))))))))))))))))))))))))))))))))))))))))))))))))))))))))))))))))))))
(assert (let ((.def_3582 ((_ sign_extend 24) send3)))(let ((.def_3553 ((_ sign_extend 24) send4)))(let ((.def_93361 (= .def_3553 .def_3582))).def_93361))))
(assert (let ((.def_93414 ((_ extract 0 0) send4)))(let ((.def_93415 (bvnot .def_93414)))(let ((.def_93202 ((_ extract 0 0) id2)))(let ((.def_93416 (bvand .def_93202 .def_93415)))(let ((.def_93417 (bvnot .def_93416)))(let ((.def_93408 ((_ extract 1 1) send4)))(let ((.def_93409 (bvnot .def_93408)))(let ((.def_93187 ((_ extract 1 1) id2)))(let ((.def_93410 (bvand .def_93187 .def_93409)))(let ((.def_93411 (bvnot .def_93410)))(let ((.def_93383 ((_ extract 7 7) id2)))(let ((.def_93384 (bvnot .def_93383)))(let ((.def_93379 ((_ extract 6 6) send4)))(let ((.def_93065 ((_ extract 6 6) id2)))(let ((.def_93382 (bvor .def_93065 .def_93379)))(let ((.def_93386 (bvand .def_93382 .def_93384)))(let ((.def_93380 (bvand .def_93065 .def_93379)))(let ((.def_93381 (bvnot .def_93380)))(let ((.def_93388 (bvand .def_93381 .def_93386)))(let ((.def_93389 (bvand .def_93384 .def_93388)))(let ((.def_93390 (bvnot .def_93389)))(let ((.def_93375 ((_ extract 5 5) send4)))(let ((.def_93377 (bvnot .def_93375)))(let ((.def_93099 ((_ extract 5 5) id2)))(let ((.def_93100 (bvnot .def_93099)))(let ((.def_93378 (bvand .def_93100 .def_93377)))(let ((.def_93392 (bvand .def_93378 .def_93390)))(let ((.def_93376 (bvand .def_93099 .def_93375)))(let ((.def_93394 (bvor .def_93376 .def_93392)))(let ((.def_93395 (bvand .def_93390 .def_93394)))(let ((.def_93371 ((_ extract 4 4) send4)))(let ((.def_93373 (bvnot .def_93371)))(let ((.def_93120 ((_ extract 4 4) id2)))(let ((.def_93121 (bvnot .def_93120)))(let ((.def_93374 (bvand .def_93121 .def_93373)))(let ((.def_93397 (bvand .def_93374 .def_93395)))(let ((.def_93372 (bvand .def_93120 .def_93371)))(let ((.def_93399 (bvor .def_93372 .def_93397)))(let ((.def_93400 (bvand .def_93395 .def_93399)))(let ((.def_93367 ((_ extract 3 3) send4)))(let ((.def_93369 (bvnot .def_93367)))(let ((.def_93141 ((_ extract 3 3) id2)))(let ((.def_93142 (bvnot .def_93141)))(let ((.def_93370 (bvand .def_93142 .def_93369)))(let ((.def_93402 (bvand .def_93370 .def_93400)))(let ((.def_93368 (bvand .def_93141 .def_93367)))(let ((.def_93404 (bvor .def_93368 .def_93402)))(let ((.def_93405 (bvand .def_93400 .def_93404)))(let ((.def_93363 ((_ extract 2 2) send4)))(let ((.def_93364 (bvnot .def_93363)))(let ((.def_93154 ((_ extract 2 2) id2)))(let ((.def_93365 (bvand .def_93154 .def_93364)))(let ((.def_93366 (bvnot .def_93365)))(let ((.def_93407 (bvand .def_93366 .def_93405)))(let ((.def_93413 (bvand .def_93407 .def_93411)))(let ((.def_93419 (bvand .def_93413 .def_93417)))(let ((.def_93420 (bvand .def_93405 .def_93419)))(let ((.def_93421 (= .def_93420 (_ bv0 1)))).def_93421)))))))))))))))))))))))))))))))))))))))))))))))))))))))))))
(assert (let ((.def_93423 (= send4 send2))).def_93423))
(assert (let ((.def_3574 ((_ sign_extend 24) send2)))(let ((.def_3553 ((_ sign_extend 24) send4)))(let ((.def_93425 (= .def_3553 .def_3574))).def_93425))))
(assert (let ((.def_3568 ((_ sign_extend 24) send1)))(let ((.def_3553 ((_ sign_extend 24) send4)))(let ((.def_93427 (= .def_3553 .def_3568))).def_93427))))
(assert (let ((.def_3553 ((_ sign_extend 24) send4)))(let ((.def_3581 ((_ sign_extend 24) id4)))(let ((.def_93429 (bvslt .def_3581 .def_3553))).def_93429))))
(assert (let ((.def_93431 (= send4 id3))).def_93431))
(assert (let ((.def_93437 (= st4 (_ bv1 8)))).def_93437))
(assert (let ((.def_93439 (= send2 p1_old))).def_93439))
(assert (let ((.def_3604 ((_ sign_extend 24) st1)))(let ((.def_3602 ((_ sign_extend 24) st3)))(let ((.def_93442 (bvadd .def_3602 .def_3604)))(let ((.def_3600 ((_ sign_extend 24) st4)))(let ((.def_3601 (bvneg .def_3600)))(let ((.def_93443 (= .def_3601 .def_93442))).def_93443)))))))
(assert (let ((.def_3604 ((_ sign_extend 24) st1)))(let ((.def_3600 ((_ sign_extend 24) st4)))(let ((.def_93445 (= .def_3600 .def_3604))).def_93445))))
(assert (let ((.def_93447 (= send3 p2_old))).def_93447))
(assert (let ((.def_93449 (= send4 p3_old))).def_93449))
(assert (let ((.def_10323 ((_ extract 7 0) |node4::__CPAchecker_TMP_0|)))(let ((.def_92935 ((_ sign_extend 24) .def_10323)))(let ((.def_3597 ((_ sign_extend 24) p4_old)))(let ((.def_93451 (= .def_3597 .def_92935))).def_93451)))))
(assert (let ((.def_93453 (= send1 p4_old))).def_93453))
(assert (let ((.def_3603 ((_ sign_extend 24) st2)))(let ((.def_3602 ((_ sign_extend 24) st3)))(let ((.def_93456 (bvadd .def_3602 .def_3603)))(let ((.def_3600 ((_ sign_extend 24) st4)))(let ((.def_3601 (bvneg .def_3600)))(let ((.def_93457 (= .def_3601 .def_93456))).def_93457)))))))
(assert (let ((.def_3616 ((_ sign_extend 24) p2_old)))(let ((.def_93459 (= .def_3616 |node3::__CPAchecker_TMP_0|))).def_93459)))
(assert (let ((.def_3620 ((_ sign_extend 24) p3_old)))(let ((.def_3572 ((_ sign_extend 24) id3)))(let ((.def_93461 (= .def_3572 .def_3620))).def_93461))))
(assert (let ((.def_3612 ((_ sign_extend 24) p1_old)))(let ((.def_93463 (= .def_3612 |node2::__CPAchecker_TMP_0|))).def_93463)))
(assert (let ((.def_3567 ((_ sign_extend 24) id2)))(let ((.def_93465 (= .def_3567 |node2::__CPAchecker_TMP_0|))).def_93465)))
(assert (let ((.def_93467 (= p4_old p1_old))).def_93467))
(assert (let ((.def_93057 ((_ extract 6 6) id3)))(let ((.def_93013 ((_ extract 6 6) id4)))(let ((.def_93014 (bvnot .def_93013)))(let ((.def_93523 (bvand .def_93014 .def_93057)))(let ((.def_93019 ((_ extract 7 7) id4)))(let ((.def_93020 (bvnot .def_93019)))(let ((.def_93524 (bvand .def_93020 .def_93523)))(let ((.def_93070 ((_ extract 7 7) id3)))(let ((.def_93071 (bvnot .def_93070)))(let ((.def_93525 (bvand .def_93071 .def_93524)))(let ((.def_93526 (bvnot .def_93525)))(let ((.def_93091 ((_ extract 5 5) id3)))(let ((.def_92991 ((_ extract 5 5) id4)))(let ((.def_92992 (bvnot .def_92991)))(let ((.def_93520 (bvand .def_92992 .def_93091)))(let ((.def_93521 (bvnot .def_93520)))(let ((.def_93528 (bvand .def_93521 .def_93526)))(let ((.def_93112 ((_ extract 4 4) id3)))(let ((.def_92984 ((_ extract 4 4) id4)))(let ((.def_92985 (bvnot .def_92984)))(let ((.def_93508 (bvand .def_92985 .def_93112)))(let ((.def_93516 (bvnot .def_93508)))(let ((.def_93133 ((_ extract 3 3) id3)))(let ((.def_92954 ((_ extract 3 3) id4)))(let ((.def_92955 (bvnot .def_92954)))(let ((.def_93502 (bvand .def_92955 .def_93133)))(let ((.def_93163 ((_ extract 2 2) id3)))(let ((.def_92961 ((_ extract 2 2) id4)))(let ((.def_92962 (bvnot .def_92961)))(let ((.def_93496 (bvand .def_92962 .def_93163)))(let ((.def_93196 ((_ extract 1 1) id3)))(let ((.def_92968 ((_ extract 1 1) id4)))(let ((.def_92969 (bvnot .def_92968)))(let ((.def_93490 (bvand .def_92969 .def_93196)))(let ((.def_93197 (bvnot .def_93196)))(let ((.def_93485 (bvand .def_92968 .def_93197)))(let ((.def_93486 (bvnot .def_93485)))(let ((.def_93211 ((_ extract 0 0) id3)))(let ((.def_93487 (bvand .def_93211 .def_93486)))(let ((.def_92978 ((_ extract 0 0) id4)))(let ((.def_92979 (bvnot .def_92978)))(let ((.def_93488 (bvand .def_92979 .def_93487)))(let ((.def_93492 (bvor .def_93488 .def_93490)))(let ((.def_93164 (bvnot .def_93163)))(let ((.def_93482 (bvand .def_92961 .def_93164)))(let ((.def_93483 (bvnot .def_93482)))(let ((.def_93494 (bvand .def_93483 .def_93492)))(let ((.def_93498 (bvor .def_93494 .def_93496)))(let ((.def_93477 (bvnot .def_93133)))(let ((.def_93479 (bvand .def_92954 .def_93477)))(let ((.def_93480 (bvnot .def_93479)))(let ((.def_93500 (bvand .def_93480 .def_93498)))(let ((.def_93504 (bvor .def_93500 .def_93502)))(let ((.def_93473 (bvnot .def_93112)))(let ((.def_93475 (bvand .def_92984 .def_93473)))(let ((.def_93476 (bvnot .def_93475)))(let ((.def_93506 (bvand .def_93476 .def_93504)))(let ((.def_93515 (bvnot .def_93506)))(let ((.def_93518 (bvand .def_93515 .def_93516)))(let ((.def_93530 (bvand .def_93518 .def_93528)))(let ((.def_93531 (bvnot .def_93530)))(let ((.def_93511 (bvnot .def_93091)))(let ((.def_93513 (bvand .def_92991 .def_93511)))(let ((.def_93514 (bvnot .def_93513)))(let ((.def_93533 (bvand .def_93514 .def_93531)))(let ((.def_93510 (bvor .def_93506 .def_93508)))(let ((.def_93535 (bvand .def_93510 .def_93533)))(let ((.def_93536 (bvnot .def_93535)))(let ((.def_93537 (bvand .def_93528 .def_93536)))(let ((.def_93538 (bvand .def_93526 .def_93537)))(let ((.def_93539 (bvnot .def_93538)))(let ((.def_93540 (bvand .def_93071 .def_93539)))(let ((.def_93469 (bvnot .def_93057)))(let ((.def_93471 (bvand .def_93013 .def_93469)))(let ((.def_93472 (bvnot .def_93471)))(let ((.def_93542 (bvand .def_93472 .def_93540)))(let ((.def_93543 (bvand .def_93539 .def_93542)))(let ((.def_93544 (bvand .def_93020 .def_93543)))(let ((.def_93545 (bvor .def_93070 .def_93544)))(let ((.def_93546 (= .def_93545 (_ bv1 1)))).def_93546)))))))))))))))))))))))))))))))))))))))))))))))))))))))))))))))))))))))))))))))))
(assert (let ((.def_10323 ((_ extract 7 0) |node4::__CPAchecker_TMP_0|)))(let ((.def_93548 (= send1 .def_10323))).def_93548)))
(assert (let ((.def_10287 ((_ extract 7 0) |node3::__CPAchecker_TMP_0|)))(let ((.def_93550 (= send3 .def_10287))).def_93550)))
(assert (let ((.def_93552 (= r1 (_ bv2 8)))).def_93552))
(assert (let ((.def_3602 ((_ sign_extend 24) st3)))(let ((.def_93554 (bvneg .def_3602)))(let ((.def_3603 ((_ sign_extend 24) st2)))(let ((.def_93555 (= .def_3603 .def_93554))).def_93555)))))
(assert (let ((.def_93557 ((_ sign_extend 24) p1_new)))(let ((.def_93558 (= |node1::__CPAchecker_TMP_0| .def_93557))).def_93558)))

assert N299:
(assert false)
(assert (let ((.def_1771 (= |assert::arg| (_ bv0 8)))).def_1771))

