(set-info :source |printed by MathSAT|)
(declare-fun a20 () (_ BitVec 32))
(declare-fun a25 () (_ BitVec 32))
(declare-fun a12 () (_ BitVec 32))
(declare-fun a15 () (_ BitVec 32))
(declare-fun a16 () (_ BitVec 32))
(declare-fun a2 () (_ BitVec 32))
(declare-fun a27 () (_ BitVec 32))
(declare-fun a9 () (_ BitVec 32))
(declare-fun m_pc () (_ BitVec 32))
(declare-fun t1_pc () (_ BitVec 32))
(declare-fun t2_pc () (_ BitVec 32))
(declare-fun m_st () (_ BitVec 32))

*:
(assert (let ((.def_107128 (= a20 (_ bv5 32)))).def_107128))

calculate_output8 N29943:
(assert false)
(assert (let ((.def_107128 (= a20 (_ bv5 32)))).def_107128))

main1 N30136:
(assert (let ((.def_107128 (= a20 (_ bv5 32)))).def_107128))
(assert (let ((.def_154475 (= a25 (_ bv1 32)))).def_154475))
(assert (let ((.def_154478 (= a12 (_ bv4 32)))).def_154478))
(assert (let ((.def_154481 (= a15 (_ bv1 32)))).def_154481))
(assert (let ((.def_154484 (= a16 (_ bv1 32)))).def_154484))
(assert (let ((.def_154487 (= a2 (_ bv10 32)))).def_154487))
(assert (let ((.def_154490 (= a27 (_ bv1 32)))).def_154490))
(assert (let ((.def_154493 (= a9 (_ bv18 32)))).def_154493))
(assert (let ((.def_584808 (= a20 (_ bv6 32)))).def_584808))
(assert (let ((.def_584810 (= a12 (_ bv6 32)))).def_584810))
(assert (let ((.def_584812 (= a9 (_ bv17 32)))).def_584812))
(assert (let ((.def_584814 (= a20 (_ bv7 32)))).def_584814))
(assert (let ((.def_584816 (= a2 (_ bv13 32)))).def_584816))
(assert (let ((.def_584818 (= a2 (_ bv9 32)))).def_584818))
(assert (let ((.def_584820 (= a12 (_ bv3 32)))).def_584820))
(assert (let ((.def_584822 (= a12 (_ bv2 32)))).def_584822))
(assert (let ((.def_584824 (= a12 (_ bv5 32)))).def_584824))
(assert (let ((.def_584826 (= a2 (_ bv11 32)))).def_584826))
(assert (let ((.def_584828 (= a2 (_ bv12 32)))).def_584828))
(assert (let ((.def_584830 (= a9 (_ bv16 32)))).def_584830))

error N30154:
(assert false)
(assert (let ((.def_107128 (= a20 (_ bv5 32)))).def_107128))

eval N30355:
(assert (let ((.def_921185 (= m_pc (_ bv0 32)))).def_921185))
(assert (let ((.def_107128 (= a20 (_ bv5 32)))).def_107128))
(assert (let ((.def_922231 (= t1_pc (_ bv0 32)))).def_922231))
(assert (let ((.def_922234 (= t2_pc (_ bv0 32)))).def_922234))
(assert (let ((.def_922236 (= m_pc (_ bv1 32)))).def_922236))
(assert (let ((.def_922238 (= t1_pc (_ bv1 32)))).def_922238))
(assert (let ((.def_922240 (= t2_pc (_ bv1 32)))).def_922240))
(assert (let ((.def_922243 (= m_st (_ bv0 32)))).def_922243))

start_simulation N30546:
(assert (let ((.def_921185 (= m_pc (_ bv0 32)))).def_921185))
(assert (let ((.def_107128 (= a20 (_ bv5 32)))).def_107128))
(assert (let ((.def_922231 (= t1_pc (_ bv0 32)))).def_922231))
(assert (let ((.def_922234 (= t2_pc (_ bv0 32)))).def_922234))
(assert (let ((.def_922236 (= m_pc (_ bv1 32)))).def_922236))
(assert (let ((.def_922238 (= t1_pc (_ bv1 32)))).def_922238))
(assert (let ((.def_922240 (= t2_pc (_ bv1 32)))).def_922240))

