(set-info :source |printed by MathSAT|)
(declare-fun a20 () (_ BitVec 32))
(declare-fun a25 () (_ BitVec 32))
(declare-fun a12 () (_ BitVec 32))
(declare-fun a15 () (_ BitVec 32))
(declare-fun a16 () (_ BitVec 32))
(declare-fun a2 () (_ BitVec 32))
(declare-fun a27 () (_ BitVec 32))
(declare-fun a9 () (_ BitVec 32))
(declare-fun m_pc () (_ BitVec 32))
(declare-fun t1_pc () (_ BitVec 32))
(declare-fun t2_pc () (_ BitVec 32))
(declare-fun t3_pc () (_ BitVec 32))
(declare-fun m_st () (_ BitVec 32))
(declare-fun E_3 () (_ BitVec 32))
(declare-fun E_M () (_ BitVec 32))
(declare-fun E_2 () (_ BitVec 32))
(declare-fun t3_st () (_ BitVec 32))
(declare-fun t1_st () (_ BitVec 32))
(declare-fun t2_st () (_ BitVec 32))
(declare-fun local () (_ BitVec 32))
(declare-fun token () (_ BitVec 32))
(declare-fun E_1 () (_ BitVec 32))

*:
(assert (let ((.def_107803 (= a20 (_ bv5 32)))).def_107803))

calculate_output8 N30108:
(assert false)
(assert (let ((.def_107803 (= a20 (_ bv5 32)))).def_107803))

main1 N30136:
(assert (let ((.def_107803 (= a20 (_ bv5 32)))).def_107803))
(assert (let ((.def_155506 (= a25 (_ bv1 32)))).def_155506))
(assert (let ((.def_155509 (= a12 (_ bv4 32)))).def_155509))
(assert (let ((.def_155512 (= a15 (_ bv1 32)))).def_155512))
(assert (let ((.def_155515 (= a16 (_ bv1 32)))).def_155515))
(assert (let ((.def_155518 (= a2 (_ bv10 32)))).def_155518))
(assert (let ((.def_155521 (= a27 (_ bv1 32)))).def_155521))
(assert (let ((.def_155524 (= a9 (_ bv18 32)))).def_155524))
(assert (let ((.def_321696 (= a12 (_ bv5 32)))).def_321696))
(assert (let ((.def_321698 (= a2 (_ bv13 32)))).def_321698))
(assert (let ((.def_321700 (= a12 (_ bv2 32)))).def_321700))
(assert (let ((.def_321702 (= a2 (_ bv12 32)))).def_321702))
(assert (let ((.def_321704 (= a12 (_ bv3 32)))).def_321704))
(assert (let ((.def_321706 (= a9 (_ bv16 32)))).def_321706))
(assert (let ((.def_321708 (= a20 (_ bv7 32)))).def_321708))
(assert (let ((.def_321710 (= a2 (_ bv9 32)))).def_321710))
(assert (let ((.def_321712 (= a9 (_ bv17 32)))).def_321712))

error N30154:
(assert false)
(assert (let ((.def_107803 (= a20 (_ bv5 32)))).def_107803))

eval N30396:
(assert (let ((.def_746605 (= m_pc (_ bv0 32)))).def_746605))
(assert (let ((.def_107803 (= a20 (_ bv5 32)))).def_107803))
(assert (let ((.def_748195 (= t1_pc (_ bv0 32)))).def_748195))
(assert (let ((.def_748198 (= t2_pc (_ bv0 32)))).def_748198))
(assert (let ((.def_748201 (= t3_pc (_ bv0 32)))).def_748201))
(assert (let ((.def_748203 (= m_pc (_ bv1 32)))).def_748203))
(assert (let ((.def_748205 (= t1_pc (_ bv1 32)))).def_748205))
(assert (let ((.def_748207 (= t2_pc (_ bv1 32)))).def_748207))
(assert (let ((.def_748209 (= t3_pc (_ bv1 32)))).def_748209))
(assert (let ((.def_748212 (= m_st (_ bv0 32)))).def_748212))
(assert (let ((.def_750268 (= E_3 (_ bv1 32)))).def_750268))
(assert (let ((.def_750271 (= E_M (_ bv1 32)))).def_750271))
(assert (let ((.def_750274 (= E_2 (_ bv1 32)))).def_750274))
(assert (let ((.def_750277 (= t3_st (_ bv0 32)))).def_750277))
(assert (let ((.def_750280 (= t1_st (_ bv0 32)))).def_750280))
(assert (let ((.def_750283 (= t2_st (_ bv0 32)))).def_750283))
(assert (let ((.def_750286 (bvadd (_ bv3 32) local)))(let ((.def_750288 (= .def_750286 token))).def_750288)))
(assert (let ((.def_755021 (= E_2 (_ bv2 32)))).def_755021))
(assert (let ((.def_755024 (= E_1 (_ bv1 32)))).def_755024))
(assert (let ((.def_755026 (= t2_st (_ bv2 32)))).def_755026))
(assert (let ((.def_755028 (= local token))).def_755028))
(assert (let ((.def_755030 (bvadd (_ bv1 32) local)))(let ((.def_755031 (= token .def_755030))).def_755031)))
(assert (let ((.def_755033 (bvadd (_ bv2 32) local)))(let ((.def_755034 (= token .def_755033))).def_755034)))
(assert (let ((.def_758630 (= E_M (_ bv0 32)))).def_758630))
(assert (let ((.def_758632 (= E_3 (_ bv0 32)))).def_758632))
(assert (let ((.def_758634 (= E_2 (_ bv0 32)))).def_758634))
(assert (let ((.def_758636 (= E_1 (_ bv0 32)))).def_758636))

start_simulation N30628:
(assert (let ((.def_746605 (= m_pc (_ bv0 32)))).def_746605))
(assert (let ((.def_107803 (= a20 (_ bv5 32)))).def_107803))
(assert (let ((.def_748195 (= t1_pc (_ bv0 32)))).def_748195))
(assert (let ((.def_748198 (= t2_pc (_ bv0 32)))).def_748198))
(assert (let ((.def_748201 (= t3_pc (_ bv0 32)))).def_748201))
(assert (let ((.def_748203 (= m_pc (_ bv1 32)))).def_748203))
(assert (let ((.def_748205 (= t1_pc (_ bv1 32)))).def_748205))
(assert (let ((.def_748207 (= t2_pc (_ bv1 32)))).def_748207))
(assert (let ((.def_748209 (= t3_pc (_ bv1 32)))).def_748209))
(assert (let ((.def_750268 (= E_3 (_ bv1 32)))).def_750268))
(assert (let ((.def_750271 (= E_M (_ bv1 32)))).def_750271))
(assert (let ((.def_750274 (= E_2 (_ bv1 32)))).def_750274))
(assert (let ((.def_750277 (= t3_st (_ bv0 32)))).def_750277))
(assert (let ((.def_748212 (= m_st (_ bv0 32)))).def_748212))
(assert (let ((.def_755021 (= E_2 (_ bv2 32)))).def_755021))
(assert (let ((.def_755024 (= E_1 (_ bv1 32)))).def_755024))
(assert (let ((.def_750283 (= t2_st (_ bv0 32)))).def_750283))
(assert (let ((.def_750280 (= t1_st (_ bv0 32)))).def_750280))
(assert (let ((.def_755026 (= t2_st (_ bv2 32)))).def_755026))
(assert (let ((.def_758630 (= E_M (_ bv0 32)))).def_758630))
(assert (let ((.def_758632 (= E_3 (_ bv0 32)))).def_758632))
(assert (let ((.def_758634 (= E_2 (_ bv0 32)))).def_758634))

