(set-info :source |printed by MathSAT|)
(declare-fun a20 () (_ BitVec 32))
(declare-fun a9 () (_ BitVec 32))
(declare-fun a25 () (_ BitVec 32))
(declare-fun a12 () (_ BitVec 32))
(declare-fun a15 () (_ BitVec 32))
(declare-fun a16 () (_ BitVec 32))
(declare-fun a2 () (_ BitVec 32))
(declare-fun a27 () (_ BitVec 32))

*:
(assert (let ((.def_105973 (= a20 (_ bv5 32)))).def_105973))

calculate_output8 N29613:
(assert false)
(assert (let ((.def_105973 (= a20 (_ bv5 32)))).def_105973))

main1 N30136:
(assert (let ((.def_152829 (= a9 (_ bv18 32)))).def_152829))
(assert (let ((.def_105973 (= a20 (_ bv5 32)))).def_105973))
(assert (let ((.def_339459 (= a25 (_ bv1 32)))).def_339459))
(assert (let ((.def_339462 (= a12 (_ bv4 32)))).def_339462))
(assert (let ((.def_339465 (= a15 (_ bv1 32)))).def_339465))
(assert (let ((.def_339468 (= a16 (_ bv1 32)))).def_339468))
(assert (let ((.def_339471 (= a2 (_ bv10 32)))).def_339471))
(assert (let ((.def_339474 (= a27 (_ bv1 32)))).def_339474))
(assert (let ((.def_339476 (= a12 (_ bv6 32)))).def_339476))
(assert (let ((.def_339478 (= a20 (_ bv6 32)))).def_339478))
(assert (let ((.def_339480 (= a12 (_ bv3 32)))).def_339480))
(assert (let ((.def_339482 (= a2 (_ bv12 32)))).def_339482))
(assert (let ((.def_339484 (= a12 (_ bv2 32)))).def_339484))
(assert (let ((.def_339486 (= a9 (_ bv16 32)))).def_339486))
(assert (let ((.def_339488 (= a12 (_ bv5 32)))).def_339488))
(assert (let ((.def_339490 (= a9 (_ bv17 32)))).def_339490))
(assert (let ((.def_906358 (= a20 (_ bv7 32)))).def_906358))
(assert (let ((.def_906360 (= a2 (_ bv11 32)))).def_906360))
(assert (let ((.def_906362 (= a2 (_ bv9 32)))).def_906362))
(assert (let ((.def_906364 (= a2 (_ bv13 32)))).def_906364))

