(set-info :source |printed by MathSAT|)
(declare-fun |assert::arg| () (_ BitVec 8))
(declare-fun st1 () (_ BitVec 8))
(declare-fun st2 () (_ BitVec 8))
(declare-fun st3 () (_ BitVec 8))
(declare-fun st4 () (_ BitVec 8))
(declare-fun st5 () (_ BitVec 8))
(declare-fun st6 () (_ BitVec 8))
(declare-fun st7 () (_ BitVec 8))
(declare-fun r1 () (_ BitVec 8))
(declare-fun p5_new () (_ BitVec 8))
(declare-fun nomsg () (_ BitVec 8))
(declare-fun p4_new () (_ BitVec 8))
(declare-fun p3_new () (_ BitVec 8))
(declare-fun p2_new () (_ BitVec 8))
(declare-fun p6_new () (_ BitVec 8))
(declare-fun mode1 () (_ BitVec 8))
(declare-fun mode2 () (_ BitVec 8))
(declare-fun mode3 () (_ BitVec 8))
(declare-fun mode4 () (_ BitVec 8))
(declare-fun mode5 () (_ BitVec 8))
(declare-fun mode6 () (_ BitVec 8))
(declare-fun mode7 () (_ BitVec 8))
(declare-fun id5 () (_ BitVec 8))
(declare-fun send4 () (_ BitVec 8))
(declare-fun send7 () (_ BitVec 8))
(declare-fun id1 () (_ BitVec 8))
(declare-fun id3 () (_ BitVec 8))
(declare-fun send2 () (_ BitVec 8))
(declare-fun id4 () (_ BitVec 8))
(declare-fun send3 () (_ BitVec 8))
(declare-fun id6 () (_ BitVec 8))
(declare-fun send5 () (_ BitVec 8))
(declare-fun id2 () (_ BitVec 8))
(declare-fun send1 () (_ BitVec 8))
(declare-fun id7 () (_ BitVec 8))
(declare-fun send6 () (_ BitVec 8))
(declare-fun p7_new () (_ BitVec 8))
(declare-fun p1_new () (_ BitVec 8))
(declare-fun p4_old () (_ BitVec 8))
(declare-fun p7_old () (_ BitVec 8))
(declare-fun p2_old () (_ BitVec 8))
(declare-fun p3_old () (_ BitVec 8))
(declare-fun p5_old () (_ BitVec 8))
(declare-fun p1_old () (_ BitVec 8))
(declare-fun p6_old () (_ BitVec 8))
(declare-fun |node2::__CPAchecker_TMP_0| () (_ BitVec 32))
(declare-fun |node5::__CPAchecker_TMP_0| () (_ BitVec 32))
(declare-fun |node1::__CPAchecker_TMP_0| () (_ BitVec 32))

assert:
(assert (let ((.def_3071 (= |assert::arg| (_ bv0 8)))).def_3071))

main1 N485:
(assert (let ((.def_3453 (= st1 (_ bv0 8)))).def_3453))
(assert (let ((.def_3456 (= st2 (_ bv0 8)))).def_3456))
(assert (let ((.def_3459 (= st3 (_ bv0 8)))).def_3459))
(assert (let ((.def_3462 (= st4 (_ bv0 8)))).def_3462))
(assert (let ((.def_3465 (= st5 (_ bv0 8)))).def_3465))
(assert (let ((.def_3468 (= st6 (_ bv0 8)))).def_3468))
(assert (let ((.def_3471 (= st7 (_ bv0 8)))).def_3471))
(assert (let ((.def_3474 (= r1 (_ bv0 8)))).def_3474))
(assert (let ((.def_3478 (= p5_new nomsg))).def_3478))
(assert (let ((.def_3481 (= nomsg p4_new))).def_3481))
(assert (let ((.def_3484 (= nomsg p3_new))).def_3484))
(assert (let ((.def_3487 (= nomsg p2_new))).def_3487))
(assert (let ((.def_3490 (= nomsg p6_new))).def_3490))
(assert (let ((.def_3493 (= mode1 (_ bv0 8)))).def_3493))
(assert (let ((.def_3496 (= mode2 (_ bv0 8)))).def_3496))
(assert (let ((.def_3499 (= mode3 (_ bv0 8)))).def_3499))
(assert (let ((.def_3502 (= mode4 (_ bv0 8)))).def_3502))
(assert (let ((.def_3505 (= mode5 (_ bv0 8)))).def_3505))
(assert (let ((.def_3508 (= mode6 (_ bv0 8)))).def_3508))
(assert (let ((.def_3511 (= mode7 (_ bv0 8)))).def_3511))
(assert (let ((.def_6051 (= st1 st7))).def_6051))
(assert (let ((.def_6053 (= st2 st7))).def_6053))
(assert (let ((.def_6055 (= st3 st7))).def_6055))
(assert (let ((.def_6057 (= st4 st7))).def_6057))
(assert (let ((.def_6059 (= st5 st7))).def_6059))
(assert (let ((.def_6061 (= st6 st7))).def_6061))
(assert (let ((.def_6065 (= id5 send4))).def_6065))
(assert (let ((.def_6068 ((_ sign_extend 24) send4)))(let ((.def_6067 ((_ sign_extend 24) id5)))(let ((.def_6069 (= .def_6067 .def_6068))).def_6069))))
(assert (let ((.def_6074 ((_ sign_extend 24) id1)))(let ((.def_6072 ((_ sign_extend 24) send7)))(let ((.def_6075 (= .def_6072 .def_6074))).def_6075))))
(assert (let ((.def_6080 ((_ sign_extend 24) send2)))(let ((.def_6078 ((_ sign_extend 24) id3)))(let ((.def_6081 (= .def_6078 .def_6080))).def_6081))))
(assert (let ((.def_6086 ((_ sign_extend 24) send3)))(let ((.def_6084 ((_ sign_extend 24) id4)))(let ((.def_6087 (= .def_6084 .def_6086))).def_6087))))
(assert (let ((.def_6091 (= id6 send5))).def_6091))
(assert (let ((.def_6094 ((_ sign_extend 24) send5)))(let ((.def_6093 ((_ sign_extend 24) id6)))(let ((.def_6095 (= .def_6093 .def_6094))).def_6095))))
(assert (let ((.def_6099 (= id2 send1))).def_6099))
(assert (let ((.def_6102 ((_ sign_extend 24) send1)))(let ((.def_6101 ((_ sign_extend 24) id2)))(let ((.def_6103 (= .def_6101 .def_6102))).def_6103))))
(assert (let ((.def_6108 ((_ sign_extend 24) send6)))(let ((.def_6106 ((_ sign_extend 24) id7)))(let ((.def_6109 (= .def_6106 .def_6108))).def_6109))))
(assert (let ((.def_6111 ((_ sign_extend 24) nomsg)))(let ((.def_6080 ((_ sign_extend 24) send2)))(let ((.def_6112 (= .def_6080 .def_6111))).def_6112))))
(assert (let ((.def_6111 ((_ sign_extend 24) nomsg)))(let ((.def_6086 ((_ sign_extend 24) send3)))(let ((.def_6114 (= .def_6086 .def_6111))).def_6114))))
(assert (let ((.def_6117 (= nomsg p7_new))).def_6117))
(assert (let ((.def_6120 (= nomsg p1_new))).def_6120))
(assert (let ((.def_6123 ((_ sign_extend 24) p4_old)))(let ((.def_6067 ((_ sign_extend 24) id5)))(let ((.def_6124 (= .def_6067 .def_6123))).def_6124))))
(assert (let ((.def_6133 ((_ sign_extend 24) st1)))(let ((.def_6132 ((_ sign_extend 24) st2)))(let ((.def_6135 (bvadd .def_6132 .def_6133)))(let ((.def_6131 ((_ sign_extend 24) st3)))(let ((.def_6137 (bvadd .def_6131 .def_6135)))(let ((.def_6130 ((_ sign_extend 24) st4)))(let ((.def_6139 (bvadd .def_6130 .def_6137)))(let ((.def_6129 ((_ sign_extend 24) st5)))(let ((.def_6141 (bvadd .def_6129 .def_6139)))(let ((.def_6128 ((_ sign_extend 24) st6)))(let ((.def_6143 (bvadd .def_6128 .def_6141)))(let ((.def_6126 ((_ sign_extend 24) st7)))(let ((.def_6127 (bvneg .def_6126)))(let ((.def_6144 (= .def_6127 .def_6143))).def_6144)))))))))))))))
(assert (let ((.def_6147 ((_ sign_extend 24) p7_old)))(let ((.def_6074 ((_ sign_extend 24) id1)))(let ((.def_6148 (= .def_6074 .def_6147))).def_6148))))
(assert (let ((.def_6151 ((_ sign_extend 24) p2_old)))(let ((.def_6078 ((_ sign_extend 24) id3)))(let ((.def_6152 (= .def_6078 .def_6151))).def_6152))))
(assert (let ((.def_6155 ((_ sign_extend 24) p3_old)))(let ((.def_6084 ((_ sign_extend 24) id4)))(let ((.def_6156 (= .def_6084 .def_6155))).def_6156))))
(assert (let ((.def_6159 ((_ sign_extend 24) p5_old)))(let ((.def_6093 ((_ sign_extend 24) id6)))(let ((.def_6160 (= .def_6093 .def_6159))).def_6160))))
(assert (let ((.def_6163 ((_ sign_extend 24) p1_old)))(let ((.def_6101 ((_ sign_extend 24) id2)))(let ((.def_6164 (= .def_6101 .def_6163))).def_6164))))
(assert (let ((.def_6167 ((_ sign_extend 24) p6_old)))(let ((.def_6106 ((_ sign_extend 24) id7)))(let ((.def_6168 (= .def_6106 .def_6167))).def_6168))))
(assert (let ((.def_6133 ((_ sign_extend 24) st1)))(let ((.def_6130 ((_ sign_extend 24) st4)))(let ((.def_16139 (= .def_6130 .def_6133))).def_16139))))
(assert (let ((.def_6133 ((_ sign_extend 24) st1)))(let ((.def_6131 ((_ sign_extend 24) st3)))(let ((.def_16141 (= .def_6131 .def_6133))).def_16141))))
(assert (let ((.def_6132 ((_ sign_extend 24) st2)))(let ((.def_6129 ((_ sign_extend 24) st5)))(let ((.def_16143 (= .def_6129 .def_6132))).def_16143))))
(assert (let ((.def_6132 ((_ sign_extend 24) st2)))(let ((.def_6128 ((_ sign_extend 24) st6)))(let ((.def_16145 (= .def_6128 .def_6132))).def_16145))))
(assert (let ((.def_16147 (= st4 (_ bv1 8)))).def_16147))
(assert (let ((.def_16149 (= st3 (_ bv1 8)))).def_16149))
(assert (let ((.def_16151 (= st1 (_ bv1 8)))).def_16151))
(assert (let ((.def_6129 ((_ sign_extend 24) st5)))(let ((.def_6128 ((_ sign_extend 24) st6)))(let ((.def_16153 (= .def_6128 .def_6129))).def_16153))))
(assert (let ((.def_6130 ((_ sign_extend 24) st4)))(let ((.def_6128 ((_ sign_extend 24) st6)))(let ((.def_16155 (= .def_6128 .def_6130))).def_16155))))
(assert (let ((.def_6133 ((_ sign_extend 24) st1)))(let ((.def_6129 ((_ sign_extend 24) st5)))(let ((.def_16157 (= .def_6129 .def_6133))).def_16157))))
(assert (let ((.def_6131 ((_ sign_extend 24) st3)))(let ((.def_6129 ((_ sign_extend 24) st5)))(let ((.def_16159 (= .def_6129 .def_6131))).def_16159))))
(assert (let ((.def_16161 (= st5 (_ bv1 8)))).def_16161))
(assert (let ((.def_6130 ((_ sign_extend 24) st4)))(let ((.def_6129 ((_ sign_extend 24) st5)))(let ((.def_16163 (= .def_6129 .def_6130))).def_16163))))
(assert (let ((.def_6132 ((_ sign_extend 24) st2)))(let ((.def_6131 ((_ sign_extend 24) st3)))(let ((.def_16165 (= .def_6131 .def_6132))).def_16165))))
(assert (let ((.def_6131 ((_ sign_extend 24) st3)))(let ((.def_6128 ((_ sign_extend 24) st6)))(let ((.def_16167 (= .def_6128 .def_6131))).def_16167))))
(assert (let ((.def_6133 ((_ sign_extend 24) st1)))(let ((.def_6128 ((_ sign_extend 24) st6)))(let ((.def_16169 (= .def_6128 .def_6133))).def_16169))))
(assert (let ((.def_16171 (= st6 (_ bv1 8)))).def_16171))
(assert (let ((.def_6131 ((_ sign_extend 24) st3)))(let ((.def_6130 ((_ sign_extend 24) st4)))(let ((.def_16173 (= .def_6130 .def_6131))).def_16173))))
(assert (let ((.def_6132 ((_ sign_extend 24) st2)))(let ((.def_6130 ((_ sign_extend 24) st4)))(let ((.def_16175 (= .def_6130 .def_6132))).def_16175))))
(assert (let ((.def_6133 ((_ sign_extend 24) st1)))(let ((.def_6132 ((_ sign_extend 24) st2)))(let ((.def_16177 (= .def_6132 .def_6133))).def_16177))))
(assert (let ((.def_16179 (= st2 (_ bv1 8)))).def_16179))
(assert (let ((.def_16181 ((_ zero_extend 24) r1)))(let ((.def_16182 (bvslt .def_16181 (_ bv7 32)))).def_16182)))
(assert (let ((.def_6133 ((_ sign_extend 24) st1)))(let ((.def_6132 ((_ sign_extend 24) st2)))(let ((.def_6135 (bvadd .def_6132 .def_6133)))(let ((.def_6131 ((_ sign_extend 24) st3)))(let ((.def_6137 (bvadd .def_6131 .def_6135)))(let ((.def_6130 ((_ sign_extend 24) st4)))(let ((.def_6139 (bvadd .def_6130 .def_6137)))(let ((.def_6129 ((_ sign_extend 24) st5)))(let ((.def_6141 (bvadd .def_6129 .def_6139)))(let ((.def_6128 ((_ sign_extend 24) st6)))(let ((.def_6143 (bvadd .def_6128 .def_6141)))(let ((.def_6126 ((_ sign_extend 24) st7)))(let ((.def_16185 (bvadd .def_6126 .def_6143)))(let ((.def_16186 (= .def_16185 (_ bv1 32)))).def_16186)))))))))))))))
(assert (let ((.def_31114 (= st1 st6))).def_31114))
(assert (let ((.def_31116 (= st2 st6))).def_31116))
(assert (let ((.def_31118 (= st3 st6))).def_31118))
(assert (let ((.def_31120 (= st4 st6))).def_31120))
(assert (let ((.def_31122 (= st5 st6))).def_31122))
(assert (let ((.def_6106 ((_ sign_extend 24) id7)))(let ((.def_6094 ((_ sign_extend 24) send5)))(let ((.def_31124 (= .def_6094 .def_6106))).def_31124))))
(assert (let ((.def_6094 ((_ sign_extend 24) send5)))(let ((.def_6093 ((_ sign_extend 24) id6)))(let ((.def_31126 (bvslt .def_6093 .def_6094))).def_31126))))
(assert (let ((.def_6086 ((_ sign_extend 24) send3)))(let ((.def_6067 ((_ sign_extend 24) id5)))(let ((.def_31128 (= .def_6067 .def_6086))).def_31128))))
(assert (let ((.def_6108 ((_ sign_extend 24) send6)))(let ((.def_6106 ((_ sign_extend 24) id7)))(let ((.def_31130 (bvslt .def_6106 .def_6108))).def_31130))))
(assert (let ((.def_6078 ((_ sign_extend 24) id3)))(let ((.def_31132 ((_ extract 31 31) .def_6078)))(let ((.def_31133 (= .def_31132 (_ bv1 1)))).def_31133))))
(assert (let ((.def_6084 ((_ sign_extend 24) id4)))(let ((.def_31135 ((_ extract 31 31) .def_6084)))(let ((.def_31136 (= .def_31135 (_ bv1 1)))).def_31136))))
(assert (let ((.def_6086 ((_ sign_extend 24) send3)))(let ((.def_6084 ((_ sign_extend 24) id4)))(let ((.def_31138 (bvslt .def_6084 .def_6086))).def_31138))))
(assert (let ((.def_6084 ((_ sign_extend 24) id4)))(let ((.def_6068 ((_ sign_extend 24) send4)))(let ((.def_31140 (= .def_6068 .def_6084))).def_31140))))
(assert (let ((.def_6084 ((_ sign_extend 24) id4)))(let ((.def_6080 ((_ sign_extend 24) send2)))(let ((.def_31142 (= .def_6080 .def_6084))).def_31142))))
(assert (let ((.def_6072 ((_ sign_extend 24) send7)))(let ((.def_6074 ((_ sign_extend 24) id1)))(let ((.def_31144 (bvslt .def_6074 .def_6072))).def_31144))))
(assert (let ((.def_6108 ((_ sign_extend 24) send6)))(let ((.def_6074 ((_ sign_extend 24) id1)))(let ((.def_31146 (= .def_6074 .def_6108))).def_31146))))
(assert (let ((.def_6080 ((_ sign_extend 24) send2)))(let ((.def_6078 ((_ sign_extend 24) id3)))(let ((.def_31148 (bvslt .def_6078 .def_6080))).def_31148))))
(assert (let ((.def_6102 ((_ sign_extend 24) send1)))(let ((.def_6078 ((_ sign_extend 24) id3)))(let ((.def_31150 (= .def_6078 .def_6102))).def_31150))))
(assert (let ((.def_6108 ((_ sign_extend 24) send6)))(let ((.def_6093 ((_ sign_extend 24) id6)))(let ((.def_31152 (= .def_6093 .def_6108))).def_31152))))
(assert (let ((.def_6093 ((_ sign_extend 24) id6)))(let ((.def_6068 ((_ sign_extend 24) send4)))(let ((.def_31154 (= .def_6068 .def_6093))).def_31154))))
(assert (let ((.def_6101 ((_ sign_extend 24) id2)))(let ((.def_6072 ((_ sign_extend 24) send7)))(let ((.def_31156 (= .def_6072 .def_6101))).def_31156))))
(assert (let ((.def_6102 ((_ sign_extend 24) send1)))(let ((.def_6101 ((_ sign_extend 24) id2)))(let ((.def_31158 (bvslt .def_6101 .def_6102))).def_31158))))
(assert (let ((.def_6068 ((_ sign_extend 24) send4)))(let ((.def_6067 ((_ sign_extend 24) id5)))(let ((.def_31160 (bvslt .def_6067 .def_6068))).def_31160))))
(assert (let ((.def_31162 (= nomsg (_ bv255 8)))).def_31162))
(assert (let ((.def_6111 ((_ sign_extend 24) nomsg)))(let ((.def_6072 ((_ sign_extend 24) send7)))(let ((.def_31164 (= .def_6072 .def_6111))).def_31164))))
(assert (let ((.def_31166 (= nomsg send1))).def_31166))
(assert (let ((.def_6111 ((_ sign_extend 24) nomsg)))(let ((.def_6102 ((_ sign_extend 24) send1)))(let ((.def_31168 (= .def_6102 .def_6111))).def_31168))))
(assert (let ((.def_31170 (= nomsg send4))).def_31170))
(assert (let ((.def_6111 ((_ sign_extend 24) nomsg)))(let ((.def_6068 ((_ sign_extend 24) send4)))(let ((.def_31172 (= .def_6068 .def_6111))).def_31172))))
(assert (let ((.def_6086 ((_ sign_extend 24) send3)))(let ((.def_6078 ((_ sign_extend 24) id3)))(let ((.def_31174 (= .def_6078 .def_6086))).def_31174))))
(assert (let ((.def_6111 ((_ sign_extend 24) nomsg)))(let ((.def_6108 ((_ sign_extend 24) send6)))(let ((.def_31176 (= .def_6108 .def_6111))).def_31176))))
(assert (let ((.def_31180 ((_ extract 3 3) p3_old)))(let ((.def_31178 ((_ extract 3 3) id3)))(let ((.def_31179 (bvnot .def_31178)))(let ((.def_31182 (bvand .def_31179 .def_31180)))(let ((.def_31183 (= .def_31182 (_ bv0 1)))).def_31183))))))
(assert (let ((.def_31187 ((_ extract 2 2) p3_old)))(let ((.def_31185 ((_ extract 2 2) id3)))(let ((.def_31186 (bvnot .def_31185)))(let ((.def_31189 (bvand .def_31186 .def_31187)))(let ((.def_31190 (= .def_31189 (_ bv0 1)))).def_31190))))))
(assert (let ((.def_31194 ((_ extract 1 1) p3_old)))(let ((.def_31192 ((_ extract 1 1) id3)))(let ((.def_31193 (bvnot .def_31192)))(let ((.def_31196 (bvand .def_31193 .def_31194)))(let ((.def_31197 (= .def_31196 (_ bv0 1)))).def_31197))))))
(assert (let ((.def_31202 ((_ extract 0 0) id3)))(let ((.def_31203 (bvnot .def_31202)))(let ((.def_31199 ((_ extract 0 0) p3_old)))(let ((.def_31194 ((_ extract 1 1) p3_old)))(let ((.def_31192 ((_ extract 1 1) id3)))(let ((.def_31193 (bvnot .def_31192)))(let ((.def_31196 (bvand .def_31193 .def_31194)))(let ((.def_31201 (bvor .def_31196 .def_31199)))(let ((.def_31205 (bvand .def_31201 .def_31203)))(let ((.def_31206 (= .def_31205 (_ bv0 1)))).def_31206)))))))))))
(assert (let ((.def_31210 ((_ extract 4 4) p3_old)))(let ((.def_31208 ((_ extract 4 4) id3)))(let ((.def_31209 (bvnot .def_31208)))(let ((.def_31212 (bvand .def_31209 .def_31210)))(let ((.def_31213 (= .def_31212 (_ bv0 1)))).def_31213))))))
(assert (let ((.def_31217 ((_ extract 5 5) p3_old)))(let ((.def_31215 ((_ extract 5 5) id3)))(let ((.def_31216 (bvnot .def_31215)))(let ((.def_31219 (bvand .def_31216 .def_31217)))(let ((.def_31220 (= .def_31219 (_ bv0 1)))).def_31220))))))
(assert (let ((.def_31210 ((_ extract 4 4) p3_old)))(let ((.def_31208 ((_ extract 4 4) id3)))(let ((.def_31209 (bvnot .def_31208)))(let ((.def_31212 (bvand .def_31209 .def_31210)))(let ((.def_31232 (bvnot .def_31212)))(let ((.def_31180 ((_ extract 3 3) p3_old)))(let ((.def_31178 ((_ extract 3 3) id3)))(let ((.def_31179 (bvnot .def_31178)))(let ((.def_31182 (bvand .def_31179 .def_31180)))(let ((.def_31229 (bvnot .def_31182)))(let ((.def_31187 ((_ extract 2 2) p3_old)))(let ((.def_31185 ((_ extract 2 2) id3)))(let ((.def_31186 (bvnot .def_31185)))(let ((.def_31189 (bvand .def_31186 .def_31187)))(let ((.def_31226 (bvnot .def_31189)))(let ((.def_31194 ((_ extract 1 1) p3_old)))(let ((.def_31192 ((_ extract 1 1) id3)))(let ((.def_31193 (bvnot .def_31192)))(let ((.def_31196 (bvand .def_31193 .def_31194)))(let ((.def_31223 (bvnot .def_31196)))(let ((.def_31202 ((_ extract 0 0) id3)))(let ((.def_31203 (bvnot .def_31202)))(let ((.def_31199 ((_ extract 0 0) p3_old)))(let ((.def_31201 (bvor .def_31196 .def_31199)))(let ((.def_31205 (bvand .def_31201 .def_31203)))(let ((.def_31222 (bvnot .def_31205)))(let ((.def_31225 (bvand .def_31222 .def_31223)))(let ((.def_31228 (bvand .def_31225 .def_31226)))(let ((.def_31231 (bvand .def_31228 .def_31229)))(let ((.def_31234 (bvand .def_31231 .def_31232)))(let ((.def_31235 (= .def_31234 (_ bv1 1)))).def_31235))))))))))))))))))))))))))))))))
(assert (let ((.def_31217 ((_ extract 5 5) p3_old)))(let ((.def_31215 ((_ extract 5 5) id3)))(let ((.def_31216 (bvnot .def_31215)))(let ((.def_31219 (bvand .def_31216 .def_31217)))(let ((.def_31252 (bvnot .def_31219)))(let ((.def_31247 ((_ extract 7 7) id4)))(let ((.def_31248 (bvnot .def_31247)))(let ((.def_31243 ((_ extract 7 7) id3)))(let ((.def_31244 (bvnot .def_31243)))(let ((.def_31239 ((_ extract 6 6) p3_old)))(let ((.def_31237 ((_ extract 6 6) id3)))(let ((.def_31238 (bvnot .def_31237)))(let ((.def_31241 (bvand .def_31238 .def_31239)))(let ((.def_31242 (bvnot .def_31241)))(let ((.def_31246 (bvand .def_31242 .def_31244)))(let ((.def_31250 (bvand .def_31246 .def_31248)))(let ((.def_31251 (bvand .def_31244 .def_31250)))(let ((.def_31254 (bvand .def_31251 .def_31252)))(let ((.def_31255 (= .def_31254 (_ bv1 1)))).def_31255))))))))))))))))))))
(assert (let ((.def_31247 ((_ extract 7 7) id4)))(let ((.def_31248 (bvnot .def_31247)))(let ((.def_31243 ((_ extract 7 7) id3)))(let ((.def_31244 (bvnot .def_31243)))(let ((.def_31239 ((_ extract 6 6) p3_old)))(let ((.def_31237 ((_ extract 6 6) id3)))(let ((.def_31238 (bvnot .def_31237)))(let ((.def_31241 (bvand .def_31238 .def_31239)))(let ((.def_31242 (bvnot .def_31241)))(let ((.def_31246 (bvand .def_31242 .def_31244)))(let ((.def_31250 (bvand .def_31246 .def_31248)))(let ((.def_31251 (bvand .def_31244 .def_31250)))(let ((.def_31257 (= .def_31251 (_ bv1 1)))).def_31257))))))))))))))
(assert (let ((.def_31239 ((_ extract 6 6) p3_old)))(let ((.def_31237 ((_ extract 6 6) id3)))(let ((.def_31238 (bvnot .def_31237)))(let ((.def_31241 (bvand .def_31238 .def_31239)))(let ((.def_31259 (= .def_31241 (_ bv0 1)))).def_31259))))))
(assert (let ((.def_31217 ((_ extract 5 5) p3_old)))(let ((.def_31215 ((_ extract 5 5) id3)))(let ((.def_31216 (bvnot .def_31215)))(let ((.def_31219 (bvand .def_31216 .def_31217)))(let ((.def_31252 (bvnot .def_31219)))(let ((.def_31247 ((_ extract 7 7) id4)))(let ((.def_31248 (bvnot .def_31247)))(let ((.def_31243 ((_ extract 7 7) id3)))(let ((.def_31244 (bvnot .def_31243)))(let ((.def_31239 ((_ extract 6 6) p3_old)))(let ((.def_31237 ((_ extract 6 6) id3)))(let ((.def_31238 (bvnot .def_31237)))(let ((.def_31241 (bvand .def_31238 .def_31239)))(let ((.def_31242 (bvnot .def_31241)))(let ((.def_31246 (bvand .def_31242 .def_31244)))(let ((.def_31250 (bvand .def_31246 .def_31248)))(let ((.def_31251 (bvand .def_31244 .def_31250)))(let ((.def_31254 (bvand .def_31251 .def_31252)))(let ((.def_31210 ((_ extract 4 4) p3_old)))(let ((.def_31208 ((_ extract 4 4) id3)))(let ((.def_31209 (bvnot .def_31208)))(let ((.def_31212 (bvand .def_31209 .def_31210)))(let ((.def_31232 (bvnot .def_31212)))(let ((.def_31180 ((_ extract 3 3) p3_old)))(let ((.def_31178 ((_ extract 3 3) id3)))(let ((.def_31179 (bvnot .def_31178)))(let ((.def_31182 (bvand .def_31179 .def_31180)))(let ((.def_31229 (bvnot .def_31182)))(let ((.def_31187 ((_ extract 2 2) p3_old)))(let ((.def_31185 ((_ extract 2 2) id3)))(let ((.def_31186 (bvnot .def_31185)))(let ((.def_31189 (bvand .def_31186 .def_31187)))(let ((.def_31226 (bvnot .def_31189)))(let ((.def_31194 ((_ extract 1 1) p3_old)))(let ((.def_31192 ((_ extract 1 1) id3)))(let ((.def_31193 (bvnot .def_31192)))(let ((.def_31196 (bvand .def_31193 .def_31194)))(let ((.def_31223 (bvnot .def_31196)))(let ((.def_31202 ((_ extract 0 0) id3)))(let ((.def_31203 (bvnot .def_31202)))(let ((.def_31199 ((_ extract 0 0) p3_old)))(let ((.def_31201 (bvor .def_31196 .def_31199)))(let ((.def_31205 (bvand .def_31201 .def_31203)))(let ((.def_31222 (bvnot .def_31205)))(let ((.def_31225 (bvand .def_31222 .def_31223)))(let ((.def_31228 (bvand .def_31225 .def_31226)))(let ((.def_31231 (bvand .def_31228 .def_31229)))(let ((.def_31234 (bvand .def_31231 .def_31232)))(let ((.def_31261 (bvand .def_31234 .def_31254)))(let ((.def_31262 (bvand .def_31252 .def_31261)))(let ((.def_31263 (bvand .def_31234 .def_31262)))(let ((.def_31264 (bvand .def_31254 .def_31263)))(let ((.def_31265 (bvand .def_31251 .def_31264)))(let ((.def_31266 (= .def_31265 (_ bv1 1)))).def_31266)))))))))))))))))))))))))))))))))))))))))))))))))))))))
(assert (let ((.def_31247 ((_ extract 7 7) id4)))(let ((.def_31268 (= .def_31247 (_ bv0 1)))).def_31268)))
(assert (let ((.def_31243 ((_ extract 7 7) id3)))(let ((.def_31270 (= .def_31243 (_ bv0 1)))).def_31270)))
(assert (let ((.def_31272 (= id4 send3))).def_31272))
(assert (let ((.def_6155 ((_ sign_extend 24) p3_old)))(let ((.def_6084 ((_ sign_extend 24) id4)))(let ((.def_31274 (bvslt .def_6084 .def_6155))).def_31274))))
(assert (let ((.def_6111 ((_ sign_extend 24) nomsg)))(let ((.def_6084 ((_ sign_extend 24) id4)))(let ((.def_31276 (= .def_6084 .def_6111))).def_31276))))
(assert (let ((.def_31278 (= send3 p3_old))).def_31278))
(assert (let ((.def_31280 (= id4 p2_old))).def_31280))
(assert (let ((.def_6151 ((_ sign_extend 24) p2_old)))(let ((.def_6084 ((_ sign_extend 24) id4)))(let ((.def_31282 (= .def_6084 .def_6151))).def_31282))))
(assert (let ((.def_31284 (= id7 p5_old))).def_31284))
(assert (let ((.def_6159 ((_ sign_extend 24) p5_old)))(let ((.def_6106 ((_ sign_extend 24) id7)))(let ((.def_31286 (= .def_6106 .def_6159))).def_31286))))
(assert (let ((.def_6159 ((_ sign_extend 24) p5_old)))(let ((.def_6093 ((_ sign_extend 24) id6)))(let ((.def_31288 (bvslt .def_6093 .def_6159))).def_31288))))
(assert (let ((.def_31290 (= send6 p6_old))).def_31290))
(assert (let ((.def_31292 (= send4 p4_old))).def_31292))
(assert (let ((.def_6155 ((_ sign_extend 24) p3_old)))(let ((.def_6067 ((_ sign_extend 24) id5)))(let ((.def_31294 (= .def_6067 .def_6155))).def_31294))))
(assert (let ((.def_6167 ((_ sign_extend 24) p6_old)))(let ((.def_6106 ((_ sign_extend 24) id7)))(let ((.def_31296 (bvslt .def_6106 .def_6167))).def_31296))))
(assert (let ((.def_6147 ((_ sign_extend 24) p7_old)))(let ((.def_6074 ((_ sign_extend 24) id1)))(let ((.def_31298 (bvslt .def_6074 .def_6147))).def_31298))))
(assert (let ((.def_6167 ((_ sign_extend 24) p6_old)))(let ((.def_6074 ((_ sign_extend 24) id1)))(let ((.def_31300 (= .def_6074 .def_6167))).def_31300))))
(assert (let ((.def_31302 (= send7 p7_old))).def_31302))
(assert (let ((.def_6151 ((_ sign_extend 24) p2_old)))(let ((.def_6078 ((_ sign_extend 24) id3)))(let ((.def_31304 (bvslt .def_6078 .def_6151))).def_31304))))
(assert (let ((.def_6080 ((_ sign_extend 24) send2)))(let ((.def_31307 (= .def_6080 |node2::__CPAchecker_TMP_0|))).def_31307)))
(assert (let ((.def_31309 ((_ extract 7 0) |node2::__CPAchecker_TMP_0|)))(let ((.def_31310 (= p2_old .def_31309))).def_31310)))
(assert (let ((.def_31312 (= id3 p1_old))).def_31312))
(assert (let ((.def_6163 ((_ sign_extend 24) p1_old)))(let ((.def_6078 ((_ sign_extend 24) id3)))(let ((.def_31314 (= .def_6078 .def_6163))).def_31314))))
(assert (let ((.def_6094 ((_ sign_extend 24) send5)))(let ((.def_31317 (= .def_6094 |node5::__CPAchecker_TMP_0|))).def_31317)))
(assert (let ((.def_31319 ((_ extract 7 0) |node5::__CPAchecker_TMP_0|)))(let ((.def_31320 (= p5_old .def_31319))).def_31320)))
(assert (let ((.def_6111 ((_ sign_extend 24) nomsg)))(let ((.def_6093 ((_ sign_extend 24) id6)))(let ((.def_31322 (= .def_6093 .def_6111))).def_31322))))
(assert (let ((.def_6123 ((_ sign_extend 24) p4_old)))(let ((.def_6093 ((_ sign_extend 24) id6)))(let ((.def_31324 (= .def_6093 .def_6123))).def_31324))))
(assert (let ((.def_6102 ((_ sign_extend 24) send1)))(let ((.def_31327 (= .def_6102 |node1::__CPAchecker_TMP_0|))).def_31327)))
(assert (let ((.def_31329 ((_ extract 7 0) |node1::__CPAchecker_TMP_0|)))(let ((.def_31330 (= p1_old .def_31329))).def_31330)))
(assert (let ((.def_6147 ((_ sign_extend 24) p7_old)))(let ((.def_6101 ((_ sign_extend 24) id2)))(let ((.def_31332 (= .def_6101 .def_6147))).def_31332))))
(assert (let ((.def_6163 ((_ sign_extend 24) p1_old)))(let ((.def_6101 ((_ sign_extend 24) id2)))(let ((.def_31334 (bvslt .def_6101 .def_6163))).def_31334))))
(assert (let ((.def_6123 ((_ sign_extend 24) p4_old)))(let ((.def_6067 ((_ sign_extend 24) id5)))(let ((.def_31336 (bvslt .def_6067 .def_6123))).def_31336))))
(assert (let ((.def_6155 ((_ sign_extend 24) p3_old)))(let ((.def_6111 ((_ sign_extend 24) nomsg)))(let ((.def_31338 (= .def_6111 .def_6155))).def_31338))))
(assert (let ((.def_6167 ((_ sign_extend 24) p6_old)))(let ((.def_6111 ((_ sign_extend 24) nomsg)))(let ((.def_31340 (= .def_6111 .def_6167))).def_31340))))
(assert (let ((.def_6147 ((_ sign_extend 24) p7_old)))(let ((.def_6111 ((_ sign_extend 24) nomsg)))(let ((.def_31342 (= .def_6111 .def_6147))).def_31342))))
(assert (let ((.def_6163 ((_ sign_extend 24) p1_old)))(let ((.def_6111 ((_ sign_extend 24) nomsg)))(let ((.def_31344 (= .def_6111 .def_6163))).def_31344))))
(assert (let ((.def_6111 ((_ sign_extend 24) nomsg)))(let ((.def_6078 ((_ sign_extend 24) id3)))(let ((.def_31346 (= .def_6078 .def_6111))).def_31346))))
(assert (let ((.def_6123 ((_ sign_extend 24) p4_old)))(let ((.def_6111 ((_ sign_extend 24) nomsg)))(let ((.def_31348 (= .def_6111 .def_6123))).def_31348))))
(assert (let ((.def_31350 (= id7 send6))).def_31350))
(assert (let ((.def_6128 ((_ sign_extend 24) st6)))(let ((.def_6126 ((_ sign_extend 24) st7)))(let ((.def_31352 (= .def_6126 .def_6128))).def_31352))))
(assert (let ((.def_31354 (= send7 id1))).def_31354))
(assert (let ((.def_31356 (= st7 (_ bv1 8)))).def_31356))
(assert (let ((.def_31358 ((_ sign_extend 24) p2_new)))(let ((.def_6080 ((_ sign_extend 24) send2)))(let ((.def_31359 (= .def_6080 .def_31358))).def_31359))))
(assert (let ((.def_31361 (= r1 (_ bv1 8)))).def_31361))
(assert (let ((.def_6129 ((_ sign_extend 24) st5)))(let ((.def_6126 ((_ sign_extend 24) st7)))(let ((.def_31363 (= .def_6126 .def_6129))).def_31363))))
(assert (let ((.def_6151 ((_ sign_extend 24) p2_old)))(let ((.def_6111 ((_ sign_extend 24) nomsg)))(let ((.def_31365 (= .def_6111 .def_6151))).def_31365))))

assert N518:
(assert false)
(assert (let ((.def_3071 (= |assert::arg| (_ bv0 8)))).def_3071))

