(set-info :source |printed by MathSAT|)
(declare-fun c_last_read () (_ BitVec 32))
(declare-fun p_last_write () (_ BitVec 32))
(declare-fun c_num_read () (_ BitVec 32))
(declare-fun p_num_write () (_ BitVec 32))
(declare-fun c_dr_pc () (_ BitVec 32))
(declare-fun q_free () (_ BitVec 32))
(declare-fun q_buf_0 () (_ BitVec 32))
(declare-fun p_dw_pc () (_ BitVec 32))
(declare-fun q_read_ev () (_ BitVec 32))
(declare-fun c_dr_st () (_ BitVec 32))
(declare-fun p_dw_st () (_ BitVec 32))
(declare-fun m_pc () (_ BitVec 32))
(declare-fun t1_pc () (_ BitVec 32))
(declare-fun t2_pc () (_ BitVec 32))
(declare-fun t3_pc () (_ BitVec 32))
(declare-fun t4_pc () (_ BitVec 32))
(declare-fun t5_pc () (_ BitVec 32))
(declare-fun t6_pc () (_ BitVec 32))
(declare-fun t7_pc () (_ BitVec 32))
(declare-fun t8_pc () (_ BitVec 32))
(declare-fun t9_pc () (_ BitVec 32))
(declare-fun t10_pc () (_ BitVec 32))
(declare-fun t11_pc () (_ BitVec 32))
(declare-fun t12_pc () (_ BitVec 32))
(declare-fun m_st () (_ BitVec 32))

*:
(assert (let ((.def_675 (= c_last_read p_last_write))).def_675))
(assert (let ((.def_684 (= c_num_read p_num_write))).def_684))

error1 N4:
(assert false)
(assert (let ((.def_675 (= c_last_read p_last_write))).def_675))
(assert (let ((.def_684 (= c_num_read p_num_write))).def_684))

do_write_p N64:
(assert (let ((.def_1019 (= c_dr_pc (_ bv0 32)))).def_1019))
(assert (let ((.def_675 (= c_last_read p_last_write))).def_675))
(assert (let ((.def_684 (= c_num_read p_num_write))).def_684))
(assert (let ((.def_1122 (= q_free (_ bv1 32)))).def_1122))
(assert false)
(assert (let ((.def_1465 (= p_last_write q_buf_0))).def_1465))
(assert (let ((.def_1125 (= p_dw_pc (_ bv1 32)))).def_1125))
(assert (let ((.def_1654 (bvadd (_ bv1 32) c_num_read)))(let ((.def_1655 (= p_num_write .def_1654))).def_1655)))
(assert (let ((.def_2546 (= q_free (_ bv0 32)))).def_2546))
(assert (let ((.def_1657 (= c_dr_pc (_ bv1 32)))).def_1657))
(assert (let ((.def_5347 (= q_read_ev (_ bv1 32)))).def_5347))

do_read_c N100:
(assert (let ((.def_1125 (= p_dw_pc (_ bv1 32)))).def_1125))
(assert (let ((.def_1122 (= q_free (_ bv1 32)))).def_1122))
(assert (let ((.def_675 (= c_last_read p_last_write))).def_675))
(assert (let ((.def_684 (= c_num_read p_num_write))).def_684))
(assert (let ((.def_1465 (= p_last_write q_buf_0))).def_1465))
(assert (let ((.def_1654 (bvadd (_ bv1 32) c_num_read)))(let ((.def_1655 (= p_num_write .def_1654))).def_1655)))
(assert (let ((.def_1657 (= c_dr_pc (_ bv1 32)))).def_1657))
(assert false)

eval1 N170:
(assert (let ((.def_1019 (= c_dr_pc (_ bv0 32)))).def_1019))
(assert (let ((.def_675 (= c_last_read p_last_write))).def_675))
(assert (let ((.def_684 (= c_num_read p_num_write))).def_684))
(assert (let ((.def_1122 (= q_free (_ bv1 32)))).def_1122))
(assert (let ((.def_1395 (= p_dw_pc (_ bv0 32)))).def_1395))
(assert (let ((.def_1657 (= c_dr_pc (_ bv1 32)))).def_1657))
(assert (let ((.def_3969 (= c_dr_st (_ bv0 32)))).def_3969))
(assert (let ((.def_1125 (= p_dw_pc (_ bv1 32)))).def_1125))
(assert (let ((.def_5347 (= q_read_ev (_ bv1 32)))).def_5347))
(assert (let ((.def_5350 (= p_dw_st (_ bv0 32)))).def_5350))
(assert (let ((.def_1465 (= p_last_write q_buf_0))).def_1465))
(assert (let ((.def_1654 (bvadd (_ bv1 32) c_num_read)))(let ((.def_1655 (= p_num_write .def_1654))).def_1655)))

start_simulation1 N221:
(assert (let ((.def_1019 (= c_dr_pc (_ bv0 32)))).def_1019))
(assert (let ((.def_675 (= c_last_read p_last_write))).def_675))
(assert (let ((.def_684 (= c_num_read p_num_write))).def_684))
(assert (let ((.def_1122 (= q_free (_ bv1 32)))).def_1122))
(assert (let ((.def_1395 (= p_dw_pc (_ bv0 32)))).def_1395))
(assert (let ((.def_5347 (= q_read_ev (_ bv1 32)))).def_5347))

error2 N260:
(assert false)
(assert (let ((.def_675 (= c_last_read p_last_write))).def_675))
(assert (let ((.def_684 (= c_num_read p_num_write))).def_684))

eval2 N988:
(assert (let ((.def_8371 (= m_pc (_ bv0 32)))).def_8371))
(assert (let ((.def_675 (= c_last_read p_last_write))).def_675))
(assert (let ((.def_684 (= c_num_read p_num_write))).def_684))
(assert (let ((.def_20920 (= t1_pc (_ bv0 32)))).def_20920))
(assert (let ((.def_20923 (= t2_pc (_ bv0 32)))).def_20923))
(assert (let ((.def_20926 (= t3_pc (_ bv0 32)))).def_20926))
(assert (let ((.def_20929 (= t4_pc (_ bv0 32)))).def_20929))
(assert (let ((.def_20932 (= t5_pc (_ bv0 32)))).def_20932))
(assert (let ((.def_20935 (= t6_pc (_ bv0 32)))).def_20935))
(assert (let ((.def_20938 (= t7_pc (_ bv0 32)))).def_20938))
(assert (let ((.def_20941 (= t8_pc (_ bv0 32)))).def_20941))
(assert (let ((.def_20944 (= t9_pc (_ bv0 32)))).def_20944))
(assert (let ((.def_20947 (= t10_pc (_ bv0 32)))).def_20947))
(assert (let ((.def_20950 (= t11_pc (_ bv0 32)))).def_20950))
(assert (let ((.def_20953 (= t12_pc (_ bv0 32)))).def_20953))
(assert (let ((.def_20955 (= m_pc (_ bv1 32)))).def_20955))
(assert (let ((.def_20957 (= t1_pc (_ bv1 32)))).def_20957))
(assert (let ((.def_20959 (= t2_pc (_ bv1 32)))).def_20959))
(assert (let ((.def_20961 (= t3_pc (_ bv1 32)))).def_20961))
(assert (let ((.def_20963 (= t4_pc (_ bv1 32)))).def_20963))
(assert (let ((.def_20965 (= t5_pc (_ bv1 32)))).def_20965))
(assert (let ((.def_20967 (= t6_pc (_ bv1 32)))).def_20967))
(assert (let ((.def_20969 (= t7_pc (_ bv1 32)))).def_20969))
(assert (let ((.def_20971 (= t8_pc (_ bv1 32)))).def_20971))
(assert (let ((.def_20973 (= t9_pc (_ bv1 32)))).def_20973))
(assert (let ((.def_20975 (= t10_pc (_ bv1 32)))).def_20975))
(assert (let ((.def_20977 (= t11_pc (_ bv1 32)))).def_20977))
(assert (let ((.def_20979 (= t12_pc (_ bv1 32)))).def_20979))
(assert (let ((.def_20982 (= m_st (_ bv0 32)))).def_20982))

start_simulation2 N1589:
(assert (let ((.def_8371 (= m_pc (_ bv0 32)))).def_8371))
(assert (let ((.def_675 (= c_last_read p_last_write))).def_675))
(assert (let ((.def_684 (= c_num_read p_num_write))).def_684))
(assert (let ((.def_20920 (= t1_pc (_ bv0 32)))).def_20920))
(assert (let ((.def_20923 (= t2_pc (_ bv0 32)))).def_20923))
(assert (let ((.def_20926 (= t3_pc (_ bv0 32)))).def_20926))
(assert (let ((.def_20929 (= t4_pc (_ bv0 32)))).def_20929))
(assert (let ((.def_20932 (= t5_pc (_ bv0 32)))).def_20932))
(assert (let ((.def_20935 (= t6_pc (_ bv0 32)))).def_20935))
(assert (let ((.def_20938 (= t7_pc (_ bv0 32)))).def_20938))
(assert (let ((.def_20941 (= t8_pc (_ bv0 32)))).def_20941))
(assert (let ((.def_20944 (= t9_pc (_ bv0 32)))).def_20944))
(assert (let ((.def_20947 (= t10_pc (_ bv0 32)))).def_20947))
(assert (let ((.def_20950 (= t11_pc (_ bv0 32)))).def_20950))
(assert (let ((.def_20953 (= t12_pc (_ bv0 32)))).def_20953))
(assert (let ((.def_20955 (= m_pc (_ bv1 32)))).def_20955))
(assert (let ((.def_20957 (= t1_pc (_ bv1 32)))).def_20957))
(assert (let ((.def_20959 (= t2_pc (_ bv1 32)))).def_20959))
(assert (let ((.def_20961 (= t3_pc (_ bv1 32)))).def_20961))
(assert (let ((.def_20963 (= t4_pc (_ bv1 32)))).def_20963))
(assert (let ((.def_20965 (= t5_pc (_ bv1 32)))).def_20965))
(assert (let ((.def_20967 (= t6_pc (_ bv1 32)))).def_20967))
(assert (let ((.def_20969 (= t7_pc (_ bv1 32)))).def_20969))
(assert (let ((.def_20971 (= t8_pc (_ bv1 32)))).def_20971))
(assert (let ((.def_20973 (= t9_pc (_ bv1 32)))).def_20973))
(assert (let ((.def_20975 (= t10_pc (_ bv1 32)))).def_20975))
(assert (let ((.def_20977 (= t11_pc (_ bv1 32)))).def_20977))
(assert (let ((.def_20979 (= t12_pc (_ bv1 32)))).def_20979))

