(set-info :source |printed by MathSAT|)
(declare-fun a20 () (_ BitVec 32))
(declare-fun a25 () (_ BitVec 32))
(declare-fun a12 () (_ BitVec 32))
(declare-fun a15 () (_ BitVec 32))
(declare-fun a16 () (_ BitVec 32))
(declare-fun a2 () (_ BitVec 32))
(declare-fun a27 () (_ BitVec 32))
(declare-fun a9 () (_ BitVec 32))

*:
(assert (let ((.def_105737 (= a20 (_ bv5 32)))).def_105737))

calculate_output8 N29569:
(assert false)
(assert (let ((.def_105737 (= a20 (_ bv5 32)))).def_105737))

main1 N30136:
(assert (let ((.def_105737 (= a20 (_ bv5 32)))).def_105737))
(assert (let ((.def_152354 (= a25 (_ bv1 32)))).def_152354))
(assert (let ((.def_152357 (= a12 (_ bv4 32)))).def_152357))
(assert (let ((.def_152360 (= a15 (_ bv1 32)))).def_152360))
(assert (let ((.def_152363 (= a16 (_ bv1 32)))).def_152363))
(assert (let ((.def_152366 (= a2 (_ bv10 32)))).def_152366))
(assert (let ((.def_152369 (= a27 (_ bv1 32)))).def_152369))
(assert (let ((.def_152372 (= a9 (_ bv18 32)))).def_152372))
(assert (let ((.def_317428 (= a20 (_ bv6 32)))).def_317428))
(assert (let ((.def_317430 (= a2 (_ bv13 32)))).def_317430))
(assert (let ((.def_317432 (= a12 (_ bv3 32)))).def_317432))
(assert (let ((.def_317434 (= a12 (_ bv2 32)))).def_317434))
(assert (let ((.def_317436 (= a9 (_ bv16 32)))).def_317436))
(assert (let ((.def_317438 (= a9 (_ bv17 32)))).def_317438))
(assert (let ((.def_990228 (= a20 (_ bv7 32)))).def_990228))
(assert (let ((.def_990230 (= a12 (_ bv6 32)))).def_990230))
(assert (let ((.def_990232 (= a2 (_ bv11 32)))).def_990232))
(assert (let ((.def_990234 (= a2 (_ bv9 32)))).def_990234))
(assert (let ((.def_990236 (= a12 (_ bv5 32)))).def_990236))
(assert (let ((.def_990238 (= a2 (_ bv12 32)))).def_990238))
(assert (let ((.def_990240 (= a15 (_ bv0 32)))).def_990240))

