(set-info :source |printed by MathSAT|)
(declare-fun c_last_read () (_ BitVec 32))
(declare-fun p_last_write () (_ BitVec 32))
(declare-fun c_num_read () (_ BitVec 32))
(declare-fun p_num_write () (_ BitVec 32))
(declare-fun c_dr_pc () (_ BitVec 32))
(declare-fun q_free () (_ BitVec 32))
(declare-fun q_buf_0 () (_ BitVec 32))
(declare-fun p_dw_pc () (_ BitVec 32))
(declare-fun q_read_ev () (_ BitVec 32))
(declare-fun c_dr_st () (_ BitVec 32))
(declare-fun p_dw_st () (_ BitVec 32))
(declare-fun m_pc () (_ BitVec 32))
(declare-fun t1_pc () (_ BitVec 32))
(declare-fun t2_pc () (_ BitVec 32))
(declare-fun t3_pc () (_ BitVec 32))
(declare-fun t4_pc () (_ BitVec 32))
(declare-fun t5_pc () (_ BitVec 32))
(declare-fun m_st () (_ BitVec 32))

*:
(assert (let ((.def_570 (= c_last_read p_last_write))).def_570))
(assert (let ((.def_579 (= c_num_read p_num_write))).def_579))

error1 N4:
(assert false)
(assert (let ((.def_570 (= c_last_read p_last_write))).def_570))
(assert (let ((.def_579 (= c_num_read p_num_write))).def_579))

do_write_p N64:
(assert (let ((.def_914 (= c_dr_pc (_ bv0 32)))).def_914))
(assert (let ((.def_570 (= c_last_read p_last_write))).def_570))
(assert (let ((.def_579 (= c_num_read p_num_write))).def_579))
(assert (let ((.def_1017 (= q_free (_ bv1 32)))).def_1017))
(assert false)
(assert (let ((.def_1360 (= p_last_write q_buf_0))).def_1360))
(assert (let ((.def_1020 (= p_dw_pc (_ bv1 32)))).def_1020))
(assert (let ((.def_1549 (bvadd (_ bv1 32) c_num_read)))(let ((.def_1550 (= p_num_write .def_1549))).def_1550)))
(assert (let ((.def_2441 (= q_free (_ bv0 32)))).def_2441))
(assert (let ((.def_1552 (= c_dr_pc (_ bv1 32)))).def_1552))
(assert (let ((.def_5242 (= q_read_ev (_ bv1 32)))).def_5242))

do_read_c N100:
(assert (let ((.def_1020 (= p_dw_pc (_ bv1 32)))).def_1020))
(assert (let ((.def_1017 (= q_free (_ bv1 32)))).def_1017))
(assert (let ((.def_570 (= c_last_read p_last_write))).def_570))
(assert (let ((.def_579 (= c_num_read p_num_write))).def_579))
(assert (let ((.def_1360 (= p_last_write q_buf_0))).def_1360))
(assert (let ((.def_1549 (bvadd (_ bv1 32) c_num_read)))(let ((.def_1550 (= p_num_write .def_1549))).def_1550)))
(assert (let ((.def_1552 (= c_dr_pc (_ bv1 32)))).def_1552))
(assert false)

eval1 N170:
(assert (let ((.def_914 (= c_dr_pc (_ bv0 32)))).def_914))
(assert (let ((.def_570 (= c_last_read p_last_write))).def_570))
(assert (let ((.def_579 (= c_num_read p_num_write))).def_579))
(assert (let ((.def_1017 (= q_free (_ bv1 32)))).def_1017))
(assert (let ((.def_1290 (= p_dw_pc (_ bv0 32)))).def_1290))
(assert (let ((.def_1552 (= c_dr_pc (_ bv1 32)))).def_1552))
(assert (let ((.def_3864 (= c_dr_st (_ bv0 32)))).def_3864))
(assert (let ((.def_1020 (= p_dw_pc (_ bv1 32)))).def_1020))
(assert (let ((.def_5242 (= q_read_ev (_ bv1 32)))).def_5242))
(assert (let ((.def_5245 (= p_dw_st (_ bv0 32)))).def_5245))
(assert (let ((.def_1360 (= p_last_write q_buf_0))).def_1360))
(assert (let ((.def_1549 (bvadd (_ bv1 32) c_num_read)))(let ((.def_1550 (= p_num_write .def_1549))).def_1550)))

start_simulation1 N221:
(assert (let ((.def_914 (= c_dr_pc (_ bv0 32)))).def_914))
(assert (let ((.def_570 (= c_last_read p_last_write))).def_570))
(assert (let ((.def_579 (= c_num_read p_num_write))).def_579))
(assert (let ((.def_1017 (= q_free (_ bv1 32)))).def_1017))
(assert (let ((.def_1290 (= p_dw_pc (_ bv0 32)))).def_1290))
(assert (let ((.def_5242 (= q_read_ev (_ bv1 32)))).def_5242))

error2 N260:
(assert false)
(assert (let ((.def_570 (= c_last_read p_last_write))).def_570))
(assert (let ((.def_579 (= c_num_read p_num_write))).def_579))

eval2 N623:
(assert (let ((.def_7457 (= m_pc (_ bv0 32)))).def_7457))
(assert (let ((.def_570 (= c_last_read p_last_write))).def_570))
(assert (let ((.def_579 (= c_num_read p_num_write))).def_579))
(assert (let ((.def_10633 (= t1_pc (_ bv0 32)))).def_10633))
(assert (let ((.def_10636 (= t2_pc (_ bv0 32)))).def_10636))
(assert (let ((.def_10639 (= t3_pc (_ bv0 32)))).def_10639))
(assert (let ((.def_10642 (= t4_pc (_ bv0 32)))).def_10642))
(assert (let ((.def_10645 (= t5_pc (_ bv0 32)))).def_10645))
(assert (let ((.def_10647 (= m_pc (_ bv1 32)))).def_10647))
(assert (let ((.def_10649 (= t1_pc (_ bv1 32)))).def_10649))
(assert (let ((.def_10651 (= t2_pc (_ bv1 32)))).def_10651))
(assert (let ((.def_10653 (= t3_pc (_ bv1 32)))).def_10653))
(assert (let ((.def_10655 (= t4_pc (_ bv1 32)))).def_10655))
(assert (let ((.def_10657 (= t5_pc (_ bv1 32)))).def_10657))
(assert (let ((.def_10660 (= m_st (_ bv0 32)))).def_10660))

start_simulation2 N937:
(assert (let ((.def_7457 (= m_pc (_ bv0 32)))).def_7457))
(assert (let ((.def_570 (= c_last_read p_last_write))).def_570))
(assert (let ((.def_579 (= c_num_read p_num_write))).def_579))
(assert (let ((.def_10633 (= t1_pc (_ bv0 32)))).def_10633))
(assert (let ((.def_10636 (= t2_pc (_ bv0 32)))).def_10636))
(assert (let ((.def_10639 (= t3_pc (_ bv0 32)))).def_10639))
(assert (let ((.def_10642 (= t4_pc (_ bv0 32)))).def_10642))
(assert (let ((.def_10645 (= t5_pc (_ bv0 32)))).def_10645))
(assert (let ((.def_10647 (= m_pc (_ bv1 32)))).def_10647))
(assert (let ((.def_10649 (= t1_pc (_ bv1 32)))).def_10649))
(assert (let ((.def_10651 (= t2_pc (_ bv1 32)))).def_10651))
(assert (let ((.def_10653 (= t3_pc (_ bv1 32)))).def_10653))
(assert (let ((.def_10655 (= t4_pc (_ bv1 32)))).def_10655))
(assert (let ((.def_10657 (= t5_pc (_ bv1 32)))).def_10657))

