(set-info :source |printed by MathSAT|)
(declare-fun a20 () (_ BitVec 32))
(declare-fun a25 () (_ BitVec 32))
(declare-fun a12 () (_ BitVec 32))
(declare-fun a15 () (_ BitVec 32))
(declare-fun a16 () (_ BitVec 32))
(declare-fun a2 () (_ BitVec 32))
(declare-fun a27 () (_ BitVec 32))
(declare-fun a9 () (_ BitVec 32))
(declare-fun m_pc () (_ BitVec 32))
(declare-fun t1_pc () (_ BitVec 32))
(declare-fun t2_pc () (_ BitVec 32))
(declare-fun t3_pc () (_ BitVec 32))
(declare-fun t4_pc () (_ BitVec 32))
(declare-fun t5_pc () (_ BitVec 32))
(declare-fun t6_pc () (_ BitVec 32))
(declare-fun t7_pc () (_ BitVec 32))
(declare-fun t8_pc () (_ BitVec 32))
(declare-fun t9_pc () (_ BitVec 32))
(declare-fun t10_pc () (_ BitVec 32))
(declare-fun m_st () (_ BitVec 32))
(declare-fun E_8 () (_ BitVec 32))
(declare-fun E_7 () (_ BitVec 32))
(declare-fun E_6 () (_ BitVec 32))
(declare-fun E_5 () (_ BitVec 32))
(declare-fun E_4 () (_ BitVec 32))
(declare-fun E_3 () (_ BitVec 32))
(declare-fun E_2 () (_ BitVec 32))
(declare-fun E_M () (_ BitVec 32))
(declare-fun E_10 () (_ BitVec 32))
(declare-fun E_9 () (_ BitVec 32))
(declare-fun t2_st () (_ BitVec 32))
(declare-fun t3_st () (_ BitVec 32))
(declare-fun t6_st () (_ BitVec 32))
(declare-fun t4_st () (_ BitVec 32))
(declare-fun t7_st () (_ BitVec 32))
(declare-fun t5_st () (_ BitVec 32))
(declare-fun t1_st () (_ BitVec 32))
(declare-fun t8_st () (_ BitVec 32))
(declare-fun t9_st () (_ BitVec 32))
(declare-fun t10_st () (_ BitVec 32))
(declare-fun E_1 () (_ BitVec 32))
(declare-fun local () (_ BitVec 32))
(declare-fun token () (_ BitVec 32))

*:
(assert (let ((.def_107336 (= a20 (_ bv5 32)))).def_107336))

calculate_output8 N29965:
(assert false)
(assert (let ((.def_107336 (= a20 (_ bv5 32)))).def_107336))

main1 N30136:
(assert (let ((.def_107336 (= a20 (_ bv5 32)))).def_107336))
(assert (let ((.def_154762 (= a25 (_ bv1 32)))).def_154762))
(assert (let ((.def_154765 (= a12 (_ bv4 32)))).def_154765))
(assert (let ((.def_154768 (= a15 (_ bv1 32)))).def_154768))
(assert (let ((.def_154771 (= a16 (_ bv1 32)))).def_154771))
(assert (let ((.def_154774 (= a2 (_ bv10 32)))).def_154774))
(assert (let ((.def_154777 (= a27 (_ bv1 32)))).def_154777))
(assert (let ((.def_154780 (= a9 (_ bv18 32)))).def_154780))
(assert (let ((.def_320727 (= a9 (_ bv17 32)))).def_320727))
(assert (let ((.def_320729 (= a2 (_ bv12 32)))).def_320729))
(assert (let ((.def_320731 (= a2 (_ bv11 32)))).def_320731))
(assert (let ((.def_320733 (= a2 (_ bv9 32)))).def_320733))
(assert (let ((.def_320735 (= a12 (_ bv3 32)))).def_320735))
(assert (let ((.def_320737 (= a20 (_ bv6 32)))).def_320737))
(assert (let ((.def_320739 (= a2 (_ bv13 32)))).def_320739))
(assert (let ((.def_320741 (= a9 (_ bv16 32)))).def_320741))
(assert (let ((.def_1060467 (= a12 (_ bv5 32)))).def_1060467))
(assert (let ((.def_1060469 (= a12 (_ bv6 32)))).def_1060469))
(assert (let ((.def_1060471 (= a12 (_ bv2 32)))).def_1060471))
(assert (let ((.def_1060473 (= a20 (_ bv7 32)))).def_1060473))

error N30154:
(assert false)
(assert (let ((.def_107336 (= a20 (_ bv5 32)))).def_107336))

eval N30774:
(assert (let ((.def_1202303 (= m_pc (_ bv0 32)))).def_1202303))
(assert (let ((.def_107336 (= a20 (_ bv5 32)))).def_107336))
(assert (let ((.def_1211527 (= t1_pc (_ bv0 32)))).def_1211527))
(assert (let ((.def_1211530 (= t2_pc (_ bv0 32)))).def_1211530))
(assert (let ((.def_1211533 (= t3_pc (_ bv0 32)))).def_1211533))
(assert (let ((.def_1211536 (= t4_pc (_ bv0 32)))).def_1211536))
(assert (let ((.def_1211539 (= t5_pc (_ bv0 32)))).def_1211539))
(assert (let ((.def_1211542 (= t6_pc (_ bv0 32)))).def_1211542))
(assert (let ((.def_1211545 (= t7_pc (_ bv0 32)))).def_1211545))
(assert (let ((.def_1211548 (= t8_pc (_ bv0 32)))).def_1211548))
(assert (let ((.def_1211551 (= t9_pc (_ bv0 32)))).def_1211551))
(assert (let ((.def_1211554 (= t10_pc (_ bv0 32)))).def_1211554))
(assert (let ((.def_1211556 (= m_pc (_ bv1 32)))).def_1211556))
(assert (let ((.def_1211558 (= t1_pc (_ bv1 32)))).def_1211558))
(assert (let ((.def_1211560 (= t2_pc (_ bv1 32)))).def_1211560))
(assert (let ((.def_1211562 (= t3_pc (_ bv1 32)))).def_1211562))
(assert (let ((.def_1211564 (= t4_pc (_ bv1 32)))).def_1211564))
(assert (let ((.def_1211566 (= t5_pc (_ bv1 32)))).def_1211566))
(assert (let ((.def_1211568 (= t6_pc (_ bv1 32)))).def_1211568))
(assert (let ((.def_1211570 (= t7_pc (_ bv1 32)))).def_1211570))
(assert (let ((.def_1211572 (= t8_pc (_ bv1 32)))).def_1211572))
(assert (let ((.def_1211574 (= t9_pc (_ bv1 32)))).def_1211574))
(assert (let ((.def_1211576 (= t10_pc (_ bv1 32)))).def_1211576))
(assert (let ((.def_1211579 (= m_st (_ bv0 32)))).def_1211579))
(assert (let ((.def_1263059 (= E_8 (_ bv1 32)))).def_1263059))
(assert (let ((.def_1263062 (= E_7 (_ bv1 32)))).def_1263062))
(assert (let ((.def_1263065 (= E_6 (_ bv1 32)))).def_1263065))
(assert (let ((.def_1263068 (= E_5 (_ bv1 32)))).def_1263068))
(assert (let ((.def_1263071 (= E_4 (_ bv1 32)))).def_1263071))
(assert (let ((.def_1263074 (= E_3 (_ bv1 32)))).def_1263074))
(assert (let ((.def_1263077 (= E_2 (_ bv1 32)))).def_1263077))
(assert (let ((.def_1263080 (= E_M (_ bv1 32)))).def_1263080))
(assert (let ((.def_1263083 (= E_10 (_ bv1 32)))).def_1263083))
(assert (let ((.def_1263086 (= E_9 (_ bv1 32)))).def_1263086))
(assert (let ((.def_1263089 (= t2_st (_ bv0 32)))).def_1263089))
(assert (let ((.def_1263092 (= t3_st (_ bv0 32)))).def_1263092))
(assert (let ((.def_1263095 (= t6_st (_ bv0 32)))).def_1263095))
(assert (let ((.def_1263098 (= t4_st (_ bv0 32)))).def_1263098))
(assert (let ((.def_1263101 (= t7_st (_ bv0 32)))).def_1263101))
(assert (let ((.def_1263104 (= t5_st (_ bv0 32)))).def_1263104))
(assert (let ((.def_1263107 (= t1_st (_ bv0 32)))).def_1263107))
(assert (let ((.def_1263110 (= t8_st (_ bv0 32)))).def_1263110))
(assert (let ((.def_1263113 (= t9_st (_ bv0 32)))).def_1263113))
(assert (let ((.def_1263116 (= t10_st (_ bv0 32)))).def_1263116))
(assert (let ((.def_1263119 (= E_1 (_ bv1 32)))).def_1263119))
(assert (let ((.def_1263122 (bvadd (_ bv10 32) local)))(let ((.def_1263124 (= .def_1263122 token))).def_1263124)))

start_simulation N31293:
(assert (let ((.def_1202303 (= m_pc (_ bv0 32)))).def_1202303))
(assert (let ((.def_107336 (= a20 (_ bv5 32)))).def_107336))
(assert (let ((.def_1211527 (= t1_pc (_ bv0 32)))).def_1211527))
(assert (let ((.def_1211530 (= t2_pc (_ bv0 32)))).def_1211530))
(assert (let ((.def_1211533 (= t3_pc (_ bv0 32)))).def_1211533))
(assert (let ((.def_1211536 (= t4_pc (_ bv0 32)))).def_1211536))
(assert (let ((.def_1211539 (= t5_pc (_ bv0 32)))).def_1211539))
(assert (let ((.def_1211542 (= t6_pc (_ bv0 32)))).def_1211542))
(assert (let ((.def_1211545 (= t7_pc (_ bv0 32)))).def_1211545))
(assert (let ((.def_1211548 (= t8_pc (_ bv0 32)))).def_1211548))
(assert (let ((.def_1211551 (= t9_pc (_ bv0 32)))).def_1211551))
(assert (let ((.def_1211554 (= t10_pc (_ bv0 32)))).def_1211554))
(assert (let ((.def_1211556 (= m_pc (_ bv1 32)))).def_1211556))
(assert (let ((.def_1211558 (= t1_pc (_ bv1 32)))).def_1211558))
(assert (let ((.def_1211560 (= t2_pc (_ bv1 32)))).def_1211560))
(assert (let ((.def_1211562 (= t3_pc (_ bv1 32)))).def_1211562))
(assert (let ((.def_1211564 (= t4_pc (_ bv1 32)))).def_1211564))
(assert (let ((.def_1211566 (= t5_pc (_ bv1 32)))).def_1211566))
(assert (let ((.def_1211568 (= t6_pc (_ bv1 32)))).def_1211568))
(assert (let ((.def_1211570 (= t7_pc (_ bv1 32)))).def_1211570))
(assert (let ((.def_1211572 (= t8_pc (_ bv1 32)))).def_1211572))
(assert (let ((.def_1211574 (= t9_pc (_ bv1 32)))).def_1211574))
(assert (let ((.def_1211576 (= t10_pc (_ bv1 32)))).def_1211576))
(assert (let ((.def_1263059 (= E_8 (_ bv1 32)))).def_1263059))
(assert (let ((.def_1263062 (= E_7 (_ bv1 32)))).def_1263062))
(assert (let ((.def_1263065 (= E_6 (_ bv1 32)))).def_1263065))
(assert (let ((.def_1263068 (= E_5 (_ bv1 32)))).def_1263068))
(assert (let ((.def_1263071 (= E_4 (_ bv1 32)))).def_1263071))
(assert (let ((.def_1263074 (= E_3 (_ bv1 32)))).def_1263074))
(assert (let ((.def_1263077 (= E_2 (_ bv1 32)))).def_1263077))
(assert (let ((.def_1263080 (= E_M (_ bv1 32)))).def_1263080))
(assert (let ((.def_1263083 (= E_10 (_ bv1 32)))).def_1263083))
(assert (let ((.def_1263086 (= E_9 (_ bv1 32)))).def_1263086))
(assert (let ((.def_1211579 (= m_st (_ bv0 32)))).def_1211579))

