(set-info :source |printed by MathSAT|)
(declare-fun |assert::arg| () (_ BitVec 8))
(declare-fun st1 () (_ BitVec 8))
(declare-fun st2 () (_ BitVec 8))
(declare-fun st3 () (_ BitVec 8))
(declare-fun st4 () (_ BitVec 8))
(declare-fun st5 () (_ BitVec 8))
(declare-fun st6 () (_ BitVec 8))
(declare-fun r1 () (_ BitVec 8))
(declare-fun p4_new () (_ BitVec 8))
(declare-fun nomsg () (_ BitVec 8))
(declare-fun p3_new () (_ BitVec 8))
(declare-fun p2_new () (_ BitVec 8))
(declare-fun p5_new () (_ BitVec 8))
(declare-fun mode1 () (_ BitVec 8))
(declare-fun mode2 () (_ BitVec 8))
(declare-fun mode3 () (_ BitVec 8))
(declare-fun mode4 () (_ BitVec 8))
(declare-fun mode5 () (_ BitVec 8))
(declare-fun mode6 () (_ BitVec 8))
(declare-fun id4 () (_ BitVec 8))
(declare-fun send3 () (_ BitVec 8))
(declare-fun send6 () (_ BitVec 8))
(declare-fun id1 () (_ BitVec 8))
(declare-fun id3 () (_ BitVec 8))
(declare-fun send2 () (_ BitVec 8))
(declare-fun id5 () (_ BitVec 8))
(declare-fun send4 () (_ BitVec 8))
(declare-fun id2 () (_ BitVec 8))
(declare-fun send1 () (_ BitVec 8))
(declare-fun id6 () (_ BitVec 8))
(declare-fun send5 () (_ BitVec 8))
(declare-fun p6_new () (_ BitVec 8))
(declare-fun p1_new () (_ BitVec 8))
(declare-fun p3_old () (_ BitVec 8))
(declare-fun p6_old () (_ BitVec 8))
(declare-fun p2_old () (_ BitVec 8))
(declare-fun p4_old () (_ BitVec 8))
(declare-fun p1_old () (_ BitVec 8))
(declare-fun p5_old () (_ BitVec 8))
(declare-fun |node3::__CPAchecker_TMP_0| () (_ BitVec 32))
(declare-fun |node1::__CPAchecker_TMP_0| () (_ BitVec 32))
(declare-fun |node6::__CPAchecker_TMP_0| () (_ BitVec 32))
(declare-fun |node5::__CPAchecker_TMP_0| () (_ BitVec 32))
(declare-fun |node2::__CPAchecker_TMP_0| () (_ BitVec 32))

assert:
(assert (let ((.def_2626 (= |assert::arg| (_ bv0 8)))).def_2626))

main1 N413:
(assert (let ((.def_2951 (= st1 (_ bv0 8)))).def_2951))
(assert (let ((.def_2954 (= st2 (_ bv0 8)))).def_2954))
(assert (let ((.def_2957 (= st3 (_ bv0 8)))).def_2957))
(assert (let ((.def_2960 (= st4 (_ bv0 8)))).def_2960))
(assert (let ((.def_2963 (= st5 (_ bv0 8)))).def_2963))
(assert (let ((.def_2966 (= st6 (_ bv0 8)))).def_2966))
(assert (let ((.def_2969 (= r1 (_ bv0 8)))).def_2969))
(assert (let ((.def_2973 (= p4_new nomsg))).def_2973))
(assert (let ((.def_2976 (= nomsg p3_new))).def_2976))
(assert (let ((.def_2979 (= nomsg p2_new))).def_2979))
(assert (let ((.def_2982 (= nomsg p5_new))).def_2982))
(assert (let ((.def_2985 (= mode1 (_ bv0 8)))).def_2985))
(assert (let ((.def_2988 (= mode2 (_ bv0 8)))).def_2988))
(assert (let ((.def_2991 (= mode3 (_ bv0 8)))).def_2991))
(assert (let ((.def_2994 (= mode4 (_ bv0 8)))).def_2994))
(assert (let ((.def_2997 (= mode5 (_ bv0 8)))).def_2997))
(assert (let ((.def_3000 (= mode6 (_ bv0 8)))).def_3000))
(assert (let ((.def_5217 (= st1 st6))).def_5217))
(assert (let ((.def_5219 (= st2 st6))).def_5219))
(assert (let ((.def_5221 (= st3 st6))).def_5221))
(assert (let ((.def_5223 (= st4 st6))).def_5223))
(assert (let ((.def_5225 (= st5 st6))).def_5225))
(assert (let ((.def_5229 (= id4 send3))).def_5229))
(assert (let ((.def_5232 ((_ sign_extend 24) send3)))(let ((.def_5231 ((_ sign_extend 24) id4)))(let ((.def_5233 (= .def_5231 .def_5232))).def_5233))))
(assert (let ((.def_5238 ((_ sign_extend 24) id1)))(let ((.def_5236 ((_ sign_extend 24) send6)))(let ((.def_5239 (= .def_5236 .def_5238))).def_5239))))
(assert (let ((.def_5243 (= id3 send2))).def_5243))
(assert (let ((.def_5246 ((_ sign_extend 24) send2)))(let ((.def_5245 ((_ sign_extend 24) id3)))(let ((.def_5247 (= .def_5245 .def_5246))).def_5247))))
(assert (let ((.def_5251 (= id5 send4))).def_5251))
(assert (let ((.def_5254 ((_ sign_extend 24) send4)))(let ((.def_5253 ((_ sign_extend 24) id5)))(let ((.def_5255 (= .def_5253 .def_5254))).def_5255))))
(assert (let ((.def_5260 ((_ sign_extend 24) send1)))(let ((.def_5258 ((_ sign_extend 24) id2)))(let ((.def_5261 (= .def_5258 .def_5260))).def_5261))))
(assert (let ((.def_5265 (= id6 send5))).def_5265))
(assert (let ((.def_5268 ((_ sign_extend 24) send5)))(let ((.def_5267 ((_ sign_extend 24) id6)))(let ((.def_5269 (= .def_5267 .def_5268))).def_5269))))
(assert (let ((.def_5271 ((_ sign_extend 24) nomsg)))(let ((.def_5246 ((_ sign_extend 24) send2)))(let ((.def_5272 (= .def_5246 .def_5271))).def_5272))))
(assert (let ((.def_5271 ((_ sign_extend 24) nomsg)))(let ((.def_5232 ((_ sign_extend 24) send3)))(let ((.def_5274 (= .def_5232 .def_5271))).def_5274))))
(assert (let ((.def_5277 (= nomsg p6_new))).def_5277))
(assert (let ((.def_5280 (= nomsg p1_new))).def_5280))
(assert (let ((.def_5283 ((_ sign_extend 24) p3_old)))(let ((.def_5231 ((_ sign_extend 24) id4)))(let ((.def_5284 (= .def_5231 .def_5283))).def_5284))))
(assert (let ((.def_5292 ((_ sign_extend 24) st1)))(let ((.def_5291 ((_ sign_extend 24) st2)))(let ((.def_5294 (bvadd .def_5291 .def_5292)))(let ((.def_5290 ((_ sign_extend 24) st3)))(let ((.def_5296 (bvadd .def_5290 .def_5294)))(let ((.def_5289 ((_ sign_extend 24) st4)))(let ((.def_5298 (bvadd .def_5289 .def_5296)))(let ((.def_5288 ((_ sign_extend 24) st5)))(let ((.def_5300 (bvadd .def_5288 .def_5298)))(let ((.def_5286 ((_ sign_extend 24) st6)))(let ((.def_5287 (bvneg .def_5286)))(let ((.def_5301 (= .def_5287 .def_5300))).def_5301)))))))))))))
(assert (let ((.def_5304 ((_ sign_extend 24) p6_old)))(let ((.def_5238 ((_ sign_extend 24) id1)))(let ((.def_5305 (= .def_5238 .def_5304))).def_5305))))
(assert (let ((.def_5308 ((_ sign_extend 24) p2_old)))(let ((.def_5245 ((_ sign_extend 24) id3)))(let ((.def_5309 (= .def_5245 .def_5308))).def_5309))))
(assert (let ((.def_5312 ((_ sign_extend 24) p4_old)))(let ((.def_5253 ((_ sign_extend 24) id5)))(let ((.def_5313 (= .def_5253 .def_5312))).def_5313))))
(assert (let ((.def_5316 ((_ sign_extend 24) p1_old)))(let ((.def_5258 ((_ sign_extend 24) id2)))(let ((.def_5317 (= .def_5258 .def_5316))).def_5317))))
(assert (let ((.def_5320 ((_ sign_extend 24) p5_old)))(let ((.def_5267 ((_ sign_extend 24) id6)))(let ((.def_5321 (= .def_5267 .def_5320))).def_5321))))
(assert (let ((.def_5292 ((_ sign_extend 24) st1)))(let ((.def_5289 ((_ sign_extend 24) st4)))(let ((.def_11676 (= .def_5289 .def_5292))).def_11676))))
(assert (let ((.def_5292 ((_ sign_extend 24) st1)))(let ((.def_5288 ((_ sign_extend 24) st5)))(let ((.def_11678 (= .def_5288 .def_5292))).def_11678))))
(assert (let ((.def_5291 ((_ sign_extend 24) st2)))(let ((.def_5290 ((_ sign_extend 24) st3)))(let ((.def_11680 (= .def_5290 .def_5291))).def_11680))))
(assert (let ((.def_11682 (= st4 (_ bv1 8)))).def_11682))
(assert (let ((.def_11684 (= st5 (_ bv1 8)))).def_11684))
(assert (let ((.def_11686 (= st1 (_ bv1 8)))).def_11686))
(assert (let ((.def_5291 ((_ sign_extend 24) st2)))(let ((.def_5289 ((_ sign_extend 24) st4)))(let ((.def_11688 (= .def_5289 .def_5291))).def_11688))))
(assert (let ((.def_5290 ((_ sign_extend 24) st3)))(let ((.def_5288 ((_ sign_extend 24) st5)))(let ((.def_11690 (= .def_5288 .def_5290))).def_11690))))
(assert (let ((.def_11692 (= st3 (_ bv1 8)))).def_11692))
(assert (let ((.def_5289 ((_ sign_extend 24) st4)))(let ((.def_5288 ((_ sign_extend 24) st5)))(let ((.def_11694 (= .def_5288 .def_5289))).def_11694))))
(assert (let ((.def_5292 ((_ sign_extend 24) st1)))(let ((.def_5291 ((_ sign_extend 24) st2)))(let ((.def_11696 (= .def_5291 .def_5292))).def_11696))))
(assert (let ((.def_5291 ((_ sign_extend 24) st2)))(let ((.def_5288 ((_ sign_extend 24) st5)))(let ((.def_11698 (= .def_5288 .def_5291))).def_11698))))
(assert (let ((.def_11700 (= st2 (_ bv1 8)))).def_11700))
(assert (let ((.def_5290 ((_ sign_extend 24) st3)))(let ((.def_5289 ((_ sign_extend 24) st4)))(let ((.def_11702 (= .def_5289 .def_5290))).def_11702))))
(assert (let ((.def_5292 ((_ sign_extend 24) st1)))(let ((.def_5290 ((_ sign_extend 24) st3)))(let ((.def_11704 (= .def_5290 .def_5292))).def_11704))))
(assert (let ((.def_11706 ((_ zero_extend 24) r1)))(let ((.def_11707 (bvslt .def_11706 (_ bv6 32)))).def_11707)))
(assert (let ((.def_5292 ((_ sign_extend 24) st1)))(let ((.def_5291 ((_ sign_extend 24) st2)))(let ((.def_5294 (bvadd .def_5291 .def_5292)))(let ((.def_5290 ((_ sign_extend 24) st3)))(let ((.def_5296 (bvadd .def_5290 .def_5294)))(let ((.def_5289 ((_ sign_extend 24) st4)))(let ((.def_5298 (bvadd .def_5289 .def_5296)))(let ((.def_5288 ((_ sign_extend 24) st5)))(let ((.def_5300 (bvadd .def_5288 .def_5298)))(let ((.def_5286 ((_ sign_extend 24) st6)))(let ((.def_11710 (bvadd .def_5286 .def_5300)))(let ((.def_11711 (= .def_11710 (_ bv1 32)))).def_11711)))))))))))))
(assert (let ((.def_5232 ((_ sign_extend 24) send3)))(let ((.def_5231 ((_ sign_extend 24) id4)))(let ((.def_20188 (bvslt .def_5231 .def_5232))).def_20188))))
(assert (let ((.def_5246 ((_ sign_extend 24) send2)))(let ((.def_5231 ((_ sign_extend 24) id4)))(let ((.def_20190 (= .def_5231 .def_5246))).def_20190))))
(assert (let ((.def_5260 ((_ sign_extend 24) send1)))(let ((.def_5258 ((_ sign_extend 24) id2)))(let ((.def_20192 (bvslt .def_5258 .def_5260))).def_20192))))
(assert (let ((.def_5260 ((_ sign_extend 24) send1)))(let ((.def_5238 ((_ sign_extend 24) id1)))(let ((.def_20194 (= .def_5238 .def_5260))).def_20194))))
(assert (let ((.def_5258 ((_ sign_extend 24) id2)))(let ((.def_5236 ((_ sign_extend 24) send6)))(let ((.def_20196 (= .def_5236 .def_5258))).def_20196))))
(assert (let ((.def_5236 ((_ sign_extend 24) send6)))(let ((.def_5238 ((_ sign_extend 24) id1)))(let ((.def_20198 (bvslt .def_5238 .def_5236))).def_20198))))
(assert (let ((.def_5268 ((_ sign_extend 24) send5)))(let ((.def_5238 ((_ sign_extend 24) id1)))(let ((.def_20200 (= .def_5238 .def_5268))).def_20200))))
(assert (let ((.def_5238 ((_ sign_extend 24) id1)))(let ((.def_20202 ((_ extract 31 31) .def_5238)))(let ((.def_20203 (= .def_20202 (_ bv1 1)))).def_20203))))
(assert (let ((.def_20205 (= nomsg (_ bv255 8)))).def_20205))
(assert (let ((.def_5254 ((_ sign_extend 24) send4)))(let ((.def_5253 ((_ sign_extend 24) id5)))(let ((.def_20207 (bvslt .def_5253 .def_5254))).def_20207))))
(assert (let ((.def_5268 ((_ sign_extend 24) send5)))(let ((.def_5253 ((_ sign_extend 24) id5)))(let ((.def_20209 (= .def_5253 .def_5268))).def_20209))))
(assert (let ((.def_5253 ((_ sign_extend 24) id5)))(let ((.def_5232 ((_ sign_extend 24) send3)))(let ((.def_20211 (= .def_5232 .def_5253))).def_20211))))
(assert (let ((.def_5268 ((_ sign_extend 24) send5)))(let ((.def_5267 ((_ sign_extend 24) id6)))(let ((.def_20213 (bvslt .def_5267 .def_5268))).def_20213))))
(assert (let ((.def_5267 ((_ sign_extend 24) id6)))(let ((.def_5236 ((_ sign_extend 24) send6)))(let ((.def_20215 (= .def_5236 .def_5267))).def_20215))))
(assert (let ((.def_5267 ((_ sign_extend 24) id6)))(let ((.def_5254 ((_ sign_extend 24) send4)))(let ((.def_20217 (= .def_5254 .def_5267))).def_20217))))
(assert (let ((.def_5246 ((_ sign_extend 24) send2)))(let ((.def_5245 ((_ sign_extend 24) id3)))(let ((.def_20219 (bvslt .def_5245 .def_5246))).def_20219))))
(assert (let ((.def_5260 ((_ sign_extend 24) send1)))(let ((.def_5245 ((_ sign_extend 24) id3)))(let ((.def_20221 (= .def_5245 .def_5260))).def_20221))))
(assert (let ((.def_20223 ((_ sign_extend 24) p6_new)))(let ((.def_5236 ((_ sign_extend 24) send6)))(let ((.def_20224 (= .def_5236 .def_20223))).def_20224))))
(assert (let ((.def_5254 ((_ sign_extend 24) send4)))(let ((.def_5231 ((_ sign_extend 24) id4)))(let ((.def_20226 (= .def_5231 .def_5254))).def_20226))))
(assert (let ((.def_5271 ((_ sign_extend 24) nomsg)))(let ((.def_5254 ((_ sign_extend 24) send4)))(let ((.def_20228 (= .def_5254 .def_5271))).def_20228))))
(assert (let ((.def_5258 ((_ sign_extend 24) id2)))(let ((.def_5246 ((_ sign_extend 24) send2)))(let ((.def_20230 (= .def_5246 .def_5258))).def_20230))))
(assert (let ((.def_5271 ((_ sign_extend 24) nomsg)))(let ((.def_5268 ((_ sign_extend 24) send5)))(let ((.def_20232 (= .def_5268 .def_5271))).def_20232))))
(assert (let ((.def_5271 ((_ sign_extend 24) nomsg)))(let ((.def_5231 ((_ sign_extend 24) id4)))(let ((.def_20234 (= .def_5231 .def_5271))).def_20234))))
(assert (let ((.def_5232 ((_ sign_extend 24) send3)))(let ((.def_20237 (= .def_5232 |node3::__CPAchecker_TMP_0|))).def_20237)))
(assert (let ((.def_20239 ((_ extract 7 0) |node3::__CPAchecker_TMP_0|)))(let ((.def_20240 (= p3_old .def_20239))).def_20240)))
(assert (let ((.def_5283 ((_ sign_extend 24) p3_old)))(let ((.def_5231 ((_ sign_extend 24) id4)))(let ((.def_20242 (bvslt .def_5231 .def_5283))).def_20242))))
(assert (let ((.def_5308 ((_ sign_extend 24) p2_old)))(let ((.def_5231 ((_ sign_extend 24) id4)))(let ((.def_20244 (= .def_5231 .def_5308))).def_20244))))
(assert (let ((.def_5260 ((_ sign_extend 24) send1)))(let ((.def_20247 (= .def_5260 |node1::__CPAchecker_TMP_0|))).def_20247)))
(assert (let ((.def_20249 ((_ extract 7 0) |node1::__CPAchecker_TMP_0|)))(let ((.def_20250 (= p1_old .def_20249))).def_20250)))
(assert (let ((.def_5316 ((_ sign_extend 24) p1_old)))(let ((.def_5258 ((_ sign_extend 24) id2)))(let ((.def_20252 (bvslt .def_5258 .def_5316))).def_20252))))
(assert (let ((.def_5271 ((_ sign_extend 24) nomsg)))(let ((.def_5258 ((_ sign_extend 24) id2)))(let ((.def_20254 (= .def_5258 .def_5271))).def_20254))))
(assert (let ((.def_5236 ((_ sign_extend 24) send6)))(let ((.def_20257 (= .def_5236 |node6::__CPAchecker_TMP_0|))).def_20257)))
(assert (let ((.def_20259 ((_ extract 7 0) |node6::__CPAchecker_TMP_0|)))(let ((.def_20260 (= p6_old .def_20259))).def_20260)))
(assert (let ((.def_5304 ((_ sign_extend 24) p6_old)))(let ((.def_5258 ((_ sign_extend 24) id2)))(let ((.def_20262 (= .def_5258 .def_5304))).def_20262))))
(assert (let ((.def_20264 (= id1 p5_old))).def_20264))
(assert (let ((.def_5320 ((_ sign_extend 24) p5_old)))(let ((.def_5238 ((_ sign_extend 24) id1)))(let ((.def_20266 (= .def_5238 .def_5320))).def_20266))))
(assert (let ((.def_5304 ((_ sign_extend 24) p6_old)))(let ((.def_5238 ((_ sign_extend 24) id1)))(let ((.def_20268 (bvslt .def_5238 .def_5304))).def_20268))))
(assert (let ((.def_5271 ((_ sign_extend 24) nomsg)))(let ((.def_5238 ((_ sign_extend 24) id1)))(let ((.def_20270 (= .def_5238 .def_5271))).def_20270))))
(assert (let ((.def_5271 ((_ sign_extend 24) nomsg)))(let ((.def_5253 ((_ sign_extend 24) id5)))(let ((.def_20272 (= .def_5253 .def_5271))).def_20272))))
(assert (let ((.def_5312 ((_ sign_extend 24) p4_old)))(let ((.def_5253 ((_ sign_extend 24) id5)))(let ((.def_20274 (bvslt .def_5253 .def_5312))).def_20274))))
(assert (let ((.def_20276 (= send4 p4_old))).def_20276))
(assert (let ((.def_5283 ((_ sign_extend 24) p3_old)))(let ((.def_5253 ((_ sign_extend 24) id5)))(let ((.def_20278 (= .def_5253 .def_5283))).def_20278))))
(assert (let ((.def_5268 ((_ sign_extend 24) send5)))(let ((.def_20281 (= .def_5268 |node5::__CPAchecker_TMP_0|))).def_20281)))
(assert (let ((.def_20283 ((_ extract 7 0) |node5::__CPAchecker_TMP_0|)))(let ((.def_20284 (= p5_old .def_20283))).def_20284)))
(assert (let ((.def_5320 ((_ sign_extend 24) p5_old)))(let ((.def_5267 ((_ sign_extend 24) id6)))(let ((.def_20286 (bvslt .def_5267 .def_5320))).def_20286))))
(assert (let ((.def_20288 (= id6 p4_old))).def_20288))
(assert (let ((.def_5312 ((_ sign_extend 24) p4_old)))(let ((.def_5267 ((_ sign_extend 24) id6)))(let ((.def_20290 (= .def_5267 .def_5312))).def_20290))))
(assert (let ((.def_5308 ((_ sign_extend 24) p2_old)))(let ((.def_5245 ((_ sign_extend 24) id3)))(let ((.def_20292 (bvslt .def_5245 .def_5308))).def_20292))))
(assert (let ((.def_5246 ((_ sign_extend 24) send2)))(let ((.def_20295 (= .def_5246 |node2::__CPAchecker_TMP_0|))).def_20295)))
(assert (let ((.def_20297 ((_ extract 7 0) |node2::__CPAchecker_TMP_0|)))(let ((.def_20298 (= p2_old .def_20297))).def_20298)))
(assert (let ((.def_5316 ((_ sign_extend 24) p1_old)))(let ((.def_5245 ((_ sign_extend 24) id3)))(let ((.def_20300 (= .def_5245 .def_5316))).def_20300))))
(assert (let ((.def_5271 ((_ sign_extend 24) nomsg)))(let ((.def_5236 ((_ sign_extend 24) send6)))(let ((.def_20302 (= .def_5236 .def_5271))).def_20302))))
(assert (let ((.def_5308 ((_ sign_extend 24) p2_old)))(let ((.def_5271 ((_ sign_extend 24) nomsg)))(let ((.def_20304 (= .def_5271 .def_5308))).def_20304))))
(assert (let ((.def_5290 ((_ sign_extend 24) st3)))(let ((.def_5286 ((_ sign_extend 24) st6)))(let ((.def_20309 (bvadd .def_5286 .def_5290)))(let ((.def_5289 ((_ sign_extend 24) st4)))(let ((.def_20314 (bvadd .def_5289 .def_20309)))(let ((.def_5288 ((_ sign_extend 24) st5)))(let ((.def_20318 (bvadd .def_5288 .def_20314)))(let ((.def_20319 (bvadd (_ bv1 32) .def_20318)))(let ((.def_5287 (bvneg .def_5286)))(let ((.def_20320 (= .def_5287 .def_20319))).def_20320)))))))))))
(assert (let ((.def_5291 ((_ sign_extend 24) st2)))(let ((.def_5286 ((_ sign_extend 24) st6)))(let ((.def_20322 (= .def_5286 .def_5291))).def_20322))))
(assert (let ((.def_5291 ((_ sign_extend 24) st2)))(let ((.def_20326 (bvshl .def_5291 (_ bv1 32))))(let ((.def_5290 ((_ sign_extend 24) st3)))(let ((.def_20328 (bvadd .def_5290 .def_20326)))(let ((.def_5289 ((_ sign_extend 24) st4)))(let ((.def_20330 (bvadd .def_5289 .def_20328)))(let ((.def_5288 ((_ sign_extend 24) st5)))(let ((.def_20331 (bvadd .def_5288 .def_20330)))(let ((.def_5286 ((_ sign_extend 24) st6)))(let ((.def_5287 (bvneg .def_5286)))(let ((.def_20332 (= .def_5287 .def_20331))).def_20332))))))))))))
(assert (let ((.def_5271 ((_ sign_extend 24) nomsg)))(let ((.def_5260 ((_ sign_extend 24) send1)))(let ((.def_20334 (= .def_5260 .def_5271))).def_20334))))
(assert (let ((.def_20336 ((_ sign_extend 24) p1_new)))(let ((.def_5258 ((_ sign_extend 24) id2)))(let ((.def_20337 (= .def_5258 .def_20336))).def_20337))))
(assert (let ((.def_20336 ((_ sign_extend 24) p1_new)))(let ((.def_5260 ((_ sign_extend 24) send1)))(let ((.def_20339 (= .def_5260 .def_20336))).def_20339))))
(assert (let ((.def_20341 (= send6 id1))).def_20341))
(assert (let ((.def_5286 ((_ sign_extend 24) st6)))(let ((.def_20345 (bvshl .def_5286 (_ bv1 32))))(let ((.def_5290 ((_ sign_extend 24) st3)))(let ((.def_20347 (bvadd .def_5290 .def_20345)))(let ((.def_5289 ((_ sign_extend 24) st4)))(let ((.def_20349 (bvadd .def_5289 .def_20347)))(let ((.def_5288 ((_ sign_extend 24) st5)))(let ((.def_20350 (bvadd .def_5288 .def_20349)))(let ((.def_5287 (bvneg .def_5286)))(let ((.def_20351 (= .def_5287 .def_20350))).def_20351)))))))))))
(assert (let ((.def_5291 ((_ sign_extend 24) st2)))(let ((.def_5286 ((_ sign_extend 24) st6)))(let ((.def_20353 (bvadd .def_5286 .def_5291)))(let ((.def_5290 ((_ sign_extend 24) st3)))(let ((.def_20355 (bvadd .def_5290 .def_20353)))(let ((.def_5289 ((_ sign_extend 24) st4)))(let ((.def_20357 (bvadd .def_5289 .def_20355)))(let ((.def_5288 ((_ sign_extend 24) st5)))(let ((.def_20358 (bvadd .def_5288 .def_20357)))(let ((.def_5287 (bvneg .def_5286)))(let ((.def_20359 (= .def_5287 .def_20358))).def_20359))))))))))))
(assert (let ((.def_20361 (= st6 (_ bv1 8)))).def_20361))
(assert (let ((.def_20363 (= r1 (_ bv1 8)))).def_20363))
(assert (let ((.def_5291 ((_ sign_extend 24) st2)))(let ((.def_5290 ((_ sign_extend 24) st3)))(let ((.def_20369 (bvadd .def_5290 .def_5291)))(let ((.def_5289 ((_ sign_extend 24) st4)))(let ((.def_20374 (bvadd .def_5289 .def_20369)))(let ((.def_5288 ((_ sign_extend 24) st5)))(let ((.def_20378 (bvadd .def_5288 .def_20374)))(let ((.def_20379 (bvadd (_ bv1 32) .def_20378)))(let ((.def_5286 ((_ sign_extend 24) st6)))(let ((.def_5287 (bvneg .def_5286)))(let ((.def_20380 (= .def_5287 .def_20379))).def_20380))))))))))))
(assert (let ((.def_5304 ((_ sign_extend 24) p6_old)))(let ((.def_5271 ((_ sign_extend 24) nomsg)))(let ((.def_20382 (= .def_5271 .def_5304))).def_20382))))

assert N443:
(assert false)
(assert (let ((.def_2626 (= |assert::arg| (_ bv0 8)))).def_2626))

