(set-info :source |printed by MathSAT|)
(declare-fun a20 () (_ BitVec 32))
(declare-fun a25 () (_ BitVec 32))
(declare-fun a12 () (_ BitVec 32))
(declare-fun a15 () (_ BitVec 32))
(declare-fun a16 () (_ BitVec 32))
(declare-fun a2 () (_ BitVec 32))
(declare-fun a27 () (_ BitVec 32))
(declare-fun a9 () (_ BitVec 32))
(declare-fun m_pc () (_ BitVec 32))
(declare-fun t1_pc () (_ BitVec 32))
(declare-fun t2_pc () (_ BitVec 32))
(declare-fun t3_pc () (_ BitVec 32))
(declare-fun t4_pc () (_ BitVec 32))
(declare-fun t5_pc () (_ BitVec 32))
(declare-fun m_st () (_ BitVec 32))

*:
(assert (let ((.def_107613 (= a20 (_ bv5 32)))).def_107613))

calculate_output8 N30053:
(assert false)
(assert (let ((.def_107613 (= a20 (_ bv5 32)))).def_107613))

main1 N30136:
(assert (let ((.def_107613 (= a20 (_ bv5 32)))).def_107613))
(assert (let ((.def_155185 (= a25 (_ bv1 32)))).def_155185))
(assert (let ((.def_155188 (= a12 (_ bv4 32)))).def_155188))
(assert (let ((.def_155191 (= a15 (_ bv1 32)))).def_155191))
(assert (let ((.def_155194 (= a16 (_ bv1 32)))).def_155194))
(assert (let ((.def_155197 (= a2 (_ bv10 32)))).def_155197))
(assert (let ((.def_155200 (= a27 (_ bv1 32)))).def_155200))
(assert (let ((.def_155203 (= a9 (_ bv18 32)))).def_155203))
(assert (let ((.def_321368 (= a20 (_ bv6 32)))).def_321368))
(assert (let ((.def_321370 (= a12 (_ bv3 32)))).def_321370))
(assert (let ((.def_321372 (= a12 (_ bv6 32)))).def_321372))
(assert (let ((.def_321374 (= a2 (_ bv9 32)))).def_321374))
(assert (let ((.def_321376 (= a9 (_ bv16 32)))).def_321376))
(assert (let ((.def_321378 (= a2 (_ bv12 32)))).def_321378))
(assert (let ((.def_321380 (= a2 (_ bv11 32)))).def_321380))
(assert (let ((.def_321382 (= a9 (_ bv17 32)))).def_321382))
(assert (let ((.def_321384 (= a12 (_ bv2 32)))).def_321384))
(assert (let ((.def_321386 (= a2 (_ bv13 32)))).def_321386))

error N30154:
(assert false)
(assert (let ((.def_107613 (= a20 (_ bv5 32)))).def_107613))

eval N30517:
(assert (let ((.def_746847 (= m_pc (_ bv0 32)))).def_746847))
(assert (let ((.def_107613 (= a20 (_ bv5 32)))).def_107613))
(assert (let ((.def_750022 (= t1_pc (_ bv0 32)))).def_750022))
(assert (let ((.def_750025 (= t2_pc (_ bv0 32)))).def_750025))
(assert (let ((.def_750028 (= t3_pc (_ bv0 32)))).def_750028))
(assert (let ((.def_750031 (= t4_pc (_ bv0 32)))).def_750031))
(assert (let ((.def_750034 (= t5_pc (_ bv0 32)))).def_750034))
(assert (let ((.def_750036 (= m_pc (_ bv1 32)))).def_750036))
(assert (let ((.def_750038 (= t1_pc (_ bv1 32)))).def_750038))
(assert (let ((.def_750040 (= t2_pc (_ bv1 32)))).def_750040))
(assert (let ((.def_750042 (= t3_pc (_ bv1 32)))).def_750042))
(assert (let ((.def_750044 (= t4_pc (_ bv1 32)))).def_750044))
(assert (let ((.def_750046 (= t5_pc (_ bv1 32)))).def_750046))
(assert (let ((.def_750049 (= m_st (_ bv0 32)))).def_750049))

start_simulation N30831:
(assert (let ((.def_746847 (= m_pc (_ bv0 32)))).def_746847))
(assert (let ((.def_107613 (= a20 (_ bv5 32)))).def_107613))
(assert (let ((.def_750022 (= t1_pc (_ bv0 32)))).def_750022))
(assert (let ((.def_750025 (= t2_pc (_ bv0 32)))).def_750025))
(assert (let ((.def_750028 (= t3_pc (_ bv0 32)))).def_750028))
(assert (let ((.def_750031 (= t4_pc (_ bv0 32)))).def_750031))
(assert (let ((.def_750034 (= t5_pc (_ bv0 32)))).def_750034))
(assert (let ((.def_750036 (= m_pc (_ bv1 32)))).def_750036))
(assert (let ((.def_750038 (= t1_pc (_ bv1 32)))).def_750038))
(assert (let ((.def_750040 (= t2_pc (_ bv1 32)))).def_750040))
(assert (let ((.def_750042 (= t3_pc (_ bv1 32)))).def_750042))
(assert (let ((.def_750044 (= t4_pc (_ bv1 32)))).def_750044))
(assert (let ((.def_750046 (= t5_pc (_ bv1 32)))).def_750046))

