(set-info :source |printed by MathSAT|)
(declare-fun c_num_read () (_ BitVec 32))
(declare-fun p_num_write () (_ BitVec 32))
(declare-fun c_last_read () (_ BitVec 32))
(declare-fun p_last_write () (_ BitVec 32))
(declare-fun c_dr_pc () (_ BitVec 32))
(declare-fun q_free () (_ BitVec 32))
(declare-fun q_buf_0 () (_ BitVec 32))
(declare-fun c_dr_st () (_ BitVec 32))
(declare-fun q_req_up () (_ BitVec 32))
(declare-fun q_write_ev () (_ BitVec 32))
(declare-fun q_read_ev () (_ BitVec 32))
(declare-fun p_dw_pc () (_ BitVec 32))
(declare-fun p_dw_st () (_ BitVec 32))
(declare-fun m_pc () (_ BitVec 32))
(declare-fun t1_pc () (_ BitVec 32))
(declare-fun t2_pc () (_ BitVec 32))
(declare-fun t3_pc () (_ BitVec 32))
(declare-fun t4_pc () (_ BitVec 32))
(declare-fun t5_pc () (_ BitVec 32))
(declare-fun t6_pc () (_ BitVec 32))
(declare-fun t7_pc () (_ BitVec 32))
(declare-fun m_st () (_ BitVec 32))

*:
(assert (let ((.def_589 (= c_num_read p_num_write))).def_589))
(assert (let ((.def_598 (= c_last_read p_last_write))).def_598))

error1 N4:
(assert false)
(assert (let ((.def_589 (= c_num_read p_num_write))).def_589))
(assert (let ((.def_598 (= c_last_read p_last_write))).def_598))

do_write_p N78:
(assert (let ((.def_785 (= c_dr_pc (_ bv0 32)))).def_785))
(assert (let ((.def_589 (= c_num_read p_num_write))).def_589))
(assert (let ((.def_598 (= c_last_read p_last_write))).def_598))
(assert (let ((.def_853 (= q_free (_ bv1 32)))).def_853))
(assert false)
(assert (let ((.def_1037 (= p_last_write q_buf_0))).def_1037))
(assert (let ((.def_1177 (= c_dr_pc (_ bv1 32)))).def_1177))
(assert (let ((.def_1179 (= q_free (_ bv0 32)))).def_1179))
(assert (let ((.def_1183 (bvadd (_ bv1 32) c_num_read)))(let ((.def_1184 (= p_num_write .def_1183))).def_1184)))
(assert (let ((.def_1865 (= c_dr_st (_ bv0 32)))).def_1865))
(assert (let ((.def_4265 (= q_req_up (_ bv1 32)))).def_4265))
(assert (let ((.def_5898 (= q_write_ev (_ bv1 32)))).def_5898))
(assert (let ((.def_5900 (= q_write_ev (_ bv0 32)))).def_5900))
(assert (let ((.def_8235 (= q_read_ev (_ bv1 32)))).def_8235))
(assert (let ((.def_8237 (= q_read_ev (_ bv0 32)))).def_8237))

do_read_c N112:
(assert (let ((.def_853 (= q_free (_ bv1 32)))).def_853))
(assert (let ((.def_589 (= c_num_read p_num_write))).def_589))
(assert (let ((.def_598 (= c_last_read p_last_write))).def_598))
(assert (let ((.def_1037 (= p_last_write q_buf_0))).def_1037))
(assert (let ((.def_1183 (bvadd (_ bv1 32) c_num_read)))(let ((.def_1184 (= p_num_write .def_1183))).def_1184)))
(assert false)
(assert (let ((.def_1179 (= q_free (_ bv0 32)))).def_1179))
(assert (let ((.def_5898 (= q_write_ev (_ bv1 32)))).def_5898))
(assert (let ((.def_5900 (= q_write_ev (_ bv0 32)))).def_5900))
(assert (let ((.def_1181 (= p_dw_pc (_ bv1 32)))).def_1181))
(assert (let ((.def_4265 (= q_req_up (_ bv1 32)))).def_4265))
(assert (let ((.def_2339 (= p_dw_st (_ bv0 32)))).def_2339))
(assert (let ((.def_8235 (= q_read_ev (_ bv1 32)))).def_8235))
(assert (let ((.def_8237 (= q_read_ev (_ bv0 32)))).def_8237))

eval1 N228:
(assert (let ((.def_785 (= c_dr_pc (_ bv0 32)))).def_785))
(assert (let ((.def_589 (= c_num_read p_num_write))).def_589))
(assert (let ((.def_598 (= c_last_read p_last_write))).def_598))
(assert (let ((.def_853 (= q_free (_ bv1 32)))).def_853))
(assert (let ((.def_995 (= p_dw_pc (_ bv0 32)))).def_995))
(assert (let ((.def_1177 (= c_dr_pc (_ bv1 32)))).def_1177))
(assert (let ((.def_1179 (= q_free (_ bv0 32)))).def_1179))
(assert (let ((.def_1181 (= p_dw_pc (_ bv1 32)))).def_1181))
(assert (let ((.def_2339 (= p_dw_st (_ bv0 32)))).def_2339))
(assert (let ((.def_1037 (= p_last_write q_buf_0))).def_1037))
(assert (let ((.def_1183 (bvadd (_ bv1 32) c_num_read)))(let ((.def_1184 (= p_num_write .def_1183))).def_1184)))
(assert (let ((.def_1865 (= c_dr_st (_ bv0 32)))).def_1865))
(assert (let ((.def_4265 (= q_req_up (_ bv1 32)))).def_4265))
(assert (let ((.def_5898 (= q_write_ev (_ bv1 32)))).def_5898))
(assert (let ((.def_5900 (= q_write_ev (_ bv0 32)))).def_5900))
(assert (let ((.def_8235 (= q_read_ev (_ bv1 32)))).def_8235))
(assert (let ((.def_8237 (= q_read_ev (_ bv0 32)))).def_8237))

start_simulation1 N283:
(assert (let ((.def_785 (= c_dr_pc (_ bv0 32)))).def_785))
(assert (let ((.def_589 (= c_num_read p_num_write))).def_589))
(assert (let ((.def_598 (= c_last_read p_last_write))).def_598))
(assert (let ((.def_853 (= q_free (_ bv1 32)))).def_853))
(assert (let ((.def_995 (= p_dw_pc (_ bv0 32)))).def_995))
(assert (let ((.def_1177 (= c_dr_pc (_ bv1 32)))).def_1177))
(assert (let ((.def_1179 (= q_free (_ bv0 32)))).def_1179))
(assert (let ((.def_1181 (= p_dw_pc (_ bv1 32)))).def_1181))
(assert (let ((.def_1865 (= c_dr_st (_ bv0 32)))).def_1865))
(assert (let ((.def_2339 (= p_dw_st (_ bv0 32)))).def_2339))
(assert (let ((.def_1037 (= p_last_write q_buf_0))).def_1037))
(assert (let ((.def_5898 (= q_write_ev (_ bv1 32)))).def_5898))
(assert (let ((.def_5900 (= q_write_ev (_ bv0 32)))).def_5900))
(assert (let ((.def_8235 (= q_read_ev (_ bv1 32)))).def_8235))
(assert (let ((.def_8237 (= q_read_ev (_ bv0 32)))).def_8237))
(assert (let ((.def_1183 (bvadd (_ bv1 32) c_num_read)))(let ((.def_1184 (= p_num_write .def_1183))).def_1184)))

error2 N328:
(assert false)
(assert (let ((.def_589 (= c_num_read p_num_write))).def_589))
(assert (let ((.def_598 (= c_last_read p_last_write))).def_598))

eval2 N799:
(assert (let ((.def_11105 (= m_pc (_ bv0 32)))).def_11105))
(assert (let ((.def_589 (= c_num_read p_num_write))).def_589))
(assert (let ((.def_598 (= c_last_read p_last_write))).def_598))
(assert (let ((.def_16334 (= t1_pc (_ bv0 32)))).def_16334))
(assert (let ((.def_16337 (= t2_pc (_ bv0 32)))).def_16337))
(assert (let ((.def_16340 (= t3_pc (_ bv0 32)))).def_16340))
(assert (let ((.def_16343 (= t4_pc (_ bv0 32)))).def_16343))
(assert (let ((.def_16346 (= t5_pc (_ bv0 32)))).def_16346))
(assert (let ((.def_16349 (= t6_pc (_ bv0 32)))).def_16349))
(assert (let ((.def_16352 (= t7_pc (_ bv0 32)))).def_16352))
(assert (let ((.def_16354 (= m_pc (_ bv1 32)))).def_16354))
(assert (let ((.def_16356 (= t1_pc (_ bv1 32)))).def_16356))
(assert (let ((.def_16358 (= t2_pc (_ bv1 32)))).def_16358))
(assert (let ((.def_16360 (= t3_pc (_ bv1 32)))).def_16360))
(assert (let ((.def_16362 (= t4_pc (_ bv1 32)))).def_16362))
(assert (let ((.def_16364 (= t5_pc (_ bv1 32)))).def_16364))
(assert (let ((.def_16366 (= t6_pc (_ bv1 32)))).def_16366))
(assert (let ((.def_16368 (= t7_pc (_ bv1 32)))).def_16368))
(assert (let ((.def_16371 (= m_st (_ bv0 32)))).def_16371))

start_simulation2 N1195:
(assert (let ((.def_11105 (= m_pc (_ bv0 32)))).def_11105))
(assert (let ((.def_589 (= c_num_read p_num_write))).def_589))
(assert (let ((.def_598 (= c_last_read p_last_write))).def_598))
(assert (let ((.def_16334 (= t1_pc (_ bv0 32)))).def_16334))
(assert (let ((.def_16337 (= t2_pc (_ bv0 32)))).def_16337))
(assert (let ((.def_16340 (= t3_pc (_ bv0 32)))).def_16340))
(assert (let ((.def_16343 (= t4_pc (_ bv0 32)))).def_16343))
(assert (let ((.def_16346 (= t5_pc (_ bv0 32)))).def_16346))
(assert (let ((.def_16349 (= t6_pc (_ bv0 32)))).def_16349))
(assert (let ((.def_16352 (= t7_pc (_ bv0 32)))).def_16352))
(assert (let ((.def_16354 (= m_pc (_ bv1 32)))).def_16354))
(assert (let ((.def_16356 (= t1_pc (_ bv1 32)))).def_16356))
(assert (let ((.def_16358 (= t2_pc (_ bv1 32)))).def_16358))
(assert (let ((.def_16360 (= t3_pc (_ bv1 32)))).def_16360))
(assert (let ((.def_16362 (= t4_pc (_ bv1 32)))).def_16362))
(assert (let ((.def_16364 (= t5_pc (_ bv1 32)))).def_16364))
(assert (let ((.def_16366 (= t6_pc (_ bv1 32)))).def_16366))
(assert (let ((.def_16368 (= t7_pc (_ bv1 32)))).def_16368))

