(set-info :source |printed by MathSAT|)
(declare-fun c_last_read () (_ BitVec 32))
(declare-fun p_last_write () (_ BitVec 32))
(declare-fun c_num_read () (_ BitVec 32))
(declare-fun p_num_write () (_ BitVec 32))
(declare-fun c_dr_pc () (_ BitVec 32))
(declare-fun q_free () (_ BitVec 32))
(declare-fun q_buf_0 () (_ BitVec 32))
(declare-fun p_dw_pc () (_ BitVec 32))
(declare-fun q_read_ev () (_ BitVec 32))
(declare-fun c_dr_st () (_ BitVec 32))
(declare-fun p_dw_st () (_ BitVec 32))
(declare-fun m_pc () (_ BitVec 32))
(declare-fun t1_pc () (_ BitVec 32))
(declare-fun t2_pc () (_ BitVec 32))
(declare-fun t3_pc () (_ BitVec 32))
(declare-fun t4_pc () (_ BitVec 32))
(declare-fun t5_pc () (_ BitVec 32))
(declare-fun t6_pc () (_ BitVec 32))
(declare-fun t7_pc () (_ BitVec 32))
(declare-fun t8_pc () (_ BitVec 32))
(declare-fun m_st () (_ BitVec 32))

*:
(assert (let ((.def_615 (= c_last_read p_last_write))).def_615))
(assert (let ((.def_624 (= c_num_read p_num_write))).def_624))

error1 N4:
(assert false)
(assert (let ((.def_615 (= c_last_read p_last_write))).def_615))
(assert (let ((.def_624 (= c_num_read p_num_write))).def_624))

do_write_p N64:
(assert (let ((.def_959 (= c_dr_pc (_ bv0 32)))).def_959))
(assert (let ((.def_615 (= c_last_read p_last_write))).def_615))
(assert (let ((.def_624 (= c_num_read p_num_write))).def_624))
(assert (let ((.def_1062 (= q_free (_ bv1 32)))).def_1062))
(assert false)
(assert (let ((.def_1405 (= p_last_write q_buf_0))).def_1405))
(assert (let ((.def_1065 (= p_dw_pc (_ bv1 32)))).def_1065))
(assert (let ((.def_1594 (bvadd (_ bv1 32) c_num_read)))(let ((.def_1595 (= p_num_write .def_1594))).def_1595)))
(assert (let ((.def_2486 (= q_free (_ bv0 32)))).def_2486))
(assert (let ((.def_1597 (= c_dr_pc (_ bv1 32)))).def_1597))
(assert (let ((.def_5287 (= q_read_ev (_ bv1 32)))).def_5287))

do_read_c N100:
(assert (let ((.def_1065 (= p_dw_pc (_ bv1 32)))).def_1065))
(assert (let ((.def_1062 (= q_free (_ bv1 32)))).def_1062))
(assert (let ((.def_615 (= c_last_read p_last_write))).def_615))
(assert (let ((.def_624 (= c_num_read p_num_write))).def_624))
(assert (let ((.def_1405 (= p_last_write q_buf_0))).def_1405))
(assert (let ((.def_1594 (bvadd (_ bv1 32) c_num_read)))(let ((.def_1595 (= p_num_write .def_1594))).def_1595)))
(assert (let ((.def_1597 (= c_dr_pc (_ bv1 32)))).def_1597))
(assert false)

eval1 N170:
(assert (let ((.def_959 (= c_dr_pc (_ bv0 32)))).def_959))
(assert (let ((.def_615 (= c_last_read p_last_write))).def_615))
(assert (let ((.def_624 (= c_num_read p_num_write))).def_624))
(assert (let ((.def_1062 (= q_free (_ bv1 32)))).def_1062))
(assert (let ((.def_1335 (= p_dw_pc (_ bv0 32)))).def_1335))
(assert (let ((.def_1597 (= c_dr_pc (_ bv1 32)))).def_1597))
(assert (let ((.def_3909 (= c_dr_st (_ bv0 32)))).def_3909))
(assert (let ((.def_1065 (= p_dw_pc (_ bv1 32)))).def_1065))
(assert (let ((.def_5287 (= q_read_ev (_ bv1 32)))).def_5287))
(assert (let ((.def_5290 (= p_dw_st (_ bv0 32)))).def_5290))
(assert (let ((.def_1405 (= p_last_write q_buf_0))).def_1405))
(assert (let ((.def_1594 (bvadd (_ bv1 32) c_num_read)))(let ((.def_1595 (= p_num_write .def_1594))).def_1595)))

start_simulation1 N221:
(assert (let ((.def_959 (= c_dr_pc (_ bv0 32)))).def_959))
(assert (let ((.def_615 (= c_last_read p_last_write))).def_615))
(assert (let ((.def_624 (= c_num_read p_num_write))).def_624))
(assert (let ((.def_1062 (= q_free (_ bv1 32)))).def_1062))
(assert (let ((.def_1335 (= p_dw_pc (_ bv0 32)))).def_1335))
(assert (let ((.def_5287 (= q_read_ev (_ bv1 32)))).def_5287))

error2 N260:
(assert false)
(assert (let ((.def_615 (= c_last_read p_last_write))).def_615))
(assert (let ((.def_624 (= c_num_read p_num_write))).def_624))

eval2 N785:
(assert (let ((.def_7860 (= m_pc (_ bv0 32)))).def_7860))
(assert (let ((.def_615 (= c_last_read p_last_write))).def_615))
(assert (let ((.def_624 (= c_num_read p_num_write))).def_624))
(assert (let ((.def_14309 (= t1_pc (_ bv0 32)))).def_14309))
(assert (let ((.def_14312 (= t2_pc (_ bv0 32)))).def_14312))
(assert (let ((.def_14315 (= t3_pc (_ bv0 32)))).def_14315))
(assert (let ((.def_14318 (= t4_pc (_ bv0 32)))).def_14318))
(assert (let ((.def_14321 (= t5_pc (_ bv0 32)))).def_14321))
(assert (let ((.def_14324 (= t6_pc (_ bv0 32)))).def_14324))
(assert (let ((.def_14327 (= t7_pc (_ bv0 32)))).def_14327))
(assert (let ((.def_14330 (= t8_pc (_ bv0 32)))).def_14330))
(assert (let ((.def_14332 (= m_pc (_ bv1 32)))).def_14332))
(assert (let ((.def_14334 (= t1_pc (_ bv1 32)))).def_14334))
(assert (let ((.def_14336 (= t2_pc (_ bv1 32)))).def_14336))
(assert (let ((.def_14338 (= t3_pc (_ bv1 32)))).def_14338))
(assert (let ((.def_14340 (= t4_pc (_ bv1 32)))).def_14340))
(assert (let ((.def_14342 (= t5_pc (_ bv1 32)))).def_14342))
(assert (let ((.def_14344 (= t6_pc (_ bv1 32)))).def_14344))
(assert (let ((.def_14346 (= t7_pc (_ bv1 32)))).def_14346))
(assert (let ((.def_14348 (= t8_pc (_ bv1 32)))).def_14348))
(assert (let ((.def_14351 (= m_st (_ bv0 32)))).def_14351))

start_simulation2 N1222:
(assert (let ((.def_7860 (= m_pc (_ bv0 32)))).def_7860))
(assert (let ((.def_615 (= c_last_read p_last_write))).def_615))
(assert (let ((.def_624 (= c_num_read p_num_write))).def_624))
(assert (let ((.def_14309 (= t1_pc (_ bv0 32)))).def_14309))
(assert (let ((.def_14312 (= t2_pc (_ bv0 32)))).def_14312))
(assert (let ((.def_14315 (= t3_pc (_ bv0 32)))).def_14315))
(assert (let ((.def_14318 (= t4_pc (_ bv0 32)))).def_14318))
(assert (let ((.def_14321 (= t5_pc (_ bv0 32)))).def_14321))
(assert (let ((.def_14324 (= t6_pc (_ bv0 32)))).def_14324))
(assert (let ((.def_14327 (= t7_pc (_ bv0 32)))).def_14327))
(assert (let ((.def_14330 (= t8_pc (_ bv0 32)))).def_14330))
(assert (let ((.def_14332 (= m_pc (_ bv1 32)))).def_14332))
(assert (let ((.def_14334 (= t1_pc (_ bv1 32)))).def_14334))
(assert (let ((.def_14336 (= t2_pc (_ bv1 32)))).def_14336))
(assert (let ((.def_14338 (= t3_pc (_ bv1 32)))).def_14338))
(assert (let ((.def_14340 (= t4_pc (_ bv1 32)))).def_14340))
(assert (let ((.def_14342 (= t5_pc (_ bv1 32)))).def_14342))
(assert (let ((.def_14344 (= t6_pc (_ bv1 32)))).def_14344))
(assert (let ((.def_14346 (= t7_pc (_ bv1 32)))).def_14346))
(assert (let ((.def_14348 (= t8_pc (_ bv1 32)))).def_14348))

