(set-info :source |printed by MathSAT|)
(declare-fun |ssl3_connect::blastFlag| () (_ BitVec 32))
(declare-fun |ssl3_connect::s__state| () (_ BitVec 32))
(declare-fun |ssl3_connect::s__s3__tmp__reuse_message| () (_ BitVec 32))
(declare-fun |ssl3_connect::s__hit| () (_ BitVec 32))
(declare-fun |ssl3_connect::s__s3__tmp__next_state___0| () (_ BitVec 32))
(declare-fun |ssl3_connect::skip| () (_ BitVec 32))
(declare-fun |ssl3_connect::s__s3__tmp__new_cipher__algorithms| () (_ BitVec 32))
(declare-fun |ssl3_connect::cb| () (_ BitVec 32))
(declare-fun |ssl3_accept::blastFlag| () (_ BitVec 32))
(declare-fun |ssl3_accept::s__state| () (_ BitVec 32))
(declare-fun |ssl3_accept::s__s3__tmp__next_state___0| () (_ BitVec 32))
(declare-fun |ssl3_accept::s__hit| () (_ BitVec 32))

ssl3_connect:
(assert (let ((.def_558 (= |ssl3_connect::blastFlag| (_ bv5 32)))).def_558))

ssl3_connect N85:
(assert (let ((.def_1407 (= |ssl3_connect::s__state| (_ bv12292 32)))).def_1407))
(assert (let ((.def_1409 (= |ssl3_connect::blastFlag| (_ bv0 32)))).def_1409))
(assert (let ((.def_558 (= |ssl3_connect::blastFlag| (_ bv5 32)))).def_558))
(assert (let ((.def_3367 (= |ssl3_connect::s__s3__tmp__reuse_message| (_ bv0 32)))).def_3367))
(assert (let ((.def_3369 (= |ssl3_connect::blastFlag| (_ bv4 32)))).def_3369))
(assert (let ((.def_3371 (= |ssl3_connect::blastFlag| (_ bv3 32)))).def_3371))
(assert (let ((.def_3373 (= |ssl3_connect::s__state| (_ bv4384 32)))).def_3373))
(assert (let ((.def_3375 (= |ssl3_connect::blastFlag| (_ bv1 32)))).def_3375))
(assert (let ((.def_3377 (= |ssl3_connect::s__state| (_ bv4368 32)))).def_3377))
(assert (let ((.def_3379 (= |ssl3_connect::blastFlag| (_ bv2 32)))).def_3379))
(assert (let ((.def_7473 (= |ssl3_connect::s__hit| (_ bv0 32)))).def_7473))
(assert (let ((.def_7476 (= |ssl3_connect::s__state| |ssl3_connect::s__s3__tmp__next_state___0|))).def_7476))
(assert (let ((.def_7478 (= |ssl3_connect::s__s3__tmp__next_state___0| (_ bv4401 32)))).def_7478))
(assert (let ((.def_7480 (= |ssl3_connect::s__state| (_ bv4352 32)))).def_7480))
(assert (let ((.def_7482 (= |ssl3_connect::s__state| (_ bv4560 32)))).def_7482))
(assert (let ((.def_7484 (= |ssl3_connect::s__state| (_ bv4416 32)))).def_7484))
(assert (let ((.def_7486 (= |ssl3_connect::s__state| (_ bv4400 32)))).def_7486))
(assert (let ((.def_7488 (= |ssl3_connect::s__state| (_ bv4432 32)))).def_7488))
(assert (let ((.def_7490 (= |ssl3_connect::s__state| (_ bv4529 32)))).def_7490))
(assert (let ((.def_7492 (= |ssl3_connect::s__state| (_ bv4528 32)))).def_7492))
(assert (let ((.def_7494 (= |ssl3_connect::s__state| (_ bv4401 32)))).def_7494))
(assert (let ((.def_7497 (= |ssl3_connect::skip| (_ bv0 32)))).def_7497))
(assert (let ((.def_7499 (= |ssl3_connect::s__state| (_ bv4417 32)))).def_7499))
(assert (let ((.def_7501 (= |ssl3_connect::s__state| (_ bv4480 32)))).def_7501))
(assert (let ((.def_7503 (= |ssl3_connect::s__state| (_ bv4449 32)))).def_7503))
(assert (let ((.def_7505 (= |ssl3_connect::s__state| (_ bv4448 32)))).def_7505))
(assert (let ((.def_7507 (= |ssl3_connect::s__state| (_ bv4481 32)))).def_7507))
(assert (let ((.def_7509 (= |ssl3_connect::s__s3__tmp__next_state___0| (_ bv4432 32)))).def_7509))
(assert (let ((.def_7512 (= |ssl3_connect::s__s3__tmp__new_cipher__algorithms| (_ bv4294967040 32)))).def_7512))
(assert (let ((.def_7514 (= |ssl3_connect::s__state| (_ bv4433 32)))).def_7514))
(assert (let ((.def_7517 (= |ssl3_connect::cb| (_ bv0 32)))).def_7517))
(assert (let ((.def_7519 (= |ssl3_connect::s__s3__tmp__next_state___0| (_ bv4433 32)))).def_7519))
(assert (let ((.def_17058 (= |ssl3_connect::s__s3__tmp__next_state___0| (_ bv4099 32)))).def_17058))
(assert (let ((.def_17060 (= |ssl3_connect::s__s3__tmp__next_state___0| (_ bv12292 32)))).def_17060))
(assert (let ((.def_17062 (= |ssl3_connect::s__s3__tmp__next_state___0| (_ bv16384 32)))).def_17062))
(assert (let ((.def_17064 (= |ssl3_connect::s__s3__tmp__next_state___0| (_ bv4096 32)))).def_17064))
(assert (let ((.def_17066 (= |ssl3_connect::s__s3__tmp__next_state___0| (_ bv20480 32)))).def_17066))
(assert (let ((.def_17068 (= |ssl3_connect::s__state| (_ bv4096 32)))).def_17068))
(assert (let ((.def_17070 (= |ssl3_connect::s__state| (_ bv4099 32)))).def_17070))
(assert (let ((.def_17072 (= |ssl3_connect::s__state| (_ bv20480 32)))).def_17072))
(assert (let ((.def_17074 (= |ssl3_connect::s__state| (_ bv16384 32)))).def_17074))
(assert (let ((.def_17076 (= |ssl3_connect::s__s3__tmp__next_state___0| (_ bv4368 32)))).def_17076))
(assert (let ((.def_17078 (= |ssl3_connect::s__s3__tmp__next_state___0| (_ bv4369 32)))).def_17078))
(assert (let ((.def_17080 (= |ssl3_connect::s__state| (_ bv4385 32)))).def_17080))
(assert (let ((.def_17082 (= |ssl3_connect::s__state| (_ bv4369 32)))).def_17082))
(assert (let ((.def_17084 (= |ssl3_connect::s__s3__tmp__next_state___0| (_ bv4384 32)))).def_17084))
(assert (let ((.def_17086 (= |ssl3_connect::s__s3__tmp__next_state___0| (_ bv4385 32)))).def_17086))
(assert (let ((.def_17088 (= |ssl3_connect::s__state| (_ bv4496 32)))).def_17088))
(assert (let ((.def_17090 (= |ssl3_connect::s__s3__tmp__next_state___0| (_ bv4400 32)))).def_17090))
(assert (let ((.def_17092 (= |ssl3_connect::s__state| (_ bv4512 32)))).def_17092))
(assert (let ((.def_17094 (= |ssl3_connect::s__s3__tmp__next_state___0| (_ bv4528 32)))).def_17094))
(assert (let ((.def_17096 (= |ssl3_connect::s__s3__tmp__next_state___0| (_ bv4529 32)))).def_17096))
(assert (let ((.def_17098 (= |ssl3_connect::s__s3__tmp__next_state___0| (_ bv3 32)))).def_17098))
(assert (let ((.def_17100 (= |ssl3_connect::s__s3__tmp__next_state___0| (_ bv4560 32)))).def_17100))
(assert (let ((.def_17102 (= |ssl3_connect::s__s3__tmp__next_state___0| (_ bv4416 32)))).def_17102))
(assert (let ((.def_17104 (= |ssl3_connect::s__state| (_ bv4513 32)))).def_17104))
(assert (let ((.def_17106 (= |ssl3_connect::s__state| (_ bv4467 32)))).def_17106))
(assert (let ((.def_17108 (= |ssl3_connect::s__state| (_ bv4466 32)))).def_17108))
(assert (let ((.def_17110 (= |ssl3_connect::s__state| (_ bv4465 32)))).def_17110))
(assert (let ((.def_17112 (= |ssl3_connect::s__state| (_ bv4464 32)))).def_17112))

ssl3_connect N565:
(assert false)
(assert (let ((.def_558 (= |ssl3_connect::blastFlag| (_ bv5 32)))).def_558))

ssl3_accept N683:
(assert (let ((.def_29484 (= |ssl3_accept::blastFlag| (_ bv5 32)))).def_29484))
(assert (let ((.def_30746 (= |ssl3_accept::s__state| (_ bv8464 32)))).def_30746))
(assert (let ((.def_30748 (= |ssl3_accept::blastFlag| (_ bv0 32)))).def_30748))
(assert (let ((.def_30750 (= |ssl3_accept::blastFlag| (_ bv4 32)))).def_30750))
(assert (let ((.def_33509 (= |ssl3_accept::s__state| (_ bv8482 32)))).def_33509))
(assert (let ((.def_33511 (= |ssl3_accept::blastFlag| (_ bv1 32)))).def_33511))
(assert (let ((.def_33513 (= |ssl3_accept::blastFlag| (_ bv3 32)))).def_33513))
(assert (let ((.def_33515 (= |ssl3_accept::blastFlag| (_ bv2 32)))).def_33515))
(assert (let ((.def_33517 (= |ssl3_accept::s__state| (_ bv8448 32)))).def_33517))
(assert (let ((.def_38538 (= |ssl3_accept::s__state| (_ bv24576 32)))).def_38538))
(assert (let ((.def_38540 (= |ssl3_accept::s__state| (_ bv8192 32)))).def_38540))
(assert (let ((.def_38542 (= |ssl3_accept::s__state| (_ bv16384 32)))).def_38542))
(assert (let ((.def_38544 (= |ssl3_accept::s__state| (_ bv8195 32)))).def_38544))
(assert (let ((.def_38546 (= |ssl3_accept::s__state| (_ bv8481 32)))).def_38546))
(assert (let ((.def_38548 (= |ssl3_accept::s__state| (_ bv8480 32)))).def_38548))
(assert (let ((.def_38550 (= |ssl3_accept::s__state| (_ bv12292 32)))).def_38550))
(assert (let ((.def_38552 (= |ssl3_accept::s__state| (_ bv8496 32)))).def_38552))
(assert (let ((.def_38554 (= |ssl3_accept::s__state| (_ bv8512 32)))).def_38554))
(assert (let ((.def_38556 (= |ssl3_accept::s__state| (_ bv8656 32)))).def_38556))
(assert (let ((.def_38558 (= |ssl3_accept::s__state| (_ bv8466 32)))).def_38558))
(assert (let ((.def_38560 (= |ssl3_accept::s__state| (_ bv8592 32)))).def_38560))
(assert (let ((.def_38562 (= |ssl3_accept::s__state| (_ bv8608 32)))).def_38562))
(assert (let ((.def_38564 (= |ssl3_accept::s__state| (_ bv8640 32)))).def_38564))
(assert (let ((.def_38566 (= |ssl3_accept::s__state| (_ bv8544 32)))).def_38566))
(assert (let ((.def_38568 (= |ssl3_accept::s__state| (_ bv8560 32)))).def_38568))
(assert (let ((.def_38570 (= |ssl3_accept::s__state| (_ bv8657 32)))).def_38570))
(assert (let ((.def_38572 (= |ssl3_accept::s__state| (_ bv8528 32)))).def_38572))
(assert (let ((.def_38574 (= |ssl3_accept::s__state| (_ bv8529 32)))).def_38574))
(assert (let ((.def_38576 (= |ssl3_accept::s__state| (_ bv8513 32)))).def_38576))
(assert (let ((.def_38578 (= |ssl3_accept::s__state| (_ bv8673 32)))).def_38578))
(assert (let ((.def_38580 (= |ssl3_accept::s__state| (_ bv8672 32)))).def_38580))
(assert (let ((.def_38583 (= |ssl3_accept::s__s3__tmp__next_state___0| (_ bv3 32)))).def_38583))
(assert (let ((.def_38585 (= |ssl3_accept::s__s3__tmp__next_state___0| (_ bv8640 32)))).def_38585))
(assert (let ((.def_54206 (= |ssl3_accept::s__state| (_ bv8465 32)))).def_54206))
(assert (let ((.def_54208 (= |ssl3_accept::s__state| (_ bv8641 32)))).def_54208))
(assert (let ((.def_54210 (= |ssl3_accept::s__s3__tmp__next_state___0| (_ bv8593 32)))).def_54210))
(assert (let ((.def_54212 (= |ssl3_accept::s__state| (_ bv8497 32)))).def_54212))
(assert (let ((.def_54214 (= |ssl3_accept::s__state| (_ bv8545 32)))).def_54214))
(assert (let ((.def_54216 (= |ssl3_accept::s__state| (_ bv8561 32)))).def_54216))
(assert (let ((.def_54218 (= |ssl3_accept::s__state| (_ bv8576 32)))).def_54218))
(assert (let ((.def_54220 (= |ssl3_accept::s__state| (_ bv8577 32)))).def_54220))
(assert (let ((.def_54222 (= |ssl3_accept::s__state| (_ bv8593 32)))).def_54222))
(assert (let ((.def_54224 (= |ssl3_accept::s__state| (_ bv8609 32)))).def_54224))
(assert (let ((.def_54227 (= |ssl3_accept::s__hit| (_ bv0 32)))).def_54227))
(assert (let ((.def_54229 (= |ssl3_accept::s__s3__tmp__next_state___0| (_ bv8576 32)))).def_54229))
(assert (let ((.def_54231 (= |ssl3_accept::s__s3__tmp__next_state___0| (_ bv8609 32)))).def_54231))
(assert (let ((.def_54233 (= |ssl3_accept::s__s3__tmp__next_state___0| (_ bv8608 32)))).def_54233))
(assert (let ((.def_54235 (= |ssl3_accept::s__s3__tmp__next_state___0| (_ bv8592 32)))).def_54235))
(assert (let ((.def_54237 (= |ssl3_accept::s__s3__tmp__next_state___0| (_ bv8577 32)))).def_54237))
(assert (let ((.def_54239 (= |ssl3_accept::s__s3__tmp__next_state___0| (_ bv8448 32)))).def_54239))
(assert (let ((.def_54241 (= |ssl3_accept::s__s3__tmp__next_state___0| (_ bv8561 32)))).def_54241))
(assert (let ((.def_54243 (= |ssl3_accept::s__s3__tmp__next_state___0| (_ bv8560 32)))).def_54243))
(assert (let ((.def_54245 (= |ssl3_accept::s__s3__tmp__next_state___0| (_ bv8545 32)))).def_54245))
(assert (let ((.def_54247 (= |ssl3_accept::s__s3__tmp__next_state___0| (_ bv8544 32)))).def_54247))
(assert (let ((.def_54249 (= |ssl3_accept::s__s3__tmp__next_state___0| (_ bv8529 32)))).def_54249))
(assert (let ((.def_54251 (= |ssl3_accept::s__s3__tmp__next_state___0| (_ bv8528 32)))).def_54251))
(assert (let ((.def_54253 (= |ssl3_accept::s__s3__tmp__next_state___0| (_ bv8497 32)))).def_54253))
(assert (let ((.def_54255 (= |ssl3_accept::s__s3__tmp__next_state___0| (_ bv8496 32)))).def_54255))
(assert (let ((.def_54257 (= |ssl3_accept::s__s3__tmp__next_state___0| (_ bv8466 32)))).def_54257))
(assert (let ((.def_54259 (= |ssl3_accept::s__s3__tmp__next_state___0| (_ bv8465 32)))).def_54259))
(assert (let ((.def_54261 (= |ssl3_accept::s__s3__tmp__next_state___0| (_ bv8464 32)))).def_54261))
(assert (let ((.def_54263 (= |ssl3_accept::s__s3__tmp__next_state___0| (_ bv8482 32)))).def_54263))
(assert (let ((.def_54265 (= |ssl3_accept::s__s3__tmp__next_state___0| (_ bv8481 32)))).def_54265))
(assert (let ((.def_54267 (= |ssl3_accept::s__s3__tmp__next_state___0| (_ bv8480 32)))).def_54267))
(assert (let ((.def_54269 (= |ssl3_accept::s__s3__tmp__next_state___0| (_ bv8195 32)))).def_54269))
(assert (let ((.def_54271 (= |ssl3_accept::s__s3__tmp__next_state___0| (_ bv24576 32)))).def_54271))
(assert (let ((.def_54273 (= |ssl3_accept::s__s3__tmp__next_state___0| (_ bv8192 32)))).def_54273))
(assert (let ((.def_54275 (= |ssl3_accept::s__s3__tmp__next_state___0| (_ bv16384 32)))).def_54275))
(assert (let ((.def_54277 (= |ssl3_accept::s__s3__tmp__next_state___0| (_ bv12292 32)))).def_54277))
(assert (let ((.def_54279 (= |ssl3_accept::s__s3__tmp__next_state___0| (_ bv8672 32)))).def_54279))
(assert (let ((.def_54281 (= |ssl3_accept::s__s3__tmp__next_state___0| (_ bv8513 32)))).def_54281))
(assert (let ((.def_54283 (= |ssl3_accept::s__s3__tmp__next_state___0| (_ bv8512 32)))).def_54283))
(assert (let ((.def_54285 (= |ssl3_accept::s__state| |ssl3_accept::s__s3__tmp__next_state___0|))).def_54285))
(assert (let ((.def_54287 (= |ssl3_accept::s__s3__tmp__next_state___0| (_ bv8641 32)))).def_54287))
(assert (let ((.def_54289 (= |ssl3_accept::s__s3__tmp__next_state___0| (_ bv8656 32)))).def_54289))
(assert (let ((.def_54291 (= |ssl3_accept::s__s3__tmp__next_state___0| (_ bv8673 32)))).def_54291))

ERR N1211:
(assert false)

