(set-info :source |printed by MathSAT|)
(declare-fun c_num_read () (_ BitVec 32))
(declare-fun p_num_write () (_ BitVec 32))
(declare-fun c_last_read () (_ BitVec 32))
(declare-fun p_last_write () (_ BitVec 32))
(declare-fun c_dr_pc () (_ BitVec 32))
(declare-fun q_free () (_ BitVec 32))
(declare-fun q_buf_0 () (_ BitVec 32))
(declare-fun c_dr_st () (_ BitVec 32))
(declare-fun q_req_up () (_ BitVec 32))
(declare-fun q_write_ev () (_ BitVec 32))
(declare-fun q_read_ev () (_ BitVec 32))
(declare-fun p_dw_pc () (_ BitVec 32))
(declare-fun p_dw_st () (_ BitVec 32))
(declare-fun m_pc () (_ BitVec 32))
(declare-fun t1_pc () (_ BitVec 32))
(declare-fun t2_pc () (_ BitVec 32))
(declare-fun t3_pc () (_ BitVec 32))
(declare-fun t4_pc () (_ BitVec 32))
(declare-fun t5_pc () (_ BitVec 32))
(declare-fun t6_pc () (_ BitVec 32))
(declare-fun m_st () (_ BitVec 32))

*:
(assert (let ((.def_574 (= c_num_read p_num_write))).def_574))
(assert (let ((.def_583 (= c_last_read p_last_write))).def_583))

error1 N4:
(assert false)
(assert (let ((.def_574 (= c_num_read p_num_write))).def_574))
(assert (let ((.def_583 (= c_last_read p_last_write))).def_583))

do_write_p N78:
(assert (let ((.def_770 (= c_dr_pc (_ bv0 32)))).def_770))
(assert (let ((.def_574 (= c_num_read p_num_write))).def_574))
(assert (let ((.def_583 (= c_last_read p_last_write))).def_583))
(assert (let ((.def_838 (= q_free (_ bv1 32)))).def_838))
(assert false)
(assert (let ((.def_1022 (= p_last_write q_buf_0))).def_1022))
(assert (let ((.def_1162 (= c_dr_pc (_ bv1 32)))).def_1162))
(assert (let ((.def_1164 (= q_free (_ bv0 32)))).def_1164))
(assert (let ((.def_1168 (bvadd (_ bv1 32) c_num_read)))(let ((.def_1169 (= p_num_write .def_1168))).def_1169)))
(assert (let ((.def_1850 (= c_dr_st (_ bv0 32)))).def_1850))
(assert (let ((.def_4250 (= q_req_up (_ bv1 32)))).def_4250))
(assert (let ((.def_5883 (= q_write_ev (_ bv1 32)))).def_5883))
(assert (let ((.def_5885 (= q_write_ev (_ bv0 32)))).def_5885))
(assert (let ((.def_8220 (= q_read_ev (_ bv1 32)))).def_8220))
(assert (let ((.def_8222 (= q_read_ev (_ bv0 32)))).def_8222))

do_read_c N112:
(assert (let ((.def_838 (= q_free (_ bv1 32)))).def_838))
(assert (let ((.def_574 (= c_num_read p_num_write))).def_574))
(assert (let ((.def_583 (= c_last_read p_last_write))).def_583))
(assert (let ((.def_1022 (= p_last_write q_buf_0))).def_1022))
(assert (let ((.def_1168 (bvadd (_ bv1 32) c_num_read)))(let ((.def_1169 (= p_num_write .def_1168))).def_1169)))
(assert false)
(assert (let ((.def_1164 (= q_free (_ bv0 32)))).def_1164))
(assert (let ((.def_5883 (= q_write_ev (_ bv1 32)))).def_5883))
(assert (let ((.def_5885 (= q_write_ev (_ bv0 32)))).def_5885))
(assert (let ((.def_1166 (= p_dw_pc (_ bv1 32)))).def_1166))
(assert (let ((.def_4250 (= q_req_up (_ bv1 32)))).def_4250))
(assert (let ((.def_2324 (= p_dw_st (_ bv0 32)))).def_2324))
(assert (let ((.def_8220 (= q_read_ev (_ bv1 32)))).def_8220))
(assert (let ((.def_8222 (= q_read_ev (_ bv0 32)))).def_8222))

eval1 N228:
(assert (let ((.def_770 (= c_dr_pc (_ bv0 32)))).def_770))
(assert (let ((.def_574 (= c_num_read p_num_write))).def_574))
(assert (let ((.def_583 (= c_last_read p_last_write))).def_583))
(assert (let ((.def_838 (= q_free (_ bv1 32)))).def_838))
(assert (let ((.def_980 (= p_dw_pc (_ bv0 32)))).def_980))
(assert (let ((.def_1162 (= c_dr_pc (_ bv1 32)))).def_1162))
(assert (let ((.def_1164 (= q_free (_ bv0 32)))).def_1164))
(assert (let ((.def_1166 (= p_dw_pc (_ bv1 32)))).def_1166))
(assert (let ((.def_2324 (= p_dw_st (_ bv0 32)))).def_2324))
(assert (let ((.def_1022 (= p_last_write q_buf_0))).def_1022))
(assert (let ((.def_1168 (bvadd (_ bv1 32) c_num_read)))(let ((.def_1169 (= p_num_write .def_1168))).def_1169)))
(assert (let ((.def_1850 (= c_dr_st (_ bv0 32)))).def_1850))
(assert (let ((.def_4250 (= q_req_up (_ bv1 32)))).def_4250))
(assert (let ((.def_5883 (= q_write_ev (_ bv1 32)))).def_5883))
(assert (let ((.def_5885 (= q_write_ev (_ bv0 32)))).def_5885))
(assert (let ((.def_8220 (= q_read_ev (_ bv1 32)))).def_8220))
(assert (let ((.def_8222 (= q_read_ev (_ bv0 32)))).def_8222))

start_simulation1 N283:
(assert (let ((.def_770 (= c_dr_pc (_ bv0 32)))).def_770))
(assert (let ((.def_574 (= c_num_read p_num_write))).def_574))
(assert (let ((.def_583 (= c_last_read p_last_write))).def_583))
(assert (let ((.def_838 (= q_free (_ bv1 32)))).def_838))
(assert (let ((.def_980 (= p_dw_pc (_ bv0 32)))).def_980))
(assert (let ((.def_1162 (= c_dr_pc (_ bv1 32)))).def_1162))
(assert (let ((.def_1164 (= q_free (_ bv0 32)))).def_1164))
(assert (let ((.def_1166 (= p_dw_pc (_ bv1 32)))).def_1166))
(assert (let ((.def_1850 (= c_dr_st (_ bv0 32)))).def_1850))
(assert (let ((.def_2324 (= p_dw_st (_ bv0 32)))).def_2324))
(assert (let ((.def_1022 (= p_last_write q_buf_0))).def_1022))
(assert (let ((.def_5883 (= q_write_ev (_ bv1 32)))).def_5883))
(assert (let ((.def_5885 (= q_write_ev (_ bv0 32)))).def_5885))
(assert (let ((.def_8220 (= q_read_ev (_ bv1 32)))).def_8220))
(assert (let ((.def_8222 (= q_read_ev (_ bv0 32)))).def_8222))
(assert (let ((.def_1168 (bvadd (_ bv1 32) c_num_read)))(let ((.def_1169 (= p_num_write .def_1168))).def_1169)))

error2 N328:
(assert false)
(assert (let ((.def_574 (= c_num_read p_num_write))).def_574))
(assert (let ((.def_583 (= c_last_read p_last_write))).def_583))

eval2 N745:
(assert (let ((.def_10971 (= m_pc (_ bv0 32)))).def_10971))
(assert (let ((.def_574 (= c_num_read p_num_write))).def_574))
(assert (let ((.def_583 (= c_last_read p_last_write))).def_583))
(assert (let ((.def_15109 (= t1_pc (_ bv0 32)))).def_15109))
(assert (let ((.def_15112 (= t2_pc (_ bv0 32)))).def_15112))
(assert (let ((.def_15115 (= t3_pc (_ bv0 32)))).def_15115))
(assert (let ((.def_15118 (= t4_pc (_ bv0 32)))).def_15118))
(assert (let ((.def_15121 (= t5_pc (_ bv0 32)))).def_15121))
(assert (let ((.def_15124 (= t6_pc (_ bv0 32)))).def_15124))
(assert (let ((.def_15126 (= m_pc (_ bv1 32)))).def_15126))
(assert (let ((.def_15128 (= t1_pc (_ bv1 32)))).def_15128))
(assert (let ((.def_15130 (= t2_pc (_ bv1 32)))).def_15130))
(assert (let ((.def_15132 (= t3_pc (_ bv1 32)))).def_15132))
(assert (let ((.def_15134 (= t4_pc (_ bv1 32)))).def_15134))
(assert (let ((.def_15136 (= t5_pc (_ bv1 32)))).def_15136))
(assert (let ((.def_15138 (= t6_pc (_ bv1 32)))).def_15138))
(assert (let ((.def_15141 (= m_st (_ bv0 32)))).def_15141))

start_simulation2 N1100:
(assert (let ((.def_10971 (= m_pc (_ bv0 32)))).def_10971))
(assert (let ((.def_574 (= c_num_read p_num_write))).def_574))
(assert (let ((.def_583 (= c_last_read p_last_write))).def_583))
(assert (let ((.def_15109 (= t1_pc (_ bv0 32)))).def_15109))
(assert (let ((.def_15112 (= t2_pc (_ bv0 32)))).def_15112))
(assert (let ((.def_15115 (= t3_pc (_ bv0 32)))).def_15115))
(assert (let ((.def_15118 (= t4_pc (_ bv0 32)))).def_15118))
(assert (let ((.def_15121 (= t5_pc (_ bv0 32)))).def_15121))
(assert (let ((.def_15124 (= t6_pc (_ bv0 32)))).def_15124))
(assert (let ((.def_15126 (= m_pc (_ bv1 32)))).def_15126))
(assert (let ((.def_15128 (= t1_pc (_ bv1 32)))).def_15128))
(assert (let ((.def_15130 (= t2_pc (_ bv1 32)))).def_15130))
(assert (let ((.def_15132 (= t3_pc (_ bv1 32)))).def_15132))
(assert (let ((.def_15134 (= t4_pc (_ bv1 32)))).def_15134))
(assert (let ((.def_15136 (= t5_pc (_ bv1 32)))).def_15136))
(assert (let ((.def_15138 (= t6_pc (_ bv1 32)))).def_15138))

