(set-info :source |printed by MathSAT|)
(declare-fun a20 () (_ BitVec 32))
(declare-fun a25 () (_ BitVec 32))
(declare-fun a12 () (_ BitVec 32))
(declare-fun a15 () (_ BitVec 32))
(declare-fun a16 () (_ BitVec 32))
(declare-fun a2 () (_ BitVec 32))
(declare-fun a27 () (_ BitVec 32))
(declare-fun a9 () (_ BitVec 32))
(declare-fun m_pc () (_ BitVec 32))
(declare-fun t1_pc () (_ BitVec 32))
(declare-fun t2_pc () (_ BitVec 32))
(declare-fun t3_pc () (_ BitVec 32))
(declare-fun t4_pc () (_ BitVec 32))
(declare-fun t5_pc () (_ BitVec 32))
(declare-fun t6_pc () (_ BitVec 32))
(declare-fun m_st () (_ BitVec 32))
(declare-fun E_1 () (_ BitVec 32))
(declare-fun E_2 () (_ BitVec 32))
(declare-fun E_4 () (_ BitVec 32))
(declare-fun E_3 () (_ BitVec 32))
(declare-fun E_M () (_ BitVec 32))
(declare-fun E_5 () (_ BitVec 32))
(declare-fun E_6 () (_ BitVec 32))
(declare-fun t2_st () (_ BitVec 32))
(declare-fun t1_st () (_ BitVec 32))
(declare-fun t3_st () (_ BitVec 32))
(declare-fun t4_st () (_ BitVec 32))
(declare-fun t6_st () (_ BitVec 32))
(declare-fun t5_st () (_ BitVec 32))
(declare-fun local () (_ BitVec 32))
(declare-fun token () (_ BitVec 32))
(declare-fun T6_E () (_ BitVec 32))
(declare-fun T5_E () (_ BitVec 32))
(declare-fun T4_E () (_ BitVec 32))
(declare-fun T3_E () (_ BitVec 32))
(declare-fun T2_E () (_ BitVec 32))
(declare-fun T1_E () (_ BitVec 32))
(declare-fun M_E () (_ BitVec 32))

*:
(assert (let ((.def_107628 (= a20 (_ bv5 32)))).def_107628))

calculate_output8 N30053:
(assert false)
(assert (let ((.def_107628 (= a20 (_ bv5 32)))).def_107628))

main1 N30136:
(assert (let ((.def_107628 (= a20 (_ bv5 32)))).def_107628))
(assert (let ((.def_155205 (= a25 (_ bv1 32)))).def_155205))
(assert (let ((.def_155208 (= a12 (_ bv4 32)))).def_155208))
(assert (let ((.def_155211 (= a15 (_ bv1 32)))).def_155211))
(assert (let ((.def_155214 (= a16 (_ bv1 32)))).def_155214))
(assert (let ((.def_155217 (= a2 (_ bv10 32)))).def_155217))
(assert (let ((.def_155220 (= a27 (_ bv1 32)))).def_155220))
(assert (let ((.def_155223 (= a9 (_ bv18 32)))).def_155223))
(assert (let ((.def_321388 (= a20 (_ bv6 32)))).def_321388))
(assert (let ((.def_321390 (= a12 (_ bv3 32)))).def_321390))
(assert (let ((.def_321392 (= a12 (_ bv6 32)))).def_321392))
(assert (let ((.def_321394 (= a2 (_ bv9 32)))).def_321394))
(assert (let ((.def_321396 (= a9 (_ bv16 32)))).def_321396))
(assert (let ((.def_321398 (= a2 (_ bv12 32)))).def_321398))
(assert (let ((.def_321400 (= a2 (_ bv11 32)))).def_321400))
(assert (let ((.def_321402 (= a9 (_ bv17 32)))).def_321402))
(assert (let ((.def_321404 (= a12 (_ bv2 32)))).def_321404))
(assert (let ((.def_321406 (= a2 (_ bv13 32)))).def_321406))

error N30154:
(assert false)
(assert (let ((.def_107628 (= a20 (_ bv5 32)))).def_107628))

eval N30558:
(assert (let ((.def_746962 (= m_pc (_ bv0 32)))).def_746962))
(assert (let ((.def_107628 (= a20 (_ bv5 32)))).def_107628))
(assert (let ((.def_751061 (= t1_pc (_ bv0 32)))).def_751061))
(assert (let ((.def_751064 (= t2_pc (_ bv0 32)))).def_751064))
(assert (let ((.def_751067 (= t3_pc (_ bv0 32)))).def_751067))
(assert (let ((.def_751070 (= t4_pc (_ bv0 32)))).def_751070))
(assert (let ((.def_751073 (= t5_pc (_ bv0 32)))).def_751073))
(assert (let ((.def_751076 (= t6_pc (_ bv0 32)))).def_751076))
(assert (let ((.def_751078 (= m_pc (_ bv1 32)))).def_751078))
(assert (let ((.def_751080 (= t1_pc (_ bv1 32)))).def_751080))
(assert (let ((.def_751082 (= t2_pc (_ bv1 32)))).def_751082))
(assert (let ((.def_751084 (= t3_pc (_ bv1 32)))).def_751084))
(assert (let ((.def_751086 (= t4_pc (_ bv1 32)))).def_751086))
(assert (let ((.def_751088 (= t5_pc (_ bv1 32)))).def_751088))
(assert (let ((.def_751090 (= t6_pc (_ bv1 32)))).def_751090))
(assert (let ((.def_751093 (= m_st (_ bv0 32)))).def_751093))
(assert (let ((.def_758182 (= E_1 (_ bv1 32)))).def_758182))
(assert (let ((.def_758185 (= E_2 (_ bv1 32)))).def_758185))
(assert (let ((.def_758188 (= E_4 (_ bv2 32)))).def_758188))
(assert (let ((.def_758190 (= E_4 (_ bv1 32)))).def_758190))
(assert (let ((.def_758193 (= E_3 (_ bv1 32)))).def_758193))
(assert (let ((.def_758196 (= E_M (_ bv1 32)))).def_758196))
(assert (let ((.def_758199 (= E_5 (_ bv1 32)))).def_758199))
(assert (let ((.def_758202 (= E_6 (_ bv1 32)))).def_758202))
(assert (let ((.def_758205 (= t2_st (_ bv0 32)))).def_758205))
(assert (let ((.def_758208 (= t1_st (_ bv0 32)))).def_758208))
(assert (let ((.def_758211 (= t3_st (_ bv0 32)))).def_758211))
(assert (let ((.def_758214 (= t4_st (_ bv0 32)))).def_758214))
(assert (let ((.def_758217 (= t6_st (_ bv0 32)))).def_758217))
(assert (let ((.def_758220 (= t5_st (_ bv0 32)))).def_758220))
(assert (let ((.def_758222 (= m_st (_ bv2 32)))).def_758222))
(assert (let ((.def_758225 (bvadd (_ bv6 32) local)))(let ((.def_758227 (= .def_758225 token))).def_758227)))
(assert (let ((.def_783459 (= E_5 (_ bv2 32)))).def_783459))
(assert (let ((.def_783461 (= local (_ bv0 32)))).def_783461))
(assert (let ((.def_783463 (= token (_ bv0 32)))).def_783463))
(assert (let ((.def_783465 (= E_2 (_ bv2 32)))).def_783465))
(assert (let ((.def_783467 (= t4_st (_ bv2 32)))).def_783467))
(assert (let ((.def_783469 (= t5_st (_ bv2 32)))).def_783469))
(assert (let ((.def_783471 (= t6_st (_ bv2 32)))).def_783471))
(assert (let ((.def_783473 (bvadd (_ bv5 32) local)))(let ((.def_783474 (= token .def_783473))).def_783474)))
(assert (let ((.def_783476 (= local token))).def_783476))
(assert (let ((.def_783478 (bvadd (_ bv4 32) local)))(let ((.def_783479 (= token .def_783478))).def_783479)))
(assert (let ((.def_783481 (bvadd (_ bv3 32) local)))(let ((.def_783482 (= token .def_783481))).def_783482)))
(assert (let ((.def_783484 (bvadd (_ bv2 32) local)))(let ((.def_783485 (= token .def_783484))).def_783485)))
(assert (let ((.def_783487 (bvadd (_ bv1 32) local)))(let ((.def_783488 (= token .def_783487))).def_783488)))
(assert (let ((.def_808489 (= T6_E (_ bv0 32)))).def_808489))
(assert (let ((.def_808492 (= T5_E (_ bv0 32)))).def_808492))
(assert (let ((.def_808495 (= T4_E (_ bv0 32)))).def_808495))
(assert (let ((.def_808498 (= T3_E (_ bv0 32)))).def_808498))
(assert (let ((.def_808501 (= T2_E (_ bv0 32)))).def_808501))
(assert (let ((.def_808504 (= T1_E (_ bv0 32)))).def_808504))
(assert (let ((.def_808506 (= E_M (_ bv0 32)))).def_808506))
(assert (let ((.def_808509 (= M_E (_ bv0 32)))).def_808509))
(assert (let ((.def_808511 (= E_1 (_ bv0 32)))).def_808511))
(assert (let ((.def_836326 (= E_4 (_ bv0 32)))).def_836326))
(assert (let ((.def_836328 (= E_5 (_ bv0 32)))).def_836328))
(assert (let ((.def_836330 (= E_3 (_ bv0 32)))).def_836330))
(assert (let ((.def_836332 (= E_2 (_ bv0 32)))).def_836332))
(assert (let ((.def_836334 (= E_6 (_ bv0 32)))).def_836334))
(assert false)

start_simulation N30913:
(assert (let ((.def_746962 (= m_pc (_ bv0 32)))).def_746962))
(assert (let ((.def_107628 (= a20 (_ bv5 32)))).def_107628))
(assert (let ((.def_751061 (= t1_pc (_ bv0 32)))).def_751061))
(assert (let ((.def_751064 (= t2_pc (_ bv0 32)))).def_751064))
(assert (let ((.def_751067 (= t3_pc (_ bv0 32)))).def_751067))
(assert (let ((.def_751070 (= t4_pc (_ bv0 32)))).def_751070))
(assert (let ((.def_751073 (= t5_pc (_ bv0 32)))).def_751073))
(assert (let ((.def_751076 (= t6_pc (_ bv0 32)))).def_751076))
(assert (let ((.def_751078 (= m_pc (_ bv1 32)))).def_751078))
(assert (let ((.def_751080 (= t1_pc (_ bv1 32)))).def_751080))
(assert (let ((.def_751082 (= t2_pc (_ bv1 32)))).def_751082))
(assert (let ((.def_751084 (= t3_pc (_ bv1 32)))).def_751084))
(assert (let ((.def_751086 (= t4_pc (_ bv1 32)))).def_751086))
(assert (let ((.def_751088 (= t5_pc (_ bv1 32)))).def_751088))
(assert (let ((.def_751090 (= t6_pc (_ bv1 32)))).def_751090))
(assert (let ((.def_758182 (= E_1 (_ bv1 32)))).def_758182))
(assert (let ((.def_758185 (= E_2 (_ bv1 32)))).def_758185))
(assert (let ((.def_758188 (= E_4 (_ bv2 32)))).def_758188))
(assert (let ((.def_758190 (= E_4 (_ bv1 32)))).def_758190))
(assert (let ((.def_758193 (= E_3 (_ bv1 32)))).def_758193))
(assert (let ((.def_758196 (= E_M (_ bv1 32)))).def_758196))
(assert (let ((.def_758199 (= E_5 (_ bv1 32)))).def_758199))
(assert (let ((.def_758202 (= E_6 (_ bv1 32)))).def_758202))
(assert (let ((.def_758205 (= t2_st (_ bv0 32)))).def_758205))
(assert (let ((.def_758208 (= t1_st (_ bv0 32)))).def_758208))
(assert (let ((.def_751093 (= m_st (_ bv0 32)))).def_751093))
(assert (let ((.def_783459 (= E_5 (_ bv2 32)))).def_783459))
(assert (let ((.def_783461 (= local (_ bv0 32)))).def_783461))
(assert (let ((.def_783463 (= token (_ bv0 32)))).def_783463))
(assert (let ((.def_783465 (= E_2 (_ bv2 32)))).def_783465))
(assert (let ((.def_758217 (= t6_st (_ bv0 32)))).def_758217))
(assert (let ((.def_808489 (= T6_E (_ bv0 32)))).def_808489))
(assert (let ((.def_808492 (= T5_E (_ bv0 32)))).def_808492))
(assert (let ((.def_808495 (= T4_E (_ bv0 32)))).def_808495))
(assert (let ((.def_808498 (= T3_E (_ bv0 32)))).def_808498))
(assert (let ((.def_808501 (= T2_E (_ bv0 32)))).def_808501))
(assert (let ((.def_808504 (= T1_E (_ bv0 32)))).def_808504))
(assert (let ((.def_808506 (= E_M (_ bv0 32)))).def_808506))
(assert (let ((.def_808509 (= M_E (_ bv0 32)))).def_808509))
(assert (let ((.def_758214 (= t4_st (_ bv0 32)))).def_758214))
(assert (let ((.def_758220 (= t5_st (_ bv0 32)))).def_758220))
(assert (let ((.def_836326 (= E_4 (_ bv0 32)))).def_836326))
(assert (let ((.def_836328 (= E_5 (_ bv0 32)))).def_836328))
(assert (let ((.def_836330 (= E_3 (_ bv0 32)))).def_836330))
(assert (let ((.def_836332 (= E_2 (_ bv0 32)))).def_836332))
(assert (let ((.def_836334 (= E_6 (_ bv0 32)))).def_836334))
(assert (let ((.def_808511 (= E_1 (_ bv0 32)))).def_808511))
(assert (let ((.def_758211 (= t3_st (_ bv0 32)))).def_758211))

