(set-info :source |printed by MathSAT|)
(declare-fun a20 () (_ BitVec 32))
(declare-fun a25 () (_ BitVec 32))
(declare-fun a12 () (_ BitVec 32))
(declare-fun a15 () (_ BitVec 32))
(declare-fun a16 () (_ BitVec 32))
(declare-fun a2 () (_ BitVec 32))
(declare-fun a27 () (_ BitVec 32))
(declare-fun a9 () (_ BitVec 32))
(declare-fun m_pc () (_ BitVec 32))
(declare-fun t1_pc () (_ BitVec 32))
(declare-fun t2_pc () (_ BitVec 32))
(declare-fun t3_pc () (_ BitVec 32))
(declare-fun t4_pc () (_ BitVec 32))
(declare-fun t5_pc () (_ BitVec 32))
(declare-fun t6_pc () (_ BitVec 32))
(declare-fun t7_pc () (_ BitVec 32))
(declare-fun t8_pc () (_ BitVec 32))
(declare-fun m_st () (_ BitVec 32))

*:
(assert (let ((.def_107878 (= a20 (_ bv5 32)))).def_107878))

calculate_output8 N30108:
(assert false)
(assert (let ((.def_107878 (= a20 (_ bv5 32)))).def_107878))

main1 N30136:
(assert (let ((.def_107878 (= a20 (_ bv5 32)))).def_107878))
(assert (let ((.def_155606 (= a25 (_ bv1 32)))).def_155606))
(assert (let ((.def_155609 (= a12 (_ bv4 32)))).def_155609))
(assert (let ((.def_155612 (= a15 (_ bv1 32)))).def_155612))
(assert (let ((.def_155615 (= a16 (_ bv1 32)))).def_155615))
(assert (let ((.def_155618 (= a2 (_ bv10 32)))).def_155618))
(assert (let ((.def_155621 (= a27 (_ bv1 32)))).def_155621))
(assert (let ((.def_155624 (= a9 (_ bv18 32)))).def_155624))
(assert (let ((.def_321796 (= a12 (_ bv5 32)))).def_321796))
(assert (let ((.def_321798 (= a2 (_ bv13 32)))).def_321798))
(assert (let ((.def_321800 (= a12 (_ bv2 32)))).def_321800))
(assert (let ((.def_321802 (= a2 (_ bv12 32)))).def_321802))
(assert (let ((.def_321804 (= a12 (_ bv3 32)))).def_321804))
(assert (let ((.def_321806 (= a9 (_ bv16 32)))).def_321806))
(assert (let ((.def_321808 (= a20 (_ bv7 32)))).def_321808))
(assert (let ((.def_321810 (= a2 (_ bv9 32)))).def_321810))
(assert (let ((.def_321812 (= a9 (_ bv17 32)))).def_321812))

error N30154:
(assert false)
(assert (let ((.def_107878 (= a20 (_ bv5 32)))).def_107878))

eval N30679:
(assert (let ((.def_747325 (= m_pc (_ bv0 32)))).def_747325))
(assert (let ((.def_107878 (= a20 (_ bv5 32)))).def_107878))
(assert (let ((.def_753773 (= t1_pc (_ bv0 32)))).def_753773))
(assert (let ((.def_753776 (= t2_pc (_ bv0 32)))).def_753776))
(assert (let ((.def_753779 (= t3_pc (_ bv0 32)))).def_753779))
(assert (let ((.def_753782 (= t4_pc (_ bv0 32)))).def_753782))
(assert (let ((.def_753785 (= t5_pc (_ bv0 32)))).def_753785))
(assert (let ((.def_753788 (= t6_pc (_ bv0 32)))).def_753788))
(assert (let ((.def_753791 (= t7_pc (_ bv0 32)))).def_753791))
(assert (let ((.def_753794 (= t8_pc (_ bv0 32)))).def_753794))
(assert (let ((.def_753796 (= m_pc (_ bv1 32)))).def_753796))
(assert (let ((.def_753798 (= t1_pc (_ bv1 32)))).def_753798))
(assert (let ((.def_753800 (= t2_pc (_ bv1 32)))).def_753800))
(assert (let ((.def_753802 (= t3_pc (_ bv1 32)))).def_753802))
(assert (let ((.def_753804 (= t4_pc (_ bv1 32)))).def_753804))
(assert (let ((.def_753806 (= t5_pc (_ bv1 32)))).def_753806))
(assert (let ((.def_753808 (= t6_pc (_ bv1 32)))).def_753808))
(assert (let ((.def_753810 (= t7_pc (_ bv1 32)))).def_753810))
(assert (let ((.def_753812 (= t8_pc (_ bv1 32)))).def_753812))
(assert (let ((.def_753815 (= m_st (_ bv0 32)))).def_753815))

start_simulation N31116:
(assert (let ((.def_747325 (= m_pc (_ bv0 32)))).def_747325))
(assert (let ((.def_107878 (= a20 (_ bv5 32)))).def_107878))
(assert (let ((.def_753773 (= t1_pc (_ bv0 32)))).def_753773))
(assert (let ((.def_753776 (= t2_pc (_ bv0 32)))).def_753776))
(assert (let ((.def_753779 (= t3_pc (_ bv0 32)))).def_753779))
(assert (let ((.def_753782 (= t4_pc (_ bv0 32)))).def_753782))
(assert (let ((.def_753785 (= t5_pc (_ bv0 32)))).def_753785))
(assert (let ((.def_753788 (= t6_pc (_ bv0 32)))).def_753788))
(assert (let ((.def_753791 (= t7_pc (_ bv0 32)))).def_753791))
(assert (let ((.def_753794 (= t8_pc (_ bv0 32)))).def_753794))
(assert (let ((.def_753796 (= m_pc (_ bv1 32)))).def_753796))
(assert (let ((.def_753798 (= t1_pc (_ bv1 32)))).def_753798))
(assert (let ((.def_753800 (= t2_pc (_ bv1 32)))).def_753800))
(assert (let ((.def_753802 (= t3_pc (_ bv1 32)))).def_753802))
(assert (let ((.def_753804 (= t4_pc (_ bv1 32)))).def_753804))
(assert (let ((.def_753806 (= t5_pc (_ bv1 32)))).def_753806))
(assert (let ((.def_753808 (= t6_pc (_ bv1 32)))).def_753808))
(assert (let ((.def_753810 (= t7_pc (_ bv1 32)))).def_753810))
(assert (let ((.def_753812 (= t8_pc (_ bv1 32)))).def_753812))

