(set-info :source |printed by MathSAT|)
(declare-fun c_num_read () (_ BitVec 32))
(declare-fun p_num_write () (_ BitVec 32))
(declare-fun c_last_read () (_ BitVec 32))
(declare-fun p_last_write () (_ BitVec 32))
(declare-fun c_dr_pc () (_ BitVec 32))
(declare-fun c_dr_st () (_ BitVec 32))
(declare-fun m_pc () (_ BitVec 32))
(declare-fun t1_pc () (_ BitVec 32))
(declare-fun t2_pc () (_ BitVec 32))
(declare-fun t3_pc () (_ BitVec 32))
(declare-fun t4_pc () (_ BitVec 32))
(declare-fun t5_pc () (_ BitVec 32))
(declare-fun t6_pc () (_ BitVec 32))
(declare-fun t7_pc () (_ BitVec 32))
(declare-fun m_st () (_ BitVec 32))
(declare-fun E_6 () (_ BitVec 32))
(declare-fun E_3 () (_ BitVec 32))
(declare-fun E_7 () (_ BitVec 32))
(declare-fun E_5 () (_ BitVec 32))
(declare-fun E_4 () (_ BitVec 32))
(declare-fun E_2 () (_ BitVec 32))
(declare-fun E_M () (_ BitVec 32))
(declare-fun t5_st () (_ BitVec 32))
(declare-fun t3_st () (_ BitVec 32))
(declare-fun t1_st () (_ BitVec 32))
(declare-fun t2_st () (_ BitVec 32))
(declare-fun t4_st () (_ BitVec 32))
(declare-fun t6_st () (_ BitVec 32))
(declare-fun t7_st () (_ BitVec 32))
(declare-fun E_1 () (_ BitVec 32))
(declare-fun local () (_ BitVec 32))
(declare-fun token () (_ BitVec 32))

*:
(assert (let ((.def_722 (= c_num_read p_num_write))).def_722))
(assert (let ((.def_731 (= c_last_read p_last_write))).def_731))

error1 N4:
(assert false)
(assert (let ((.def_722 (= c_num_read p_num_write))).def_722))
(assert (let ((.def_731 (= c_last_read p_last_write))).def_731))

eval1 N282:
(assert (let ((.def_882 (= c_dr_pc (_ bv0 32)))).def_882))
(assert (let ((.def_722 (= c_num_read p_num_write))).def_722))
(assert (let ((.def_731 (= c_last_read p_last_write))).def_731))
(assert (let ((.def_1373 (= c_dr_pc (_ bv2 32)))).def_1373))
(assert (let ((.def_1376 (= c_dr_st (_ bv0 32)))).def_1376))

start_simulation1 N338:
(assert (let ((.def_882 (= c_dr_pc (_ bv0 32)))).def_882))
(assert (let ((.def_722 (= c_num_read p_num_write))).def_722))
(assert (let ((.def_731 (= c_last_read p_last_write))).def_731))
(assert (let ((.def_1373 (= c_dr_pc (_ bv2 32)))).def_1373))

error2 N393:
(assert false)
(assert (let ((.def_722 (= c_num_read p_num_write))).def_722))
(assert (let ((.def_731 (= c_last_read p_last_write))).def_731))

eval2 N851:
(assert (let ((.def_4733 (= m_pc (_ bv0 32)))).def_4733))
(assert (let ((.def_722 (= c_num_read p_num_write))).def_722))
(assert (let ((.def_731 (= c_last_read p_last_write))).def_731))
(assert (let ((.def_9921 (= t1_pc (_ bv0 32)))).def_9921))
(assert (let ((.def_9924 (= t2_pc (_ bv0 32)))).def_9924))
(assert (let ((.def_9927 (= t3_pc (_ bv0 32)))).def_9927))
(assert (let ((.def_9930 (= t4_pc (_ bv0 32)))).def_9930))
(assert (let ((.def_9933 (= t5_pc (_ bv0 32)))).def_9933))
(assert (let ((.def_9936 (= t6_pc (_ bv0 32)))).def_9936))
(assert (let ((.def_9939 (= t7_pc (_ bv0 32)))).def_9939))
(assert (let ((.def_9941 (= m_pc (_ bv1 32)))).def_9941))
(assert (let ((.def_9943 (= t1_pc (_ bv1 32)))).def_9943))
(assert (let ((.def_9945 (= t2_pc (_ bv1 32)))).def_9945))
(assert (let ((.def_9947 (= t3_pc (_ bv1 32)))).def_9947))
(assert (let ((.def_9949 (= t4_pc (_ bv1 32)))).def_9949))
(assert (let ((.def_9951 (= t5_pc (_ bv1 32)))).def_9951))
(assert (let ((.def_9953 (= t6_pc (_ bv1 32)))).def_9953))
(assert (let ((.def_9955 (= t7_pc (_ bv1 32)))).def_9955))
(assert (let ((.def_9958 (= m_st (_ bv0 32)))).def_9958))
(assert (let ((.def_20612 (= E_6 (_ bv2 32)))).def_20612))
(assert (let ((.def_20615 (= E_3 (_ bv2 32)))).def_20615))
(assert (let ((.def_20618 (= E_7 (_ bv1 32)))).def_20618))
(assert (let ((.def_20621 (= E_5 (_ bv1 32)))).def_20621))
(assert (let ((.def_20624 (= E_4 (_ bv1 32)))).def_20624))
(assert (let ((.def_20626 (= E_3 (_ bv1 32)))).def_20626))
(assert (let ((.def_20629 (= E_2 (_ bv1 32)))).def_20629))
(assert (let ((.def_20631 (= E_6 (_ bv1 32)))).def_20631))
(assert (let ((.def_20634 (= E_M (_ bv1 32)))).def_20634))
(assert (let ((.def_20637 (= t5_st (_ bv0 32)))).def_20637))
(assert (let ((.def_20640 (= t3_st (_ bv0 32)))).def_20640))
(assert (let ((.def_20643 (= t1_st (_ bv0 32)))).def_20643))
(assert (let ((.def_20646 (= t2_st (_ bv0 32)))).def_20646))
(assert (let ((.def_20649 (= t4_st (_ bv0 32)))).def_20649))
(assert (let ((.def_20652 (= t6_st (_ bv0 32)))).def_20652))
(assert (let ((.def_20655 (= t7_st (_ bv0 32)))).def_20655))
(assert (let ((.def_20658 (= E_1 (_ bv2 32)))).def_20658))
(assert (let ((.def_20661 (bvadd (_ bv7 32) local)))(let ((.def_20663 (= .def_20661 token))).def_20663)))
(assert (let ((.def_56926 (= local (_ bv0 32)))).def_56926))
(assert (let ((.def_56928 (= token (_ bv0 32)))).def_56928))
(assert (let ((.def_56930 (= m_st (_ bv2 32)))).def_56930))
(assert (let ((.def_56932 (= E_5 (_ bv2 32)))).def_56932))
(assert (let ((.def_56934 (= E_4 (_ bv2 32)))).def_56934))
(assert (let ((.def_56936 (= E_2 (_ bv2 32)))).def_56936))
(assert (let ((.def_56938 (= t7_st (_ bv2 32)))).def_56938))
(assert (let ((.def_56940 (= t3_st (_ bv2 32)))).def_56940))
(assert (let ((.def_56942 (= E_1 (_ bv1 32)))).def_56942))
(assert (let ((.def_56944 (bvadd (_ bv6 32) local)))(let ((.def_56945 (= token .def_56944))).def_56945)))
(assert (let ((.def_56947 (bvadd (_ bv5 32) local)))(let ((.def_56948 (= token .def_56947))).def_56948)))
(assert false)
(assert (let ((.def_56952 (bvadd (_ bv4 32) local)))(let ((.def_56953 (= token .def_56952))).def_56953)))
(assert (let ((.def_56955 (bvadd (_ bv2 32) local)))(let ((.def_56956 (= token .def_56955))).def_56956)))
(assert (let ((.def_56958 (bvadd (_ bv1 32) local)))(let ((.def_56959 (= token .def_56958))).def_56959)))
(assert (let ((.def_56961 (bvadd (_ bv3 32) local)))(let ((.def_56962 (= token .def_56961))).def_56962)))
(assert (let ((.def_56964 (= local token))).def_56964))
(assert (let ((.def_95452 (= E_M (_ bv0 32)))).def_95452))
(assert (let ((.def_95454 (= E_1 (_ bv0 32)))).def_95454))

start_simulation2 N1247:
(assert (let ((.def_4733 (= m_pc (_ bv0 32)))).def_4733))
(assert (let ((.def_722 (= c_num_read p_num_write))).def_722))
(assert (let ((.def_731 (= c_last_read p_last_write))).def_731))
(assert (let ((.def_9921 (= t1_pc (_ bv0 32)))).def_9921))
(assert (let ((.def_9924 (= t2_pc (_ bv0 32)))).def_9924))
(assert (let ((.def_9927 (= t3_pc (_ bv0 32)))).def_9927))
(assert (let ((.def_9930 (= t4_pc (_ bv0 32)))).def_9930))
(assert (let ((.def_9933 (= t5_pc (_ bv0 32)))).def_9933))
(assert (let ((.def_9936 (= t6_pc (_ bv0 32)))).def_9936))
(assert (let ((.def_9939 (= t7_pc (_ bv0 32)))).def_9939))
(assert (let ((.def_9941 (= m_pc (_ bv1 32)))).def_9941))
(assert (let ((.def_9943 (= t1_pc (_ bv1 32)))).def_9943))
(assert (let ((.def_9945 (= t2_pc (_ bv1 32)))).def_9945))
(assert (let ((.def_9947 (= t3_pc (_ bv1 32)))).def_9947))
(assert (let ((.def_9949 (= t4_pc (_ bv1 32)))).def_9949))
(assert (let ((.def_9951 (= t5_pc (_ bv1 32)))).def_9951))
(assert (let ((.def_9953 (= t6_pc (_ bv1 32)))).def_9953))
(assert (let ((.def_9955 (= t7_pc (_ bv1 32)))).def_9955))
(assert (let ((.def_20612 (= E_6 (_ bv2 32)))).def_20612))
(assert (let ((.def_20615 (= E_3 (_ bv2 32)))).def_20615))
(assert (let ((.def_20618 (= E_7 (_ bv1 32)))).def_20618))
(assert (let ((.def_20621 (= E_5 (_ bv1 32)))).def_20621))
(assert (let ((.def_20624 (= E_4 (_ bv1 32)))).def_20624))
(assert (let ((.def_20626 (= E_3 (_ bv1 32)))).def_20626))
(assert (let ((.def_20629 (= E_2 (_ bv1 32)))).def_20629))
(assert (let ((.def_20631 (= E_6 (_ bv1 32)))).def_20631))
(assert (let ((.def_20634 (= E_M (_ bv1 32)))).def_20634))
(assert (let ((.def_9958 (= m_st (_ bv0 32)))).def_9958))
(assert (let ((.def_56926 (= local (_ bv0 32)))).def_56926))
(assert (let ((.def_56928 (= token (_ bv0 32)))).def_56928))
(assert (let ((.def_20640 (= t3_st (_ bv0 32)))).def_20640))
(assert (let ((.def_56930 (= m_st (_ bv2 32)))).def_56930))
(assert (let ((.def_56932 (= E_5 (_ bv2 32)))).def_56932))
(assert (let ((.def_56934 (= E_4 (_ bv2 32)))).def_56934))
(assert (let ((.def_56936 (= E_2 (_ bv2 32)))).def_56936))
(assert (let ((.def_20658 (= E_1 (_ bv2 32)))).def_20658))
(assert (let ((.def_20655 (= t7_st (_ bv0 32)))).def_20655))
(assert (let ((.def_95452 (= E_M (_ bv0 32)))).def_95452))

