(set-info :source |printed by MathSAT|)
(declare-fun |ssl3_connect::blastFlag| () (_ BitVec 32))
(declare-fun |ssl3_connect::s__state| () (_ BitVec 32))
(declare-fun |ssl3_connect::s__s3__tmp__reuse_message| () (_ BitVec 32))
(declare-fun |ssl3_connect::s__hit| () (_ BitVec 32))
(declare-fun |ssl3_connect::s__s3__tmp__next_state___0| () (_ BitVec 32))
(declare-fun |ssl3_accept::blastFlag| () (_ BitVec 32))
(declare-fun |ssl3_accept::s__state| () (_ BitVec 32))
(declare-fun |ssl3_accept::s__s3__tmp__next_state___0| () (_ BitVec 32))
(declare-fun |ssl3_accept::skip| () (_ BitVec 32))
(declare-fun |ssl3_accept::s__hit| () (_ BitVec 32))
(declare-fun |ssl3_accept::s__s3__tmp__reuse_message| () (_ BitVec 32))

ssl3_connect:
(assert (let ((.def_678 (= |ssl3_connect::blastFlag| (_ bv5 32)))).def_678))

ssl3_connect N117:
(assert (let ((.def_1602 (= |ssl3_connect::s__state| (_ bv12292 32)))).def_1602))
(assert (let ((.def_1604 (= |ssl3_connect::blastFlag| (_ bv0 32)))).def_1604))
(assert (let ((.def_678 (= |ssl3_connect::blastFlag| (_ bv5 32)))).def_678))
(assert (let ((.def_3753 (= |ssl3_connect::s__s3__tmp__reuse_message| (_ bv0 32)))).def_3753))
(assert (let ((.def_3755 (= |ssl3_connect::s__state| (_ bv4368 32)))).def_3755))
(assert (let ((.def_3757 (= |ssl3_connect::blastFlag| (_ bv2 32)))).def_3757))
(assert (let ((.def_3759 (= |ssl3_connect::blastFlag| (_ bv3 32)))).def_3759))
(assert (let ((.def_3761 (= |ssl3_connect::blastFlag| (_ bv4 32)))).def_3761))
(assert (let ((.def_3763 (= |ssl3_connect::blastFlag| (_ bv1 32)))).def_3763))
(assert (let ((.def_3766 (= |ssl3_connect::s__hit| (_ bv0 32)))).def_3766))
(assert (let ((.def_3768 (= |ssl3_connect::s__state| (_ bv4433 32)))).def_3768))
(assert (let ((.def_3770 (= |ssl3_connect::s__state| (_ bv4432 32)))).def_3770))
(assert (let ((.def_9677 (= |ssl3_connect::s__state| (_ bv4099 32)))).def_9677))
(assert (let ((.def_9679 (= |ssl3_connect::s__state| (_ bv20480 32)))).def_9679))
(assert (let ((.def_9681 (= |ssl3_connect::s__state| (_ bv4096 32)))).def_9681))
(assert (let ((.def_9683 (= |ssl3_connect::s__state| (_ bv16384 32)))).def_9683))
(assert (let ((.def_9685 (= |ssl3_connect::s__state| (_ bv4369 32)))).def_9685))
(assert (let ((.def_9687 (= |ssl3_connect::s__state| (_ bv4384 32)))).def_9687))
(assert (let ((.def_15532 (= |ssl3_connect::s__s3__tmp__next_state___0| (_ bv12292 32)))).def_15532))
(assert (let ((.def_15534 (= |ssl3_connect::s__s3__tmp__next_state___0| (_ bv4099 32)))).def_15534))
(assert (let ((.def_15536 (= |ssl3_connect::s__s3__tmp__next_state___0| (_ bv20480 32)))).def_15536))
(assert (let ((.def_15538 (= |ssl3_connect::s__s3__tmp__next_state___0| (_ bv4096 32)))).def_15538))
(assert (let ((.def_15540 (= |ssl3_connect::s__state| |ssl3_connect::s__s3__tmp__next_state___0|))).def_15540))
(assert (let ((.def_15542 (= |ssl3_connect::s__state| (_ bv4352 32)))).def_15542))
(assert (let ((.def_15544 (= |ssl3_connect::s__s3__tmp__next_state___0| (_ bv3 32)))).def_15544))
(assert (let ((.def_15546 (= |ssl3_connect::s__s3__tmp__next_state___0| (_ bv16384 32)))).def_15546))
(assert (let ((.def_15548 (= |ssl3_connect::s__s3__tmp__next_state___0| (_ bv4369 32)))).def_15548))
(assert (let ((.def_15550 (= |ssl3_connect::s__s3__tmp__next_state___0| (_ bv4368 32)))).def_15550))
(assert (let ((.def_15552 (= |ssl3_connect::s__state| (_ bv4400 32)))).def_15552))
(assert (let ((.def_15554 (= |ssl3_connect::s__s3__tmp__next_state___0| (_ bv4384 32)))).def_15554))
(assert (let ((.def_15556 (= |ssl3_connect::s__s3__tmp__next_state___0| (_ bv4385 32)))).def_15556))
(assert (let ((.def_15558 (= |ssl3_connect::s__s3__tmp__next_state___0| (_ bv4400 32)))).def_15558))
(assert (let ((.def_15560 (= |ssl3_connect::s__state| (_ bv4528 32)))).def_15560))
(assert (let ((.def_15562 (= |ssl3_connect::s__state| (_ bv4561 32)))).def_15562))
(assert (let ((.def_15564 (= |ssl3_connect::s__state| (_ bv4560 32)))).def_15564))
(assert (let ((.def_15566 (= |ssl3_connect::s__state| (_ bv4416 32)))).def_15566))
(assert (let ((.def_15568 (= |ssl3_connect::s__state| (_ bv4448 32)))).def_15568))
(assert (let ((.def_15570 (= |ssl3_connect::s__state| (_ bv4464 32)))).def_15570))
(assert (let ((.def_15572 (= |ssl3_connect::s__state| (_ bv4480 32)))).def_15572))
(assert (let ((.def_15574 (= |ssl3_connect::s__state| (_ bv4496 32)))).def_15574))
(assert (let ((.def_15576 (= |ssl3_connect::s__state| (_ bv4512 32)))).def_15576))
(assert (let ((.def_15578 (= |ssl3_connect::s__s3__tmp__next_state___0| (_ bv4401 32)))).def_15578))
(assert (let ((.def_15580 (= |ssl3_connect::s__state| (_ bv4385 32)))).def_15580))
(assert (let ((.def_15582 (= |ssl3_connect::s__state| (_ bv4401 32)))).def_15582))
(assert (let ((.def_15584 (= |ssl3_connect::s__state| (_ bv4417 32)))).def_15584))
(assert (let ((.def_15586 (= |ssl3_connect::s__state| (_ bv4529 32)))).def_15586))
(assert (let ((.def_15588 (= |ssl3_connect::s__s3__tmp__next_state___0| (_ bv4417 32)))).def_15588))
(assert (let ((.def_15590 (= |ssl3_connect::s__s3__tmp__next_state___0| (_ bv4416 32)))).def_15590))
(assert (let ((.def_15592 (= |ssl3_connect::s__state| (_ bv4497 32)))).def_15592))
(assert (let ((.def_15594 (= |ssl3_connect::s__state| (_ bv4481 32)))).def_15594))
(assert (let ((.def_15596 (= |ssl3_connect::s__state| (_ bv4467 32)))).def_15596))
(assert (let ((.def_15598 (= |ssl3_connect::s__state| (_ bv4466 32)))).def_15598))
(assert (let ((.def_15600 (= |ssl3_connect::s__state| (_ bv4465 32)))).def_15600))
(assert (let ((.def_15602 (= |ssl3_connect::s__state| (_ bv4449 32)))).def_15602))
(assert (let ((.def_15604 (= |ssl3_connect::s__s3__tmp__next_state___0| (_ bv4433 32)))).def_15604))
(assert (let ((.def_15606 (= |ssl3_connect::s__s3__tmp__next_state___0| (_ bv4432 32)))).def_15606))

ssl3_connect N576:
(assert false)
(assert (let ((.def_678 (= |ssl3_connect::blastFlag| (_ bv5 32)))).def_678))

ssl3_accept N699:
(assert (let ((.def_27648 (= |ssl3_accept::blastFlag| (_ bv4 32)))).def_27648))
(assert (let ((.def_28795 (= |ssl3_accept::s__state| (_ bv8464 32)))).def_28795))
(assert (let ((.def_28797 (= |ssl3_accept::blastFlag| (_ bv0 32)))).def_28797))
(assert (let ((.def_30172 (= |ssl3_accept::s__state| (_ bv8481 32)))).def_30172))
(assert (let ((.def_30174 (= |ssl3_accept::s__state| (_ bv8480 32)))).def_30174))
(assert (let ((.def_30176 (= |ssl3_accept::s__state| (_ bv12292 32)))).def_30176))
(assert (let ((.def_30178 (= |ssl3_accept::s__state| (_ bv16384 32)))).def_30178))
(assert (let ((.def_30180 (= |ssl3_accept::s__state| (_ bv8192 32)))).def_30180))
(assert (let ((.def_30182 (= |ssl3_accept::s__state| (_ bv24576 32)))).def_30182))
(assert (let ((.def_30184 (= |ssl3_accept::s__state| (_ bv8195 32)))).def_30184))
(assert (let ((.def_30186 (= |ssl3_accept::s__state| (_ bv8482 32)))).def_30186))
(assert (let ((.def_30188 (= |ssl3_accept::blastFlag| (_ bv1 32)))).def_30188))
(assert (let ((.def_32141 (= |ssl3_accept::blastFlag| (_ bv2 32)))).def_32141))
(assert (let ((.def_32143 (= |ssl3_accept::blastFlag| (_ bv3 32)))).def_32143))
(assert (let ((.def_32145 (= |ssl3_accept::s__state| (_ bv8466 32)))).def_32145))
(assert (let ((.def_32147 (= |ssl3_accept::s__state| (_ bv8496 32)))).def_32147))
(assert (let ((.def_32149 (= |ssl3_accept::s__state| (_ bv8528 32)))).def_32149))
(assert (let ((.def_32151 (= |ssl3_accept::s__state| (_ bv8544 32)))).def_32151))
(assert (let ((.def_32153 (= |ssl3_accept::s__state| (_ bv8560 32)))).def_32153))
(assert (let ((.def_32155 (= |ssl3_accept::s__state| (_ bv8448 32)))).def_32155))
(assert (let ((.def_32157 (= |ssl3_accept::s__state| (_ bv8592 32)))).def_32157))
(assert (let ((.def_32159 (= |ssl3_accept::s__state| (_ bv8608 32)))).def_32159))
(assert (let ((.def_32161 (= |ssl3_accept::s__state| (_ bv8640 32)))).def_32161))
(assert (let ((.def_34780 (= |ssl3_accept::s__state| (_ bv8657 32)))).def_34780))
(assert (let ((.def_34782 (= |ssl3_accept::s__state| (_ bv8656 32)))).def_34782))
(assert (let ((.def_34785 (= |ssl3_accept::s__s3__tmp__next_state___0| (_ bv8482 32)))).def_34785))
(assert (let ((.def_34787 (= |ssl3_accept::s__state| (_ bv8641 32)))).def_34787))
(assert (let ((.def_34789 (= |ssl3_accept::s__state| (_ bv3 32)))).def_34789))
(assert (let ((.def_34791 (= |ssl3_accept::s__state| (_ bv8512 32)))).def_34791))
(assert (let ((.def_37602 (= |ssl3_accept::skip| (_ bv1 32)))).def_37602))
(assert (let ((.def_37605 (= |ssl3_accept::s__hit| (_ bv0 32)))).def_37605))
(assert (let ((.def_37607 (= |ssl3_accept::s__state| (_ bv8497 32)))).def_37607))
(assert (let ((.def_41289 (= |ssl3_accept::s__state| (_ bv8465 32)))).def_41289))
(assert (let ((.def_41291 (= |ssl3_accept::s__state| (_ bv8529 32)))).def_41291))
(assert (let ((.def_41293 (= |ssl3_accept::s__state| (_ bv8593 32)))).def_41293))
(assert (let ((.def_41295 (= |ssl3_accept::s__state| (_ bv8545 32)))).def_41295))
(assert (let ((.def_41297 (= |ssl3_accept::s__state| (_ bv8609 32)))).def_41297))
(assert (let ((.def_41299 (= |ssl3_accept::s__state| (_ bv8577 32)))).def_41299))
(assert (let ((.def_41301 (= |ssl3_accept::s__state| (_ bv8576 32)))).def_41301))
(assert (let ((.def_41303 (= |ssl3_accept::s__state| (_ bv8561 32)))).def_41303))
(assert (let ((.def_41305 (= |ssl3_accept::s__state| (_ bv8513 32)))).def_41305))
(assert (let ((.def_41307 (= |ssl3_accept::s__state| |ssl3_accept::s__s3__tmp__next_state___0|))).def_41307))
(assert (let ((.def_41309 (= |ssl3_accept::s__s3__tmp__next_state___0| (_ bv8657 32)))).def_41309))
(assert (let ((.def_41311 (= |ssl3_accept::s__s3__tmp__next_state___0| (_ bv8656 32)))).def_41311))
(assert (let ((.def_41313 (= |ssl3_accept::s__s3__tmp__next_state___0| (_ bv8576 32)))).def_41313))
(assert (let ((.def_46909 (= |ssl3_accept::s__s3__tmp__reuse_message| (_ bv0 32)))).def_46909))
(assert (let ((.def_46911 (= |ssl3_accept::s__s3__tmp__next_state___0| (_ bv8496 32)))).def_46911))
(assert (let ((.def_46913 (= |ssl3_accept::s__s3__tmp__next_state___0| (_ bv8609 32)))).def_46913))
(assert (let ((.def_46915 (= |ssl3_accept::s__s3__tmp__next_state___0| (_ bv8608 32)))).def_46915))
(assert (let ((.def_46917 (= |ssl3_accept::s__s3__tmp__next_state___0| (_ bv8640 32)))).def_46917))
(assert (let ((.def_46919 (= |ssl3_accept::s__s3__tmp__next_state___0| (_ bv8497 32)))).def_46919))
(assert (let ((.def_46921 (= |ssl3_accept::s__s3__tmp__next_state___0| (_ bv3 32)))).def_46921))
(assert (let ((.def_46923 (= |ssl3_accept::skip| (_ bv0 32)))).def_46923))

ssl3_accept N1220:
(assert false)

