(set-info :source |printed by MathSAT|)
(declare-fun a20 () (_ BitVec 32))
(declare-fun a25 () (_ BitVec 32))
(declare-fun a12 () (_ BitVec 32))
(declare-fun a15 () (_ BitVec 32))
(declare-fun a16 () (_ BitVec 32))
(declare-fun a2 () (_ BitVec 32))
(declare-fun a27 () (_ BitVec 32))
(declare-fun a9 () (_ BitVec 32))
(declare-fun |calculate_output6::input| () (_ BitVec 32))
(declare-fun |calculate_output7::input| () (_ BitVec 32))
(declare-fun |calculate_output8::input| () (_ BitVec 32))
(declare-fun |calculate_output4::input| () (_ BitVec 32))

*:
(assert (let ((.def_105767 (= a20 (_ bv5 32)))).def_105767))

calculate_output8 N29569:
(assert false)
(assert (let ((.def_105767 (= a20 (_ bv5 32)))).def_105767))

main1 N30136:
(assert (let ((.def_105767 (= a20 (_ bv5 32)))).def_105767))
(assert (let ((.def_152394 (= a25 (_ bv1 32)))).def_152394))
(assert (let ((.def_152397 (= a12 (_ bv4 32)))).def_152397))
(assert (let ((.def_152400 (= a15 (_ bv1 32)))).def_152400))
(assert (let ((.def_152403 (= a16 (_ bv1 32)))).def_152403))
(assert (let ((.def_152406 (= a2 (_ bv10 32)))).def_152406))
(assert (let ((.def_152409 (= a27 (_ bv1 32)))).def_152409))
(assert (let ((.def_152412 (= a9 (_ bv18 32)))).def_152412))
(assert (let ((.def_317468 (= a20 (_ bv6 32)))).def_317468))
(assert (let ((.def_317470 (= a2 (_ bv13 32)))).def_317470))
(assert (let ((.def_317472 (= a12 (_ bv3 32)))).def_317472))
(assert (let ((.def_317474 (= a12 (_ bv2 32)))).def_317474))
(assert (let ((.def_317476 (= a9 (_ bv16 32)))).def_317476))
(assert (let ((.def_317478 (= a9 (_ bv17 32)))).def_317478))
(assert (let ((.def_1245500 (= a12 (_ bv6 32)))).def_1245500))
(assert (let ((.def_1245502 (= a20 (_ bv7 32)))).def_1245502))
(assert (let ((.def_1245504 (= a2 (_ bv11 32)))).def_1245504))
(assert (let ((.def_1245506 (= a2 (_ bv9 32)))).def_1245506))
(assert (let ((.def_1245508 (= a12 (_ bv5 32)))).def_1245508))
(assert (let ((.def_1245510 (= a2 (_ bv12 32)))).def_1245510))
(assert (let ((.def_1245512 (= a25 (_ bv0 32)))).def_1245512))
(assert (let ((.def_1245515 (= |calculate_output6::input| (_ bv1 32)))).def_1245515))
(assert (let ((.def_1245518 (= |calculate_output6::input| |calculate_output7::input|))).def_1245518))
(assert (let ((.def_1245520 (= |calculate_output7::input| (_ bv1 32)))).def_1245520))
(assert (let ((.def_1245522 (= |calculate_output7::input| (_ bv5 32)))).def_1245522))
(assert (let ((.def_1245524 (= |calculate_output7::input| (_ bv3 32)))).def_1245524))
(assert (let ((.def_1245526 (= |calculate_output7::input| (_ bv4 32)))).def_1245526))
(assert (let ((.def_1245528 (= |calculate_output7::input| (_ bv6 32)))).def_1245528))
(assert (let ((.def_1245531 (= |calculate_output8::input| (_ bv4 32)))).def_1245531))
(assert (let ((.def_1245534 (= |calculate_output4::input| (_ bv1 32)))).def_1245534))

