(set-info :source |printed by MathSAT|)
(declare-fun |ssl3_connect::blastFlag| () (_ BitVec 32))
(declare-fun |ssl3_connect::s__state| () (_ BitVec 32))
(declare-fun |ssl3_connect::cb| () (_ BitVec 32))
(declare-fun |ssl3_connect::skip| () (_ BitVec 32))
(declare-fun |ssl3_connect::s__s3__tmp__reuse_message| () (_ BitVec 32))
(declare-fun |ssl3_connect::s__s3__tmp__next_state___0| () (_ BitVec 32))
(declare-fun |ssl3_connect::s__hit| () (_ BitVec 32))
(declare-fun |ssl3_connect::s__s3__tmp__cert_req| () (_ BitVec 32))
(declare-fun |ssl3_accept::blastFlag| () (_ BitVec 32))
(declare-fun |ssl3_accept::s__state| () (_ BitVec 32))
(declare-fun |ssl3_accept::s__s3__tmp__reuse_message| () (_ BitVec 32))
(declare-fun |ssl3_accept::s__hit| () (_ BitVec 32))
(declare-fun |ssl3_accept::s__s3__tmp__next_state___0| () (_ BitVec 32))
(declare-fun |ssl3_accept::s__init_buf___0| () (_ BitVec 32))
(declare-fun |ssl3_accept::skip| () (_ BitVec 32))
(declare-fun |ssl3_accept::cb| () (_ BitVec 32))
(declare-fun |ssl3_accept::s__verify_mode| () (_ BitVec 32))
(declare-fun |ssl3_accept::s__session__peer| () (_ BitVec 32))

ssl3_connect:
(assert (let ((.def_698 (= |ssl3_connect::blastFlag| (_ bv5 32)))).def_698))

ssl3_connect N116:
(assert (let ((.def_1604 (= |ssl3_connect::s__state| (_ bv12292 32)))).def_1604))
(assert (let ((.def_1606 (= |ssl3_connect::blastFlag| (_ bv0 32)))).def_1606))
(assert (let ((.def_698 (= |ssl3_connect::blastFlag| (_ bv5 32)))).def_698))
(assert (let ((.def_3713 (= |ssl3_connect::cb| (_ bv0 32)))).def_3713))
(assert (let ((.def_3715 (= |ssl3_connect::blastFlag| (_ bv4 32)))).def_3715))
(assert (let ((.def_3717 (= |ssl3_connect::s__state| (_ bv4384 32)))).def_3717))
(assert (let ((.def_3719 (= |ssl3_connect::blastFlag| (_ bv1 32)))).def_3719))
(assert (let ((.def_3721 (= |ssl3_connect::blastFlag| (_ bv3 32)))).def_3721))
(assert (let ((.def_3723 (= |ssl3_connect::blastFlag| (_ bv2 32)))).def_3723))
(assert (let ((.def_3725 (= |ssl3_connect::s__state| (_ bv4416 32)))).def_3725))
(assert (let ((.def_3727 (= |ssl3_connect::s__state| (_ bv4400 32)))).def_3727))
(assert (let ((.def_3729 (= |ssl3_connect::s__state| (_ bv4432 32)))).def_3729))
(assert (let ((.def_9071 (= |ssl3_connect::s__state| (_ bv4368 32)))).def_9071))
(assert (let ((.def_9074 (= |ssl3_connect::skip| (_ bv0 32)))).def_9074))
(assert (let ((.def_9076 (= |ssl3_connect::s__state| (_ bv4099 32)))).def_9076))
(assert (let ((.def_9078 (= |ssl3_connect::s__state| (_ bv20480 32)))).def_9078))
(assert (let ((.def_9080 (= |ssl3_connect::s__state| (_ bv4096 32)))).def_9080))
(assert (let ((.def_9082 (= |ssl3_connect::s__state| (_ bv16384 32)))).def_9082))
(assert (let ((.def_9085 (= |ssl3_connect::s__s3__tmp__reuse_message| (_ bv0 32)))).def_9085))
(assert (let ((.def_9087 (= |ssl3_connect::s__state| (_ bv4369 32)))).def_9087))
(assert (let ((.def_9090 (= |ssl3_connect::s__state| |ssl3_connect::s__s3__tmp__next_state___0|))).def_9090))
(assert (let ((.def_9092 (= |ssl3_connect::s__state| (_ bv4352 32)))).def_9092))
(assert (let ((.def_9094 (= |ssl3_connect::s__state| (_ bv4512 32)))).def_9094))
(assert (let ((.def_9096 (= |ssl3_connect::s__state| (_ bv4496 32)))).def_9096))
(assert (let ((.def_9098 (= |ssl3_connect::s__state| (_ bv4480 32)))).def_9098))
(assert (let ((.def_9100 (= |ssl3_connect::s__state| (_ bv4464 32)))).def_9100))
(assert (let ((.def_9102 (= |ssl3_connect::s__s3__tmp__next_state___0| (_ bv4416 32)))).def_9102))
(assert (let ((.def_9104 (= |ssl3_connect::s__s3__tmp__next_state___0| (_ bv4432 32)))).def_9104))
(assert (let ((.def_9106 (= |ssl3_connect::s__s3__tmp__next_state___0| (_ bv4513 32)))).def_9106))
(assert (let ((.def_9108 (= |ssl3_connect::s__s3__tmp__next_state___0| (_ bv4512 32)))).def_9108))
(assert (let ((.def_9110 (= |ssl3_connect::s__s3__tmp__next_state___0| (_ bv4481 32)))).def_9110))
(assert (let ((.def_9112 (= |ssl3_connect::s__s3__tmp__next_state___0| (_ bv4480 32)))).def_9112))
(assert (let ((.def_9114 (= |ssl3_connect::s__s3__tmp__next_state___0| (_ bv4417 32)))).def_9114))
(assert (let ((.def_9116 (= |ssl3_connect::s__state| (_ bv4401 32)))).def_9116))
(assert (let ((.def_9118 (= |ssl3_connect::s__state| (_ bv4528 32)))).def_9118))
(assert (let ((.def_9120 (= |ssl3_connect::s__state| (_ bv4529 32)))).def_9120))
(assert (let ((.def_9122 (= |ssl3_connect::s__state| (_ bv4560 32)))).def_9122))
(assert (let ((.def_9124 (= |ssl3_connect::s__state| (_ bv4561 32)))).def_9124))
(assert (let ((.def_9126 (= |ssl3_connect::s__state| (_ bv4481 32)))).def_9126))
(assert (let ((.def_9128 (= |ssl3_connect::s__state| (_ bv4467 32)))).def_9128))
(assert (let ((.def_9130 (= |ssl3_connect::s__state| (_ bv4466 32)))).def_9130))
(assert (let ((.def_9132 (= |ssl3_connect::s__state| (_ bv4465 32)))).def_9132))
(assert (let ((.def_9134 (= |ssl3_connect::s__state| (_ bv4385 32)))).def_9134))
(assert (let ((.def_9136 (= |ssl3_connect::s__state| (_ bv4513 32)))).def_9136))
(assert (let ((.def_9138 (= |ssl3_connect::s__state| (_ bv4417 32)))).def_9138))
(assert (let ((.def_9141 (= |ssl3_connect::s__hit| (_ bv0 32)))).def_9141))
(assert (let ((.def_9143 (= |ssl3_connect::s__s3__tmp__next_state___0| (_ bv4433 32)))).def_9143))
(assert (let ((.def_9146 (= |ssl3_connect::s__s3__tmp__cert_req| (_ bv0 32)))).def_9146))
(assert (let ((.def_9148 (= |ssl3_connect::s__state| (_ bv4433 32)))).def_9148))
(assert (let ((.def_26402 (= |ssl3_connect::s__s3__tmp__next_state___0| (_ bv4352 32)))).def_26402))
(assert (let ((.def_26404 (= |ssl3_connect::s__s3__tmp__next_state___0| (_ bv4528 32)))).def_26404))
(assert (let ((.def_26406 (= |ssl3_connect::s__s3__tmp__next_state___0| (_ bv4449 32)))).def_26406))
(assert (let ((.def_26408 (= |ssl3_connect::s__s3__tmp__next_state___0| (_ bv4448 32)))).def_26408))
(assert (let ((.def_26410 (= |ssl3_connect::s__s3__tmp__next_state___0| (_ bv4529 32)))).def_26410))
(assert (let ((.def_26412 (= |ssl3_connect::s__s3__tmp__next_state___0| (_ bv4497 32)))).def_26412))
(assert (let ((.def_26414 (= |ssl3_connect::s__s3__tmp__next_state___0| (_ bv4496 32)))).def_26414))
(assert (let ((.def_26416 (= |ssl3_connect::s__s3__tmp__next_state___0| (_ bv4467 32)))).def_26416))
(assert (let ((.def_26418 (= |ssl3_connect::s__s3__tmp__next_state___0| (_ bv4466 32)))).def_26418))
(assert (let ((.def_26420 (= |ssl3_connect::s__s3__tmp__next_state___0| (_ bv4465 32)))).def_26420))
(assert (let ((.def_26422 (= |ssl3_connect::s__s3__tmp__next_state___0| (_ bv4464 32)))).def_26422))
(assert (let ((.def_26424 (= |ssl3_connect::s__s3__tmp__next_state___0| (_ bv12292 32)))).def_26424))
(assert (let ((.def_26426 (= |ssl3_connect::s__s3__tmp__next_state___0| (_ bv4096 32)))).def_26426))
(assert (let ((.def_26428 (= |ssl3_connect::s__s3__tmp__next_state___0| (_ bv20480 32)))).def_26428))
(assert (let ((.def_26430 (= |ssl3_connect::s__s3__tmp__next_state___0| (_ bv16384 32)))).def_26430))
(assert (let ((.def_26432 (= |ssl3_connect::s__s3__tmp__next_state___0| (_ bv4099 32)))).def_26432))
(assert (let ((.def_26434 (= |ssl3_connect::s__state| (_ bv4448 32)))).def_26434))
(assert (let ((.def_26436 (= |ssl3_connect::s__state| (_ bv4449 32)))).def_26436))
(assert (let ((.def_26438 (= |ssl3_connect::s__state| (_ bv4497 32)))).def_26438))
(assert (let ((.def_26440 (= |ssl3_connect::s__s3__tmp__next_state___0| (_ bv4368 32)))).def_26440))
(assert (let ((.def_26442 (= |ssl3_connect::s__s3__tmp__next_state___0| (_ bv4369 32)))).def_26442))
(assert (let ((.def_26444 (= |ssl3_connect::s__s3__tmp__next_state___0| (_ bv4385 32)))).def_26444))
(assert (let ((.def_26446 (= |ssl3_connect::s__s3__tmp__next_state___0| (_ bv4384 32)))).def_26446))
(assert (let ((.def_26448 (= |ssl3_connect::s__s3__tmp__next_state___0| (_ bv4400 32)))).def_26448))
(assert (let ((.def_26450 (= |ssl3_connect::s__s3__tmp__next_state___0| (_ bv4401 32)))).def_26450))

ssl3_connect N573:
(assert false)
(assert (let ((.def_698 (= |ssl3_connect::blastFlag| (_ bv5 32)))).def_698))

ssl3_accept N696:
(assert (let ((.def_34539 (= |ssl3_accept::blastFlag| (_ bv10 32)))).def_34539))
(assert (let ((.def_35746 (= |ssl3_accept::s__state| (_ bv8464 32)))).def_35746))
(assert (let ((.def_35748 (= |ssl3_accept::blastFlag| (_ bv0 32)))).def_35748))
(assert (let ((.def_35750 (= |ssl3_accept::blastFlag| (_ bv4 32)))).def_35750))
(assert (let ((.def_35752 (= |ssl3_accept::blastFlag| (_ bv7 32)))).def_35752))
(assert (let ((.def_37251 (= |ssl3_accept::s__state| (_ bv8481 32)))).def_37251))
(assert (let ((.def_37253 (= |ssl3_accept::s__state| (_ bv8480 32)))).def_37253))
(assert (let ((.def_37255 (= |ssl3_accept::s__state| (_ bv12292 32)))).def_37255))
(assert (let ((.def_37257 (= |ssl3_accept::s__state| (_ bv16384 32)))).def_37257))
(assert (let ((.def_37259 (= |ssl3_accept::s__state| (_ bv8192 32)))).def_37259))
(assert (let ((.def_37261 (= |ssl3_accept::s__state| (_ bv24576 32)))).def_37261))
(assert (let ((.def_37263 (= |ssl3_accept::s__state| (_ bv8195 32)))).def_37263))
(assert (let ((.def_37265 (= |ssl3_accept::s__state| (_ bv8482 32)))).def_37265))
(assert (let ((.def_37267 (= |ssl3_accept::s__state| (_ bv8496 32)))).def_37267))
(assert (let ((.def_37269 (= |ssl3_accept::blastFlag| (_ bv1 32)))).def_37269))
(assert (let ((.def_39266 (= |ssl3_accept::s__s3__tmp__reuse_message| (_ bv0 32)))).def_39266))
(assert (let ((.def_39268 (= |ssl3_accept::blastFlag| (_ bv2 32)))).def_39268))
(assert (let ((.def_39270 (= |ssl3_accept::s__state| (_ bv8448 32)))).def_39270))
(assert (let ((.def_39272 (= |ssl3_accept::s__state| (_ bv8641 32)))).def_39272))
(assert (let ((.def_39274 (= |ssl3_accept::s__state| (_ bv8640 32)))).def_39274))
(assert (let ((.def_43495 (= |ssl3_accept::s__state| (_ bv8465 32)))).def_43495))
(assert (let ((.def_43497 (= |ssl3_accept::s__state| (_ bv8466 32)))).def_43497))
(assert (let ((.def_43499 (= |ssl3_accept::s__state| (_ bv8656 32)))).def_43499))
(assert (let ((.def_43502 (= |ssl3_accept::s__hit| (_ bv0 32)))).def_43502))
(assert (let ((.def_43504 (= |ssl3_accept::s__state| (_ bv8512 32)))).def_43504))
(assert (let ((.def_43506 (= |ssl3_accept::blastFlag| (_ bv9 32)))).def_43506))
(assert (let ((.def_43508 (= |ssl3_accept::blastFlag| (_ bv3 32)))).def_43508))
(assert (let ((.def_43510 (= |ssl3_accept::blastFlag| (_ bv8 32)))).def_43510))
(assert (let ((.def_43512 (= |ssl3_accept::blastFlag| (_ bv6 32)))).def_43512))
(assert (let ((.def_43514 (= |ssl3_accept::blastFlag| (_ bv5 32)))).def_43514))
(assert (let ((.def_43516 (= |ssl3_accept::s__state| (_ bv8609 32)))).def_43516))
(assert (let ((.def_43518 (= |ssl3_accept::s__state| (_ bv8608 32)))).def_43518))
(assert (let ((.def_43520 (= |ssl3_accept::s__state| (_ bv8528 32)))).def_43520))
(assert (let ((.def_43522 (= |ssl3_accept::s__state| (_ bv8544 32)))).def_43522))
(assert (let ((.def_43524 (= |ssl3_accept::s__state| (_ bv8560 32)))).def_43524))
(assert (let ((.def_43527 (= |ssl3_accept::s__state| |ssl3_accept::s__s3__tmp__next_state___0|))).def_43527))
(assert (let ((.def_43529 (= |ssl3_accept::s__s3__tmp__next_state___0| (_ bv8482 32)))).def_43529))
(assert (let ((.def_43531 (= |ssl3_accept::s__s3__tmp__next_state___0| (_ bv3 32)))).def_43531))
(assert (let ((.def_43533 (= |ssl3_accept::s__s3__tmp__next_state___0| (_ bv8576 32)))).def_43533))
(assert (let ((.def_43535 (= |ssl3_accept::s__state| (_ bv8576 32)))).def_43535))
(assert (let ((.def_43537 (= |ssl3_accept::s__state| (_ bv8592 32)))).def_43537))
(assert (let ((.def_69967 (= |ssl3_accept::s__init_buf___0| (_ bv0 32)))).def_69967))
(assert (let ((.def_69970 (= |ssl3_accept::skip| (_ bv0 32)))).def_69970))
(assert (let ((.def_69973 (= |ssl3_accept::cb| (_ bv0 32)))).def_69973))
(assert (let ((.def_69975 (= |ssl3_accept::s__state| (_ bv8497 32)))).def_69975))
(assert (let ((.def_69977 (= |ssl3_accept::s__state| (_ bv8577 32)))).def_69977))
(assert (let ((.def_69979 (= |ssl3_accept::s__state| (_ bv8529 32)))).def_69979))
(assert (let ((.def_69981 (= |ssl3_accept::s__state| (_ bv8593 32)))).def_69981))
(assert (let ((.def_69983 (= |ssl3_accept::s__state| (_ bv8545 32)))).def_69983))
(assert (let ((.def_69985 (= |ssl3_accept::s__state| (_ bv8561 32)))).def_69985))
(assert (let ((.def_69987 (= |ssl3_accept::s__state| (_ bv8513 32)))).def_69987))
(assert (let ((.def_69989 (= |ssl3_accept::s__state| (_ bv8657 32)))).def_69989))
(assert (let ((.def_69991 (= |ssl3_accept::s__s3__tmp__next_state___0| (_ bv8656 32)))).def_69991))
(assert (let ((.def_69993 (= |ssl3_accept::s__s3__tmp__next_state___0| (_ bv8609 32)))).def_69993))
(assert (let ((.def_69995 (= |ssl3_accept::s__s3__tmp__next_state___0| (_ bv8608 32)))).def_69995))
(assert (let ((.def_69997 (= |ssl3_accept::s__s3__tmp__next_state___0| (_ bv8593 32)))).def_69997))
(assert (let ((.def_69999 (= |ssl3_accept::s__s3__tmp__next_state___0| (_ bv8592 32)))).def_69999))
(assert (let ((.def_70001 (= |ssl3_accept::s__s3__tmp__next_state___0| (_ bv8577 32)))).def_70001))
(assert (let ((.def_70003 (= |ssl3_accept::s__s3__tmp__next_state___0| (_ bv8529 32)))).def_70003))
(assert (let ((.def_70005 (= |ssl3_accept::s__s3__tmp__next_state___0| (_ bv8528 32)))).def_70005))
(assert (let ((.def_70007 (= |ssl3_accept::s__s3__tmp__next_state___0| (_ bv8513 32)))).def_70007))
(assert (let ((.def_70009 (= |ssl3_accept::s__s3__tmp__next_state___0| (_ bv8512 32)))).def_70009))
(assert (let ((.def_70011 (= |ssl3_accept::s__s3__tmp__next_state___0| (_ bv8481 32)))).def_70011))
(assert (let ((.def_70013 (= |ssl3_accept::s__s3__tmp__next_state___0| (_ bv8480 32)))).def_70013))
(assert (let ((.def_70015 (= |ssl3_accept::s__s3__tmp__next_state___0| (_ bv8195 32)))).def_70015))
(assert (let ((.def_70017 (= |ssl3_accept::s__s3__tmp__next_state___0| (_ bv24576 32)))).def_70017))
(assert (let ((.def_70019 (= |ssl3_accept::s__s3__tmp__next_state___0| (_ bv8192 32)))).def_70019))
(assert (let ((.def_70021 (= |ssl3_accept::s__s3__tmp__next_state___0| (_ bv16384 32)))).def_70021))
(assert (let ((.def_70023 (= |ssl3_accept::s__s3__tmp__next_state___0| (_ bv12292 32)))).def_70023))
(assert (let ((.def_70025 (= |ssl3_accept::s__s3__tmp__next_state___0| (_ bv8466 32)))).def_70025))
(assert (let ((.def_70027 (= |ssl3_accept::s__s3__tmp__next_state___0| (_ bv8496 32)))).def_70027))
(assert (let ((.def_70029 (= |ssl3_accept::s__s3__tmp__next_state___0| (_ bv8497 32)))).def_70029))
(assert (let ((.def_70031 (= |ssl3_accept::s__s3__tmp__next_state___0| (_ bv8640 32)))).def_70031))
(assert (let ((.def_70033 (= |ssl3_accept::s__state| (_ bv8672 32)))).def_70033))
(assert (let ((.def_70035 (= |ssl3_accept::s__s3__tmp__next_state___0| (_ bv8464 32)))).def_70035))
(assert (let ((.def_70037 (= |ssl3_accept::s__s3__tmp__next_state___0| (_ bv8465 32)))).def_70037))
(assert (let ((.def_70039 (= |ssl3_accept::s__s3__tmp__next_state___0| (_ bv8544 32)))).def_70039))
(assert (let ((.def_70041 (= |ssl3_accept::s__s3__tmp__next_state___0| (_ bv8545 32)))).def_70041))
(assert (let ((.def_70043 (= |ssl3_accept::s__s3__tmp__next_state___0| (_ bv8560 32)))).def_70043))
(assert (let ((.def_70045 (= |ssl3_accept::s__s3__tmp__next_state___0| (_ bv8561 32)))).def_70045))
(assert (let ((.def_70047 (= |ssl3_accept::s__s3__tmp__next_state___0| (_ bv8448 32)))).def_70047))
(assert (let ((.def_70050 (= |ssl3_accept::s__verify_mode| (_ bv4294967295 32)))).def_70050))
(assert (let ((.def_70052 (= |ssl3_accept::skip| (_ bv1 32)))).def_70052))
(assert (let ((.def_70055 (= |ssl3_accept::s__session__peer| (_ bv0 32)))).def_70055))
(assert (let ((.def_70057 (= |ssl3_accept::s__verify_mode| (_ bv4294967294 32)))).def_70057))
(assert (let ((.def_70059 (= |ssl3_accept::s__verify_mode| (_ bv4294967292 32)))).def_70059))
(assert (let ((.def_70061 (= |ssl3_accept::s__s3__tmp__next_state___0| (_ bv8657 32)))).def_70061))
(assert (let ((.def_70063 (= |ssl3_accept::s__state| (_ bv8673 32)))).def_70063))
(assert (let ((.def_70065 (= |ssl3_accept::s__s3__tmp__next_state___0| (_ bv8641 32)))).def_70065))

ssl3_accept N1240:
(assert false)

