(set-info :source |printed by MathSAT|)
(declare-fun a20 () (_ BitVec 32))
(declare-fun a9 () (_ BitVec 32))
(declare-fun a25 () (_ BitVec 32))
(declare-fun a12 () (_ BitVec 32))
(declare-fun a15 () (_ BitVec 32))
(declare-fun a16 () (_ BitVec 32))
(declare-fun a2 () (_ BitVec 32))
(declare-fun a27 () (_ BitVec 32))

*:
(assert (let ((.def_106192 (= a20 (_ bv5 32)))).def_106192))

calculate_output8 N29679:
(assert false)
(assert (let ((.def_106192 (= a20 (_ bv5 32)))).def_106192))

main1 N30136:
(assert (let ((.def_153120 (= a9 (_ bv18 32)))).def_153120))
(assert (let ((.def_106192 (= a20 (_ bv5 32)))).def_106192))
(assert (let ((.def_339723 (= a25 (_ bv1 32)))).def_339723))
(assert (let ((.def_339726 (= a12 (_ bv4 32)))).def_339726))
(assert (let ((.def_339729 (= a15 (_ bv1 32)))).def_339729))
(assert (let ((.def_339732 (= a16 (_ bv1 32)))).def_339732))
(assert (let ((.def_339735 (= a2 (_ bv10 32)))).def_339735))
(assert (let ((.def_339738 (= a27 (_ bv1 32)))).def_339738))
(assert (let ((.def_339740 (= a2 (_ bv13 32)))).def_339740))
(assert (let ((.def_339742 (= a9 (_ bv17 32)))).def_339742))
(assert (let ((.def_339744 (= a2 (_ bv9 32)))).def_339744))
(assert (let ((.def_339746 (= a2 (_ bv11 32)))).def_339746))
(assert (let ((.def_339748 (= a9 (_ bv16 32)))).def_339748))
(assert (let ((.def_339750 (= a2 (_ bv12 32)))).def_339750))
(assert (let ((.def_864340 (= a20 (_ bv6 32)))).def_864340))
(assert (let ((.def_864342 (= a20 (_ bv7 32)))).def_864342))
(assert (let ((.def_864344 (= a12 (_ bv6 32)))).def_864344))
(assert (let ((.def_864346 (= a12 (_ bv5 32)))).def_864346))
(assert (let ((.def_864348 (= a12 (_ bv3 32)))).def_864348))
(assert (let ((.def_864350 (= a12 (_ bv2 32)))).def_864350))

