(set-info :source |printed by MathSAT|)
(declare-fun c_num_read () (_ BitVec 32))
(declare-fun p_num_write () (_ BitVec 32))
(declare-fun c_last_read () (_ BitVec 32))
(declare-fun p_last_write () (_ BitVec 32))
(declare-fun c_dr_pc () (_ BitVec 32))
(declare-fun q_free () (_ BitVec 32))
(declare-fun q_buf_0 () (_ BitVec 32))
(declare-fun c_dr_st () (_ BitVec 32))
(declare-fun q_req_up () (_ BitVec 32))
(declare-fun q_write_ev () (_ BitVec 32))
(declare-fun q_read_ev () (_ BitVec 32))
(declare-fun p_dw_pc () (_ BitVec 32))
(declare-fun p_dw_st () (_ BitVec 32))
(declare-fun m_pc () (_ BitVec 32))
(declare-fun t1_pc () (_ BitVec 32))
(declare-fun t2_pc () (_ BitVec 32))
(declare-fun t3_pc () (_ BitVec 32))
(declare-fun t4_pc () (_ BitVec 32))
(declare-fun t5_pc () (_ BitVec 32))
(declare-fun m_st () (_ BitVec 32))

*:
(assert (let ((.def_559 (= c_num_read p_num_write))).def_559))
(assert (let ((.def_568 (= c_last_read p_last_write))).def_568))

error1 N4:
(assert false)
(assert (let ((.def_559 (= c_num_read p_num_write))).def_559))
(assert (let ((.def_568 (= c_last_read p_last_write))).def_568))

do_write_p N78:
(assert (let ((.def_755 (= c_dr_pc (_ bv0 32)))).def_755))
(assert (let ((.def_559 (= c_num_read p_num_write))).def_559))
(assert (let ((.def_568 (= c_last_read p_last_write))).def_568))
(assert (let ((.def_823 (= q_free (_ bv1 32)))).def_823))
(assert false)
(assert (let ((.def_1007 (= p_last_write q_buf_0))).def_1007))
(assert (let ((.def_1147 (= c_dr_pc (_ bv1 32)))).def_1147))
(assert (let ((.def_1149 (= q_free (_ bv0 32)))).def_1149))
(assert (let ((.def_1153 (bvadd (_ bv1 32) c_num_read)))(let ((.def_1154 (= p_num_write .def_1153))).def_1154)))
(assert (let ((.def_1835 (= c_dr_st (_ bv0 32)))).def_1835))
(assert (let ((.def_4235 (= q_req_up (_ bv1 32)))).def_4235))
(assert (let ((.def_5868 (= q_write_ev (_ bv1 32)))).def_5868))
(assert (let ((.def_5870 (= q_write_ev (_ bv0 32)))).def_5870))
(assert (let ((.def_8205 (= q_read_ev (_ bv1 32)))).def_8205))
(assert (let ((.def_8207 (= q_read_ev (_ bv0 32)))).def_8207))

do_read_c N112:
(assert (let ((.def_823 (= q_free (_ bv1 32)))).def_823))
(assert (let ((.def_559 (= c_num_read p_num_write))).def_559))
(assert (let ((.def_568 (= c_last_read p_last_write))).def_568))
(assert (let ((.def_1007 (= p_last_write q_buf_0))).def_1007))
(assert (let ((.def_1153 (bvadd (_ bv1 32) c_num_read)))(let ((.def_1154 (= p_num_write .def_1153))).def_1154)))
(assert false)
(assert (let ((.def_1149 (= q_free (_ bv0 32)))).def_1149))
(assert (let ((.def_5868 (= q_write_ev (_ bv1 32)))).def_5868))
(assert (let ((.def_5870 (= q_write_ev (_ bv0 32)))).def_5870))
(assert (let ((.def_1151 (= p_dw_pc (_ bv1 32)))).def_1151))
(assert (let ((.def_4235 (= q_req_up (_ bv1 32)))).def_4235))
(assert (let ((.def_2309 (= p_dw_st (_ bv0 32)))).def_2309))
(assert (let ((.def_8205 (= q_read_ev (_ bv1 32)))).def_8205))
(assert (let ((.def_8207 (= q_read_ev (_ bv0 32)))).def_8207))

eval1 N228:
(assert (let ((.def_755 (= c_dr_pc (_ bv0 32)))).def_755))
(assert (let ((.def_559 (= c_num_read p_num_write))).def_559))
(assert (let ((.def_568 (= c_last_read p_last_write))).def_568))
(assert (let ((.def_823 (= q_free (_ bv1 32)))).def_823))
(assert (let ((.def_965 (= p_dw_pc (_ bv0 32)))).def_965))
(assert (let ((.def_1147 (= c_dr_pc (_ bv1 32)))).def_1147))
(assert (let ((.def_1149 (= q_free (_ bv0 32)))).def_1149))
(assert (let ((.def_1151 (= p_dw_pc (_ bv1 32)))).def_1151))
(assert (let ((.def_2309 (= p_dw_st (_ bv0 32)))).def_2309))
(assert (let ((.def_1007 (= p_last_write q_buf_0))).def_1007))
(assert (let ((.def_1153 (bvadd (_ bv1 32) c_num_read)))(let ((.def_1154 (= p_num_write .def_1153))).def_1154)))
(assert (let ((.def_1835 (= c_dr_st (_ bv0 32)))).def_1835))
(assert (let ((.def_4235 (= q_req_up (_ bv1 32)))).def_4235))
(assert (let ((.def_5868 (= q_write_ev (_ bv1 32)))).def_5868))
(assert (let ((.def_5870 (= q_write_ev (_ bv0 32)))).def_5870))
(assert (let ((.def_8205 (= q_read_ev (_ bv1 32)))).def_8205))
(assert (let ((.def_8207 (= q_read_ev (_ bv0 32)))).def_8207))

start_simulation1 N283:
(assert (let ((.def_755 (= c_dr_pc (_ bv0 32)))).def_755))
(assert (let ((.def_559 (= c_num_read p_num_write))).def_559))
(assert (let ((.def_568 (= c_last_read p_last_write))).def_568))
(assert (let ((.def_823 (= q_free (_ bv1 32)))).def_823))
(assert (let ((.def_965 (= p_dw_pc (_ bv0 32)))).def_965))
(assert (let ((.def_1147 (= c_dr_pc (_ bv1 32)))).def_1147))
(assert (let ((.def_1149 (= q_free (_ bv0 32)))).def_1149))
(assert (let ((.def_1151 (= p_dw_pc (_ bv1 32)))).def_1151))
(assert (let ((.def_1835 (= c_dr_st (_ bv0 32)))).def_1835))
(assert (let ((.def_2309 (= p_dw_st (_ bv0 32)))).def_2309))
(assert (let ((.def_1007 (= p_last_write q_buf_0))).def_1007))
(assert (let ((.def_5868 (= q_write_ev (_ bv1 32)))).def_5868))
(assert (let ((.def_5870 (= q_write_ev (_ bv0 32)))).def_5870))
(assert (let ((.def_8205 (= q_read_ev (_ bv1 32)))).def_8205))
(assert (let ((.def_8207 (= q_read_ev (_ bv0 32)))).def_8207))
(assert (let ((.def_1153 (bvadd (_ bv1 32) c_num_read)))(let ((.def_1154 (= p_num_write .def_1153))).def_1154)))

error2 N328:
(assert false)
(assert (let ((.def_559 (= c_num_read p_num_write))).def_559))
(assert (let ((.def_568 (= c_last_read p_last_write))).def_568))

eval2 N691:
(assert (let ((.def_10836 (= m_pc (_ bv0 32)))).def_10836))
(assert (let ((.def_559 (= c_num_read p_num_write))).def_559))
(assert (let ((.def_568 (= c_last_read p_last_write))).def_568))
(assert (let ((.def_14011 (= t1_pc (_ bv0 32)))).def_14011))
(assert (let ((.def_14014 (= t2_pc (_ bv0 32)))).def_14014))
(assert (let ((.def_14017 (= t3_pc (_ bv0 32)))).def_14017))
(assert (let ((.def_14020 (= t4_pc (_ bv0 32)))).def_14020))
(assert (let ((.def_14023 (= t5_pc (_ bv0 32)))).def_14023))
(assert (let ((.def_14025 (= m_pc (_ bv1 32)))).def_14025))
(assert (let ((.def_14027 (= t1_pc (_ bv1 32)))).def_14027))
(assert (let ((.def_14029 (= t2_pc (_ bv1 32)))).def_14029))
(assert (let ((.def_14031 (= t3_pc (_ bv1 32)))).def_14031))
(assert (let ((.def_14033 (= t4_pc (_ bv1 32)))).def_14033))
(assert (let ((.def_14035 (= t5_pc (_ bv1 32)))).def_14035))
(assert (let ((.def_14038 (= m_st (_ bv0 32)))).def_14038))

start_simulation2 N1005:
(assert (let ((.def_10836 (= m_pc (_ bv0 32)))).def_10836))
(assert (let ((.def_559 (= c_num_read p_num_write))).def_559))
(assert (let ((.def_568 (= c_last_read p_last_write))).def_568))
(assert (let ((.def_14011 (= t1_pc (_ bv0 32)))).def_14011))
(assert (let ((.def_14014 (= t2_pc (_ bv0 32)))).def_14014))
(assert (let ((.def_14017 (= t3_pc (_ bv0 32)))).def_14017))
(assert (let ((.def_14020 (= t4_pc (_ bv0 32)))).def_14020))
(assert (let ((.def_14023 (= t5_pc (_ bv0 32)))).def_14023))
(assert (let ((.def_14025 (= m_pc (_ bv1 32)))).def_14025))
(assert (let ((.def_14027 (= t1_pc (_ bv1 32)))).def_14027))
(assert (let ((.def_14029 (= t2_pc (_ bv1 32)))).def_14029))
(assert (let ((.def_14031 (= t3_pc (_ bv1 32)))).def_14031))
(assert (let ((.def_14033 (= t4_pc (_ bv1 32)))).def_14033))
(assert (let ((.def_14035 (= t5_pc (_ bv1 32)))).def_14035))

