(set-info :source |printed by MathSAT|)
(declare-fun a20 () (_ BitVec 32))
(declare-fun a25 () (_ BitVec 32))
(declare-fun a12 () (_ BitVec 32))
(declare-fun a15 () (_ BitVec 32))
(declare-fun a16 () (_ BitVec 32))
(declare-fun a2 () (_ BitVec 32))
(declare-fun a27 () (_ BitVec 32))
(declare-fun a9 () (_ BitVec 32))
(declare-fun m_pc () (_ BitVec 32))
(declare-fun t1_pc () (_ BitVec 32))
(declare-fun t2_pc () (_ BitVec 32))
(declare-fun t3_pc () (_ BitVec 32))
(declare-fun t4_pc () (_ BitVec 32))
(declare-fun m_st () (_ BitVec 32))
(declare-fun t4_st () (_ BitVec 32))
(declare-fun E_4 () (_ BitVec 32))
(declare-fun E_2 () (_ BitVec 32))
(declare-fun E_M () (_ BitVec 32))
(declare-fun E_3 () (_ BitVec 32))
(declare-fun t1_st () (_ BitVec 32))
(declare-fun t2_st () (_ BitVec 32))
(declare-fun t3_st () (_ BitVec 32))
(declare-fun E_1 () (_ BitVec 32))
(declare-fun local () (_ BitVec 32))
(declare-fun token () (_ BitVec 32))
(declare-fun T4_E () (_ BitVec 32))
(declare-fun T3_E () (_ BitVec 32))
(declare-fun T2_E () (_ BitVec 32))
(declare-fun T1_E () (_ BitVec 32))
(declare-fun M_E () (_ BitVec 32))

*:
(assert (let ((.def_107246 (= a20 (_ bv5 32)))).def_107246))

calculate_output8 N29965:
(assert false)
(assert (let ((.def_107246 (= a20 (_ bv5 32)))).def_107246))

main1 N30136:
(assert (let ((.def_107246 (= a20 (_ bv5 32)))).def_107246))
(assert (let ((.def_154642 (= a25 (_ bv1 32)))).def_154642))
(assert (let ((.def_154645 (= a12 (_ bv4 32)))).def_154645))
(assert (let ((.def_154648 (= a15 (_ bv1 32)))).def_154648))
(assert (let ((.def_154651 (= a16 (_ bv1 32)))).def_154651))
(assert (let ((.def_154654 (= a2 (_ bv10 32)))).def_154654))
(assert (let ((.def_154657 (= a27 (_ bv1 32)))).def_154657))
(assert (let ((.def_154660 (= a9 (_ bv18 32)))).def_154660))
(assert (let ((.def_320607 (= a9 (_ bv17 32)))).def_320607))
(assert (let ((.def_320609 (= a2 (_ bv12 32)))).def_320609))
(assert (let ((.def_320611 (= a2 (_ bv11 32)))).def_320611))
(assert (let ((.def_320613 (= a2 (_ bv9 32)))).def_320613))
(assert (let ((.def_320615 (= a12 (_ bv3 32)))).def_320615))
(assert (let ((.def_320617 (= a20 (_ bv6 32)))).def_320617))
(assert (let ((.def_320619 (= a2 (_ bv13 32)))).def_320619))
(assert (let ((.def_320621 (= a9 (_ bv16 32)))).def_320621))
(assert (let ((.def_1073501 (= a12 (_ bv2 32)))).def_1073501))
(assert (let ((.def_1073503 (= a12 (_ bv5 32)))).def_1073503))
(assert (let ((.def_1073505 (= a20 (_ bv7 32)))).def_1073505))
(assert (let ((.def_1073507 (= a12 (_ bv6 32)))).def_1073507))

error N30154:
(assert false)
(assert (let ((.def_107246 (= a20 (_ bv5 32)))).def_107246))

eval N30450:
(assert (let ((.def_1214629 (= m_pc (_ bv0 32)))).def_1214629))
(assert (let ((.def_107246 (= a20 (_ bv5 32)))).def_107246))
(assert (let ((.def_1216928 (= t1_pc (_ bv0 32)))).def_1216928))
(assert (let ((.def_1216931 (= t2_pc (_ bv0 32)))).def_1216931))
(assert (let ((.def_1216934 (= t3_pc (_ bv0 32)))).def_1216934))
(assert (let ((.def_1216937 (= t4_pc (_ bv0 32)))).def_1216937))
(assert (let ((.def_1216939 (= m_pc (_ bv1 32)))).def_1216939))
(assert (let ((.def_1216941 (= t1_pc (_ bv1 32)))).def_1216941))
(assert (let ((.def_1216943 (= t2_pc (_ bv1 32)))).def_1216943))
(assert (let ((.def_1216945 (= t3_pc (_ bv1 32)))).def_1216945))
(assert (let ((.def_1216947 (= t4_pc (_ bv1 32)))).def_1216947))
(assert (let ((.def_1216950 (= m_st (_ bv0 32)))).def_1216950))
(assert (let ((.def_1220197 (= t4_st (_ bv0 32)))).def_1220197))
(assert (let ((.def_1220200 (= E_4 (_ bv1 32)))).def_1220200))
(assert (let ((.def_1220203 (= E_2 (_ bv1 32)))).def_1220203))
(assert (let ((.def_1220206 (= E_M (_ bv1 32)))).def_1220206))
(assert (let ((.def_1220209 (= E_3 (_ bv1 32)))).def_1220209))
(assert (let ((.def_1220212 (= t1_st (_ bv0 32)))).def_1220212))
(assert (let ((.def_1220215 (= t2_st (_ bv0 32)))).def_1220215))
(assert (let ((.def_1220218 (= t3_st (_ bv0 32)))).def_1220218))
(assert (let ((.def_1220221 (= E_1 (_ bv1 32)))).def_1220221))
(assert (let ((.def_1220224 (bvadd (_ bv4 32) local)))(let ((.def_1220226 (= .def_1220224 token))).def_1220226)))
(assert (let ((.def_1226717 (= E_1 (_ bv2 32)))).def_1226717))
(assert (let ((.def_1226719 (= t3_st (_ bv2 32)))).def_1226719))
(assert (let ((.def_1226721 (= t4_st (_ bv2 32)))).def_1226721))
(assert (let ((.def_1226723 (bvadd (_ bv2 32) local)))(let ((.def_1226724 (= token .def_1226723))).def_1226724)))
(assert (let ((.def_1226726 (= local token))).def_1226726))
(assert (let ((.def_1226728 (bvadd (_ bv1 32) local)))(let ((.def_1226729 (= token .def_1226728))).def_1226729)))
(assert (let ((.def_1226731 (bvadd (_ bv3 32) local)))(let ((.def_1226732 (= token .def_1226731))).def_1226732)))
(assert (let ((.def_1233002 (= E_M (_ bv0 32)))).def_1233002))
(assert (let ((.def_1233004 (= E_2 (_ bv0 32)))).def_1233004))
(assert (let ((.def_1233006 (= E_1 (_ bv0 32)))).def_1233006))
(assert (let ((.def_1238796 (= E_4 (_ bv0 32)))).def_1238796))
(assert (let ((.def_1238798 (= E_3 (_ bv0 32)))).def_1238798))
(assert (let ((.def_1238801 (= T4_E (_ bv0 32)))).def_1238801))
(assert (let ((.def_1238804 (= T3_E (_ bv0 32)))).def_1238804))
(assert (let ((.def_1238807 (= T2_E (_ bv0 32)))).def_1238807))
(assert (let ((.def_1238810 (= T1_E (_ bv0 32)))).def_1238810))
(assert (let ((.def_1238813 (= M_E (_ bv0 32)))).def_1238813))
(assert false)

start_simulation N30723:
(assert (let ((.def_1214629 (= m_pc (_ bv0 32)))).def_1214629))
(assert (let ((.def_107246 (= a20 (_ bv5 32)))).def_107246))
(assert (let ((.def_1216928 (= t1_pc (_ bv0 32)))).def_1216928))
(assert (let ((.def_1216931 (= t2_pc (_ bv0 32)))).def_1216931))
(assert (let ((.def_1216934 (= t3_pc (_ bv0 32)))).def_1216934))
(assert (let ((.def_1216937 (= t4_pc (_ bv0 32)))).def_1216937))
(assert (let ((.def_1216939 (= m_pc (_ bv1 32)))).def_1216939))
(assert (let ((.def_1216941 (= t1_pc (_ bv1 32)))).def_1216941))
(assert (let ((.def_1216943 (= t2_pc (_ bv1 32)))).def_1216943))
(assert (let ((.def_1216945 (= t3_pc (_ bv1 32)))).def_1216945))
(assert (let ((.def_1216947 (= t4_pc (_ bv1 32)))).def_1216947))
(assert (let ((.def_1220197 (= t4_st (_ bv0 32)))).def_1220197))
(assert (let ((.def_1220200 (= E_4 (_ bv1 32)))).def_1220200))
(assert (let ((.def_1220203 (= E_2 (_ bv1 32)))).def_1220203))
(assert (let ((.def_1220206 (= E_M (_ bv1 32)))).def_1220206))
(assert (let ((.def_1220209 (= E_3 (_ bv1 32)))).def_1220209))
(assert (let ((.def_1216950 (= m_st (_ bv0 32)))).def_1216950))
(assert (let ((.def_1220221 (= E_1 (_ bv1 32)))).def_1220221))
(assert (let ((.def_1226717 (= E_1 (_ bv2 32)))).def_1226717))
(assert (let ((.def_1220215 (= t2_st (_ bv0 32)))).def_1220215))
(assert (let ((.def_1220212 (= t1_st (_ bv0 32)))).def_1220212))
(assert (let ((.def_1233002 (= E_M (_ bv0 32)))).def_1233002))
(assert (let ((.def_1233004 (= E_2 (_ bv0 32)))).def_1233004))
(assert (let ((.def_1220218 (= t3_st (_ bv0 32)))).def_1220218))
(assert (let ((.def_1238796 (= E_4 (_ bv0 32)))).def_1238796))
(assert (let ((.def_1238798 (= E_3 (_ bv0 32)))).def_1238798))
(assert (let ((.def_1238801 (= T4_E (_ bv0 32)))).def_1238801))
(assert (let ((.def_1238804 (= T3_E (_ bv0 32)))).def_1238804))
(assert (let ((.def_1238807 (= T2_E (_ bv0 32)))).def_1238807))
(assert (let ((.def_1238810 (= T1_E (_ bv0 32)))).def_1238810))
(assert (let ((.def_1238813 (= M_E (_ bv0 32)))).def_1238813))

