(set-info :source |printed by MathSAT|)
(declare-fun |ssl3_connect::blastFlag| () (_ BitVec 32))
(declare-fun |ssl3_connect::s__state| () (_ BitVec 32))
(declare-fun |ssl3_connect::skip| () (_ BitVec 32))
(declare-fun |ssl3_connect::cb| () (_ BitVec 32))
(declare-fun |ssl3_connect::s__s3__tmp__reuse_message| () (_ BitVec 32))
(declare-fun |ssl3_connect::s__s3__tmp__next_state___0| () (_ BitVec 32))
(declare-fun |ssl3_connect::s__hit| () (_ BitVec 32))
(declare-fun |ssl3_accept::s__state| () (_ BitVec 32))
(declare-fun |ssl3_accept::blastFlag| () (_ BitVec 32))
(declare-fun |ssl3_accept::s__s3__tmp__reuse_message| () (_ BitVec 32))
(declare-fun |ssl3_accept::s__hit| () (_ BitVec 32))
(declare-fun |ssl3_accept::s__s3__tmp__next_state___0| () (_ BitVec 32))
(declare-fun |ssl3_accept::s__init_buf___0| () (_ BitVec 32))
(declare-fun |ssl3_accept::s__s3__tmp__new_cipher__algorithms| () (_ BitVec 32))
(declare-fun |ssl3_accept::s__verify_mode| () (_ BitVec 32))
(declare-fun |ssl3_accept::s__session__peer| () (_ BitVec 32))

ssl3_connect:
(assert (let ((.def_686 (= |ssl3_connect::blastFlag| (_ bv5 32)))).def_686))

ssl3_connect N126:
(assert (let ((.def_1687 (= |ssl3_connect::s__state| (_ bv12292 32)))).def_1687))
(assert (let ((.def_1689 (= |ssl3_connect::blastFlag| (_ bv0 32)))).def_1689))
(assert (let ((.def_686 (= |ssl3_connect::blastFlag| (_ bv5 32)))).def_686))
(assert (let ((.def_3955 (= |ssl3_connect::skip| (_ bv0 32)))).def_3955))
(assert (let ((.def_3957 (= |ssl3_connect::s__state| (_ bv4368 32)))).def_3957))
(assert (let ((.def_3959 (= |ssl3_connect::blastFlag| (_ bv4 32)))).def_3959))
(assert (let ((.def_3961 (= |ssl3_connect::s__state| (_ bv4384 32)))).def_3961))
(assert (let ((.def_3963 (= |ssl3_connect::blastFlag| (_ bv1 32)))).def_3963))
(assert (let ((.def_3965 (= |ssl3_connect::blastFlag| (_ bv2 32)))).def_3965))
(assert (let ((.def_3967 (= |ssl3_connect::blastFlag| (_ bv3 32)))).def_3967))
(assert (let ((.def_8197 (= |ssl3_connect::s__state| (_ bv4385 32)))).def_8197))
(assert (let ((.def_8199 (= |ssl3_connect::s__state| (_ bv4400 32)))).def_8199))
(assert (let ((.def_8201 (= |ssl3_connect::s__state| (_ bv4433 32)))).def_8201))
(assert (let ((.def_8203 (= |ssl3_connect::s__state| (_ bv4432 32)))).def_8203))
(assert (let ((.def_8205 (= |ssl3_connect::s__state| (_ bv4416 32)))).def_8205))
(assert (let ((.def_15129 (= |ssl3_connect::s__state| (_ bv4099 32)))).def_15129))
(assert (let ((.def_15131 (= |ssl3_connect::s__state| (_ bv20480 32)))).def_15131))
(assert (let ((.def_15133 (= |ssl3_connect::s__state| (_ bv4096 32)))).def_15133))
(assert (let ((.def_15135 (= |ssl3_connect::s__state| (_ bv16384 32)))).def_15135))
(assert (let ((.def_15138 (= |ssl3_connect::cb| (_ bv0 32)))).def_15138))
(assert (let ((.def_15141 (= |ssl3_connect::s__s3__tmp__reuse_message| (_ bv0 32)))).def_15141))
(assert (let ((.def_15143 (= |ssl3_connect::s__state| (_ bv4512 32)))).def_15143))
(assert (let ((.def_15145 (= |ssl3_connect::s__state| (_ bv4369 32)))).def_15145))
(assert (let ((.def_15147 (= |ssl3_connect::s__state| (_ bv4352 32)))).def_15147))
(assert (let ((.def_15150 (= |ssl3_connect::s__s3__tmp__next_state___0| (_ bv4560 32)))).def_15150))
(assert (let ((.def_15153 (= |ssl3_connect::s__hit| (_ bv0 32)))).def_15153))
(assert (let ((.def_15155 (= |ssl3_connect::s__state| (_ bv4480 32)))).def_15155))
(assert (let ((.def_15157 (= |ssl3_connect::s__s3__tmp__next_state___0| (_ bv4496 32)))).def_15157))
(assert (let ((.def_15159 (= |ssl3_connect::s__s3__tmp__next_state___0| (_ bv4480 32)))).def_15159))
(assert (let ((.def_15161 (= |ssl3_connect::s__s3__tmp__next_state___0| (_ bv4464 32)))).def_15161))
(assert (let ((.def_15163 (= |ssl3_connect::s__s3__tmp__next_state___0| (_ bv4448 32)))).def_15163))
(assert (let ((.def_15165 (= |ssl3_connect::s__s3__tmp__next_state___0| (_ bv4432 32)))).def_15165))
(assert (let ((.def_15167 (= |ssl3_connect::s__s3__tmp__next_state___0| (_ bv4400 32)))).def_15167))
(assert (let ((.def_15169 (= |ssl3_connect::s__s3__tmp__next_state___0| (_ bv4384 32)))).def_15169))
(assert (let ((.def_15171 (= |ssl3_connect::s__s3__tmp__next_state___0| (_ bv4368 32)))).def_15171))
(assert (let ((.def_15173 (= |ssl3_connect::s__s3__tmp__next_state___0| (_ bv4512 32)))).def_15173))
(assert (let ((.def_15175 (= |ssl3_connect::s__state| |ssl3_connect::s__s3__tmp__next_state___0|))).def_15175))
(assert (let ((.def_15177 (= |ssl3_connect::s__state| (_ bv4560 32)))).def_15177))
(assert (let ((.def_15179 (= |ssl3_connect::s__state| (_ bv4561 32)))).def_15179))
(assert (let ((.def_15181 (= |ssl3_connect::s__s3__tmp__next_state___0| (_ bv4416 32)))).def_15181))
(assert (let ((.def_15183 (= |ssl3_connect::s__s3__tmp__next_state___0| (_ bv3 32)))).def_15183))
(assert (let ((.def_15185 (= |ssl3_connect::s__state| (_ bv4448 32)))).def_15185))
(assert (let ((.def_15187 (= |ssl3_connect::s__state| (_ bv4464 32)))).def_15187))
(assert (let ((.def_15189 (= |ssl3_connect::s__state| (_ bv4496 32)))).def_15189))
(assert (let ((.def_15191 (= |ssl3_connect::s__state| (_ bv4528 32)))).def_15191))
(assert (let ((.def_15193 (= |ssl3_connect::s__s3__tmp__next_state___0| (_ bv4369 32)))).def_15193))
(assert (let ((.def_15195 (= |ssl3_connect::s__state| (_ bv4513 32)))).def_15195))
(assert (let ((.def_15197 (= |ssl3_connect::s__state| (_ bv4497 32)))).def_15197))
(assert (let ((.def_15199 (= |ssl3_connect::s__state| (_ bv4481 32)))).def_15199))
(assert (let ((.def_15201 (= |ssl3_connect::s__state| (_ bv4467 32)))).def_15201))
(assert (let ((.def_15203 (= |ssl3_connect::s__state| (_ bv4466 32)))).def_15203))
(assert (let ((.def_15205 (= |ssl3_connect::s__state| (_ bv4465 32)))).def_15205))
(assert (let ((.def_15207 (= |ssl3_connect::s__state| (_ bv4449 32)))).def_15207))
(assert (let ((.def_15209 (= |ssl3_connect::s__s3__tmp__next_state___0| (_ bv4385 32)))).def_15209))
(assert (let ((.def_15211 (= |ssl3_connect::s__state| (_ bv4401 32)))).def_15211))
(assert (let ((.def_15213 (= |ssl3_connect::s__s3__tmp__next_state___0| (_ bv4417 32)))).def_15213))
(assert (let ((.def_15215 (= |ssl3_connect::s__s3__tmp__next_state___0| (_ bv4352 32)))).def_15215))
(assert (let ((.def_15217 (= |ssl3_connect::s__s3__tmp__next_state___0| (_ bv4401 32)))).def_15217))
(assert (let ((.def_15219 (= |ssl3_connect::s__state| (_ bv4529 32)))).def_15219))
(assert (let ((.def_15221 (= |ssl3_connect::s__state| (_ bv4417 32)))).def_15221))
(assert (let ((.def_15223 (= |ssl3_connect::s__s3__tmp__next_state___0| (_ bv4433 32)))).def_15223))

ssl3_connect N594:
(assert false)
(assert (let ((.def_686 (= |ssl3_connect::blastFlag| (_ bv5 32)))).def_686))

ssl3_accept N717:
(assert (let ((.def_26207 (= |ssl3_accept::s__state| (_ bv8464 32)))).def_26207))
(assert (let ((.def_27415 (= |ssl3_accept::s__state| (_ bv8482 32)))).def_27415))
(assert (let ((.def_27418 (= |ssl3_accept::blastFlag| (_ bv0 32)))).def_27418))
(assert (let ((.def_27420 (= |ssl3_accept::blastFlag| (_ bv8 32)))).def_27420))
(assert (let ((.def_27422 (= |ssl3_accept::blastFlag| (_ bv5 32)))).def_27422))
(assert (let ((.def_28929 (= |ssl3_accept::s__state| (_ bv8481 32)))).def_28929))
(assert (let ((.def_28931 (= |ssl3_accept::s__state| (_ bv8480 32)))).def_28931))
(assert (let ((.def_28933 (= |ssl3_accept::s__state| (_ bv12292 32)))).def_28933))
(assert (let ((.def_28935 (= |ssl3_accept::s__state| (_ bv16384 32)))).def_28935))
(assert (let ((.def_28937 (= |ssl3_accept::s__state| (_ bv8192 32)))).def_28937))
(assert (let ((.def_28939 (= |ssl3_accept::s__state| (_ bv24576 32)))).def_28939))
(assert (let ((.def_28941 (= |ssl3_accept::s__state| (_ bv8195 32)))).def_28941))
(assert (let ((.def_28943 (= |ssl3_accept::s__state| (_ bv8496 32)))).def_28943))
(assert (let ((.def_28945 (= |ssl3_accept::blastFlag| (_ bv1 32)))).def_28945))
(assert (let ((.def_28947 (= |ssl3_accept::s__state| (_ bv8512 32)))).def_28947))
(assert (let ((.def_30976 (= |ssl3_accept::s__s3__tmp__reuse_message| (_ bv0 32)))).def_30976))
(assert (let ((.def_30978 (= |ssl3_accept::s__state| (_ bv8657 32)))).def_30978))
(assert (let ((.def_30980 (= |ssl3_accept::blastFlag| (_ bv2 32)))).def_30980))
(assert (let ((.def_30982 (= |ssl3_accept::s__state| (_ bv8656 32)))).def_30982))
(assert (let ((.def_30984 (= |ssl3_accept::s__state| (_ bv8641 32)))).def_30984))
(assert (let ((.def_30986 (= |ssl3_accept::s__state| (_ bv8640 32)))).def_30986))
(assert (let ((.def_30988 (= |ssl3_accept::s__state| (_ bv8609 32)))).def_30988))
(assert (let ((.def_30990 (= |ssl3_accept::s__state| (_ bv8608 32)))).def_30990))
(assert (let ((.def_30992 (= |ssl3_accept::s__state| (_ bv8593 32)))).def_30992))
(assert (let ((.def_30994 (= |ssl3_accept::s__state| (_ bv8592 32)))).def_30994))
(assert (let ((.def_30996 (= |ssl3_accept::s__state| (_ bv8577 32)))).def_30996))
(assert (let ((.def_30998 (= |ssl3_accept::s__state| (_ bv8576 32)))).def_30998))
(assert (let ((.def_31000 (= |ssl3_accept::s__state| (_ bv8448 32)))).def_31000))
(assert (let ((.def_31002 (= |ssl3_accept::s__state| (_ bv8560 32)))).def_31002))
(assert (let ((.def_31004 (= |ssl3_accept::s__state| (_ bv8544 32)))).def_31004))
(assert (let ((.def_31006 (= |ssl3_accept::s__state| (_ bv8545 32)))).def_31006))
(assert (let ((.def_31008 (= |ssl3_accept::s__state| (_ bv8466 32)))).def_31008))
(assert (let ((.def_31010 (= |ssl3_accept::s__state| (_ bv8528 32)))).def_31010))
(assert (let ((.def_37195 (= |ssl3_accept::s__state| (_ bv8465 32)))).def_37195))
(assert (let ((.def_37198 (= |ssl3_accept::s__hit| (_ bv0 32)))).def_37198))
(assert (let ((.def_37200 (= |ssl3_accept::blastFlag| (_ bv7 32)))).def_37200))
(assert (let ((.def_37202 (= |ssl3_accept::blastFlag| (_ bv3 32)))).def_37202))
(assert (let ((.def_37204 (= |ssl3_accept::blastFlag| (_ bv6 32)))).def_37204))
(assert (let ((.def_37206 (= |ssl3_accept::blastFlag| (_ bv4 32)))).def_37206))
(assert (let ((.def_37209 (= |ssl3_accept::s__state| |ssl3_accept::s__s3__tmp__next_state___0|))).def_37209))
(assert (let ((.def_37211 (= |ssl3_accept::s__s3__tmp__next_state___0| (_ bv8576 32)))).def_37211))
(assert (let ((.def_37213 (= |ssl3_accept::s__s3__tmp__next_state___0| (_ bv8608 32)))).def_37213))
(assert (let ((.def_37215 (= |ssl3_accept::s__s3__tmp__next_state___0| (_ bv8609 32)))).def_37215))
(assert (let ((.def_37217 (= |ssl3_accept::s__s3__tmp__next_state___0| (_ bv8641 32)))).def_37217))
(assert (let ((.def_37219 (= |ssl3_accept::s__s3__tmp__next_state___0| (_ bv8640 32)))).def_37219))
(assert (let ((.def_37221 (= |ssl3_accept::s__state| (_ bv8497 32)))).def_37221))
(assert (let ((.def_37223 (= |ssl3_accept::s__state| (_ bv8513 32)))).def_37223))
(assert (let ((.def_37225 (= |ssl3_accept::s__state| (_ bv8529 32)))).def_37225))
(assert (let ((.def_65959 (= |ssl3_accept::s__init_buf___0| (_ bv0 32)))).def_65959))
(assert (let ((.def_65961 (= |ssl3_accept::s__state| (_ bv8672 32)))).def_65961))
(assert (let ((.def_65963 (= |ssl3_accept::s__state| (_ bv8561 32)))).def_65963))
(assert (let ((.def_65965 (= |ssl3_accept::s__s3__tmp__next_state___0| (_ bv8593 32)))).def_65965))
(assert (let ((.def_65967 (= |ssl3_accept::s__s3__tmp__next_state___0| (_ bv8592 32)))).def_65967))
(assert (let ((.def_65969 (= |ssl3_accept::s__s3__tmp__next_state___0| (_ bv8577 32)))).def_65969))
(assert (let ((.def_65971 (= |ssl3_accept::s__s3__tmp__next_state___0| (_ bv8545 32)))).def_65971))
(assert (let ((.def_65973 (= |ssl3_accept::s__s3__tmp__next_state___0| (_ bv8544 32)))).def_65973))
(assert (let ((.def_65975 (= |ssl3_accept::s__s3__tmp__next_state___0| (_ bv8529 32)))).def_65975))
(assert (let ((.def_65977 (= |ssl3_accept::s__s3__tmp__next_state___0| (_ bv8528 32)))).def_65977))
(assert (let ((.def_65979 (= |ssl3_accept::s__s3__tmp__next_state___0| (_ bv8513 32)))).def_65979))
(assert (let ((.def_65981 (= |ssl3_accept::s__s3__tmp__next_state___0| (_ bv8512 32)))).def_65981))
(assert (let ((.def_65983 (= |ssl3_accept::s__s3__tmp__next_state___0| (_ bv8497 32)))).def_65983))
(assert (let ((.def_65985 (= |ssl3_accept::s__s3__tmp__next_state___0| (_ bv8466 32)))).def_65985))
(assert (let ((.def_65987 (= |ssl3_accept::s__s3__tmp__next_state___0| (_ bv8465 32)))).def_65987))
(assert (let ((.def_65989 (= |ssl3_accept::s__s3__tmp__next_state___0| (_ bv8464 32)))).def_65989))
(assert (let ((.def_65991 (= |ssl3_accept::s__s3__tmp__next_state___0| (_ bv8482 32)))).def_65991))
(assert (let ((.def_65993 (= |ssl3_accept::s__s3__tmp__next_state___0| (_ bv8481 32)))).def_65993))
(assert (let ((.def_65995 (= |ssl3_accept::s__s3__tmp__next_state___0| (_ bv8480 32)))).def_65995))
(assert (let ((.def_65997 (= |ssl3_accept::s__s3__tmp__next_state___0| (_ bv8448 32)))).def_65997))
(assert (let ((.def_65999 (= |ssl3_accept::s__s3__tmp__next_state___0| (_ bv8561 32)))).def_65999))
(assert (let ((.def_66001 (= |ssl3_accept::s__s3__tmp__next_state___0| (_ bv8560 32)))).def_66001))
(assert (let ((.def_66003 (= |ssl3_accept::s__s3__tmp__next_state___0| (_ bv8656 32)))).def_66003))
(assert (let ((.def_66005 (= |ssl3_accept::s__s3__tmp__next_state___0| (_ bv16384 32)))).def_66005))
(assert (let ((.def_66007 (= |ssl3_accept::s__s3__tmp__next_state___0| (_ bv8192 32)))).def_66007))
(assert (let ((.def_66009 (= |ssl3_accept::s__s3__tmp__next_state___0| (_ bv24576 32)))).def_66009))
(assert (let ((.def_66011 (= |ssl3_accept::s__s3__tmp__next_state___0| (_ bv8195 32)))).def_66011))
(assert (let ((.def_66013 (= |ssl3_accept::s__s3__tmp__next_state___0| (_ bv12292 32)))).def_66013))
(assert (let ((.def_66015 (= |ssl3_accept::s__s3__tmp__next_state___0| (_ bv8496 32)))).def_66015))
(assert (let ((.def_66018 (= |ssl3_accept::s__s3__tmp__new_cipher__algorithms| (_ bv4294967040 32)))).def_66018))
(assert (let ((.def_66021 (= |ssl3_accept::s__verify_mode| (_ bv4294967295 32)))).def_66021))
(assert (let ((.def_66023 (= |ssl3_accept::s__verify_mode| (_ bv4294967292 32)))).def_66023))
(assert (let ((.def_66026 (= |ssl3_accept::s__session__peer| (_ bv0 32)))).def_66026))
(assert (let ((.def_66028 (= |ssl3_accept::s__verify_mode| (_ bv4294967294 32)))).def_66028))
(assert (let ((.def_66030 (= |ssl3_accept::s__s3__tmp__next_state___0| (_ bv3 32)))).def_66030))
(assert (let ((.def_66032 (= |ssl3_accept::s__s3__tmp__next_state___0| (_ bv8672 32)))).def_66032))
(assert (let ((.def_66034 (= |ssl3_accept::s__state| (_ bv8673 32)))).def_66034))

ssl3_accept N1254:
(assert false)

