(set-info :source |printed by MathSAT|)
(declare-fun a20 () (_ BitVec 32))
(declare-fun a25 () (_ BitVec 32))
(declare-fun a12 () (_ BitVec 32))
(declare-fun a15 () (_ BitVec 32))
(declare-fun a16 () (_ BitVec 32))
(declare-fun a2 () (_ BitVec 32))
(declare-fun a27 () (_ BitVec 32))
(declare-fun a9 () (_ BitVec 32))
(declare-fun m_pc () (_ BitVec 32))
(declare-fun t1_pc () (_ BitVec 32))
(declare-fun m_st () (_ BitVec 32))

*:
(assert (let ((.def_107201 (= a20 (_ bv5 32)))).def_107201))

calculate_output8 N29965:
(assert false)
(assert (let ((.def_107201 (= a20 (_ bv5 32)))).def_107201))

main1 N30136:
(assert (let ((.def_107201 (= a20 (_ bv5 32)))).def_107201))
(assert (let ((.def_154582 (= a25 (_ bv1 32)))).def_154582))
(assert (let ((.def_154585 (= a12 (_ bv4 32)))).def_154585))
(assert (let ((.def_154588 (= a15 (_ bv1 32)))).def_154588))
(assert (let ((.def_154591 (= a16 (_ bv1 32)))).def_154591))
(assert (let ((.def_154594 (= a2 (_ bv10 32)))).def_154594))
(assert (let ((.def_154597 (= a27 (_ bv1 32)))).def_154597))
(assert (let ((.def_154600 (= a9 (_ bv18 32)))).def_154600))
(assert (let ((.def_320547 (= a9 (_ bv17 32)))).def_320547))
(assert (let ((.def_320549 (= a2 (_ bv12 32)))).def_320549))
(assert (let ((.def_320551 (= a2 (_ bv11 32)))).def_320551))
(assert (let ((.def_320553 (= a2 (_ bv9 32)))).def_320553))
(assert (let ((.def_320555 (= a12 (_ bv3 32)))).def_320555))
(assert (let ((.def_320557 (= a20 (_ bv6 32)))).def_320557))
(assert (let ((.def_320559 (= a2 (_ bv13 32)))).def_320559))
(assert (let ((.def_320561 (= a9 (_ bv16 32)))).def_320561))
(assert (let ((.def_1073940 (= a12 (_ bv5 32)))).def_1073940))
(assert (let ((.def_1073942 (= a20 (_ bv7 32)))).def_1073942))
(assert (let ((.def_1073944 (= a12 (_ bv6 32)))).def_1073944))
(assert (let ((.def_1073946 (= a12 (_ bv2 32)))).def_1073946))

error N30154:
(assert false)
(assert (let ((.def_107201 (= a20 (_ bv5 32)))).def_107201))

eval N30301:
(assert (let ((.def_1214722 (= m_pc (_ bv0 32)))).def_1214722))
(assert (let ((.def_107201 (= a20 (_ bv5 32)))).def_107201))
(assert (let ((.def_1215313 (= t1_pc (_ bv0 32)))).def_1215313))
(assert (let ((.def_1215315 (= m_pc (_ bv1 32)))).def_1215315))
(assert (let ((.def_1215317 (= t1_pc (_ bv1 32)))).def_1215317))
(assert (let ((.def_1215320 (= m_st (_ bv0 32)))).def_1215320))

start_simulation N30451:
(assert (let ((.def_1214722 (= m_pc (_ bv0 32)))).def_1214722))
(assert (let ((.def_107201 (= a20 (_ bv5 32)))).def_107201))
(assert (let ((.def_1215313 (= t1_pc (_ bv0 32)))).def_1215313))
(assert (let ((.def_1215315 (= m_pc (_ bv1 32)))).def_1215315))
(assert (let ((.def_1215317 (= t1_pc (_ bv1 32)))).def_1215317))

