(set-info :source |printed by MathSAT|)
(declare-fun a20 () (_ BitVec 32))
(declare-fun a25 () (_ BitVec 32))
(declare-fun a12 () (_ BitVec 32))
(declare-fun a15 () (_ BitVec 32))
(declare-fun a16 () (_ BitVec 32))
(declare-fun a2 () (_ BitVec 32))
(declare-fun a27 () (_ BitVec 32))
(declare-fun a9 () (_ BitVec 32))
(declare-fun m_pc () (_ BitVec 32))
(declare-fun t1_pc () (_ BitVec 32))
(declare-fun t2_pc () (_ BitVec 32))
(declare-fun t3_pc () (_ BitVec 32))
(declare-fun t4_pc () (_ BitVec 32))
(declare-fun t5_pc () (_ BitVec 32))
(declare-fun t6_pc () (_ BitVec 32))
(declare-fun t7_pc () (_ BitVec 32))
(declare-fun t8_pc () (_ BitVec 32))
(declare-fun m_st () (_ BitVec 32))

*:
(assert (let ((.def_107218 (= a20 (_ bv5 32)))).def_107218))

calculate_output8 N29943:
(assert false)
(assert (let ((.def_107218 (= a20 (_ bv5 32)))).def_107218))

main1 N30136:
(assert (let ((.def_107218 (= a20 (_ bv5 32)))).def_107218))
(assert (let ((.def_154595 (= a25 (_ bv1 32)))).def_154595))
(assert (let ((.def_154598 (= a12 (_ bv4 32)))).def_154598))
(assert (let ((.def_154601 (= a15 (_ bv1 32)))).def_154601))
(assert (let ((.def_154604 (= a16 (_ bv1 32)))).def_154604))
(assert (let ((.def_154607 (= a2 (_ bv10 32)))).def_154607))
(assert (let ((.def_154610 (= a27 (_ bv1 32)))).def_154610))
(assert (let ((.def_154613 (= a9 (_ bv18 32)))).def_154613))
(assert (let ((.def_585106 (= a9 (_ bv17 32)))).def_585106))
(assert (let ((.def_585108 (= a12 (_ bv6 32)))).def_585108))
(assert (let ((.def_585110 (= a9 (_ bv16 32)))).def_585110))
(assert (let ((.def_585112 (= a2 (_ bv9 32)))).def_585112))
(assert (let ((.def_585114 (= a2 (_ bv12 32)))).def_585114))
(assert (let ((.def_585116 (= a20 (_ bv6 32)))).def_585116))
(assert (let ((.def_585118 (= a20 (_ bv7 32)))).def_585118))
(assert (let ((.def_585120 (= a2 (_ bv13 32)))).def_585120))
(assert (let ((.def_585122 (= a12 (_ bv3 32)))).def_585122))
(assert (let ((.def_585124 (= a12 (_ bv2 32)))).def_585124))
(assert (let ((.def_585126 (= a12 (_ bv5 32)))).def_585126))
(assert (let ((.def_585128 (= a2 (_ bv11 32)))).def_585128))

error N30154:
(assert false)
(assert (let ((.def_107218 (= a20 (_ bv5 32)))).def_107218))

eval N30679:
(assert (let ((.def_922055 (= m_pc (_ bv0 32)))).def_922055))
(assert (let ((.def_107218 (= a20 (_ bv5 32)))).def_107218))
(assert (let ((.def_928502 (= t1_pc (_ bv0 32)))).def_928502))
(assert (let ((.def_928505 (= t2_pc (_ bv0 32)))).def_928505))
(assert (let ((.def_928508 (= t3_pc (_ bv0 32)))).def_928508))
(assert (let ((.def_928511 (= t4_pc (_ bv0 32)))).def_928511))
(assert (let ((.def_928514 (= t5_pc (_ bv0 32)))).def_928514))
(assert (let ((.def_928517 (= t6_pc (_ bv0 32)))).def_928517))
(assert (let ((.def_928520 (= t7_pc (_ bv0 32)))).def_928520))
(assert (let ((.def_928523 (= t8_pc (_ bv0 32)))).def_928523))
(assert (let ((.def_928525 (= m_pc (_ bv1 32)))).def_928525))
(assert (let ((.def_928527 (= t1_pc (_ bv1 32)))).def_928527))
(assert (let ((.def_928529 (= t2_pc (_ bv1 32)))).def_928529))
(assert (let ((.def_928531 (= t3_pc (_ bv1 32)))).def_928531))
(assert (let ((.def_928533 (= t4_pc (_ bv1 32)))).def_928533))
(assert (let ((.def_928535 (= t5_pc (_ bv1 32)))).def_928535))
(assert (let ((.def_928537 (= t6_pc (_ bv1 32)))).def_928537))
(assert (let ((.def_928539 (= t7_pc (_ bv1 32)))).def_928539))
(assert (let ((.def_928541 (= t8_pc (_ bv1 32)))).def_928541))
(assert (let ((.def_928544 (= m_st (_ bv0 32)))).def_928544))

start_simulation N31116:
(assert (let ((.def_922055 (= m_pc (_ bv0 32)))).def_922055))
(assert (let ((.def_107218 (= a20 (_ bv5 32)))).def_107218))
(assert (let ((.def_928502 (= t1_pc (_ bv0 32)))).def_928502))
(assert (let ((.def_928505 (= t2_pc (_ bv0 32)))).def_928505))
(assert (let ((.def_928508 (= t3_pc (_ bv0 32)))).def_928508))
(assert (let ((.def_928511 (= t4_pc (_ bv0 32)))).def_928511))
(assert (let ((.def_928514 (= t5_pc (_ bv0 32)))).def_928514))
(assert (let ((.def_928517 (= t6_pc (_ bv0 32)))).def_928517))
(assert (let ((.def_928520 (= t7_pc (_ bv0 32)))).def_928520))
(assert (let ((.def_928523 (= t8_pc (_ bv0 32)))).def_928523))
(assert (let ((.def_928525 (= m_pc (_ bv1 32)))).def_928525))
(assert (let ((.def_928527 (= t1_pc (_ bv1 32)))).def_928527))
(assert (let ((.def_928529 (= t2_pc (_ bv1 32)))).def_928529))
(assert (let ((.def_928531 (= t3_pc (_ bv1 32)))).def_928531))
(assert (let ((.def_928533 (= t4_pc (_ bv1 32)))).def_928533))
(assert (let ((.def_928535 (= t5_pc (_ bv1 32)))).def_928535))
(assert (let ((.def_928537 (= t6_pc (_ bv1 32)))).def_928537))
(assert (let ((.def_928539 (= t7_pc (_ bv1 32)))).def_928539))
(assert (let ((.def_928541 (= t8_pc (_ bv1 32)))).def_928541))

