(set-info :source |printed by MathSAT|)
(declare-fun a20 () (_ BitVec 32))
(declare-fun a9 () (_ BitVec 32))
(declare-fun a25 () (_ BitVec 32))
(declare-fun a12 () (_ BitVec 32))
(declare-fun a15 () (_ BitVec 32))
(declare-fun a16 () (_ BitVec 32))
(declare-fun a2 () (_ BitVec 32))
(declare-fun a27 () (_ BitVec 32))
(declare-fun |calculate_output6::input| () (_ BitVec 32))
(declare-fun |calculate_output7::input| () (_ BitVec 32))

*:
(assert (let ((.def_105853 (= a20 (_ bv5 32)))).def_105853))

calculate_output8 N29613:
(assert false)
(assert (let ((.def_105853 (= a20 (_ bv5 32)))).def_105853))

main1 N30136:
(assert (let ((.def_152669 (= a9 (_ bv18 32)))).def_152669))
(assert (let ((.def_105853 (= a20 (_ bv5 32)))).def_105853))
(assert (let ((.def_339299 (= a25 (_ bv1 32)))).def_339299))
(assert (let ((.def_339302 (= a12 (_ bv4 32)))).def_339302))
(assert (let ((.def_339305 (= a15 (_ bv1 32)))).def_339305))
(assert (let ((.def_339308 (= a16 (_ bv1 32)))).def_339308))
(assert (let ((.def_339311 (= a2 (_ bv10 32)))).def_339311))
(assert (let ((.def_339314 (= a27 (_ bv1 32)))).def_339314))
(assert (let ((.def_339316 (= a12 (_ bv6 32)))).def_339316))
(assert (let ((.def_339318 (= a20 (_ bv6 32)))).def_339318))
(assert (let ((.def_339320 (= a12 (_ bv3 32)))).def_339320))
(assert (let ((.def_339322 (= a2 (_ bv12 32)))).def_339322))
(assert (let ((.def_339324 (= a12 (_ bv2 32)))).def_339324))
(assert (let ((.def_339326 (= a9 (_ bv16 32)))).def_339326))
(assert (let ((.def_339328 (= a12 (_ bv5 32)))).def_339328))
(assert (let ((.def_339330 (= a9 (_ bv17 32)))).def_339330))
(assert (let ((.def_1001696 (= a2 (_ bv11 32)))).def_1001696))
(assert (let ((.def_1001698 (= a2 (_ bv13 32)))).def_1001698))
(assert (let ((.def_1001700 (= a2 (_ bv9 32)))).def_1001700))
(assert (let ((.def_1001702 (= a20 (_ bv7 32)))).def_1001702))
(assert (let ((.def_1001705 (= |calculate_output6::input| (_ bv5 32)))).def_1001705))
(assert (let ((.def_1001707 (= |calculate_output6::input| (_ bv6 32)))).def_1001707))
(assert (let ((.def_1001709 (= |calculate_output6::input| (_ bv1 32)))).def_1001709))
(assert (let ((.def_1001712 (= |calculate_output7::input| (_ bv5 32)))).def_1001712))
(assert (let ((.def_1001714 (= |calculate_output6::input| (_ bv3 32)))).def_1001714))
(assert (let ((.def_1001716 (= |calculate_output7::input| (_ bv6 32)))).def_1001716))
(assert (let ((.def_1001718 (= |calculate_output6::input| |calculate_output7::input|))).def_1001718))
(assert (let ((.def_1001720 (= |calculate_output7::input| (_ bv2 32)))).def_1001720))

