(set-info :source |printed by MathSAT|)
(declare-fun a20 () (_ BitVec 32))
(declare-fun a25 () (_ BitVec 32))
(declare-fun a12 () (_ BitVec 32))
(declare-fun a15 () (_ BitVec 32))
(declare-fun a16 () (_ BitVec 32))
(declare-fun a2 () (_ BitVec 32))
(declare-fun a27 () (_ BitVec 32))
(declare-fun a9 () (_ BitVec 32))
(declare-fun |calculate_output5::input| () (_ BitVec 32))
(declare-fun |calculate_output2::input| () (_ BitVec 32))
(declare-fun |calculate_output6::input| () (_ BitVec 32))
(declare-fun |calculate_output7::input| () (_ BitVec 32))

*:
(assert (let ((.def_106571 (= a20 (_ bv5 32)))).def_106571))

calculate_output8 N29800:
(assert false)
(assert (let ((.def_106571 (= a20 (_ bv5 32)))).def_106571))

main1 N30136:
(assert (let ((.def_106571 (= a20 (_ bv5 32)))).def_106571))
(assert (let ((.def_153734 (= a25 (_ bv1 32)))).def_153734))
(assert (let ((.def_153737 (= a12 (_ bv4 32)))).def_153737))
(assert (let ((.def_153740 (= a15 (_ bv1 32)))).def_153740))
(assert (let ((.def_153743 (= a16 (_ bv1 32)))).def_153743))
(assert (let ((.def_153746 (= a2 (_ bv10 32)))).def_153746))
(assert (let ((.def_153749 (= a27 (_ bv1 32)))).def_153749))
(assert (let ((.def_153752 (= a9 (_ bv18 32)))).def_153752))
(assert (let ((.def_319614 (= a2 (_ bv11 32)))).def_319614))
(assert (let ((.def_319616 (= a12 (_ bv2 32)))).def_319616))
(assert (let ((.def_319618 (= a9 (_ bv17 32)))).def_319618))
(assert (let ((.def_319620 (= a2 (_ bv13 32)))).def_319620))
(assert (let ((.def_319622 (= a20 (_ bv6 32)))).def_319622))
(assert (let ((.def_319624 (= a12 (_ bv6 32)))).def_319624))
(assert (let ((.def_319626 (= a2 (_ bv9 32)))).def_319626))
(assert (let ((.def_319628 (= a9 (_ bv16 32)))).def_319628))
(assert (let ((.def_1102160 (= a12 (_ bv5 32)))).def_1102160))
(assert (let ((.def_1102162 (= a12 (_ bv3 32)))).def_1102162))
(assert (let ((.def_1102164 (= a20 (_ bv7 32)))).def_1102164))
(assert (let ((.def_1102166 (= a2 (_ bv12 32)))).def_1102166))
(assert (let ((.def_1102169 (= |calculate_output5::input| (_ bv6 32)))).def_1102169))
(assert (let ((.def_1102172 (= |calculate_output2::input| (_ bv4 32)))).def_1102172))
(assert (let ((.def_1102175 (= |calculate_output2::input| |calculate_output6::input|))).def_1102175))
(assert (let ((.def_1102177 (= |calculate_output5::input| |calculate_output6::input|))).def_1102177))
(assert (let ((.def_1102179 (= |calculate_output6::input| (_ bv6 32)))).def_1102179))
(assert (let ((.def_1102181 (= |calculate_output6::input| (_ bv2 32)))).def_1102181))
(assert (let ((.def_1102183 (= |calculate_output6::input| (_ bv3 32)))).def_1102183))
(assert (let ((.def_1102185 (= |calculate_output6::input| (_ bv4 32)))).def_1102185))
(assert (let ((.def_1102188 (= |calculate_output7::input| (_ bv4 32)))).def_1102188))
(assert (let ((.def_1102190 (= |calculate_output7::input| (_ bv6 32)))).def_1102190))
(assert (let ((.def_1102192 (= |calculate_output7::input| (_ bv2 32)))).def_1102192))
(assert (let ((.def_1102194 (= |calculate_output6::input| |calculate_output7::input|))).def_1102194))
(assert (let ((.def_1102196 (= |calculate_output7::input| (_ bv3 32)))).def_1102196))
(assert (let ((.def_1102198 (= |calculate_output5::input| (_ bv5 32)))).def_1102198))
(assert (let ((.def_1102200 (= |calculate_output7::input| (_ bv5 32)))).def_1102200))

