(set-info :source |printed by MathSAT|)
(declare-fun c_num_read () (_ BitVec 32))
(declare-fun p_num_write () (_ BitVec 32))
(declare-fun c_last_read () (_ BitVec 32))
(declare-fun p_last_write () (_ BitVec 32))
(declare-fun c_dr_pc () (_ BitVec 32))
(declare-fun q_free () (_ BitVec 32))
(declare-fun q_buf_0 () (_ BitVec 32))
(declare-fun p_dw_pc () (_ BitVec 32))
(declare-fun q_read_ev () (_ BitVec 32))
(declare-fun c_dr_st () (_ BitVec 32))
(declare-fun p_dw_st () (_ BitVec 32))
(declare-fun m_pc () (_ BitVec 32))
(declare-fun t1_pc () (_ BitVec 32))
(declare-fun t2_pc () (_ BitVec 32))
(declare-fun t3_pc () (_ BitVec 32))
(declare-fun t4_pc () (_ BitVec 32))
(declare-fun t5_pc () (_ BitVec 32))
(declare-fun t6_pc () (_ BitVec 32))
(declare-fun m_st () (_ BitVec 32))

*:
(assert (let ((.def_585 (= c_num_read p_num_write))).def_585))
(assert (let ((.def_594 (= c_last_read p_last_write))).def_594))

error1 N4:
(assert false)
(assert (let ((.def_585 (= c_num_read p_num_write))).def_585))
(assert (let ((.def_594 (= c_last_read p_last_write))).def_594))

do_write_p N64:
(assert (let ((.def_929 (= c_dr_pc (_ bv0 32)))).def_929))
(assert (let ((.def_585 (= c_num_read p_num_write))).def_585))
(assert (let ((.def_594 (= c_last_read p_last_write))).def_594))
(assert (let ((.def_1032 (= q_free (_ bv1 32)))).def_1032))
(assert false)
(assert (let ((.def_1375 (= p_last_write q_buf_0))).def_1375))
(assert (let ((.def_1035 (= p_dw_pc (_ bv1 32)))).def_1035))
(assert (let ((.def_1562 (bvadd (_ bv1 32) c_num_read)))(let ((.def_1563 (= p_num_write .def_1562))).def_1563)))
(assert (let ((.def_2456 (= q_free (_ bv0 32)))).def_2456))
(assert (let ((.def_1565 (= c_dr_pc (_ bv1 32)))).def_1565))
(assert (let ((.def_5258 (= q_read_ev (_ bv1 32)))).def_5258))

do_read_c N100:
(assert (let ((.def_1035 (= p_dw_pc (_ bv1 32)))).def_1035))
(assert (let ((.def_1032 (= q_free (_ bv1 32)))).def_1032))
(assert (let ((.def_585 (= c_num_read p_num_write))).def_585))
(assert (let ((.def_594 (= c_last_read p_last_write))).def_594))
(assert (let ((.def_1375 (= p_last_write q_buf_0))).def_1375))
(assert (let ((.def_1562 (bvadd (_ bv1 32) c_num_read)))(let ((.def_1563 (= p_num_write .def_1562))).def_1563)))
(assert (let ((.def_1565 (= c_dr_pc (_ bv1 32)))).def_1565))
(assert false)

eval1 N170:
(assert (let ((.def_929 (= c_dr_pc (_ bv0 32)))).def_929))
(assert (let ((.def_585 (= c_num_read p_num_write))).def_585))
(assert (let ((.def_594 (= c_last_read p_last_write))).def_594))
(assert (let ((.def_1032 (= q_free (_ bv1 32)))).def_1032))
(assert (let ((.def_1305 (= p_dw_pc (_ bv0 32)))).def_1305))
(assert (let ((.def_1565 (= c_dr_pc (_ bv1 32)))).def_1565))
(assert (let ((.def_3879 (= c_dr_st (_ bv0 32)))).def_3879))
(assert (let ((.def_1035 (= p_dw_pc (_ bv1 32)))).def_1035))
(assert (let ((.def_5258 (= q_read_ev (_ bv1 32)))).def_5258))
(assert (let ((.def_5261 (= p_dw_st (_ bv0 32)))).def_5261))
(assert (let ((.def_1375 (= p_last_write q_buf_0))).def_1375))
(assert (let ((.def_1562 (bvadd (_ bv1 32) c_num_read)))(let ((.def_1563 (= p_num_write .def_1562))).def_1563)))

start_simulation1 N221:
(assert (let ((.def_929 (= c_dr_pc (_ bv0 32)))).def_929))
(assert (let ((.def_585 (= c_num_read p_num_write))).def_585))
(assert (let ((.def_594 (= c_last_read p_last_write))).def_594))
(assert (let ((.def_1032 (= q_free (_ bv1 32)))).def_1032))
(assert (let ((.def_1305 (= p_dw_pc (_ bv0 32)))).def_1305))
(assert (let ((.def_5258 (= q_read_ev (_ bv1 32)))).def_5258))

error2 N260:
(assert false)
(assert (let ((.def_585 (= c_num_read p_num_write))).def_585))
(assert (let ((.def_594 (= c_last_read p_last_write))).def_594))

eval2 N677:
(assert (let ((.def_7592 (= m_pc (_ bv0 32)))).def_7592))
(assert (let ((.def_585 (= c_num_read p_num_write))).def_585))
(assert (let ((.def_594 (= c_last_read p_last_write))).def_594))
(assert (let ((.def_11732 (= t1_pc (_ bv0 32)))).def_11732))
(assert (let ((.def_11735 (= t2_pc (_ bv0 32)))).def_11735))
(assert (let ((.def_11738 (= t3_pc (_ bv0 32)))).def_11738))
(assert (let ((.def_11741 (= t4_pc (_ bv0 32)))).def_11741))
(assert (let ((.def_11744 (= t5_pc (_ bv0 32)))).def_11744))
(assert (let ((.def_11747 (= t6_pc (_ bv0 32)))).def_11747))
(assert (let ((.def_11749 (= m_pc (_ bv1 32)))).def_11749))
(assert (let ((.def_11751 (= t1_pc (_ bv1 32)))).def_11751))
(assert (let ((.def_11753 (= t2_pc (_ bv1 32)))).def_11753))
(assert (let ((.def_11755 (= t3_pc (_ bv1 32)))).def_11755))
(assert (let ((.def_11757 (= t4_pc (_ bv1 32)))).def_11757))
(assert (let ((.def_11759 (= t5_pc (_ bv1 32)))).def_11759))
(assert (let ((.def_11761 (= t6_pc (_ bv1 32)))).def_11761))
(assert (let ((.def_11764 (= m_st (_ bv0 32)))).def_11764))

start_simulation2 N1032:
(assert (let ((.def_7592 (= m_pc (_ bv0 32)))).def_7592))
(assert (let ((.def_585 (= c_num_read p_num_write))).def_585))
(assert (let ((.def_594 (= c_last_read p_last_write))).def_594))
(assert (let ((.def_11732 (= t1_pc (_ bv0 32)))).def_11732))
(assert (let ((.def_11735 (= t2_pc (_ bv0 32)))).def_11735))
(assert (let ((.def_11738 (= t3_pc (_ bv0 32)))).def_11738))
(assert (let ((.def_11741 (= t4_pc (_ bv0 32)))).def_11741))
(assert (let ((.def_11744 (= t5_pc (_ bv0 32)))).def_11744))
(assert (let ((.def_11747 (= t6_pc (_ bv0 32)))).def_11747))
(assert (let ((.def_11749 (= m_pc (_ bv1 32)))).def_11749))
(assert (let ((.def_11751 (= t1_pc (_ bv1 32)))).def_11751))
(assert (let ((.def_11753 (= t2_pc (_ bv1 32)))).def_11753))
(assert (let ((.def_11755 (= t3_pc (_ bv1 32)))).def_11755))
(assert (let ((.def_11757 (= t4_pc (_ bv1 32)))).def_11757))
(assert (let ((.def_11759 (= t5_pc (_ bv1 32)))).def_11759))
(assert (let ((.def_11761 (= t6_pc (_ bv1 32)))).def_11761))

