(set-info :source |printed by MathSAT|)
(declare-fun c_last_read () (_ BitVec 32))
(declare-fun p_last_write () (_ BitVec 32))
(declare-fun c_num_read () (_ BitVec 32))
(declare-fun p_num_write () (_ BitVec 32))
(declare-fun c_dr_pc () (_ BitVec 32))
(declare-fun c_dr_st () (_ BitVec 32))
(declare-fun m_pc () (_ BitVec 32))
(declare-fun t1_pc () (_ BitVec 32))
(declare-fun t2_pc () (_ BitVec 32))
(declare-fun m_st () (_ BitVec 32))
(declare-fun E_2 () (_ BitVec 32))
(declare-fun E_M () (_ BitVec 32))
(declare-fun t1_st () (_ BitVec 32))
(declare-fun t2_st () (_ BitVec 32))
(declare-fun local () (_ BitVec 32))
(declare-fun token () (_ BitVec 32))
(declare-fun E_1 () (_ BitVec 32))

*:
(assert (let ((.def_647 (= c_last_read p_last_write))).def_647))
(assert (let ((.def_656 (= c_num_read p_num_write))).def_656))

error1 N4:
(assert false)
(assert (let ((.def_647 (= c_last_read p_last_write))).def_647))
(assert (let ((.def_656 (= c_num_read p_num_write))).def_656))

eval1 N282:
(assert (let ((.def_807 (= c_dr_pc (_ bv0 32)))).def_807))
(assert (let ((.def_647 (= c_last_read p_last_write))).def_647))
(assert (let ((.def_656 (= c_num_read p_num_write))).def_656))
(assert (let ((.def_1298 (= c_dr_pc (_ bv2 32)))).def_1298))
(assert (let ((.def_1301 (= c_dr_st (_ bv0 32)))).def_1301))

start_simulation1 N338:
(assert (let ((.def_807 (= c_dr_pc (_ bv0 32)))).def_807))
(assert (let ((.def_647 (= c_last_read p_last_write))).def_647))
(assert (let ((.def_656 (= c_num_read p_num_write))).def_656))
(assert (let ((.def_1298 (= c_dr_pc (_ bv2 32)))).def_1298))

error2 N393:
(assert false)
(assert (let ((.def_647 (= c_last_read p_last_write))).def_647))
(assert (let ((.def_656 (= c_num_read p_num_write))).def_656))

eval2 N581:
(assert (let ((.def_4062 (= m_pc (_ bv0 32)))).def_4062))
(assert (let ((.def_647 (= c_last_read p_last_write))).def_647))
(assert (let ((.def_656 (= c_num_read p_num_write))).def_656))
(assert (let ((.def_5073 (= t1_pc (_ bv0 32)))).def_5073))
(assert (let ((.def_5076 (= t2_pc (_ bv0 32)))).def_5076))
(assert (let ((.def_5078 (= m_pc (_ bv1 32)))).def_5078))
(assert (let ((.def_5080 (= t1_pc (_ bv1 32)))).def_5080))
(assert (let ((.def_5082 (= t2_pc (_ bv1 32)))).def_5082))
(assert (let ((.def_5085 (= m_st (_ bv0 32)))).def_5085))
(assert (let ((.def_6382 (= E_2 (_ bv1 32)))).def_6382))
(assert (let ((.def_6385 (= E_M (_ bv1 32)))).def_6385))
(assert (let ((.def_6388 (= t1_st (_ bv0 32)))).def_6388))
(assert (let ((.def_6390 (= m_st (_ bv2 32)))).def_6390))
(assert (let ((.def_6393 (= t2_st (_ bv0 32)))).def_6393))
(assert (let ((.def_6396 (bvadd (_ bv2 32) local)))(let ((.def_6398 (= .def_6396 token))).def_6398)))
(assert (let ((.def_9145 (= E_1 (_ bv1 32)))).def_9145))
(assert (let ((.def_9147 (= local token))).def_9147))
(assert (let ((.def_9149 (bvadd (_ bv1 32) local)))(let ((.def_9150 (= token .def_9149))).def_9150)))
(assert (let ((.def_11510 (= E_M (_ bv0 32)))).def_11510))
(assert (let ((.def_11512 (= E_2 (_ bv0 32)))).def_11512))
(assert (let ((.def_11514 (= E_1 (_ bv0 32)))).def_11514))

start_simulation2 N772:
(assert (let ((.def_4062 (= m_pc (_ bv0 32)))).def_4062))
(assert (let ((.def_647 (= c_last_read p_last_write))).def_647))
(assert (let ((.def_656 (= c_num_read p_num_write))).def_656))
(assert (let ((.def_5073 (= t1_pc (_ bv0 32)))).def_5073))
(assert (let ((.def_5076 (= t2_pc (_ bv0 32)))).def_5076))
(assert (let ((.def_5078 (= m_pc (_ bv1 32)))).def_5078))
(assert (let ((.def_5080 (= t1_pc (_ bv1 32)))).def_5080))
(assert (let ((.def_5082 (= t2_pc (_ bv1 32)))).def_5082))
(assert (let ((.def_6382 (= E_2 (_ bv1 32)))).def_6382))
(assert (let ((.def_6385 (= E_M (_ bv1 32)))).def_6385))
(assert (let ((.def_5085 (= m_st (_ bv0 32)))).def_5085))
(assert (let ((.def_6393 (= t2_st (_ bv0 32)))).def_6393))
(assert (let ((.def_6388 (= t1_st (_ bv0 32)))).def_6388))
(assert (let ((.def_9145 (= E_1 (_ bv1 32)))).def_9145))
(assert (let ((.def_11510 (= E_M (_ bv0 32)))).def_11510))
(assert (let ((.def_11512 (= E_2 (_ bv0 32)))).def_11512))

