(set-info :source |printed by MathSAT|)
(declare-fun |assert::arg| () (_ BitVec 8))
(declare-fun st1 () (_ BitVec 8))
(declare-fun st2 () (_ BitVec 8))
(declare-fun st3 () (_ BitVec 8))
(declare-fun st4 () (_ BitVec 8))
(declare-fun st5 () (_ BitVec 8))
(declare-fun st6 () (_ BitVec 8))
(declare-fun st7 () (_ BitVec 8))
(declare-fun r1 () (_ BitVec 8))
(declare-fun p5_new () (_ BitVec 8))
(declare-fun nomsg () (_ BitVec 8))
(declare-fun p4_new () (_ BitVec 8))
(declare-fun p3_new () (_ BitVec 8))
(declare-fun p2_new () (_ BitVec 8))
(declare-fun p6_new () (_ BitVec 8))
(declare-fun mode1 () (_ BitVec 8))
(declare-fun mode2 () (_ BitVec 8))
(declare-fun mode3 () (_ BitVec 8))
(declare-fun mode4 () (_ BitVec 8))
(declare-fun mode5 () (_ BitVec 8))
(declare-fun mode6 () (_ BitVec 8))
(declare-fun mode7 () (_ BitVec 8))
(declare-fun send7 () (_ BitVec 8))
(declare-fun id1 () (_ BitVec 8))
(declare-fun id2 () (_ BitVec 8))
(declare-fun send1 () (_ BitVec 8))
(declare-fun id3 () (_ BitVec 8))
(declare-fun send2 () (_ BitVec 8))
(declare-fun p1_new () (_ BitVec 8))
(declare-fun id7 () (_ BitVec 8))
(declare-fun send6 () (_ BitVec 8))
(declare-fun id6 () (_ BitVec 8))
(declare-fun send5 () (_ BitVec 8))
(declare-fun id5 () (_ BitVec 8))
(declare-fun send4 () (_ BitVec 8))
(declare-fun id4 () (_ BitVec 8))
(declare-fun send3 () (_ BitVec 8))
(declare-fun p7_new () (_ BitVec 8))
(declare-fun p6_old () (_ BitVec 8))
(declare-fun p7_old () (_ BitVec 8))
(declare-fun p1_old () (_ BitVec 8))
(declare-fun p2_old () (_ BitVec 8))
(declare-fun p5_old () (_ BitVec 8))
(declare-fun p4_old () (_ BitVec 8))
(declare-fun p3_old () (_ BitVec 8))
(declare-fun |node1::__CPAchecker_TMP_0| () (_ BitVec 32))
(declare-fun |node5::__CPAchecker_TMP_0| () (_ BitVec 32))
(declare-fun |node4::__CPAchecker_TMP_0| () (_ BitVec 32))
(declare-fun |node3::__CPAchecker_TMP_0| () (_ BitVec 32))

assert:
(assert (let ((.def_3043 (= |assert::arg| (_ bv0 8)))).def_3043))

main1 N482:
(assert (let ((.def_3422 (= st1 (_ bv0 8)))).def_3422))
(assert (let ((.def_3425 (= st2 (_ bv0 8)))).def_3425))
(assert (let ((.def_3428 (= st3 (_ bv0 8)))).def_3428))
(assert (let ((.def_3431 (= st4 (_ bv0 8)))).def_3431))
(assert (let ((.def_3434 (= st5 (_ bv0 8)))).def_3434))
(assert (let ((.def_3437 (= st6 (_ bv0 8)))).def_3437))
(assert (let ((.def_3440 (= st7 (_ bv0 8)))).def_3440))
(assert (let ((.def_3443 (= r1 (_ bv0 8)))).def_3443))
(assert (let ((.def_3447 (= p5_new nomsg))).def_3447))
(assert (let ((.def_3450 (= nomsg p4_new))).def_3450))
(assert (let ((.def_3453 (= nomsg p3_new))).def_3453))
(assert (let ((.def_3456 (= nomsg p2_new))).def_3456))
(assert (let ((.def_3459 (= nomsg p6_new))).def_3459))
(assert (let ((.def_3462 (= mode1 (_ bv0 8)))).def_3462))
(assert (let ((.def_3465 (= mode2 (_ bv0 8)))).def_3465))
(assert (let ((.def_3468 (= mode3 (_ bv0 8)))).def_3468))
(assert (let ((.def_3471 (= mode4 (_ bv0 8)))).def_3471))
(assert (let ((.def_3474 (= mode5 (_ bv0 8)))).def_3474))
(assert (let ((.def_3477 (= mode6 (_ bv0 8)))).def_3477))
(assert (let ((.def_3480 (= mode7 (_ bv0 8)))).def_3480))
(assert (let ((.def_6014 (= st1 st7))).def_6014))
(assert (let ((.def_6016 (= st2 st7))).def_6016))
(assert (let ((.def_6018 (= st3 st7))).def_6018))
(assert (let ((.def_6020 (= st4 st7))).def_6020))
(assert (let ((.def_6022 (= st5 st7))).def_6022))
(assert (let ((.def_6024 (= st6 st7))).def_6024))
(assert (let ((.def_6028 (= send7 id1))).def_6028))
(assert (let ((.def_6031 ((_ sign_extend 24) id1)))(let ((.def_6030 ((_ sign_extend 24) send7)))(let ((.def_6032 (= .def_6030 .def_6031))).def_6032))))
(assert (let ((.def_6036 (= id2 send1))).def_6036))
(assert (let ((.def_6039 ((_ sign_extend 24) send1)))(let ((.def_6038 ((_ sign_extend 24) id2)))(let ((.def_6040 (= .def_6038 .def_6039))).def_6040))))
(assert (let ((.def_6045 ((_ sign_extend 24) send2)))(let ((.def_6043 ((_ sign_extend 24) id3)))(let ((.def_6046 (= .def_6043 .def_6045))).def_6046))))
(assert (let ((.def_6049 (= nomsg p1_new))).def_6049))
(assert (let ((.def_6053 (= id7 send6))).def_6053))
(assert (let ((.def_6056 ((_ sign_extend 24) send6)))(let ((.def_6055 ((_ sign_extend 24) id7)))(let ((.def_6057 (= .def_6055 .def_6056))).def_6057))))
(assert (let ((.def_6062 ((_ sign_extend 24) send5)))(let ((.def_6060 ((_ sign_extend 24) id6)))(let ((.def_6063 (= .def_6060 .def_6062))).def_6063))))
(assert (let ((.def_6068 ((_ sign_extend 24) send4)))(let ((.def_6066 ((_ sign_extend 24) id5)))(let ((.def_6069 (= .def_6066 .def_6068))).def_6069))))
(assert (let ((.def_6073 (= id4 send3))).def_6073))
(assert (let ((.def_6076 ((_ sign_extend 24) send3)))(let ((.def_6075 ((_ sign_extend 24) id4)))(let ((.def_6077 (= .def_6075 .def_6076))).def_6077))))
(assert (let ((.def_6080 (= nomsg p7_new))).def_6080))
(assert (let ((.def_6082 ((_ sign_extend 24) nomsg)))(let ((.def_6068 ((_ sign_extend 24) send4)))(let ((.def_6083 (= .def_6068 .def_6082))).def_6083))))
(assert (let ((.def_6082 ((_ sign_extend 24) nomsg)))(let ((.def_6062 ((_ sign_extend 24) send5)))(let ((.def_6085 (= .def_6062 .def_6082))).def_6085))))
(assert (let ((.def_6082 ((_ sign_extend 24) nomsg)))(let ((.def_6056 ((_ sign_extend 24) send6)))(let ((.def_6087 (= .def_6056 .def_6082))).def_6087))))
(assert (let ((.def_6090 ((_ sign_extend 24) p6_old)))(let ((.def_6055 ((_ sign_extend 24) id7)))(let ((.def_6091 (= .def_6055 .def_6090))).def_6091))))
(assert (let ((.def_6094 ((_ sign_extend 24) p7_old)))(let ((.def_6031 ((_ sign_extend 24) id1)))(let ((.def_6095 (= .def_6031 .def_6094))).def_6095))))
(assert (let ((.def_6104 ((_ sign_extend 24) st1)))(let ((.def_6103 ((_ sign_extend 24) st2)))(let ((.def_6106 (bvadd .def_6103 .def_6104)))(let ((.def_6102 ((_ sign_extend 24) st3)))(let ((.def_6108 (bvadd .def_6102 .def_6106)))(let ((.def_6101 ((_ sign_extend 24) st4)))(let ((.def_6110 (bvadd .def_6101 .def_6108)))(let ((.def_6100 ((_ sign_extend 24) st5)))(let ((.def_6112 (bvadd .def_6100 .def_6110)))(let ((.def_6099 ((_ sign_extend 24) st6)))(let ((.def_6114 (bvadd .def_6099 .def_6112)))(let ((.def_6097 ((_ sign_extend 24) st7)))(let ((.def_6098 (bvneg .def_6097)))(let ((.def_6115 (= .def_6098 .def_6114))).def_6115)))))))))))))))
(assert (let ((.def_6118 ((_ sign_extend 24) p1_old)))(let ((.def_6038 ((_ sign_extend 24) id2)))(let ((.def_6119 (= .def_6038 .def_6118))).def_6119))))
(assert (let ((.def_6122 ((_ sign_extend 24) p2_old)))(let ((.def_6043 ((_ sign_extend 24) id3)))(let ((.def_6123 (= .def_6043 .def_6122))).def_6123))))
(assert (let ((.def_6126 ((_ sign_extend 24) p5_old)))(let ((.def_6060 ((_ sign_extend 24) id6)))(let ((.def_6127 (= .def_6060 .def_6126))).def_6127))))
(assert (let ((.def_6130 ((_ sign_extend 24) p4_old)))(let ((.def_6066 ((_ sign_extend 24) id5)))(let ((.def_6131 (= .def_6066 .def_6130))).def_6131))))
(assert (let ((.def_6134 ((_ sign_extend 24) p3_old)))(let ((.def_6075 ((_ sign_extend 24) id4)))(let ((.def_6135 (= .def_6075 .def_6134))).def_6135))))
(assert (let ((.def_6104 ((_ sign_extend 24) st1)))(let ((.def_6099 ((_ sign_extend 24) st6)))(let ((.def_16330 (= .def_6099 .def_6104))).def_16330))))
(assert (let ((.def_6104 ((_ sign_extend 24) st1)))(let ((.def_6101 ((_ sign_extend 24) st4)))(let ((.def_16332 (= .def_6101 .def_6104))).def_16332))))
(assert (let ((.def_6103 ((_ sign_extend 24) st2)))(let ((.def_6102 ((_ sign_extend 24) st3)))(let ((.def_16334 (= .def_6102 .def_6103))).def_16334))))
(assert (let ((.def_6103 ((_ sign_extend 24) st2)))(let ((.def_6100 ((_ sign_extend 24) st5)))(let ((.def_16336 (= .def_6100 .def_6103))).def_16336))))
(assert (let ((.def_16338 (= st6 (_ bv1 8)))).def_16338))
(assert (let ((.def_16340 (= st4 (_ bv1 8)))).def_16340))
(assert (let ((.def_16342 (= st1 (_ bv1 8)))).def_16342))
(assert (let ((.def_6103 ((_ sign_extend 24) st2)))(let ((.def_6099 ((_ sign_extend 24) st6)))(let ((.def_16344 (= .def_6099 .def_6103))).def_16344))))
(assert (let ((.def_6103 ((_ sign_extend 24) st2)))(let ((.def_6101 ((_ sign_extend 24) st4)))(let ((.def_16346 (= .def_6101 .def_6103))).def_16346))))
(assert (let ((.def_6104 ((_ sign_extend 24) st1)))(let ((.def_6100 ((_ sign_extend 24) st5)))(let ((.def_16348 (= .def_6100 .def_6104))).def_16348))))
(assert (let ((.def_6102 ((_ sign_extend 24) st3)))(let ((.def_6101 ((_ sign_extend 24) st4)))(let ((.def_16350 (= .def_6101 .def_6102))).def_16350))))
(assert (let ((.def_16352 (= st5 (_ bv1 8)))).def_16352))
(assert (let ((.def_6101 ((_ sign_extend 24) st4)))(let ((.def_6099 ((_ sign_extend 24) st6)))(let ((.def_16354 (= .def_6099 .def_6101))).def_16354))))
(assert (let ((.def_6101 ((_ sign_extend 24) st4)))(let ((.def_6100 ((_ sign_extend 24) st5)))(let ((.def_16356 (= .def_6100 .def_6101))).def_16356))))
(assert (let ((.def_6102 ((_ sign_extend 24) st3)))(let ((.def_6099 ((_ sign_extend 24) st6)))(let ((.def_16358 (= .def_6099 .def_6102))).def_16358))))
(assert (let ((.def_16360 (= st3 (_ bv1 8)))).def_16360))
(assert (let ((.def_6104 ((_ sign_extend 24) st1)))(let ((.def_6102 ((_ sign_extend 24) st3)))(let ((.def_16362 (= .def_6102 .def_6104))).def_16362))))
(assert (let ((.def_6104 ((_ sign_extend 24) st1)))(let ((.def_6103 ((_ sign_extend 24) st2)))(let ((.def_16364 (= .def_6103 .def_6104))).def_16364))))
(assert (let ((.def_16366 (= st2 (_ bv1 8)))).def_16366))
(assert (let ((.def_6100 ((_ sign_extend 24) st5)))(let ((.def_6099 ((_ sign_extend 24) st6)))(let ((.def_16368 (= .def_6099 .def_6100))).def_16368))))
(assert (let ((.def_6102 ((_ sign_extend 24) st3)))(let ((.def_6100 ((_ sign_extend 24) st5)))(let ((.def_16370 (= .def_6100 .def_6102))).def_16370))))
(assert (let ((.def_16372 ((_ zero_extend 24) r1)))(let ((.def_16373 (bvslt .def_16372 (_ bv7 32)))).def_16373)))
(assert (let ((.def_6045 ((_ sign_extend 24) send2)))(let ((.def_6043 ((_ sign_extend 24) id3)))(let ((.def_29773 (bvslt .def_6043 .def_6045))).def_29773))))
(assert (let ((.def_6043 ((_ sign_extend 24) id3)))(let ((.def_6039 ((_ sign_extend 24) send1)))(let ((.def_29775 (= .def_6039 .def_6043))).def_29775))))
(assert (let ((.def_6062 ((_ sign_extend 24) send5)))(let ((.def_6060 ((_ sign_extend 24) id6)))(let ((.def_29777 (bvslt .def_6060 .def_6062))).def_29777))))
(assert (let ((.def_6060 ((_ sign_extend 24) id6)))(let ((.def_6056 ((_ sign_extend 24) send6)))(let ((.def_29779 (= .def_6056 .def_6060))).def_29779))))
(assert (let ((.def_6068 ((_ sign_extend 24) send4)))(let ((.def_6060 ((_ sign_extend 24) id6)))(let ((.def_29781 (= .def_6060 .def_6068))).def_29781))))
(assert (let ((.def_6066 ((_ sign_extend 24) id5)))(let ((.def_6062 ((_ sign_extend 24) send5)))(let ((.def_29783 (= .def_6062 .def_6066))).def_29783))))
(assert (let ((.def_6066 ((_ sign_extend 24) id5)))(let ((.def_29785 ((_ extract 31 31) .def_6066)))(let ((.def_29786 (= .def_29785 (_ bv1 1)))).def_29786))))
(assert (let ((.def_6076 ((_ sign_extend 24) send3)))(let ((.def_6066 ((_ sign_extend 24) id5)))(let ((.def_29788 (= .def_6066 .def_6076))).def_29788))))
(assert (let ((.def_6030 ((_ sign_extend 24) send7)))(let ((.def_6031 ((_ sign_extend 24) id1)))(let ((.def_29790 (bvslt .def_6031 .def_6030))).def_29790))))
(assert (let ((.def_6056 ((_ sign_extend 24) send6)))(let ((.def_6031 ((_ sign_extend 24) id1)))(let ((.def_29792 (= .def_6031 .def_6056))).def_29792))))
(assert (let ((.def_6056 ((_ sign_extend 24) send6)))(let ((.def_6055 ((_ sign_extend 24) id7)))(let ((.def_29794 (bvslt .def_6055 .def_6056))).def_29794))))
(assert (let ((.def_6062 ((_ sign_extend 24) send5)))(let ((.def_6055 ((_ sign_extend 24) id7)))(let ((.def_29796 (= .def_6055 .def_6062))).def_29796))))
(assert (let ((.def_6076 ((_ sign_extend 24) send3)))(let ((.def_6075 ((_ sign_extend 24) id4)))(let ((.def_29798 (bvslt .def_6075 .def_6076))).def_29798))))
(assert (let ((.def_6075 ((_ sign_extend 24) id4)))(let ((.def_6045 ((_ sign_extend 24) send2)))(let ((.def_29800 (= .def_6045 .def_6075))).def_29800))))
(assert (let ((.def_6039 ((_ sign_extend 24) send1)))(let ((.def_6038 ((_ sign_extend 24) id2)))(let ((.def_29802 (bvslt .def_6038 .def_6039))).def_29802))))
(assert (let ((.def_6038 ((_ sign_extend 24) id2)))(let ((.def_6030 ((_ sign_extend 24) send7)))(let ((.def_29804 (= .def_6030 .def_6038))).def_29804))))
(assert (let ((.def_29806 (= nomsg send3))).def_29806))
(assert (let ((.def_6082 ((_ sign_extend 24) nomsg)))(let ((.def_6076 ((_ sign_extend 24) send3)))(let ((.def_29808 (= .def_6076 .def_6082))).def_29808))))
(assert (let ((.def_6082 ((_ sign_extend 24) nomsg)))(let ((.def_6030 ((_ sign_extend 24) send7)))(let ((.def_29810 (= .def_6030 .def_6082))).def_29810))))
(assert (let ((.def_29812 (= nomsg send6))).def_29812))
(assert (let ((.def_6082 ((_ sign_extend 24) nomsg)))(let ((.def_6045 ((_ sign_extend 24) send2)))(let ((.def_29814 (= .def_6045 .def_6082))).def_29814))))
(assert (let ((.def_6118 ((_ sign_extend 24) p1_old)))(let ((.def_6038 ((_ sign_extend 24) id2)))(let ((.def_29816 (bvslt .def_6038 .def_6118))).def_29816))))
(assert (let ((.def_6039 ((_ sign_extend 24) send1)))(let ((.def_29819 (= .def_6039 |node1::__CPAchecker_TMP_0|))).def_29819)))
(assert (let ((.def_29821 ((_ extract 7 0) |node1::__CPAchecker_TMP_0|)))(let ((.def_29822 (= p1_old .def_29821))).def_29822)))
(assert (let ((.def_6094 ((_ sign_extend 24) p7_old)))(let ((.def_6038 ((_ sign_extend 24) id2)))(let ((.def_29824 (= .def_6038 .def_6094))).def_29824))))
(assert (let ((.def_29826 (= send2 p2_old))).def_29826))
(assert (let ((.def_6118 ((_ sign_extend 24) p1_old)))(let ((.def_6043 ((_ sign_extend 24) id3)))(let ((.def_29828 (= .def_6043 .def_6118))).def_29828))))
(assert (let ((.def_6122 ((_ sign_extend 24) p2_old)))(let ((.def_6043 ((_ sign_extend 24) id3)))(let ((.def_29830 (bvslt .def_6043 .def_6122))).def_29830))))
(assert (let ((.def_6126 ((_ sign_extend 24) p5_old)))(let ((.def_6060 ((_ sign_extend 24) id6)))(let ((.def_29832 (bvslt .def_6060 .def_6126))).def_29832))))
(assert (let ((.def_6082 ((_ sign_extend 24) nomsg)))(let ((.def_6060 ((_ sign_extend 24) id6)))(let ((.def_29834 (= .def_6060 .def_6082))).def_29834))))
(assert (let ((.def_6062 ((_ sign_extend 24) send5)))(let ((.def_29837 (= .def_6062 |node5::__CPAchecker_TMP_0|))).def_29837)))
(assert (let ((.def_29839 ((_ extract 7 0) |node5::__CPAchecker_TMP_0|)))(let ((.def_29840 (= p5_old .def_29839))).def_29840)))
(assert (let ((.def_6130 ((_ sign_extend 24) p4_old)))(let ((.def_6060 ((_ sign_extend 24) id6)))(let ((.def_29842 (= .def_6060 .def_6130))).def_29842))))
(assert (let ((.def_6068 ((_ sign_extend 24) send4)))(let ((.def_29845 (= .def_6068 |node4::__CPAchecker_TMP_0|))).def_29845)))
(assert (let ((.def_29847 ((_ extract 7 0) |node4::__CPAchecker_TMP_0|)))(let ((.def_29848 (= p4_old .def_29847))).def_29848)))
(assert (let ((.def_6134 ((_ sign_extend 24) p3_old)))(let ((.def_6066 ((_ sign_extend 24) id5)))(let ((.def_29850 (= .def_6066 .def_6134))).def_29850))))
(assert (let ((.def_6090 ((_ sign_extend 24) p6_old)))(let ((.def_6031 ((_ sign_extend 24) id1)))(let ((.def_29852 (= .def_6031 .def_6090))).def_29852))))
(assert (let ((.def_29854 (= send7 p7_old))).def_29854))
(assert (let ((.def_6090 ((_ sign_extend 24) p6_old)))(let ((.def_6055 ((_ sign_extend 24) id7)))(let ((.def_29856 (bvslt .def_6055 .def_6090))).def_29856))))
(assert (let ((.def_6094 ((_ sign_extend 24) p7_old)))(let ((.def_6031 ((_ sign_extend 24) id1)))(let ((.def_29858 (bvslt .def_6031 .def_6094))).def_29858))))
(assert (let ((.def_29860 (= send6 p6_old))).def_29860))
(assert (let ((.def_6126 ((_ sign_extend 24) p5_old)))(let ((.def_6055 ((_ sign_extend 24) id7)))(let ((.def_29862 (= .def_6055 .def_6126))).def_29862))))
(assert (let ((.def_6076 ((_ sign_extend 24) send3)))(let ((.def_29865 (= .def_6076 |node3::__CPAchecker_TMP_0|))).def_29865)))
(assert (let ((.def_29867 ((_ extract 7 0) |node3::__CPAchecker_TMP_0|)))(let ((.def_29868 (= p3_old .def_29867))).def_29868)))
(assert (let ((.def_6122 ((_ sign_extend 24) p2_old)))(let ((.def_6075 ((_ sign_extend 24) id4)))(let ((.def_29870 (= .def_6075 .def_6122))).def_29870))))
(assert (let ((.def_6134 ((_ sign_extend 24) p3_old)))(let ((.def_6075 ((_ sign_extend 24) id4)))(let ((.def_29872 (bvslt .def_6075 .def_6134))).def_29872))))
(assert (let ((.def_6134 ((_ sign_extend 24) p3_old)))(let ((.def_6082 ((_ sign_extend 24) nomsg)))(let ((.def_29874 (= .def_6082 .def_6134))).def_29874))))
(assert (let ((.def_6094 ((_ sign_extend 24) p7_old)))(let ((.def_6082 ((_ sign_extend 24) nomsg)))(let ((.def_29876 (= .def_6082 .def_6094))).def_29876))))
(assert (let ((.def_6090 ((_ sign_extend 24) p6_old)))(let ((.def_6082 ((_ sign_extend 24) nomsg)))(let ((.def_29878 (= .def_6082 .def_6090))).def_29878))))
(assert (let ((.def_6122 ((_ sign_extend 24) p2_old)))(let ((.def_6082 ((_ sign_extend 24) nomsg)))(let ((.def_29880 (= .def_6082 .def_6122))).def_29880))))
(assert (let ((.def_29882 (= st7 (_ bv1 8)))).def_29882))
(assert (let ((.def_6062 ((_ sign_extend 24) send5)))(let ((.def_6066 ((_ sign_extend 24) id5)))(let ((.def_29884 (bvslt .def_6066 .def_6062))).def_29884))))
(assert (let ((.def_29886 (= send5 send4))).def_29886))
(assert (let ((.def_6082 ((_ sign_extend 24) nomsg)))(let ((.def_6039 ((_ sign_extend 24) send1)))(let ((.def_29888 (= .def_6039 .def_6082))).def_29888))))
(assert (let ((.def_29890 (= r1 (_ bv1 8)))).def_29890))
(assert (let ((.def_6130 ((_ sign_extend 24) p4_old)))(let ((.def_6082 ((_ sign_extend 24) nomsg)))(let ((.def_29892 (= .def_6082 .def_6130))).def_29892))))
(assert (let ((.def_29894 (= send5 p4_old))).def_29894))
(assert (let ((.def_6118 ((_ sign_extend 24) p1_old)))(let ((.def_6082 ((_ sign_extend 24) nomsg)))(let ((.def_29896 (= .def_6082 .def_6118))).def_29896))))

assert N515:
(assert false)
(assert (let ((.def_3043 (= |assert::arg| (_ bv0 8)))).def_3043))

