(set-info :source |printed by MathSAT|)
(declare-fun c_num_read () (_ BitVec 32))
(declare-fun p_num_write () (_ BitVec 32))
(declare-fun c_last_read () (_ BitVec 32))
(declare-fun p_last_write () (_ BitVec 32))
(declare-fun c_dr_pc () (_ BitVec 32))
(declare-fun c_dr_st () (_ BitVec 32))
(declare-fun m_pc () (_ BitVec 32))
(declare-fun t1_pc () (_ BitVec 32))
(declare-fun t2_pc () (_ BitVec 32))
(declare-fun t3_pc () (_ BitVec 32))
(declare-fun t4_pc () (_ BitVec 32))
(declare-fun t5_pc () (_ BitVec 32))
(declare-fun m_st () (_ BitVec 32))
(declare-fun E_3 () (_ BitVec 32))
(declare-fun E_2 () (_ BitVec 32))
(declare-fun E_5 () (_ BitVec 32))
(declare-fun E_M () (_ BitVec 32))
(declare-fun E_4 () (_ BitVec 32))
(declare-fun t1_st () (_ BitVec 32))
(declare-fun t2_st () (_ BitVec 32))
(declare-fun t4_st () (_ BitVec 32))
(declare-fun t3_st () (_ BitVec 32))
(declare-fun t5_st () (_ BitVec 32))
(declare-fun E_1 () (_ BitVec 32))
(declare-fun local () (_ BitVec 32))
(declare-fun token () (_ BitVec 32))
(declare-fun T5_E () (_ BitVec 32))
(declare-fun T4_E () (_ BitVec 32))
(declare-fun T3_E () (_ BitVec 32))
(declare-fun T2_E () (_ BitVec 32))
(declare-fun T1_E () (_ BitVec 32))
(declare-fun M_E () (_ BitVec 32))

*:
(assert (let ((.def_692 (= c_num_read p_num_write))).def_692))
(assert (let ((.def_701 (= c_last_read p_last_write))).def_701))

error1 N4:
(assert false)
(assert (let ((.def_692 (= c_num_read p_num_write))).def_692))
(assert (let ((.def_701 (= c_last_read p_last_write))).def_701))

eval1 N282:
(assert (let ((.def_852 (= c_dr_pc (_ bv0 32)))).def_852))
(assert (let ((.def_692 (= c_num_read p_num_write))).def_692))
(assert (let ((.def_701 (= c_last_read p_last_write))).def_701))
(assert (let ((.def_1343 (= c_dr_pc (_ bv2 32)))).def_1343))
(assert (let ((.def_1346 (= c_dr_st (_ bv0 32)))).def_1346))

start_simulation1 N338:
(assert (let ((.def_852 (= c_dr_pc (_ bv0 32)))).def_852))
(assert (let ((.def_692 (= c_num_read p_num_write))).def_692))
(assert (let ((.def_701 (= c_last_read p_last_write))).def_701))
(assert (let ((.def_1343 (= c_dr_pc (_ bv2 32)))).def_1343))

error2 N393:
(assert false)
(assert (let ((.def_692 (= c_num_read p_num_write))).def_692))
(assert (let ((.def_701 (= c_last_read p_last_write))).def_701))

eval2 N743:
(assert (let ((.def_4465 (= m_pc (_ bv0 32)))).def_4465))
(assert (let ((.def_692 (= c_num_read p_num_write))).def_692))
(assert (let ((.def_701 (= c_last_read p_last_write))).def_701))
(assert (let ((.def_7601 (= t1_pc (_ bv0 32)))).def_7601))
(assert (let ((.def_7604 (= t2_pc (_ bv0 32)))).def_7604))
(assert (let ((.def_7607 (= t3_pc (_ bv0 32)))).def_7607))
(assert (let ((.def_7610 (= t4_pc (_ bv0 32)))).def_7610))
(assert (let ((.def_7613 (= t5_pc (_ bv0 32)))).def_7613))
(assert (let ((.def_7615 (= m_pc (_ bv1 32)))).def_7615))
(assert (let ((.def_7617 (= t1_pc (_ bv1 32)))).def_7617))
(assert (let ((.def_7619 (= t2_pc (_ bv1 32)))).def_7619))
(assert (let ((.def_7621 (= t3_pc (_ bv1 32)))).def_7621))
(assert (let ((.def_7623 (= t4_pc (_ bv1 32)))).def_7623))
(assert (let ((.def_7625 (= t5_pc (_ bv1 32)))).def_7625))
(assert (let ((.def_7628 (= m_st (_ bv0 32)))).def_7628))
(assert (let ((.def_12326 (= E_3 (_ bv1 32)))).def_12326))
(assert (let ((.def_12329 (= E_2 (_ bv1 32)))).def_12329))
(assert (let ((.def_12332 (= E_5 (_ bv1 32)))).def_12332))
(assert (let ((.def_12335 (= E_M (_ bv1 32)))).def_12335))
(assert (let ((.def_12338 (= E_4 (_ bv1 32)))).def_12338))
(assert (let ((.def_12341 (= t1_st (_ bv0 32)))).def_12341))
(assert (let ((.def_12344 (= t2_st (_ bv0 32)))).def_12344))
(assert (let ((.def_12347 (= t4_st (_ bv0 32)))).def_12347))
(assert (let ((.def_12350 (= t3_st (_ bv0 32)))).def_12350))
(assert (let ((.def_12353 (= t5_st (_ bv0 32)))).def_12353))
(assert (let ((.def_12356 (= E_1 (_ bv1 32)))).def_12356))
(assert (let ((.def_12359 (bvadd (_ bv5 32) local)))(let ((.def_12361 (= .def_12359 token))).def_12361)))
(assert (let ((.def_23726 (= E_3 (_ bv2 32)))).def_23726))
(assert (let ((.def_23728 (= E_2 (_ bv2 32)))).def_23728))
(assert (let ((.def_23730 (= E_1 (_ bv2 32)))).def_23730))
(assert (let ((.def_23732 (= t3_st (_ bv2 32)))).def_23732))
(assert (let ((.def_23734 (= t5_st (_ bv2 32)))).def_23734))
(assert (let ((.def_23736 (bvadd (_ bv4 32) local)))(let ((.def_23737 (= token .def_23736))).def_23737)))
(assert (let ((.def_23739 (bvadd (_ bv2 32) local)))(let ((.def_23740 (= token .def_23739))).def_23740)))
(assert (let ((.def_23742 (bvadd (_ bv1 32) local)))(let ((.def_23743 (= token .def_23742))).def_23743)))
(assert (let ((.def_23745 (= local token))).def_23745))
(assert (let ((.def_23747 (= m_st (_ bv2 32)))).def_23747))
(assert (let ((.def_23749 (bvadd (_ bv3 32) local)))(let ((.def_23750 (= token .def_23749))).def_23750)))
(assert (let ((.def_34260 (= E_M (_ bv0 32)))).def_34260))
(assert (let ((.def_34262 (= E_2 (_ bv0 32)))).def_34262))
(assert (let ((.def_34264 (= E_1 (_ bv0 32)))).def_34264))
(assert (let ((.def_45195 (= E_5 (_ bv0 32)))).def_45195))
(assert (let ((.def_45197 (= E_4 (_ bv0 32)))).def_45197))
(assert (let ((.def_45199 (= E_3 (_ bv0 32)))).def_45199))
(assert (let ((.def_45202 (= T5_E (_ bv0 32)))).def_45202))
(assert (let ((.def_45205 (= T4_E (_ bv0 32)))).def_45205))
(assert (let ((.def_45208 (= T3_E (_ bv0 32)))).def_45208))
(assert (let ((.def_45211 (= T2_E (_ bv0 32)))).def_45211))
(assert (let ((.def_45214 (= T1_E (_ bv0 32)))).def_45214))
(assert (let ((.def_45217 (= M_E (_ bv0 32)))).def_45217))
(assert false)

start_simulation2 N1057:
(assert (let ((.def_4465 (= m_pc (_ bv0 32)))).def_4465))
(assert (let ((.def_692 (= c_num_read p_num_write))).def_692))
(assert (let ((.def_701 (= c_last_read p_last_write))).def_701))
(assert (let ((.def_7601 (= t1_pc (_ bv0 32)))).def_7601))
(assert (let ((.def_7604 (= t2_pc (_ bv0 32)))).def_7604))
(assert (let ((.def_7607 (= t3_pc (_ bv0 32)))).def_7607))
(assert (let ((.def_7610 (= t4_pc (_ bv0 32)))).def_7610))
(assert (let ((.def_7613 (= t5_pc (_ bv0 32)))).def_7613))
(assert (let ((.def_7615 (= m_pc (_ bv1 32)))).def_7615))
(assert (let ((.def_7617 (= t1_pc (_ bv1 32)))).def_7617))
(assert (let ((.def_7619 (= t2_pc (_ bv1 32)))).def_7619))
(assert (let ((.def_7621 (= t3_pc (_ bv1 32)))).def_7621))
(assert (let ((.def_7623 (= t4_pc (_ bv1 32)))).def_7623))
(assert (let ((.def_7625 (= t5_pc (_ bv1 32)))).def_7625))
(assert (let ((.def_12326 (= E_3 (_ bv1 32)))).def_12326))
(assert (let ((.def_12329 (= E_2 (_ bv1 32)))).def_12329))
(assert (let ((.def_12332 (= E_5 (_ bv1 32)))).def_12332))
(assert (let ((.def_12335 (= E_M (_ bv1 32)))).def_12335))
(assert (let ((.def_12338 (= E_4 (_ bv1 32)))).def_12338))
(assert (let ((.def_7628 (= m_st (_ bv0 32)))).def_7628))
(assert (let ((.def_12353 (= t5_st (_ bv0 32)))).def_12353))
(assert (let ((.def_23726 (= E_3 (_ bv2 32)))).def_23726))
(assert (let ((.def_12347 (= t4_st (_ bv0 32)))).def_12347))
(assert (let ((.def_12350 (= t3_st (_ bv0 32)))).def_12350))
(assert (let ((.def_23728 (= E_2 (_ bv2 32)))).def_23728))
(assert (let ((.def_12356 (= E_1 (_ bv1 32)))).def_12356))
(assert (let ((.def_34260 (= E_M (_ bv0 32)))).def_34260))
(assert (let ((.def_34262 (= E_2 (_ bv0 32)))).def_34262))
(assert (let ((.def_45195 (= E_5 (_ bv0 32)))).def_45195))
(assert (let ((.def_12344 (= t2_st (_ bv0 32)))).def_12344))
(assert (let ((.def_12341 (= t1_st (_ bv0 32)))).def_12341))
(assert (let ((.def_45197 (= E_4 (_ bv0 32)))).def_45197))
(assert (let ((.def_45199 (= E_3 (_ bv0 32)))).def_45199))
(assert (let ((.def_45202 (= T5_E (_ bv0 32)))).def_45202))
(assert (let ((.def_45205 (= T4_E (_ bv0 32)))).def_45205))
(assert (let ((.def_45208 (= T3_E (_ bv0 32)))).def_45208))
(assert (let ((.def_45211 (= T2_E (_ bv0 32)))).def_45211))
(assert (let ((.def_45214 (= T1_E (_ bv0 32)))).def_45214))
(assert (let ((.def_45217 (= M_E (_ bv0 32)))).def_45217))

