(set-info :source |printed by MathSAT|)
(declare-fun a20 () (_ BitVec 32))
(declare-fun a9 () (_ BitVec 32))
(declare-fun a25 () (_ BitVec 32))
(declare-fun a12 () (_ BitVec 32))
(declare-fun a15 () (_ BitVec 32))
(declare-fun a16 () (_ BitVec 32))
(declare-fun a2 () (_ BitVec 32))
(declare-fun a27 () (_ BitVec 32))

*:
(assert (let ((.def_105838 (= a20 (_ bv5 32)))).def_105838))

calculate_output8 N29613:
(assert false)
(assert (let ((.def_105838 (= a20 (_ bv5 32)))).def_105838))

main1 N30136:
(assert (let ((.def_152649 (= a9 (_ bv18 32)))).def_152649))
(assert (let ((.def_105838 (= a20 (_ bv5 32)))).def_105838))
(assert (let ((.def_339279 (= a25 (_ bv1 32)))).def_339279))
(assert (let ((.def_339282 (= a12 (_ bv4 32)))).def_339282))
(assert (let ((.def_339285 (= a15 (_ bv1 32)))).def_339285))
(assert (let ((.def_339288 (= a16 (_ bv1 32)))).def_339288))
(assert (let ((.def_339291 (= a2 (_ bv10 32)))).def_339291))
(assert (let ((.def_339294 (= a27 (_ bv1 32)))).def_339294))
(assert (let ((.def_339296 (= a12 (_ bv6 32)))).def_339296))
(assert (let ((.def_339298 (= a20 (_ bv6 32)))).def_339298))
(assert (let ((.def_339300 (= a12 (_ bv3 32)))).def_339300))
(assert (let ((.def_339302 (= a2 (_ bv12 32)))).def_339302))
(assert (let ((.def_339304 (= a12 (_ bv2 32)))).def_339304))
(assert (let ((.def_339306 (= a9 (_ bv16 32)))).def_339306))
(assert (let ((.def_339308 (= a12 (_ bv5 32)))).def_339308))
(assert (let ((.def_339310 (= a9 (_ bv17 32)))).def_339310))
(assert (let ((.def_930736 (= a2 (_ bv11 32)))).def_930736))
(assert (let ((.def_930738 (= a2 (_ bv13 32)))).def_930738))
(assert (let ((.def_930740 (= a20 (_ bv7 32)))).def_930740))
(assert (let ((.def_930742 (= a2 (_ bv9 32)))).def_930742))

