(set-info :source |printed by MathSAT|)
(declare-fun a20 () (_ BitVec 32))
(declare-fun a9 () (_ BitVec 32))
(declare-fun a25 () (_ BitVec 32))
(declare-fun a12 () (_ BitVec 32))
(declare-fun a15 () (_ BitVec 32))
(declare-fun a16 () (_ BitVec 32))
(declare-fun a2 () (_ BitVec 32))
(declare-fun a27 () (_ BitVec 32))
(declare-fun |calculate_output6::input| () (_ BitVec 32))
(declare-fun |calculate_output7::input| () (_ BitVec 32))
(declare-fun |calculate_output2::input| () (_ BitVec 32))

*:
(assert (let ((.def_105808 (= a20 (_ bv5 32)))).def_105808))

calculate_output8 N29613:
(assert false)
(assert (let ((.def_105808 (= a20 (_ bv5 32)))).def_105808))

main1 N30136:
(assert (let ((.def_152609 (= a9 (_ bv18 32)))).def_152609))
(assert (let ((.def_105808 (= a20 (_ bv5 32)))).def_105808))
(assert (let ((.def_339239 (= a25 (_ bv1 32)))).def_339239))
(assert (let ((.def_339242 (= a12 (_ bv4 32)))).def_339242))
(assert (let ((.def_339245 (= a15 (_ bv1 32)))).def_339245))
(assert (let ((.def_339248 (= a16 (_ bv1 32)))).def_339248))
(assert (let ((.def_339251 (= a2 (_ bv10 32)))).def_339251))
(assert (let ((.def_339254 (= a27 (_ bv1 32)))).def_339254))
(assert (let ((.def_339256 (= a12 (_ bv6 32)))).def_339256))
(assert (let ((.def_339258 (= a20 (_ bv6 32)))).def_339258))
(assert (let ((.def_339260 (= a12 (_ bv3 32)))).def_339260))
(assert (let ((.def_339262 (= a2 (_ bv12 32)))).def_339262))
(assert (let ((.def_339264 (= a12 (_ bv2 32)))).def_339264))
(assert (let ((.def_339266 (= a9 (_ bv16 32)))).def_339266))
(assert (let ((.def_339268 (= a12 (_ bv5 32)))).def_339268))
(assert (let ((.def_339270 (= a9 (_ bv17 32)))).def_339270))
(assert (let ((.def_908223 (= a20 (_ bv7 32)))).def_908223))
(assert (let ((.def_908225 (= a2 (_ bv11 32)))).def_908225))
(assert (let ((.def_908227 (= a2 (_ bv9 32)))).def_908227))
(assert (let ((.def_908229 (= a2 (_ bv13 32)))).def_908229))
(assert (let ((.def_908232 (= |calculate_output6::input| (_ bv6 32)))).def_908232))
(assert (let ((.def_908234 (= |calculate_output6::input| (_ bv3 32)))).def_908234))
(assert (let ((.def_908237 (= |calculate_output6::input| |calculate_output7::input|))).def_908237))
(assert (let ((.def_908239 (= |calculate_output7::input| (_ bv6 32)))).def_908239))
(assert (let ((.def_908241 (= |calculate_output6::input| (_ bv1 32)))).def_908241))
(assert (let ((.def_908243 (= |calculate_output6::input| (_ bv5 32)))).def_908243))
(assert (let ((.def_908245 (= |calculate_output7::input| (_ bv5 32)))).def_908245))
(assert (let ((.def_908247 (= |calculate_output7::input| (_ bv1 32)))).def_908247))
(assert (let ((.def_908249 (= |calculate_output7::input| (_ bv2 32)))).def_908249))
(assert (let ((.def_908251 (= |calculate_output6::input| (_ bv2 32)))).def_908251))
(assert (let ((.def_908254 (= |calculate_output2::input| (_ bv6 32)))).def_908254))
(assert (let ((.def_908256 (= |calculate_output2::input| (_ bv2 32)))).def_908256))
(assert (let ((.def_908258 (= |calculate_output2::input| (_ bv1 32)))).def_908258))

