(set-info :source |printed by MathSAT|)
(declare-fun a20 () (_ BitVec 32))
(declare-fun a25 () (_ BitVec 32))
(declare-fun a12 () (_ BitVec 32))
(declare-fun a15 () (_ BitVec 32))
(declare-fun a16 () (_ BitVec 32))
(declare-fun a2 () (_ BitVec 32))
(declare-fun a27 () (_ BitVec 32))
(declare-fun a9 () (_ BitVec 32))
(declare-fun m_pc () (_ BitVec 32))
(declare-fun t1_pc () (_ BitVec 32))
(declare-fun t2_pc () (_ BitVec 32))
(declare-fun t3_pc () (_ BitVec 32))
(declare-fun t4_pc () (_ BitVec 32))
(declare-fun t5_pc () (_ BitVec 32))
(declare-fun t6_pc () (_ BitVec 32))
(declare-fun m_st () (_ BitVec 32))

*:
(assert (let ((.def_107276 (= a20 (_ bv5 32)))).def_107276))

calculate_output8 N29965:
(assert false)
(assert (let ((.def_107276 (= a20 (_ bv5 32)))).def_107276))

main1 N30136:
(assert (let ((.def_107276 (= a20 (_ bv5 32)))).def_107276))
(assert (let ((.def_154682 (= a25 (_ bv1 32)))).def_154682))
(assert (let ((.def_154685 (= a12 (_ bv4 32)))).def_154685))
(assert (let ((.def_154688 (= a15 (_ bv1 32)))).def_154688))
(assert (let ((.def_154691 (= a16 (_ bv1 32)))).def_154691))
(assert (let ((.def_154694 (= a2 (_ bv10 32)))).def_154694))
(assert (let ((.def_154697 (= a27 (_ bv1 32)))).def_154697))
(assert (let ((.def_154700 (= a9 (_ bv18 32)))).def_154700))
(assert (let ((.def_320647 (= a9 (_ bv17 32)))).def_320647))
(assert (let ((.def_320649 (= a2 (_ bv12 32)))).def_320649))
(assert (let ((.def_320651 (= a2 (_ bv11 32)))).def_320651))
(assert (let ((.def_320653 (= a2 (_ bv9 32)))).def_320653))
(assert (let ((.def_320655 (= a12 (_ bv3 32)))).def_320655))
(assert (let ((.def_320657 (= a20 (_ bv6 32)))).def_320657))
(assert (let ((.def_320659 (= a2 (_ bv13 32)))).def_320659))
(assert (let ((.def_320661 (= a9 (_ bv16 32)))).def_320661))
(assert (let ((.def_1057744 (= a12 (_ bv2 32)))).def_1057744))
(assert (let ((.def_1057746 (= a20 (_ bv7 32)))).def_1057746))
(assert (let ((.def_1057748 (= a12 (_ bv6 32)))).def_1057748))
(assert (let ((.def_1057750 (= a12 (_ bv5 32)))).def_1057750))

error N30154:
(assert false)
(assert (let ((.def_107276 (= a20 (_ bv5 32)))).def_107276))

eval N30571:
(assert (let ((.def_1199114 (= m_pc (_ bv0 32)))).def_1199114))
(assert (let ((.def_107276 (= a20 (_ bv5 32)))).def_107276))
(assert (let ((.def_1203252 (= t1_pc (_ bv0 32)))).def_1203252))
(assert (let ((.def_1203255 (= t2_pc (_ bv0 32)))).def_1203255))
(assert (let ((.def_1203258 (= t3_pc (_ bv0 32)))).def_1203258))
(assert (let ((.def_1203261 (= t4_pc (_ bv0 32)))).def_1203261))
(assert (let ((.def_1203264 (= t5_pc (_ bv0 32)))).def_1203264))
(assert (let ((.def_1203267 (= t6_pc (_ bv0 32)))).def_1203267))
(assert (let ((.def_1203269 (= m_pc (_ bv1 32)))).def_1203269))
(assert (let ((.def_1203271 (= t1_pc (_ bv1 32)))).def_1203271))
(assert (let ((.def_1203273 (= t2_pc (_ bv1 32)))).def_1203273))
(assert (let ((.def_1203275 (= t3_pc (_ bv1 32)))).def_1203275))
(assert (let ((.def_1203277 (= t4_pc (_ bv1 32)))).def_1203277))
(assert (let ((.def_1203279 (= t5_pc (_ bv1 32)))).def_1203279))
(assert (let ((.def_1203281 (= t6_pc (_ bv1 32)))).def_1203281))
(assert (let ((.def_1203284 (= m_st (_ bv0 32)))).def_1203284))

start_simulation N30926:
(assert (let ((.def_1199114 (= m_pc (_ bv0 32)))).def_1199114))
(assert (let ((.def_107276 (= a20 (_ bv5 32)))).def_107276))
(assert (let ((.def_1203252 (= t1_pc (_ bv0 32)))).def_1203252))
(assert (let ((.def_1203255 (= t2_pc (_ bv0 32)))).def_1203255))
(assert (let ((.def_1203258 (= t3_pc (_ bv0 32)))).def_1203258))
(assert (let ((.def_1203261 (= t4_pc (_ bv0 32)))).def_1203261))
(assert (let ((.def_1203264 (= t5_pc (_ bv0 32)))).def_1203264))
(assert (let ((.def_1203267 (= t6_pc (_ bv0 32)))).def_1203267))
(assert (let ((.def_1203269 (= m_pc (_ bv1 32)))).def_1203269))
(assert (let ((.def_1203271 (= t1_pc (_ bv1 32)))).def_1203271))
(assert (let ((.def_1203273 (= t2_pc (_ bv1 32)))).def_1203273))
(assert (let ((.def_1203275 (= t3_pc (_ bv1 32)))).def_1203275))
(assert (let ((.def_1203277 (= t4_pc (_ bv1 32)))).def_1203277))
(assert (let ((.def_1203279 (= t5_pc (_ bv1 32)))).def_1203279))
(assert (let ((.def_1203281 (= t6_pc (_ bv1 32)))).def_1203281))

