(set-info :source |printed by MathSAT|)
(declare-fun c_num_read () (_ BitVec 32))
(declare-fun p_num_write () (_ BitVec 32))
(declare-fun c_last_read () (_ BitVec 32))
(declare-fun p_last_write () (_ BitVec 32))
(declare-fun c_dr_pc () (_ BitVec 32))
(declare-fun q_free () (_ BitVec 32))
(declare-fun q_buf_0 () (_ BitVec 32))
(declare-fun p_dw_pc () (_ BitVec 32))
(declare-fun q_read_ev () (_ BitVec 32))
(declare-fun c_dr_st () (_ BitVec 32))
(declare-fun p_dw_st () (_ BitVec 32))
(declare-fun m_pc () (_ BitVec 32))
(declare-fun t1_pc () (_ BitVec 32))
(declare-fun t2_pc () (_ BitVec 32))
(declare-fun t3_pc () (_ BitVec 32))
(declare-fun t4_pc () (_ BitVec 32))
(declare-fun t5_pc () (_ BitVec 32))
(declare-fun t6_pc () (_ BitVec 32))
(declare-fun m_st () (_ BitVec 32))
(declare-fun E_1 () (_ BitVec 32))
(declare-fun E_2 () (_ BitVec 32))
(declare-fun E_4 () (_ BitVec 32))
(declare-fun E_3 () (_ BitVec 32))
(declare-fun E_M () (_ BitVec 32))
(declare-fun E_5 () (_ BitVec 32))
(declare-fun E_6 () (_ BitVec 32))
(declare-fun t2_st () (_ BitVec 32))
(declare-fun t1_st () (_ BitVec 32))
(declare-fun t3_st () (_ BitVec 32))
(declare-fun t4_st () (_ BitVec 32))
(declare-fun t6_st () (_ BitVec 32))
(declare-fun t5_st () (_ BitVec 32))
(declare-fun local () (_ BitVec 32))
(declare-fun token () (_ BitVec 32))
(declare-fun T6_E () (_ BitVec 32))
(declare-fun T5_E () (_ BitVec 32))
(declare-fun T4_E () (_ BitVec 32))
(declare-fun T3_E () (_ BitVec 32))
(declare-fun T2_E () (_ BitVec 32))
(declare-fun T1_E () (_ BitVec 32))
(declare-fun M_E () (_ BitVec 32))

*:
(assert (let ((.def_585 (= c_num_read p_num_write))).def_585))
(assert (let ((.def_594 (= c_last_read p_last_write))).def_594))

error1 N4:
(assert false)
(assert (let ((.def_585 (= c_num_read p_num_write))).def_585))
(assert (let ((.def_594 (= c_last_read p_last_write))).def_594))

do_write_p N64:
(assert (let ((.def_929 (= c_dr_pc (_ bv0 32)))).def_929))
(assert (let ((.def_585 (= c_num_read p_num_write))).def_585))
(assert (let ((.def_594 (= c_last_read p_last_write))).def_594))
(assert (let ((.def_1032 (= q_free (_ bv1 32)))).def_1032))
(assert false)
(assert (let ((.def_1375 (= p_last_write q_buf_0))).def_1375))
(assert (let ((.def_1035 (= p_dw_pc (_ bv1 32)))).def_1035))
(assert (let ((.def_1562 (bvadd (_ bv1 32) c_num_read)))(let ((.def_1563 (= p_num_write .def_1562))).def_1563)))
(assert (let ((.def_2456 (= q_free (_ bv0 32)))).def_2456))
(assert (let ((.def_1565 (= c_dr_pc (_ bv1 32)))).def_1565))
(assert (let ((.def_5258 (= q_read_ev (_ bv1 32)))).def_5258))

do_read_c N100:
(assert (let ((.def_1035 (= p_dw_pc (_ bv1 32)))).def_1035))
(assert (let ((.def_1032 (= q_free (_ bv1 32)))).def_1032))
(assert (let ((.def_585 (= c_num_read p_num_write))).def_585))
(assert (let ((.def_594 (= c_last_read p_last_write))).def_594))
(assert (let ((.def_1375 (= p_last_write q_buf_0))).def_1375))
(assert (let ((.def_1562 (bvadd (_ bv1 32) c_num_read)))(let ((.def_1563 (= p_num_write .def_1562))).def_1563)))
(assert (let ((.def_1565 (= c_dr_pc (_ bv1 32)))).def_1565))
(assert false)

eval1 N170:
(assert (let ((.def_929 (= c_dr_pc (_ bv0 32)))).def_929))
(assert (let ((.def_585 (= c_num_read p_num_write))).def_585))
(assert (let ((.def_594 (= c_last_read p_last_write))).def_594))
(assert (let ((.def_1032 (= q_free (_ bv1 32)))).def_1032))
(assert (let ((.def_1305 (= p_dw_pc (_ bv0 32)))).def_1305))
(assert (let ((.def_1565 (= c_dr_pc (_ bv1 32)))).def_1565))
(assert (let ((.def_3879 (= c_dr_st (_ bv0 32)))).def_3879))
(assert (let ((.def_1035 (= p_dw_pc (_ bv1 32)))).def_1035))
(assert (let ((.def_5258 (= q_read_ev (_ bv1 32)))).def_5258))
(assert (let ((.def_5261 (= p_dw_st (_ bv0 32)))).def_5261))
(assert (let ((.def_1375 (= p_last_write q_buf_0))).def_1375))
(assert (let ((.def_1562 (bvadd (_ bv1 32) c_num_read)))(let ((.def_1563 (= p_num_write .def_1562))).def_1563)))

start_simulation1 N221:
(assert (let ((.def_929 (= c_dr_pc (_ bv0 32)))).def_929))
(assert (let ((.def_585 (= c_num_read p_num_write))).def_585))
(assert (let ((.def_594 (= c_last_read p_last_write))).def_594))
(assert (let ((.def_1032 (= q_free (_ bv1 32)))).def_1032))
(assert (let ((.def_1305 (= p_dw_pc (_ bv0 32)))).def_1305))
(assert (let ((.def_5258 (= q_read_ev (_ bv1 32)))).def_5258))

error2 N260:
(assert false)
(assert (let ((.def_585 (= c_num_read p_num_write))).def_585))
(assert (let ((.def_594 (= c_last_read p_last_write))).def_594))

eval2 N664:
(assert (let ((.def_7567 (= m_pc (_ bv0 32)))).def_7567))
(assert (let ((.def_585 (= c_num_read p_num_write))).def_585))
(assert (let ((.def_594 (= c_last_read p_last_write))).def_594))
(assert (let ((.def_11665 (= t1_pc (_ bv0 32)))).def_11665))
(assert (let ((.def_11668 (= t2_pc (_ bv0 32)))).def_11668))
(assert (let ((.def_11671 (= t3_pc (_ bv0 32)))).def_11671))
(assert (let ((.def_11674 (= t4_pc (_ bv0 32)))).def_11674))
(assert (let ((.def_11677 (= t5_pc (_ bv0 32)))).def_11677))
(assert (let ((.def_11680 (= t6_pc (_ bv0 32)))).def_11680))
(assert (let ((.def_11682 (= m_pc (_ bv1 32)))).def_11682))
(assert (let ((.def_11684 (= t1_pc (_ bv1 32)))).def_11684))
(assert (let ((.def_11686 (= t2_pc (_ bv1 32)))).def_11686))
(assert (let ((.def_11688 (= t3_pc (_ bv1 32)))).def_11688))
(assert (let ((.def_11690 (= t4_pc (_ bv1 32)))).def_11690))
(assert (let ((.def_11692 (= t5_pc (_ bv1 32)))).def_11692))
(assert (let ((.def_11694 (= t6_pc (_ bv1 32)))).def_11694))
(assert (let ((.def_11697 (= m_st (_ bv0 32)))).def_11697))
(assert (let ((.def_18796 (= E_1 (_ bv1 32)))).def_18796))
(assert (let ((.def_18799 (= E_2 (_ bv1 32)))).def_18799))
(assert (let ((.def_18802 (= E_4 (_ bv2 32)))).def_18802))
(assert (let ((.def_18804 (= E_4 (_ bv1 32)))).def_18804))
(assert (let ((.def_18807 (= E_3 (_ bv1 32)))).def_18807))
(assert (let ((.def_18810 (= E_M (_ bv1 32)))).def_18810))
(assert (let ((.def_18813 (= E_5 (_ bv1 32)))).def_18813))
(assert (let ((.def_18816 (= E_6 (_ bv1 32)))).def_18816))
(assert (let ((.def_18819 (= t2_st (_ bv0 32)))).def_18819))
(assert (let ((.def_18822 (= t1_st (_ bv0 32)))).def_18822))
(assert (let ((.def_18825 (= t3_st (_ bv0 32)))).def_18825))
(assert (let ((.def_18828 (= t4_st (_ bv0 32)))).def_18828))
(assert (let ((.def_18831 (= t6_st (_ bv0 32)))).def_18831))
(assert (let ((.def_18834 (= t5_st (_ bv0 32)))).def_18834))
(assert (let ((.def_18836 (= m_st (_ bv2 32)))).def_18836))
(assert (let ((.def_18839 (bvadd (_ bv6 32) local)))(let ((.def_18841 (= .def_18839 token))).def_18841)))
(assert (let ((.def_44085 (= E_5 (_ bv2 32)))).def_44085))
(assert (let ((.def_44087 (= local (_ bv0 32)))).def_44087))
(assert (let ((.def_44089 (= token (_ bv0 32)))).def_44089))
(assert (let ((.def_44091 (= E_2 (_ bv2 32)))).def_44091))
(assert (let ((.def_44093 (= t4_st (_ bv2 32)))).def_44093))
(assert (let ((.def_44095 (= t5_st (_ bv2 32)))).def_44095))
(assert (let ((.def_44097 (= t6_st (_ bv2 32)))).def_44097))
(assert (let ((.def_44099 (bvadd (_ bv5 32) local)))(let ((.def_44100 (= token .def_44099))).def_44100)))
(assert (let ((.def_44102 (= local token))).def_44102))
(assert (let ((.def_44104 (bvadd (_ bv4 32) local)))(let ((.def_44105 (= token .def_44104))).def_44105)))
(assert (let ((.def_44107 (bvadd (_ bv3 32) local)))(let ((.def_44108 (= token .def_44107))).def_44108)))
(assert (let ((.def_44110 (bvadd (_ bv2 32) local)))(let ((.def_44111 (= token .def_44110))).def_44111)))
(assert (let ((.def_44113 (bvadd (_ bv1 32) local)))(let ((.def_44114 (= token .def_44113))).def_44114)))
(assert (let ((.def_69086 (= E_M (_ bv0 32)))).def_69086))
(assert (let ((.def_69088 (= E_1 (_ bv0 32)))).def_69088))
(assert (let ((.def_96680 (= E_4 (_ bv0 32)))).def_96680))
(assert (let ((.def_96682 (= E_5 (_ bv0 32)))).def_96682))
(assert (let ((.def_96684 (= E_3 (_ bv0 32)))).def_96684))
(assert (let ((.def_96687 (= T6_E (_ bv0 32)))).def_96687))
(assert (let ((.def_96690 (= T5_E (_ bv0 32)))).def_96690))
(assert (let ((.def_96693 (= T4_E (_ bv0 32)))).def_96693))
(assert (let ((.def_96696 (= T3_E (_ bv0 32)))).def_96696))
(assert (let ((.def_96699 (= T2_E (_ bv0 32)))).def_96699))
(assert (let ((.def_96702 (= T1_E (_ bv0 32)))).def_96702))
(assert (let ((.def_96704 (= E_2 (_ bv0 32)))).def_96704))
(assert (let ((.def_96706 (= E_6 (_ bv0 32)))).def_96706))
(assert (let ((.def_96709 (= M_E (_ bv0 32)))).def_96709))
(assert false)

start_simulation2 N1019:
(assert (let ((.def_7567 (= m_pc (_ bv0 32)))).def_7567))
(assert (let ((.def_585 (= c_num_read p_num_write))).def_585))
(assert (let ((.def_594 (= c_last_read p_last_write))).def_594))
(assert (let ((.def_11665 (= t1_pc (_ bv0 32)))).def_11665))
(assert (let ((.def_11668 (= t2_pc (_ bv0 32)))).def_11668))
(assert (let ((.def_11671 (= t3_pc (_ bv0 32)))).def_11671))
(assert (let ((.def_11674 (= t4_pc (_ bv0 32)))).def_11674))
(assert (let ((.def_11677 (= t5_pc (_ bv0 32)))).def_11677))
(assert (let ((.def_11680 (= t6_pc (_ bv0 32)))).def_11680))
(assert (let ((.def_11682 (= m_pc (_ bv1 32)))).def_11682))
(assert (let ((.def_11684 (= t1_pc (_ bv1 32)))).def_11684))
(assert (let ((.def_11686 (= t2_pc (_ bv1 32)))).def_11686))
(assert (let ((.def_11688 (= t3_pc (_ bv1 32)))).def_11688))
(assert (let ((.def_11690 (= t4_pc (_ bv1 32)))).def_11690))
(assert (let ((.def_11692 (= t5_pc (_ bv1 32)))).def_11692))
(assert (let ((.def_11694 (= t6_pc (_ bv1 32)))).def_11694))
(assert (let ((.def_18796 (= E_1 (_ bv1 32)))).def_18796))
(assert (let ((.def_18799 (= E_2 (_ bv1 32)))).def_18799))
(assert (let ((.def_18802 (= E_4 (_ bv2 32)))).def_18802))
(assert (let ((.def_18804 (= E_4 (_ bv1 32)))).def_18804))
(assert (let ((.def_18807 (= E_3 (_ bv1 32)))).def_18807))
(assert (let ((.def_18810 (= E_M (_ bv1 32)))).def_18810))
(assert (let ((.def_18813 (= E_5 (_ bv1 32)))).def_18813))
(assert (let ((.def_18816 (= E_6 (_ bv1 32)))).def_18816))
(assert (let ((.def_18819 (= t2_st (_ bv0 32)))).def_18819))
(assert (let ((.def_18822 (= t1_st (_ bv0 32)))).def_18822))
(assert (let ((.def_11697 (= m_st (_ bv0 32)))).def_11697))
(assert (let ((.def_44085 (= E_5 (_ bv2 32)))).def_44085))
(assert (let ((.def_44087 (= local (_ bv0 32)))).def_44087))
(assert (let ((.def_44089 (= token (_ bv0 32)))).def_44089))
(assert (let ((.def_44091 (= E_2 (_ bv2 32)))).def_44091))
(assert (let ((.def_18831 (= t6_st (_ bv0 32)))).def_18831))
(assert (let ((.def_69086 (= E_M (_ bv0 32)))).def_69086))
(assert (let ((.def_18828 (= t4_st (_ bv0 32)))).def_18828))
(assert (let ((.def_18834 (= t5_st (_ bv0 32)))).def_18834))
(assert (let ((.def_96680 (= E_4 (_ bv0 32)))).def_96680))
(assert (let ((.def_96682 (= E_5 (_ bv0 32)))).def_96682))
(assert (let ((.def_96684 (= E_3 (_ bv0 32)))).def_96684))
(assert (let ((.def_96687 (= T6_E (_ bv0 32)))).def_96687))
(assert (let ((.def_96690 (= T5_E (_ bv0 32)))).def_96690))
(assert (let ((.def_96693 (= T4_E (_ bv0 32)))).def_96693))
(assert (let ((.def_96696 (= T3_E (_ bv0 32)))).def_96696))
(assert (let ((.def_96699 (= T2_E (_ bv0 32)))).def_96699))
(assert (let ((.def_96702 (= T1_E (_ bv0 32)))).def_96702))
(assert (let ((.def_96704 (= E_2 (_ bv0 32)))).def_96704))
(assert (let ((.def_96706 (= E_6 (_ bv0 32)))).def_96706))
(assert (let ((.def_69088 (= E_1 (_ bv0 32)))).def_69088))
(assert (let ((.def_18825 (= t3_st (_ bv0 32)))).def_18825))
(assert (let ((.def_96709 (= M_E (_ bv0 32)))).def_96709))

