(set-info :source |printed by MathSAT|)
(declare-fun |assert::arg| () (_ BitVec 8))
(declare-fun st1 () (_ BitVec 8))
(declare-fun st2 () (_ BitVec 8))
(declare-fun st3 () (_ BitVec 8))
(declare-fun st4 () (_ BitVec 8))
(declare-fun st5 () (_ BitVec 8))
(declare-fun st6 () (_ BitVec 8))
(declare-fun st7 () (_ BitVec 8))
(declare-fun r1 () (_ BitVec 8))
(declare-fun p5_new () (_ BitVec 8))
(declare-fun nomsg () (_ BitVec 8))
(declare-fun p4_new () (_ BitVec 8))
(declare-fun p3_new () (_ BitVec 8))
(declare-fun p2_new () (_ BitVec 8))
(declare-fun p6_new () (_ BitVec 8))
(declare-fun mode1 () (_ BitVec 8))
(declare-fun mode2 () (_ BitVec 8))
(declare-fun mode3 () (_ BitVec 8))
(declare-fun mode4 () (_ BitVec 8))
(declare-fun mode5 () (_ BitVec 8))
(declare-fun mode6 () (_ BitVec 8))
(declare-fun mode7 () (_ BitVec 8))
(declare-fun id5 () (_ BitVec 8))
(declare-fun send4 () (_ BitVec 8))
(declare-fun send7 () (_ BitVec 8))
(declare-fun id1 () (_ BitVec 8))
(declare-fun id3 () (_ BitVec 8))
(declare-fun send2 () (_ BitVec 8))
(declare-fun id4 () (_ BitVec 8))
(declare-fun send3 () (_ BitVec 8))
(declare-fun id6 () (_ BitVec 8))
(declare-fun send5 () (_ BitVec 8))
(declare-fun id2 () (_ BitVec 8))
(declare-fun send1 () (_ BitVec 8))
(declare-fun id7 () (_ BitVec 8))
(declare-fun send6 () (_ BitVec 8))
(declare-fun p7_new () (_ BitVec 8))
(declare-fun p1_new () (_ BitVec 8))
(declare-fun p4_old () (_ BitVec 8))
(declare-fun p7_old () (_ BitVec 8))
(declare-fun p2_old () (_ BitVec 8))
(declare-fun p3_old () (_ BitVec 8))
(declare-fun p5_old () (_ BitVec 8))
(declare-fun p1_old () (_ BitVec 8))
(declare-fun p6_old () (_ BitVec 8))
(declare-fun |node5::__CPAchecker_TMP_0| () (_ BitVec 32))
(declare-fun |node4::__CPAchecker_TMP_0| () (_ BitVec 32))
(declare-fun |node1::__CPAchecker_TMP_0| () (_ BitVec 32))
(declare-fun |node7::__CPAchecker_TMP_0| () (_ BitVec 32))
(declare-fun |node3::__CPAchecker_TMP_0| () (_ BitVec 32))
(declare-fun |node2::__CPAchecker_TMP_0| () (_ BitVec 32))
(declare-fun |node6::__CPAchecker_TMP_0| () (_ BitVec 32))

assert:
(assert (let ((.def_3077 (= |assert::arg| (_ bv0 8)))).def_3077))

main1 N487:
(assert (let ((.def_3459 (= st1 (_ bv0 8)))).def_3459))
(assert (let ((.def_3462 (= st2 (_ bv0 8)))).def_3462))
(assert (let ((.def_3465 (= st3 (_ bv0 8)))).def_3465))
(assert (let ((.def_3468 (= st4 (_ bv0 8)))).def_3468))
(assert (let ((.def_3471 (= st5 (_ bv0 8)))).def_3471))
(assert (let ((.def_3474 (= st6 (_ bv0 8)))).def_3474))
(assert (let ((.def_3477 (= st7 (_ bv0 8)))).def_3477))
(assert (let ((.def_3480 (= r1 (_ bv0 8)))).def_3480))
(assert (let ((.def_3484 (= p5_new nomsg))).def_3484))
(assert (let ((.def_3487 (= nomsg p4_new))).def_3487))
(assert (let ((.def_3490 (= nomsg p3_new))).def_3490))
(assert (let ((.def_3493 (= nomsg p2_new))).def_3493))
(assert (let ((.def_3496 (= nomsg p6_new))).def_3496))
(assert (let ((.def_3499 (= mode1 (_ bv0 8)))).def_3499))
(assert (let ((.def_3502 (= mode2 (_ bv0 8)))).def_3502))
(assert (let ((.def_3505 (= mode3 (_ bv0 8)))).def_3505))
(assert (let ((.def_3508 (= mode4 (_ bv0 8)))).def_3508))
(assert (let ((.def_3511 (= mode5 (_ bv0 8)))).def_3511))
(assert (let ((.def_3514 (= mode6 (_ bv0 8)))).def_3514))
(assert (let ((.def_3517 (= mode7 (_ bv0 8)))).def_3517))
(assert (let ((.def_6059 (= st1 st7))).def_6059))
(assert (let ((.def_6061 (= st2 st7))).def_6061))
(assert (let ((.def_6063 (= st3 st7))).def_6063))
(assert (let ((.def_6065 (= st4 st7))).def_6065))
(assert (let ((.def_6067 (= st5 st7))).def_6067))
(assert (let ((.def_6069 (= st6 st7))).def_6069))
(assert (let ((.def_6074 ((_ sign_extend 24) send4)))(let ((.def_6072 ((_ sign_extend 24) id5)))(let ((.def_6075 (= .def_6072 .def_6074))).def_6075))))
(assert (let ((.def_6079 (= send7 id1))).def_6079))
(assert (let ((.def_6082 ((_ sign_extend 24) id1)))(let ((.def_6081 ((_ sign_extend 24) send7)))(let ((.def_6083 (= .def_6081 .def_6082))).def_6083))))
(assert (let ((.def_6088 ((_ sign_extend 24) send2)))(let ((.def_6086 ((_ sign_extend 24) id3)))(let ((.def_6089 (= .def_6086 .def_6088))).def_6089))))
(assert (let ((.def_6094 ((_ sign_extend 24) send3)))(let ((.def_6092 ((_ sign_extend 24) id4)))(let ((.def_6095 (= .def_6092 .def_6094))).def_6095))))
(assert (let ((.def_6099 (= id6 send5))).def_6099))
(assert (let ((.def_6102 ((_ sign_extend 24) send5)))(let ((.def_6101 ((_ sign_extend 24) id6)))(let ((.def_6103 (= .def_6101 .def_6102))).def_6103))))
(assert (let ((.def_6108 ((_ sign_extend 24) send1)))(let ((.def_6106 ((_ sign_extend 24) id2)))(let ((.def_6109 (= .def_6106 .def_6108))).def_6109))))
(assert (let ((.def_6114 ((_ sign_extend 24) send6)))(let ((.def_6112 ((_ sign_extend 24) id7)))(let ((.def_6115 (= .def_6112 .def_6114))).def_6115))))
(assert (let ((.def_6117 ((_ sign_extend 24) nomsg)))(let ((.def_6088 ((_ sign_extend 24) send2)))(let ((.def_6118 (= .def_6088 .def_6117))).def_6118))))
(assert (let ((.def_6117 ((_ sign_extend 24) nomsg)))(let ((.def_6094 ((_ sign_extend 24) send3)))(let ((.def_6120 (= .def_6094 .def_6117))).def_6120))))
(assert (let ((.def_6123 (= nomsg p7_new))).def_6123))
(assert (let ((.def_6126 (= nomsg p1_new))).def_6126))
(assert (let ((.def_6129 ((_ sign_extend 24) p4_old)))(let ((.def_6072 ((_ sign_extend 24) id5)))(let ((.def_6130 (= .def_6072 .def_6129))).def_6130))))
(assert (let ((.def_6139 ((_ sign_extend 24) st1)))(let ((.def_6138 ((_ sign_extend 24) st2)))(let ((.def_6141 (bvadd .def_6138 .def_6139)))(let ((.def_6137 ((_ sign_extend 24) st3)))(let ((.def_6143 (bvadd .def_6137 .def_6141)))(let ((.def_6136 ((_ sign_extend 24) st4)))(let ((.def_6145 (bvadd .def_6136 .def_6143)))(let ((.def_6135 ((_ sign_extend 24) st5)))(let ((.def_6147 (bvadd .def_6135 .def_6145)))(let ((.def_6134 ((_ sign_extend 24) st6)))(let ((.def_6149 (bvadd .def_6134 .def_6147)))(let ((.def_6132 ((_ sign_extend 24) st7)))(let ((.def_6133 (bvneg .def_6132)))(let ((.def_6150 (= .def_6133 .def_6149))).def_6150)))))))))))))))
(assert (let ((.def_6153 ((_ sign_extend 24) p7_old)))(let ((.def_6082 ((_ sign_extend 24) id1)))(let ((.def_6154 (= .def_6082 .def_6153))).def_6154))))
(assert (let ((.def_6157 ((_ sign_extend 24) p2_old)))(let ((.def_6086 ((_ sign_extend 24) id3)))(let ((.def_6158 (= .def_6086 .def_6157))).def_6158))))
(assert (let ((.def_6161 ((_ sign_extend 24) p3_old)))(let ((.def_6092 ((_ sign_extend 24) id4)))(let ((.def_6162 (= .def_6092 .def_6161))).def_6162))))
(assert (let ((.def_6165 ((_ sign_extend 24) p5_old)))(let ((.def_6101 ((_ sign_extend 24) id6)))(let ((.def_6166 (= .def_6101 .def_6165))).def_6166))))
(assert (let ((.def_6169 ((_ sign_extend 24) p1_old)))(let ((.def_6106 ((_ sign_extend 24) id2)))(let ((.def_6170 (= .def_6106 .def_6169))).def_6170))))
(assert (let ((.def_6173 ((_ sign_extend 24) p6_old)))(let ((.def_6112 ((_ sign_extend 24) id7)))(let ((.def_6174 (= .def_6112 .def_6173))).def_6174))))
(assert (let ((.def_6139 ((_ sign_extend 24) st1)))(let ((.def_6137 ((_ sign_extend 24) st3)))(let ((.def_15888 (= .def_6137 .def_6139))).def_15888))))
(assert (let ((.def_6139 ((_ sign_extend 24) st1)))(let ((.def_6136 ((_ sign_extend 24) st4)))(let ((.def_15890 (= .def_6136 .def_6139))).def_15890))))
(assert (let ((.def_6138 ((_ sign_extend 24) st2)))(let ((.def_6135 ((_ sign_extend 24) st5)))(let ((.def_15892 (= .def_6135 .def_6138))).def_15892))))
(assert (let ((.def_6138 ((_ sign_extend 24) st2)))(let ((.def_6134 ((_ sign_extend 24) st6)))(let ((.def_15894 (= .def_6134 .def_6138))).def_15894))))
(assert (let ((.def_15896 (= st4 (_ bv1 8)))).def_15896))
(assert (let ((.def_15898 (= st3 (_ bv1 8)))).def_15898))
(assert (let ((.def_15900 (= st1 (_ bv1 8)))).def_15900))
(assert (let ((.def_6135 ((_ sign_extend 24) st5)))(let ((.def_6134 ((_ sign_extend 24) st6)))(let ((.def_15902 (= .def_6134 .def_6135))).def_15902))))
(assert (let ((.def_6136 ((_ sign_extend 24) st4)))(let ((.def_6134 ((_ sign_extend 24) st6)))(let ((.def_15904 (= .def_6134 .def_6136))).def_15904))))
(assert (let ((.def_6137 ((_ sign_extend 24) st3)))(let ((.def_6135 ((_ sign_extend 24) st5)))(let ((.def_15906 (= .def_6135 .def_6137))).def_15906))))
(assert (let ((.def_15908 (= st5 (_ bv1 8)))).def_15908))
(assert (let ((.def_6139 ((_ sign_extend 24) st1)))(let ((.def_6135 ((_ sign_extend 24) st5)))(let ((.def_15910 (= .def_6135 .def_6139))).def_15910))))
(assert (let ((.def_6138 ((_ sign_extend 24) st2)))(let ((.def_6137 ((_ sign_extend 24) st3)))(let ((.def_15912 (= .def_6137 .def_6138))).def_15912))))
(assert (let ((.def_6137 ((_ sign_extend 24) st3)))(let ((.def_6134 ((_ sign_extend 24) st6)))(let ((.def_15914 (= .def_6134 .def_6137))).def_15914))))
(assert (let ((.def_6139 ((_ sign_extend 24) st1)))(let ((.def_6134 ((_ sign_extend 24) st6)))(let ((.def_15916 (= .def_6134 .def_6139))).def_15916))))
(assert (let ((.def_15918 (= st6 (_ bv1 8)))).def_15918))
(assert (let ((.def_6137 ((_ sign_extend 24) st3)))(let ((.def_6136 ((_ sign_extend 24) st4)))(let ((.def_15920 (= .def_6136 .def_6137))).def_15920))))
(assert (let ((.def_6138 ((_ sign_extend 24) st2)))(let ((.def_6136 ((_ sign_extend 24) st4)))(let ((.def_15922 (= .def_6136 .def_6138))).def_15922))))
(assert (let ((.def_15924 (= st2 (_ bv1 8)))).def_15924))
(assert (let ((.def_6139 ((_ sign_extend 24) st1)))(let ((.def_6138 ((_ sign_extend 24) st2)))(let ((.def_15926 (= .def_6138 .def_6139))).def_15926))))
(assert (let ((.def_6136 ((_ sign_extend 24) st4)))(let ((.def_6135 ((_ sign_extend 24) st5)))(let ((.def_15928 (= .def_6135 .def_6136))).def_15928))))
(assert (let ((.def_15930 ((_ zero_extend 24) r1)))(let ((.def_15931 (bvslt .def_15930 (_ bv7 32)))).def_15931)))
(assert (let ((.def_6139 ((_ sign_extend 24) st1)))(let ((.def_6138 ((_ sign_extend 24) st2)))(let ((.def_6141 (bvadd .def_6138 .def_6139)))(let ((.def_6137 ((_ sign_extend 24) st3)))(let ((.def_6143 (bvadd .def_6137 .def_6141)))(let ((.def_6136 ((_ sign_extend 24) st4)))(let ((.def_6145 (bvadd .def_6136 .def_6143)))(let ((.def_6135 ((_ sign_extend 24) st5)))(let ((.def_6147 (bvadd .def_6135 .def_6145)))(let ((.def_6134 ((_ sign_extend 24) st6)))(let ((.def_6149 (bvadd .def_6134 .def_6147)))(let ((.def_6132 ((_ sign_extend 24) st7)))(let ((.def_15934 (bvadd .def_6132 .def_6149)))(let ((.def_15935 (= .def_15934 (_ bv1 32)))).def_15935)))))))))))))))
(assert (let ((.def_6108 ((_ sign_extend 24) send1)))(let ((.def_6106 ((_ sign_extend 24) id2)))(let ((.def_28595 (bvslt .def_6106 .def_6108))).def_28595))))
(assert (let ((.def_6106 ((_ sign_extend 24) id2)))(let ((.def_6081 ((_ sign_extend 24) send7)))(let ((.def_28597 (= .def_6081 .def_6106))).def_28597))))
(assert (let ((.def_6094 ((_ sign_extend 24) send3)))(let ((.def_6072 ((_ sign_extend 24) id5)))(let ((.def_28599 (= .def_6072 .def_6094))).def_28599))))
(assert (let ((.def_6074 ((_ sign_extend 24) send4)))(let ((.def_6072 ((_ sign_extend 24) id5)))(let ((.def_28601 (bvslt .def_6072 .def_6074))).def_28601))))
(assert (let ((.def_6102 ((_ sign_extend 24) send5)))(let ((.def_6101 ((_ sign_extend 24) id6)))(let ((.def_28603 (bvslt .def_6101 .def_6102))).def_28603))))
(assert (let ((.def_6101 ((_ sign_extend 24) id6)))(let ((.def_6074 ((_ sign_extend 24) send4)))(let ((.def_28605 (= .def_6074 .def_6101))).def_28605))))
(assert (let ((.def_6114 ((_ sign_extend 24) send6)))(let ((.def_6101 ((_ sign_extend 24) id6)))(let ((.def_28607 (= .def_6101 .def_6114))).def_28607))))
(assert (let ((.def_6081 ((_ sign_extend 24) send7)))(let ((.def_6082 ((_ sign_extend 24) id1)))(let ((.def_28609 (bvslt .def_6082 .def_6081))).def_28609))))
(assert (let ((.def_6114 ((_ sign_extend 24) send6)))(let ((.def_6082 ((_ sign_extend 24) id1)))(let ((.def_28611 (= .def_6082 .def_6114))).def_28611))))
(assert (let ((.def_6117 ((_ sign_extend 24) nomsg)))(let ((.def_6081 ((_ sign_extend 24) send7)))(let ((.def_28613 (= .def_6081 .def_6117))).def_28613))))
(assert (let ((.def_6094 ((_ sign_extend 24) send3)))(let ((.def_6092 ((_ sign_extend 24) id4)))(let ((.def_28615 (bvslt .def_6092 .def_6094))).def_28615))))
(assert (let ((.def_6092 ((_ sign_extend 24) id4)))(let ((.def_6088 ((_ sign_extend 24) send2)))(let ((.def_28617 (= .def_6088 .def_6092))).def_28617))))
(assert (let ((.def_6088 ((_ sign_extend 24) send2)))(let ((.def_6086 ((_ sign_extend 24) id3)))(let ((.def_28619 (bvslt .def_6086 .def_6088))).def_28619))))
(assert (let ((.def_6108 ((_ sign_extend 24) send1)))(let ((.def_6086 ((_ sign_extend 24) id3)))(let ((.def_28621 (= .def_6086 .def_6108))).def_28621))))
(assert (let ((.def_6114 ((_ sign_extend 24) send6)))(let ((.def_6112 ((_ sign_extend 24) id7)))(let ((.def_28623 (bvslt .def_6112 .def_6114))).def_28623))))
(assert (let ((.def_6112 ((_ sign_extend 24) id7)))(let ((.def_6102 ((_ sign_extend 24) send5)))(let ((.def_28625 (= .def_6102 .def_6112))).def_28625))))
(assert (let ((.def_6117 ((_ sign_extend 24) nomsg)))(let ((.def_6108 ((_ sign_extend 24) send1)))(let ((.def_28627 (= .def_6108 .def_6117))).def_28627))))
(assert (let ((.def_28629 (= nomsg send7))).def_28629))
(assert (let ((.def_6117 ((_ sign_extend 24) nomsg)))(let ((.def_6074 ((_ sign_extend 24) send4)))(let ((.def_28631 (= .def_6074 .def_6117))).def_28631))))
(assert (let ((.def_6102 ((_ sign_extend 24) send5)))(let ((.def_6072 ((_ sign_extend 24) id5)))(let ((.def_28633 (= .def_6072 .def_6102))).def_28633))))
(assert (let ((.def_6117 ((_ sign_extend 24) nomsg)))(let ((.def_6102 ((_ sign_extend 24) send5)))(let ((.def_28635 (= .def_6102 .def_6117))).def_28635))))
(assert (let ((.def_6117 ((_ sign_extend 24) nomsg)))(let ((.def_6114 ((_ sign_extend 24) send6)))(let ((.def_28637 (= .def_6114 .def_6117))).def_28637))))
(assert (let ((.def_6165 ((_ sign_extend 24) p5_old)))(let ((.def_6101 ((_ sign_extend 24) id6)))(let ((.def_28639 (bvslt .def_6101 .def_6165))).def_28639))))
(assert (let ((.def_6102 ((_ sign_extend 24) send5)))(let ((.def_28642 (= .def_6102 |node5::__CPAchecker_TMP_0|))).def_28642)))
(assert (let ((.def_28644 ((_ extract 7 0) |node5::__CPAchecker_TMP_0|)))(let ((.def_28645 (= p5_old .def_28644))).def_28645)))
(assert (let ((.def_28647 (= id6 p4_old))).def_28647))
(assert (let ((.def_6129 ((_ sign_extend 24) p4_old)))(let ((.def_6101 ((_ sign_extend 24) id6)))(let ((.def_28649 (= .def_6101 .def_6129))).def_28649))))
(assert (let ((.def_6117 ((_ sign_extend 24) nomsg)))(let ((.def_6101 ((_ sign_extend 24) id6)))(let ((.def_28651 (= .def_6101 .def_6117))).def_28651))))
(assert (let ((.def_6161 ((_ sign_extend 24) p3_old)))(let ((.def_6072 ((_ sign_extend 24) id5)))(let ((.def_28653 (= .def_6072 .def_6161))).def_28653))))
(assert (let ((.def_6074 ((_ sign_extend 24) send4)))(let ((.def_28656 (= .def_6074 |node4::__CPAchecker_TMP_0|))).def_28656)))
(assert (let ((.def_28658 ((_ extract 7 0) |node4::__CPAchecker_TMP_0|)))(let ((.def_28659 (= p4_old .def_28658))).def_28659)))
(assert (let ((.def_6129 ((_ sign_extend 24) p4_old)))(let ((.def_6072 ((_ sign_extend 24) id5)))(let ((.def_28661 (bvslt .def_6072 .def_6129))).def_28661))))
(assert (let ((.def_6169 ((_ sign_extend 24) p1_old)))(let ((.def_6106 ((_ sign_extend 24) id2)))(let ((.def_28663 (bvslt .def_6106 .def_6169))).def_28663))))
(assert (let ((.def_6108 ((_ sign_extend 24) send1)))(let ((.def_28666 (= .def_6108 |node1::__CPAchecker_TMP_0|))).def_28666)))
(assert (let ((.def_28668 ((_ extract 7 0) |node1::__CPAchecker_TMP_0|)))(let ((.def_28669 (= p1_old .def_28668))).def_28669)))
(assert (let ((.def_6153 ((_ sign_extend 24) p7_old)))(let ((.def_6106 ((_ sign_extend 24) id2)))(let ((.def_28671 (= .def_6106 .def_6153))).def_28671))))
(assert (let ((.def_6153 ((_ sign_extend 24) p7_old)))(let ((.def_6082 ((_ sign_extend 24) id1)))(let ((.def_28673 (bvslt .def_6082 .def_6153))).def_28673))))
(assert (let ((.def_6081 ((_ sign_extend 24) send7)))(let ((.def_28676 (= .def_6081 |node7::__CPAchecker_TMP_0|))).def_28676)))
(assert (let ((.def_28678 ((_ extract 7 0) |node7::__CPAchecker_TMP_0|)))(let ((.def_28679 (= p7_old .def_28678))).def_28679)))
(assert (let ((.def_6173 ((_ sign_extend 24) p6_old)))(let ((.def_6082 ((_ sign_extend 24) id1)))(let ((.def_28681 (= .def_6082 .def_6173))).def_28681))))
(assert (let ((.def_6161 ((_ sign_extend 24) p3_old)))(let ((.def_6092 ((_ sign_extend 24) id4)))(let ((.def_28683 (bvslt .def_6092 .def_6161))).def_28683))))
(assert (let ((.def_6094 ((_ sign_extend 24) send3)))(let ((.def_28686 (= .def_6094 |node3::__CPAchecker_TMP_0|))).def_28686)))
(assert (let ((.def_28688 ((_ extract 7 0) |node3::__CPAchecker_TMP_0|)))(let ((.def_28689 (= p3_old .def_28688))).def_28689)))
(assert (let ((.def_6157 ((_ sign_extend 24) p2_old)))(let ((.def_6092 ((_ sign_extend 24) id4)))(let ((.def_28691 (= .def_6092 .def_6157))).def_28691))))
(assert (let ((.def_6157 ((_ sign_extend 24) p2_old)))(let ((.def_6086 ((_ sign_extend 24) id3)))(let ((.def_28693 (bvslt .def_6086 .def_6157))).def_28693))))
(assert (let ((.def_6088 ((_ sign_extend 24) send2)))(let ((.def_28696 (= .def_6088 |node2::__CPAchecker_TMP_0|))).def_28696)))
(assert (let ((.def_28698 ((_ extract 7 0) |node2::__CPAchecker_TMP_0|)))(let ((.def_28699 (= p2_old .def_28698))).def_28699)))
(assert (let ((.def_6169 ((_ sign_extend 24) p1_old)))(let ((.def_6086 ((_ sign_extend 24) id3)))(let ((.def_28701 (= .def_6086 .def_6169))).def_28701))))
(assert (let ((.def_6157 ((_ sign_extend 24) p2_old)))(let ((.def_6117 ((_ sign_extend 24) nomsg)))(let ((.def_28703 (= .def_6117 .def_6157))).def_28703))))
(assert (let ((.def_6173 ((_ sign_extend 24) p6_old)))(let ((.def_6112 ((_ sign_extend 24) id7)))(let ((.def_28705 (bvslt .def_6112 .def_6173))).def_28705))))
(assert (let ((.def_6165 ((_ sign_extend 24) p5_old)))(let ((.def_6112 ((_ sign_extend 24) id7)))(let ((.def_28707 (= .def_6112 .def_6165))).def_28707))))
(assert (let ((.def_6114 ((_ sign_extend 24) send6)))(let ((.def_28710 (= .def_6114 |node6::__CPAchecker_TMP_0|))).def_28710)))
(assert (let ((.def_28712 ((_ extract 7 0) |node6::__CPAchecker_TMP_0|)))(let ((.def_28713 (= p6_old .def_28712))).def_28713)))
(assert (let ((.def_6169 ((_ sign_extend 24) p1_old)))(let ((.def_6117 ((_ sign_extend 24) nomsg)))(let ((.def_28715 (= .def_6117 .def_6169))).def_28715))))
(assert (let ((.def_6153 ((_ sign_extend 24) p7_old)))(let ((.def_6117 ((_ sign_extend 24) nomsg)))(let ((.def_28717 (= .def_6117 .def_6153))).def_28717))))
(assert (let ((.def_6173 ((_ sign_extend 24) p6_old)))(let ((.def_6117 ((_ sign_extend 24) nomsg)))(let ((.def_28719 (= .def_6117 .def_6173))).def_28719))))
(assert (let ((.def_6129 ((_ sign_extend 24) p4_old)))(let ((.def_6117 ((_ sign_extend 24) nomsg)))(let ((.def_28721 (= .def_6117 .def_6129))).def_28721))))
(assert (let ((.def_6161 ((_ sign_extend 24) p3_old)))(let ((.def_6117 ((_ sign_extend 24) nomsg)))(let ((.def_28723 (= .def_6117 .def_6161))).def_28723))))
(assert (let ((.def_28725 (= id3 send2))).def_28725))
(assert (let ((.def_28727 (= st7 (_ bv1 8)))).def_28727))
(assert (let ((.def_28729 (= r1 (_ bv1 8)))).def_28729))

assert N520:
(assert false)
(assert (let ((.def_3077 (= |assert::arg| (_ bv0 8)))).def_3077))

