(set-info :source |printed by MathSAT|)
(declare-fun a20 () (_ BitVec 32))
(declare-fun a25 () (_ BitVec 32))
(declare-fun a12 () (_ BitVec 32))
(declare-fun a15 () (_ BitVec 32))
(declare-fun a16 () (_ BitVec 32))
(declare-fun a2 () (_ BitVec 32))
(declare-fun a27 () (_ BitVec 32))
(declare-fun a9 () (_ BitVec 32))
(declare-fun |calculate_output5::input| () (_ BitVec 32))
(declare-fun |calculate_output4::input| () (_ BitVec 32))

*:
(assert (let ((.def_105632 (= a20 (_ bv5 32)))).def_105632))

calculate_output8 N29569:
(assert false)
(assert (let ((.def_105632 (= a20 (_ bv5 32)))).def_105632))

main1 N30136:
(assert (let ((.def_105632 (= a20 (_ bv5 32)))).def_105632))
(assert (let ((.def_152214 (= a25 (_ bv1 32)))).def_152214))
(assert (let ((.def_152217 (= a12 (_ bv4 32)))).def_152217))
(assert (let ((.def_152220 (= a15 (_ bv1 32)))).def_152220))
(assert (let ((.def_152223 (= a16 (_ bv1 32)))).def_152223))
(assert (let ((.def_152226 (= a2 (_ bv10 32)))).def_152226))
(assert (let ((.def_152229 (= a27 (_ bv1 32)))).def_152229))
(assert (let ((.def_152232 (= a9 (_ bv18 32)))).def_152232))
(assert (let ((.def_317288 (= a20 (_ bv6 32)))).def_317288))
(assert (let ((.def_317290 (= a2 (_ bv13 32)))).def_317290))
(assert (let ((.def_317292 (= a12 (_ bv3 32)))).def_317292))
(assert (let ((.def_317294 (= a12 (_ bv2 32)))).def_317294))
(assert (let ((.def_317296 (= a9 (_ bv16 32)))).def_317296))
(assert (let ((.def_317298 (= a9 (_ bv17 32)))).def_317298))
(assert (let ((.def_1087567 (= a25 (_ bv0 32)))).def_1087567))
(assert (let ((.def_1087569 (= a20 (_ bv7 32)))).def_1087569))
(assert (let ((.def_1087571 (= a12 (_ bv5 32)))).def_1087571))
(assert (let ((.def_1087573 (= a12 (_ bv6 32)))).def_1087573))
(assert (let ((.def_1087575 (= a2 (_ bv11 32)))).def_1087575))
(assert (let ((.def_1087577 (= a2 (_ bv9 32)))).def_1087577))
(assert (let ((.def_1087579 (= a2 (_ bv12 32)))).def_1087579))
(assert (let ((.def_1087582 (= |calculate_output5::input| (_ bv1 32)))).def_1087582))
(assert (let ((.def_1087585 (= |calculate_output4::input| (_ bv1 32)))).def_1087585))
(assert (let ((.def_1087587 (= |calculate_output5::input| |calculate_output4::input|))).def_1087587))
(assert (let ((.def_1087589 (= |calculate_output4::input| (_ bv3 32)))).def_1087589))

