(set-info :source |printed by MathSAT|)
(declare-fun |assert::arg| () (_ BitVec 8))
(declare-fun st1 () (_ BitVec 8))
(declare-fun st2 () (_ BitVec 8))
(declare-fun st3 () (_ BitVec 8))
(declare-fun st4 () (_ BitVec 8))
(declare-fun st5 () (_ BitVec 8))
(declare-fun r1 () (_ BitVec 8))
(declare-fun p3_new () (_ BitVec 8))
(declare-fun nomsg () (_ BitVec 8))
(declare-fun p2_new () (_ BitVec 8))
(declare-fun p4_new () (_ BitVec 8))
(declare-fun mode1 () (_ BitVec 8))
(declare-fun mode2 () (_ BitVec 8))
(declare-fun mode3 () (_ BitVec 8))
(declare-fun mode4 () (_ BitVec 8))
(declare-fun mode5 () (_ BitVec 8))
(declare-fun send5 () (_ BitVec 8))
(declare-fun id1 () (_ BitVec 8))
(declare-fun id5 () (_ BitVec 8))
(declare-fun send4 () (_ BitVec 8))
(declare-fun id2 () (_ BitVec 8))
(declare-fun send1 () (_ BitVec 8))
(declare-fun id3 () (_ BitVec 8))
(declare-fun send2 () (_ BitVec 8))
(declare-fun id4 () (_ BitVec 8))
(declare-fun send3 () (_ BitVec 8))
(declare-fun p5_new () (_ BitVec 8))
(declare-fun p1_new () (_ BitVec 8))
(declare-fun p5_old () (_ BitVec 8))
(declare-fun p4_old () (_ BitVec 8))
(declare-fun p1_old () (_ BitVec 8))
(declare-fun p2_old () (_ BitVec 8))
(declare-fun p3_old () (_ BitVec 8))
(declare-fun |node2::__CPAchecker_TMP_0| () (_ BitVec 32))
(declare-fun |node3::__CPAchecker_TMP_0| () (_ BitVec 32))
(declare-fun |node5::__CPAchecker_TMP_0| () (_ BitVec 32))

assert:
(assert (let ((.def_2173 (= |assert::arg| (_ bv0 8)))).def_2173))

main1 N340:
(assert (let ((.def_2428 (= st1 (_ bv0 8)))).def_2428))
(assert (let ((.def_2431 (= st2 (_ bv0 8)))).def_2431))
(assert (let ((.def_2434 (= st3 (_ bv0 8)))).def_2434))
(assert (let ((.def_2437 (= st4 (_ bv0 8)))).def_2437))
(assert (let ((.def_2440 (= st5 (_ bv0 8)))).def_2440))
(assert (let ((.def_2443 (= r1 (_ bv0 8)))).def_2443))
(assert (let ((.def_2447 (= p3_new nomsg))).def_2447))
(assert (let ((.def_2450 (= nomsg p2_new))).def_2450))
(assert (let ((.def_2453 (= nomsg p4_new))).def_2453))
(assert (let ((.def_2456 (= mode1 (_ bv0 8)))).def_2456))
(assert (let ((.def_2459 (= mode2 (_ bv0 8)))).def_2459))
(assert (let ((.def_2462 (= mode3 (_ bv0 8)))).def_2462))
(assert (let ((.def_2465 (= mode4 (_ bv0 8)))).def_2465))
(assert (let ((.def_2468 (= mode5 (_ bv0 8)))).def_2468))
(assert (let ((.def_4319 ((_ sign_extend 24) id1)))(let ((.def_4317 ((_ sign_extend 24) send5)))(let ((.def_4320 (= .def_4317 .def_4319))).def_4320))))
(assert (let ((.def_4325 ((_ sign_extend 24) send4)))(let ((.def_4323 ((_ sign_extend 24) id5)))(let ((.def_4326 (= .def_4323 .def_4325))).def_4326))))
(assert (let ((.def_4328 (= st1 st5))).def_4328))
(assert (let ((.def_4330 (= st2 st5))).def_4330))
(assert (let ((.def_4332 (= st3 st5))).def_4332))
(assert (let ((.def_4334 (= st4 st5))).def_4334))
(assert (let ((.def_4339 ((_ sign_extend 24) send1)))(let ((.def_4337 ((_ sign_extend 24) id2)))(let ((.def_4340 (= .def_4337 .def_4339))).def_4340))))
(assert (let ((.def_4344 (= id3 send2))).def_4344))
(assert (let ((.def_4347 ((_ sign_extend 24) send2)))(let ((.def_4346 ((_ sign_extend 24) id3)))(let ((.def_4348 (= .def_4346 .def_4347))).def_4348))))
(assert (let ((.def_4353 ((_ sign_extend 24) send3)))(let ((.def_4351 ((_ sign_extend 24) id4)))(let ((.def_4354 (= .def_4351 .def_4353))).def_4354))))
(assert (let ((.def_4356 ((_ sign_extend 24) nomsg)))(let ((.def_4353 ((_ sign_extend 24) send3)))(let ((.def_4357 (= .def_4353 .def_4356))).def_4357))))
(assert (let ((.def_4356 ((_ sign_extend 24) nomsg)))(let ((.def_4325 ((_ sign_extend 24) send4)))(let ((.def_4359 (= .def_4325 .def_4356))).def_4359))))
(assert (let ((.def_4362 (= nomsg p5_new))).def_4362))
(assert (let ((.def_4365 (= nomsg p1_new))).def_4365))
(assert (let ((.def_4368 ((_ sign_extend 24) p5_old)))(let ((.def_4319 ((_ sign_extend 24) id1)))(let ((.def_4369 (= .def_4319 .def_4368))).def_4369))))
(assert (let ((.def_4372 ((_ sign_extend 24) p4_old)))(let ((.def_4323 ((_ sign_extend 24) id5)))(let ((.def_4373 (= .def_4323 .def_4372))).def_4373))))
(assert (let ((.def_4380 ((_ sign_extend 24) st1)))(let ((.def_4379 ((_ sign_extend 24) st2)))(let ((.def_4382 (bvadd .def_4379 .def_4380)))(let ((.def_4378 ((_ sign_extend 24) st3)))(let ((.def_4384 (bvadd .def_4378 .def_4382)))(let ((.def_4377 ((_ sign_extend 24) st4)))(let ((.def_4386 (bvadd .def_4377 .def_4384)))(let ((.def_4375 ((_ sign_extend 24) st5)))(let ((.def_4376 (bvneg .def_4375)))(let ((.def_4387 (= .def_4376 .def_4386))).def_4387)))))))))))
(assert (let ((.def_4390 ((_ sign_extend 24) p1_old)))(let ((.def_4337 ((_ sign_extend 24) id2)))(let ((.def_4391 (= .def_4337 .def_4390))).def_4391))))
(assert (let ((.def_4394 ((_ sign_extend 24) p2_old)))(let ((.def_4346 ((_ sign_extend 24) id3)))(let ((.def_4395 (= .def_4346 .def_4394))).def_4395))))
(assert (let ((.def_4398 ((_ sign_extend 24) p3_old)))(let ((.def_4351 ((_ sign_extend 24) id4)))(let ((.def_4399 (= .def_4351 .def_4398))).def_4399))))
(assert (let ((.def_4379 ((_ sign_extend 24) st2)))(let ((.def_4377 ((_ sign_extend 24) st4)))(let ((.def_8396 (= .def_4377 .def_4379))).def_8396))))
(assert (let ((.def_4378 ((_ sign_extend 24) st3)))(let ((.def_4377 ((_ sign_extend 24) st4)))(let ((.def_8398 (= .def_4377 .def_4378))).def_8398))))
(assert (let ((.def_8400 (= st1 (_ bv1 8)))).def_8400))
(assert (let ((.def_4380 ((_ sign_extend 24) st1)))(let ((.def_4377 ((_ sign_extend 24) st4)))(let ((.def_8402 (= .def_4377 .def_4380))).def_8402))))
(assert (let ((.def_4379 ((_ sign_extend 24) st2)))(let ((.def_4378 ((_ sign_extend 24) st3)))(let ((.def_8404 (= .def_4378 .def_4379))).def_8404))))
(assert (let ((.def_8406 (= st4 (_ bv1 8)))).def_8406))
(assert (let ((.def_4380 ((_ sign_extend 24) st1)))(let ((.def_4379 ((_ sign_extend 24) st2)))(let ((.def_8408 (= .def_4379 .def_4380))).def_8408))))
(assert (let ((.def_8410 (= st2 (_ bv1 8)))).def_8410))
(assert (let ((.def_4380 ((_ sign_extend 24) st1)))(let ((.def_4378 ((_ sign_extend 24) st3)))(let ((.def_8412 (= .def_4378 .def_4380))).def_8412))))
(assert (let ((.def_8414 (= st3 (_ bv1 8)))).def_8414))
(assert (let ((.def_8416 ((_ sign_extend 24) r1)))(let ((.def_8417 (bvslt .def_8416 (_ bv5 32)))).def_8417)))
(assert (let ((.def_4353 ((_ sign_extend 24) send3)))(let ((.def_4351 ((_ sign_extend 24) id4)))(let ((.def_13853 (bvslt .def_4351 .def_4353))).def_13853))))
(assert (let ((.def_4351 ((_ sign_extend 24) id4)))(let ((.def_4325 ((_ sign_extend 24) send4)))(let ((.def_13855 (= .def_4325 .def_4351))).def_13855))))
(assert (let ((.def_4346 ((_ sign_extend 24) id3)))(let ((.def_4339 ((_ sign_extend 24) send1)))(let ((.def_13857 (= .def_4339 .def_4346))).def_13857))))
(assert (let ((.def_4339 ((_ sign_extend 24) send1)))(let ((.def_4337 ((_ sign_extend 24) id2)))(let ((.def_13859 (bvslt .def_4337 .def_4339))).def_13859))))
(assert (let ((.def_4337 ((_ sign_extend 24) id2)))(let ((.def_4317 ((_ sign_extend 24) send5)))(let ((.def_13861 (= .def_4317 .def_4337))).def_13861))))
(assert (let ((.def_4347 ((_ sign_extend 24) send2)))(let ((.def_4346 ((_ sign_extend 24) id3)))(let ((.def_13863 (bvslt .def_4346 .def_4347))).def_13863))))
(assert (let ((.def_4347 ((_ sign_extend 24) send2)))(let ((.def_4337 ((_ sign_extend 24) id2)))(let ((.def_13865 (= .def_4337 .def_4347))).def_13865))))
(assert (let ((.def_4337 ((_ sign_extend 24) id2)))(let ((.def_13867 ((_ extract 31 31) .def_4337)))(let ((.def_13868 (= .def_13867 (_ bv1 1)))).def_13868))))
(assert (let ((.def_4346 ((_ sign_extend 24) id3)))(let ((.def_13870 ((_ extract 31 31) .def_4346)))(let ((.def_13871 (= .def_13870 (_ bv1 1)))).def_13871))))
(assert (let ((.def_4351 ((_ sign_extend 24) id4)))(let ((.def_4347 ((_ sign_extend 24) send2)))(let ((.def_13873 (= .def_4347 .def_4351))).def_13873))))
(assert (let ((.def_4353 ((_ sign_extend 24) send3)))(let ((.def_4346 ((_ sign_extend 24) id3)))(let ((.def_13875 (= .def_4346 .def_4353))).def_13875))))
(assert (let ((.def_13877 ((_ sign_extend 24) p3_new)))(let ((.def_4353 ((_ sign_extend 24) send3)))(let ((.def_13878 (= .def_4353 .def_13877))).def_13878))))
(assert (let ((.def_4317 ((_ sign_extend 24) send5)))(let ((.def_4319 ((_ sign_extend 24) id1)))(let ((.def_13880 (bvslt .def_4319 .def_4317))).def_13880))))
(assert (let ((.def_4325 ((_ sign_extend 24) send4)))(let ((.def_4319 ((_ sign_extend 24) id1)))(let ((.def_13882 (= .def_4319 .def_4325))).def_13882))))
(assert (let ((.def_13884 (= nomsg (_ bv255 8)))).def_13884))
(assert (let ((.def_4356 ((_ sign_extend 24) nomsg)))(let ((.def_4317 ((_ sign_extend 24) send5)))(let ((.def_13886 (= .def_4317 .def_4356))).def_13886))))
(assert (let ((.def_13888 (= nomsg send4))).def_13888))
(assert (let ((.def_4325 ((_ sign_extend 24) send4)))(let ((.def_4323 ((_ sign_extend 24) id5)))(let ((.def_13890 (bvslt .def_4323 .def_4325))).def_13890))))
(assert (let ((.def_4323 ((_ sign_extend 24) id5)))(let ((.def_4317 ((_ sign_extend 24) send5)))(let ((.def_13892 (= .def_4317 .def_4323))).def_13892))))
(assert (let ((.def_4353 ((_ sign_extend 24) send3)))(let ((.def_4323 ((_ sign_extend 24) id5)))(let ((.def_13894 (= .def_4323 .def_4353))).def_13894))))
(assert (let ((.def_4356 ((_ sign_extend 24) nomsg)))(let ((.def_4339 ((_ sign_extend 24) send1)))(let ((.def_13896 (= .def_4339 .def_4356))).def_13896))))
(assert (let ((.def_13900 ((_ extract 3 3) p2_old)))(let ((.def_13898 ((_ extract 3 3) id2)))(let ((.def_13899 (bvnot .def_13898)))(let ((.def_13902 (bvand .def_13899 .def_13900)))(let ((.def_13903 (= .def_13902 (_ bv0 1)))).def_13903))))))
(assert (let ((.def_13907 ((_ extract 2 2) p2_old)))(let ((.def_13905 ((_ extract 2 2) id2)))(let ((.def_13906 (bvnot .def_13905)))(let ((.def_13909 (bvand .def_13906 .def_13907)))(let ((.def_13910 (= .def_13909 (_ bv0 1)))).def_13910))))))
(assert (let ((.def_13914 ((_ extract 1 1) p2_old)))(let ((.def_13912 ((_ extract 1 1) id2)))(let ((.def_13913 (bvnot .def_13912)))(let ((.def_13916 (bvand .def_13913 .def_13914)))(let ((.def_13917 (= .def_13916 (_ bv0 1)))).def_13917))))))
(assert (let ((.def_13922 ((_ extract 0 0) id2)))(let ((.def_13923 (bvnot .def_13922)))(let ((.def_13919 ((_ extract 0 0) p2_old)))(let ((.def_13914 ((_ extract 1 1) p2_old)))(let ((.def_13912 ((_ extract 1 1) id2)))(let ((.def_13913 (bvnot .def_13912)))(let ((.def_13916 (bvand .def_13913 .def_13914)))(let ((.def_13921 (bvor .def_13916 .def_13919)))(let ((.def_13925 (bvand .def_13921 .def_13923)))(let ((.def_13926 (= .def_13925 (_ bv0 1)))).def_13926)))))))))))
(assert (let ((.def_13930 ((_ extract 4 4) p2_old)))(let ((.def_13928 ((_ extract 4 4) id2)))(let ((.def_13929 (bvnot .def_13928)))(let ((.def_13932 (bvand .def_13929 .def_13930)))(let ((.def_13933 (= .def_13932 (_ bv0 1)))).def_13933))))))
(assert (let ((.def_13937 ((_ extract 5 5) p2_old)))(let ((.def_13935 ((_ extract 5 5) id2)))(let ((.def_13936 (bvnot .def_13935)))(let ((.def_13939 (bvand .def_13936 .def_13937)))(let ((.def_13940 (= .def_13939 (_ bv0 1)))).def_13940))))))
(assert (let ((.def_13930 ((_ extract 4 4) p2_old)))(let ((.def_13928 ((_ extract 4 4) id2)))(let ((.def_13929 (bvnot .def_13928)))(let ((.def_13932 (bvand .def_13929 .def_13930)))(let ((.def_13952 (bvnot .def_13932)))(let ((.def_13900 ((_ extract 3 3) p2_old)))(let ((.def_13898 ((_ extract 3 3) id2)))(let ((.def_13899 (bvnot .def_13898)))(let ((.def_13902 (bvand .def_13899 .def_13900)))(let ((.def_13949 (bvnot .def_13902)))(let ((.def_13907 ((_ extract 2 2) p2_old)))(let ((.def_13905 ((_ extract 2 2) id2)))(let ((.def_13906 (bvnot .def_13905)))(let ((.def_13909 (bvand .def_13906 .def_13907)))(let ((.def_13946 (bvnot .def_13909)))(let ((.def_13914 ((_ extract 1 1) p2_old)))(let ((.def_13912 ((_ extract 1 1) id2)))(let ((.def_13913 (bvnot .def_13912)))(let ((.def_13916 (bvand .def_13913 .def_13914)))(let ((.def_13943 (bvnot .def_13916)))(let ((.def_13922 ((_ extract 0 0) id2)))(let ((.def_13923 (bvnot .def_13922)))(let ((.def_13919 ((_ extract 0 0) p2_old)))(let ((.def_13921 (bvor .def_13916 .def_13919)))(let ((.def_13925 (bvand .def_13921 .def_13923)))(let ((.def_13942 (bvnot .def_13925)))(let ((.def_13945 (bvand .def_13942 .def_13943)))(let ((.def_13948 (bvand .def_13945 .def_13946)))(let ((.def_13951 (bvand .def_13948 .def_13949)))(let ((.def_13954 (bvand .def_13951 .def_13952)))(let ((.def_13955 (= .def_13954 (_ bv1 1)))).def_13955))))))))))))))))))))))))))))))))
(assert (let ((.def_13937 ((_ extract 5 5) p2_old)))(let ((.def_13935 ((_ extract 5 5) id2)))(let ((.def_13936 (bvnot .def_13935)))(let ((.def_13939 (bvand .def_13936 .def_13937)))(let ((.def_13972 (bvnot .def_13939)))(let ((.def_13967 ((_ extract 7 7) id3)))(let ((.def_13968 (bvnot .def_13967)))(let ((.def_13963 ((_ extract 7 7) id2)))(let ((.def_13964 (bvnot .def_13963)))(let ((.def_13959 ((_ extract 6 6) p2_old)))(let ((.def_13957 ((_ extract 6 6) id2)))(let ((.def_13958 (bvnot .def_13957)))(let ((.def_13961 (bvand .def_13958 .def_13959)))(let ((.def_13962 (bvnot .def_13961)))(let ((.def_13966 (bvand .def_13962 .def_13964)))(let ((.def_13970 (bvand .def_13966 .def_13968)))(let ((.def_13971 (bvand .def_13964 .def_13970)))(let ((.def_13974 (bvand .def_13971 .def_13972)))(let ((.def_13975 (= .def_13974 (_ bv1 1)))).def_13975))))))))))))))))))))
(assert (let ((.def_13967 ((_ extract 7 7) id3)))(let ((.def_13968 (bvnot .def_13967)))(let ((.def_13963 ((_ extract 7 7) id2)))(let ((.def_13964 (bvnot .def_13963)))(let ((.def_13959 ((_ extract 6 6) p2_old)))(let ((.def_13957 ((_ extract 6 6) id2)))(let ((.def_13958 (bvnot .def_13957)))(let ((.def_13961 (bvand .def_13958 .def_13959)))(let ((.def_13962 (bvnot .def_13961)))(let ((.def_13966 (bvand .def_13962 .def_13964)))(let ((.def_13970 (bvand .def_13966 .def_13968)))(let ((.def_13971 (bvand .def_13964 .def_13970)))(let ((.def_13977 (= .def_13971 (_ bv1 1)))).def_13977))))))))))))))
(assert (let ((.def_13959 ((_ extract 6 6) p2_old)))(let ((.def_13957 ((_ extract 6 6) id2)))(let ((.def_13958 (bvnot .def_13957)))(let ((.def_13961 (bvand .def_13958 .def_13959)))(let ((.def_13979 (= .def_13961 (_ bv0 1)))).def_13979))))))
(assert (let ((.def_13937 ((_ extract 5 5) p2_old)))(let ((.def_13935 ((_ extract 5 5) id2)))(let ((.def_13936 (bvnot .def_13935)))(let ((.def_13939 (bvand .def_13936 .def_13937)))(let ((.def_13972 (bvnot .def_13939)))(let ((.def_13967 ((_ extract 7 7) id3)))(let ((.def_13968 (bvnot .def_13967)))(let ((.def_13963 ((_ extract 7 7) id2)))(let ((.def_13964 (bvnot .def_13963)))(let ((.def_13959 ((_ extract 6 6) p2_old)))(let ((.def_13957 ((_ extract 6 6) id2)))(let ((.def_13958 (bvnot .def_13957)))(let ((.def_13961 (bvand .def_13958 .def_13959)))(let ((.def_13962 (bvnot .def_13961)))(let ((.def_13966 (bvand .def_13962 .def_13964)))(let ((.def_13970 (bvand .def_13966 .def_13968)))(let ((.def_13971 (bvand .def_13964 .def_13970)))(let ((.def_13974 (bvand .def_13971 .def_13972)))(let ((.def_13930 ((_ extract 4 4) p2_old)))(let ((.def_13928 ((_ extract 4 4) id2)))(let ((.def_13929 (bvnot .def_13928)))(let ((.def_13932 (bvand .def_13929 .def_13930)))(let ((.def_13952 (bvnot .def_13932)))(let ((.def_13900 ((_ extract 3 3) p2_old)))(let ((.def_13898 ((_ extract 3 3) id2)))(let ((.def_13899 (bvnot .def_13898)))(let ((.def_13902 (bvand .def_13899 .def_13900)))(let ((.def_13949 (bvnot .def_13902)))(let ((.def_13907 ((_ extract 2 2) p2_old)))(let ((.def_13905 ((_ extract 2 2) id2)))(let ((.def_13906 (bvnot .def_13905)))(let ((.def_13909 (bvand .def_13906 .def_13907)))(let ((.def_13946 (bvnot .def_13909)))(let ((.def_13914 ((_ extract 1 1) p2_old)))(let ((.def_13912 ((_ extract 1 1) id2)))(let ((.def_13913 (bvnot .def_13912)))(let ((.def_13916 (bvand .def_13913 .def_13914)))(let ((.def_13943 (bvnot .def_13916)))(let ((.def_13922 ((_ extract 0 0) id2)))(let ((.def_13923 (bvnot .def_13922)))(let ((.def_13919 ((_ extract 0 0) p2_old)))(let ((.def_13921 (bvor .def_13916 .def_13919)))(let ((.def_13925 (bvand .def_13921 .def_13923)))(let ((.def_13942 (bvnot .def_13925)))(let ((.def_13945 (bvand .def_13942 .def_13943)))(let ((.def_13948 (bvand .def_13945 .def_13946)))(let ((.def_13951 (bvand .def_13948 .def_13949)))(let ((.def_13954 (bvand .def_13951 .def_13952)))(let ((.def_13981 (bvand .def_13954 .def_13974)))(let ((.def_13982 (bvand .def_13972 .def_13981)))(let ((.def_13983 (bvand .def_13954 .def_13982)))(let ((.def_13984 (bvand .def_13974 .def_13983)))(let ((.def_13985 (bvand .def_13971 .def_13984)))(let ((.def_13986 (= .def_13985 (_ bv1 1)))).def_13986)))))))))))))))))))))))))))))))))))))))))))))))))))))))
(assert (let ((.def_13967 ((_ extract 7 7) id3)))(let ((.def_13988 (= .def_13967 (_ bv0 1)))).def_13988)))
(assert (let ((.def_13963 ((_ extract 7 7) id2)))(let ((.def_13990 (= .def_13963 (_ bv0 1)))).def_13990)))
(assert (let ((.def_13992 (= send2 p2_old))).def_13992))
(assert (let ((.def_4394 ((_ sign_extend 24) p2_old)))(let ((.def_4346 ((_ sign_extend 24) id3)))(let ((.def_13994 (bvslt .def_4346 .def_4394))).def_13994))))
(assert (let ((.def_4347 ((_ sign_extend 24) send2)))(let ((.def_13997 (= .def_4347 |node2::__CPAchecker_TMP_0|))).def_13997)))
(assert (let ((.def_13999 ((_ extract 7 0) |node2::__CPAchecker_TMP_0|)))(let ((.def_14000 (= p2_old .def_13999))).def_14000)))
(assert (let ((.def_4356 ((_ sign_extend 24) nomsg)))(let ((.def_4346 ((_ sign_extend 24) id3)))(let ((.def_14002 (= .def_4346 .def_4356))).def_14002))))
(assert (let ((.def_4390 ((_ sign_extend 24) p1_old)))(let ((.def_4337 ((_ sign_extend 24) id2)))(let ((.def_14004 (bvslt .def_4337 .def_4390))).def_14004))))
(assert (let ((.def_14006 (= send1 p1_old))).def_14006))
(assert (let ((.def_14008 (= id2 p5_old))).def_14008))
(assert (let ((.def_4368 ((_ sign_extend 24) p5_old)))(let ((.def_4337 ((_ sign_extend 24) id2)))(let ((.def_14010 (= .def_4337 .def_4368))).def_14010))))
(assert (let ((.def_4398 ((_ sign_extend 24) p3_old)))(let ((.def_4351 ((_ sign_extend 24) id4)))(let ((.def_14012 (bvslt .def_4351 .def_4398))).def_14012))))
(assert (let ((.def_4356 ((_ sign_extend 24) nomsg)))(let ((.def_4351 ((_ sign_extend 24) id4)))(let ((.def_14014 (= .def_4351 .def_4356))).def_14014))))
(assert (let ((.def_4353 ((_ sign_extend 24) send3)))(let ((.def_14017 (= .def_4353 |node3::__CPAchecker_TMP_0|))).def_14017)))
(assert (let ((.def_14019 ((_ extract 7 0) |node3::__CPAchecker_TMP_0|)))(let ((.def_14020 (= p3_old .def_14019))).def_14020)))
(assert (let ((.def_4394 ((_ sign_extend 24) p2_old)))(let ((.def_4351 ((_ sign_extend 24) id4)))(let ((.def_14022 (= .def_4351 .def_4394))).def_14022))))
(assert (let ((.def_14024 (= id3 p1_old))).def_14024))
(assert (let ((.def_4390 ((_ sign_extend 24) p1_old)))(let ((.def_4346 ((_ sign_extend 24) id3)))(let ((.def_14026 (= .def_4346 .def_4390))).def_14026))))
(assert (let ((.def_4368 ((_ sign_extend 24) p5_old)))(let ((.def_4356 ((_ sign_extend 24) nomsg)))(let ((.def_14028 (= .def_4356 .def_4368))).def_14028))))
(assert (let ((.def_4368 ((_ sign_extend 24) p5_old)))(let ((.def_4319 ((_ sign_extend 24) id1)))(let ((.def_14030 (bvslt .def_4319 .def_4368))).def_14030))))
(assert (let ((.def_14032 (= send5 p5_old))).def_14032))
(assert (let ((.def_4317 ((_ sign_extend 24) send5)))(let ((.def_14035 (= .def_4317 |node5::__CPAchecker_TMP_0|))).def_14035)))
(assert (let ((.def_14037 ((_ extract 7 0) |node5::__CPAchecker_TMP_0|)))(let ((.def_14038 (= p5_old .def_14037))).def_14038)))
(assert (let ((.def_4372 ((_ sign_extend 24) p4_old)))(let ((.def_4319 ((_ sign_extend 24) id1)))(let ((.def_14040 (= .def_4319 .def_4372))).def_14040))))
(assert (let ((.def_4372 ((_ sign_extend 24) p4_old)))(let ((.def_4356 ((_ sign_extend 24) nomsg)))(let ((.def_14042 (= .def_4356 .def_4372))).def_14042))))
(assert (let ((.def_4356 ((_ sign_extend 24) nomsg)))(let ((.def_4323 ((_ sign_extend 24) id5)))(let ((.def_14044 (= .def_4323 .def_4356))).def_14044))))
(assert (let ((.def_4372 ((_ sign_extend 24) p4_old)))(let ((.def_4323 ((_ sign_extend 24) id5)))(let ((.def_14046 (bvslt .def_4323 .def_4372))).def_14046))))
(assert (let ((.def_14048 (= send4 p4_old))).def_14048))
(assert (let ((.def_4398 ((_ sign_extend 24) p3_old)))(let ((.def_4323 ((_ sign_extend 24) id5)))(let ((.def_14050 (= .def_4323 .def_4398))).def_14050))))
(assert (let ((.def_4390 ((_ sign_extend 24) p1_old)))(let ((.def_4356 ((_ sign_extend 24) nomsg)))(let ((.def_14052 (= .def_4356 .def_4390))).def_14052))))
(assert (let ((.def_4356 ((_ sign_extend 24) nomsg)))(let ((.def_4347 ((_ sign_extend 24) send2)))(let ((.def_14054 (= .def_4347 .def_4356))).def_14054))))
(assert (let ((.def_14056 (= id2 send1))).def_14056))
(assert (let ((.def_14058 (= send2 send3))).def_14058))
(assert (let ((.def_14060 (= st5 (_ bv1 8)))).def_14060))
(assert (let ((.def_14062 (= id5 send4))).def_14062))
(assert (let ((.def_14064 (= r1 (_ bv1 8)))).def_14064))
(assert (let ((.def_4394 ((_ sign_extend 24) p2_old)))(let ((.def_4356 ((_ sign_extend 24) nomsg)))(let ((.def_14066 (= .def_4356 .def_4394))).def_14066))))
(assert (let ((.def_14068 (= send3 p2_old))).def_14068))

assert N370:
(assert false)
(assert (let ((.def_2173 (= |assert::arg| (_ bv0 8)))).def_2173))

