(set-info :source |printed by MathSAT|)
(declare-fun a20 () (_ BitVec 32))
(declare-fun a25 () (_ BitVec 32))
(declare-fun a12 () (_ BitVec 32))
(declare-fun a15 () (_ BitVec 32))
(declare-fun a16 () (_ BitVec 32))
(declare-fun a2 () (_ BitVec 32))
(declare-fun a27 () (_ BitVec 32))
(declare-fun a9 () (_ BitVec 32))
(declare-fun m_pc () (_ BitVec 32))
(declare-fun t1_pc () (_ BitVec 32))
(declare-fun t2_pc () (_ BitVec 32))
(declare-fun t3_pc () (_ BitVec 32))
(declare-fun t4_pc () (_ BitVec 32))
(declare-fun t5_pc () (_ BitVec 32))
(declare-fun t6_pc () (_ BitVec 32))
(declare-fun t7_pc () (_ BitVec 32))
(declare-fun t8_pc () (_ BitVec 32))
(declare-fun t9_pc () (_ BitVec 32))
(declare-fun t10_pc () (_ BitVec 32))
(declare-fun t11_pc () (_ BitVec 32))
(declare-fun m_st () (_ BitVec 32))

*:
(assert (let ((.def_107263 (= a20 (_ bv5 32)))).def_107263))

calculate_output8 N29943:
(assert false)
(assert (let ((.def_107263 (= a20 (_ bv5 32)))).def_107263))

main1 N30136:
(assert (let ((.def_107263 (= a20 (_ bv5 32)))).def_107263))
(assert (let ((.def_154655 (= a25 (_ bv1 32)))).def_154655))
(assert (let ((.def_154658 (= a12 (_ bv4 32)))).def_154658))
(assert (let ((.def_154661 (= a15 (_ bv1 32)))).def_154661))
(assert (let ((.def_154664 (= a16 (_ bv1 32)))).def_154664))
(assert (let ((.def_154667 (= a2 (_ bv10 32)))).def_154667))
(assert (let ((.def_154670 (= a27 (_ bv1 32)))).def_154670))
(assert (let ((.def_154673 (= a9 (_ bv18 32)))).def_154673))
(assert (let ((.def_584887 (= a9 (_ bv17 32)))).def_584887))
(assert (let ((.def_584889 (= a2 (_ bv12 32)))).def_584889))
(assert (let ((.def_584891 (= a20 (_ bv6 32)))).def_584891))
(assert (let ((.def_584893 (= a20 (_ bv7 32)))).def_584893))
(assert (let ((.def_584895 (= a2 (_ bv13 32)))).def_584895))
(assert (let ((.def_584897 (= a2 (_ bv9 32)))).def_584897))
(assert (let ((.def_584899 (= a12 (_ bv3 32)))).def_584899))
(assert (let ((.def_584901 (= a12 (_ bv2 32)))).def_584901))
(assert (let ((.def_584903 (= a12 (_ bv5 32)))).def_584903))
(assert (let ((.def_584905 (= a2 (_ bv11 32)))).def_584905))
(assert (let ((.def_584907 (= a9 (_ bv16 32)))).def_584907))
(assert (let ((.def_584909 (= a12 (_ bv6 32)))).def_584909))

error N30154:
(assert false)
(assert (let ((.def_107263 (= a20 (_ bv5 32)))).def_107263))

eval N30841:
(assert (let ((.def_922388 (= m_pc (_ bv0 32)))).def_922388))
(assert (let ((.def_107263 (= a20 (_ bv5 32)))).def_107263))
(assert (let ((.def_933251 (= t1_pc (_ bv0 32)))).def_933251))
(assert (let ((.def_933254 (= t2_pc (_ bv0 32)))).def_933254))
(assert (let ((.def_933257 (= t3_pc (_ bv0 32)))).def_933257))
(assert (let ((.def_933260 (= t4_pc (_ bv0 32)))).def_933260))
(assert (let ((.def_933263 (= t5_pc (_ bv0 32)))).def_933263))
(assert (let ((.def_933266 (= t6_pc (_ bv0 32)))).def_933266))
(assert (let ((.def_933269 (= t7_pc (_ bv0 32)))).def_933269))
(assert (let ((.def_933272 (= t8_pc (_ bv0 32)))).def_933272))
(assert (let ((.def_933275 (= t9_pc (_ bv0 32)))).def_933275))
(assert (let ((.def_933278 (= t10_pc (_ bv0 32)))).def_933278))
(assert (let ((.def_933281 (= t11_pc (_ bv0 32)))).def_933281))
(assert (let ((.def_933283 (= m_pc (_ bv1 32)))).def_933283))
(assert (let ((.def_933285 (= t1_pc (_ bv1 32)))).def_933285))
(assert (let ((.def_933287 (= t2_pc (_ bv1 32)))).def_933287))
(assert (let ((.def_933289 (= t3_pc (_ bv1 32)))).def_933289))
(assert (let ((.def_933291 (= t4_pc (_ bv1 32)))).def_933291))
(assert (let ((.def_933293 (= t5_pc (_ bv1 32)))).def_933293))
(assert (let ((.def_933295 (= t6_pc (_ bv1 32)))).def_933295))
(assert (let ((.def_933297 (= t7_pc (_ bv1 32)))).def_933297))
(assert (let ((.def_933299 (= t8_pc (_ bv1 32)))).def_933299))
(assert (let ((.def_933301 (= t9_pc (_ bv1 32)))).def_933301))
(assert (let ((.def_933303 (= t10_pc (_ bv1 32)))).def_933303))
(assert (let ((.def_933305 (= t11_pc (_ bv1 32)))).def_933305))
(assert (let ((.def_933308 (= m_st (_ bv0 32)))).def_933308))

start_simulation N31401:
(assert (let ((.def_922388 (= m_pc (_ bv0 32)))).def_922388))
(assert (let ((.def_107263 (= a20 (_ bv5 32)))).def_107263))
(assert (let ((.def_933251 (= t1_pc (_ bv0 32)))).def_933251))
(assert (let ((.def_933254 (= t2_pc (_ bv0 32)))).def_933254))
(assert (let ((.def_933257 (= t3_pc (_ bv0 32)))).def_933257))
(assert (let ((.def_933260 (= t4_pc (_ bv0 32)))).def_933260))
(assert (let ((.def_933263 (= t5_pc (_ bv0 32)))).def_933263))
(assert (let ((.def_933266 (= t6_pc (_ bv0 32)))).def_933266))
(assert (let ((.def_933269 (= t7_pc (_ bv0 32)))).def_933269))
(assert (let ((.def_933272 (= t8_pc (_ bv0 32)))).def_933272))
(assert (let ((.def_933275 (= t9_pc (_ bv0 32)))).def_933275))
(assert (let ((.def_933278 (= t10_pc (_ bv0 32)))).def_933278))
(assert (let ((.def_933281 (= t11_pc (_ bv0 32)))).def_933281))
(assert (let ((.def_933283 (= m_pc (_ bv1 32)))).def_933283))
(assert (let ((.def_933285 (= t1_pc (_ bv1 32)))).def_933285))
(assert (let ((.def_933287 (= t2_pc (_ bv1 32)))).def_933287))
(assert (let ((.def_933289 (= t3_pc (_ bv1 32)))).def_933289))
(assert (let ((.def_933291 (= t4_pc (_ bv1 32)))).def_933291))
(assert (let ((.def_933293 (= t5_pc (_ bv1 32)))).def_933293))
(assert (let ((.def_933295 (= t6_pc (_ bv1 32)))).def_933295))
(assert (let ((.def_933297 (= t7_pc (_ bv1 32)))).def_933297))
(assert (let ((.def_933299 (= t8_pc (_ bv1 32)))).def_933299))
(assert (let ((.def_933301 (= t9_pc (_ bv1 32)))).def_933301))
(assert (let ((.def_933303 (= t10_pc (_ bv1 32)))).def_933303))
(assert (let ((.def_933305 (= t11_pc (_ bv1 32)))).def_933305))

