(set-info :source |printed by MathSAT|)
(declare-fun a20 () (_ BitVec 32))
(declare-fun a25 () (_ BitVec 32))
(declare-fun a12 () (_ BitVec 32))
(declare-fun a15 () (_ BitVec 32))
(declare-fun a16 () (_ BitVec 32))
(declare-fun a2 () (_ BitVec 32))
(declare-fun a27 () (_ BitVec 32))
(declare-fun a9 () (_ BitVec 32))
(declare-fun m_pc () (_ BitVec 32))
(declare-fun t1_pc () (_ BitVec 32))
(declare-fun t2_pc () (_ BitVec 32))
(declare-fun t3_pc () (_ BitVec 32))
(declare-fun t4_pc () (_ BitVec 32))
(declare-fun t5_pc () (_ BitVec 32))
(declare-fun t6_pc () (_ BitVec 32))
(declare-fun t7_pc () (_ BitVec 32))
(declare-fun t8_pc () (_ BitVec 32))
(declare-fun m_st () (_ BitVec 32))
(declare-fun t4_st () (_ BitVec 32))
(declare-fun t1_st () (_ BitVec 32))
(declare-fun E_5 () (_ BitVec 32))
(declare-fun E_3 () (_ BitVec 32))
(declare-fun E_6 () (_ BitVec 32))
(declare-fun E_4 () (_ BitVec 32))
(declare-fun E_2 () (_ BitVec 32))
(declare-fun E_M () (_ BitVec 32))
(declare-fun E_7 () (_ BitVec 32))
(declare-fun t6_st () (_ BitVec 32))
(declare-fun E_8 () (_ BitVec 32))
(declare-fun t2_st () (_ BitVec 32))
(declare-fun t5_st () (_ BitVec 32))
(declare-fun t3_st () (_ BitVec 32))
(declare-fun t7_st () (_ BitVec 32))
(declare-fun t8_st () (_ BitVec 32))
(declare-fun E_1 () (_ BitVec 32))
(declare-fun local () (_ BitVec 32))
(declare-fun token () (_ BitVec 32))

*:
(assert (let ((.def_106646 (= a20 (_ bv5 32)))).def_106646))

calculate_output8 N29800:
(assert false)
(assert (let ((.def_106646 (= a20 (_ bv5 32)))).def_106646))

main1 N30136:
(assert (let ((.def_106646 (= a20 (_ bv5 32)))).def_106646))
(assert (let ((.def_153834 (= a25 (_ bv1 32)))).def_153834))
(assert (let ((.def_153837 (= a12 (_ bv4 32)))).def_153837))
(assert (let ((.def_153840 (= a15 (_ bv1 32)))).def_153840))
(assert (let ((.def_153843 (= a16 (_ bv1 32)))).def_153843))
(assert (let ((.def_153846 (= a2 (_ bv10 32)))).def_153846))
(assert (let ((.def_153849 (= a27 (_ bv1 32)))).def_153849))
(assert (let ((.def_153852 (= a9 (_ bv18 32)))).def_153852))
(assert (let ((.def_319714 (= a2 (_ bv11 32)))).def_319714))
(assert (let ((.def_319716 (= a12 (_ bv2 32)))).def_319716))
(assert (let ((.def_319718 (= a9 (_ bv17 32)))).def_319718))
(assert (let ((.def_319720 (= a2 (_ bv13 32)))).def_319720))
(assert (let ((.def_319722 (= a20 (_ bv6 32)))).def_319722))
(assert (let ((.def_319724 (= a12 (_ bv6 32)))).def_319724))
(assert (let ((.def_319726 (= a2 (_ bv9 32)))).def_319726))
(assert (let ((.def_319728 (= a9 (_ bv16 32)))).def_319728))
(assert (let ((.def_1062671 (= a20 (_ bv7 32)))).def_1062671))
(assert (let ((.def_1062673 (= a12 (_ bv3 32)))).def_1062673))
(assert (let ((.def_1062675 (= a12 (_ bv5 32)))).def_1062675))
(assert (let ((.def_1062677 (= a2 (_ bv12 32)))).def_1062677))

error N30154:
(assert false)
(assert (let ((.def_106646 (= a20 (_ bv5 32)))).def_106646))

eval N30666:
(assert (let ((.def_1204860 (= m_pc (_ bv0 32)))).def_1204860))
(assert (let ((.def_106646 (= a20 (_ bv5 32)))).def_106646))
(assert (let ((.def_1211267 (= t1_pc (_ bv0 32)))).def_1211267))
(assert (let ((.def_1211270 (= t2_pc (_ bv0 32)))).def_1211270))
(assert (let ((.def_1211273 (= t3_pc (_ bv0 32)))).def_1211273))
(assert (let ((.def_1211276 (= t4_pc (_ bv0 32)))).def_1211276))
(assert (let ((.def_1211279 (= t5_pc (_ bv0 32)))).def_1211279))
(assert (let ((.def_1211282 (= t6_pc (_ bv0 32)))).def_1211282))
(assert (let ((.def_1211285 (= t7_pc (_ bv0 32)))).def_1211285))
(assert (let ((.def_1211288 (= t8_pc (_ bv0 32)))).def_1211288))
(assert (let ((.def_1211290 (= m_pc (_ bv1 32)))).def_1211290))
(assert (let ((.def_1211292 (= t1_pc (_ bv1 32)))).def_1211292))
(assert (let ((.def_1211294 (= t2_pc (_ bv1 32)))).def_1211294))
(assert (let ((.def_1211296 (= t3_pc (_ bv1 32)))).def_1211296))
(assert (let ((.def_1211298 (= t4_pc (_ bv1 32)))).def_1211298))
(assert (let ((.def_1211300 (= t5_pc (_ bv1 32)))).def_1211300))
(assert (let ((.def_1211302 (= t6_pc (_ bv1 32)))).def_1211302))
(assert (let ((.def_1211304 (= t7_pc (_ bv1 32)))).def_1211304))
(assert (let ((.def_1211306 (= t8_pc (_ bv1 32)))).def_1211306))
(assert (let ((.def_1211309 (= m_st (_ bv0 32)))).def_1211309))
(assert (let ((.def_1228934 (= t4_st (_ bv0 32)))).def_1228934))
(assert (let ((.def_1228937 (= t1_st (_ bv0 32)))).def_1228937))
(assert (let ((.def_1228940 (= E_5 (_ bv2 32)))).def_1228940))
(assert (let ((.def_1228943 (= E_3 (_ bv1 32)))).def_1228943))
(assert (let ((.def_1228946 (= E_6 (_ bv1 32)))).def_1228946))
(assert (let ((.def_1228948 (= E_5 (_ bv1 32)))).def_1228948))
(assert (let ((.def_1228951 (= E_4 (_ bv1 32)))).def_1228951))
(assert (let ((.def_1228954 (= E_2 (_ bv1 32)))).def_1228954))
(assert (let ((.def_1228957 (= E_M (_ bv1 32)))).def_1228957))
(assert (let ((.def_1228960 (= E_7 (_ bv1 32)))).def_1228960))
(assert (let ((.def_1228963 (= t6_st (_ bv0 32)))).def_1228963))
(assert (let ((.def_1228966 (= E_8 (_ bv1 32)))).def_1228966))
(assert (let ((.def_1228969 (= t2_st (_ bv0 32)))).def_1228969))
(assert (let ((.def_1228972 (= t5_st (_ bv0 32)))).def_1228972))
(assert (let ((.def_1228975 (= t3_st (_ bv0 32)))).def_1228975))
(assert (let ((.def_1228978 (= t7_st (_ bv0 32)))).def_1228978))
(assert (let ((.def_1228981 (= t8_st (_ bv0 32)))).def_1228981))
(assert (let ((.def_1228983 (= m_st (_ bv2 32)))).def_1228983))
(assert (let ((.def_1228986 (= E_1 (_ bv1 32)))).def_1228986))
(assert (let ((.def_1228989 (bvadd (_ bv8 32) local)))(let ((.def_1228991 (= .def_1228989 token))).def_1228991)))
(assert (let ((.def_1291172 (= local (_ bv0 32)))).def_1291172))
(assert (let ((.def_1291174 (= token (_ bv0 32)))).def_1291174))
(assert (let ((.def_1291176 (= E_7 (_ bv2 32)))).def_1291176))
(assert (let ((.def_1291178 (= E_4 (_ bv2 32)))).def_1291178))
(assert (let ((.def_1291180 (= E_2 (_ bv2 32)))).def_1291180))
(assert (let ((.def_1291182 (= E_3 (_ bv2 32)))).def_1291182))
(assert (let ((.def_1291184 (= E_6 (_ bv2 32)))).def_1291184))
(assert (let ((.def_1291186 (= t8_st (_ bv2 32)))).def_1291186))
(assert (let ((.def_1291188 (= t5_st (_ bv2 32)))).def_1291188))
(assert (let ((.def_1291190 (= t3_st (_ bv2 32)))).def_1291190))
(assert (let ((.def_1291192 (bvadd (_ bv5 32) local)))(let ((.def_1291193 (= token .def_1291192))).def_1291193)))
(assert (let ((.def_1291195 (= local token))).def_1291195))
(assert (let ((.def_1291197 (bvadd (_ bv7 32) local)))(let ((.def_1291198 (= token .def_1291197))).def_1291198)))
(assert (let ((.def_1291200 (bvadd (_ bv3 32) local)))(let ((.def_1291201 (= token .def_1291200))).def_1291201)))
(assert (let ((.def_1291203 (bvadd (_ bv4 32) local)))(let ((.def_1291204 (= token .def_1291203))).def_1291204)))
(assert (let ((.def_1291206 (bvadd (_ bv6 32) local)))(let ((.def_1291207 (= token .def_1291206))).def_1291207)))
(assert (let ((.def_1291209 (bvadd (_ bv2 32) local)))(let ((.def_1291210 (= token .def_1291209))).def_1291210)))
(assert false)
(assert (let ((.def_1291214 (bvadd (_ bv1 32) local)))(let ((.def_1291215 (= token .def_1291214))).def_1291215)))

start_simulation N31103:
(assert (let ((.def_1204860 (= m_pc (_ bv0 32)))).def_1204860))
(assert (let ((.def_106646 (= a20 (_ bv5 32)))).def_106646))
(assert (let ((.def_1211267 (= t1_pc (_ bv0 32)))).def_1211267))
(assert (let ((.def_1211270 (= t2_pc (_ bv0 32)))).def_1211270))
(assert (let ((.def_1211273 (= t3_pc (_ bv0 32)))).def_1211273))
(assert (let ((.def_1211276 (= t4_pc (_ bv0 32)))).def_1211276))
(assert (let ((.def_1211279 (= t5_pc (_ bv0 32)))).def_1211279))
(assert (let ((.def_1211282 (= t6_pc (_ bv0 32)))).def_1211282))
(assert (let ((.def_1211285 (= t7_pc (_ bv0 32)))).def_1211285))
(assert (let ((.def_1211288 (= t8_pc (_ bv0 32)))).def_1211288))
(assert (let ((.def_1211290 (= m_pc (_ bv1 32)))).def_1211290))
(assert (let ((.def_1211292 (= t1_pc (_ bv1 32)))).def_1211292))
(assert (let ((.def_1211294 (= t2_pc (_ bv1 32)))).def_1211294))
(assert (let ((.def_1211296 (= t3_pc (_ bv1 32)))).def_1211296))
(assert (let ((.def_1211298 (= t4_pc (_ bv1 32)))).def_1211298))
(assert (let ((.def_1211300 (= t5_pc (_ bv1 32)))).def_1211300))
(assert (let ((.def_1211302 (= t6_pc (_ bv1 32)))).def_1211302))
(assert (let ((.def_1211304 (= t7_pc (_ bv1 32)))).def_1211304))
(assert (let ((.def_1211306 (= t8_pc (_ bv1 32)))).def_1211306))
(assert (let ((.def_1228934 (= t4_st (_ bv0 32)))).def_1228934))
(assert (let ((.def_1228937 (= t1_st (_ bv0 32)))).def_1228937))
(assert (let ((.def_1228940 (= E_5 (_ bv2 32)))).def_1228940))
(assert (let ((.def_1228943 (= E_3 (_ bv1 32)))).def_1228943))
(assert (let ((.def_1228946 (= E_6 (_ bv1 32)))).def_1228946))
(assert (let ((.def_1228948 (= E_5 (_ bv1 32)))).def_1228948))
(assert (let ((.def_1228951 (= E_4 (_ bv1 32)))).def_1228951))
(assert (let ((.def_1228954 (= E_2 (_ bv1 32)))).def_1228954))
(assert (let ((.def_1228957 (= E_M (_ bv1 32)))).def_1228957))
(assert (let ((.def_1228960 (= E_7 (_ bv1 32)))).def_1228960))
(assert (let ((.def_1228963 (= t6_st (_ bv0 32)))).def_1228963))
(assert (let ((.def_1228966 (= E_8 (_ bv1 32)))).def_1228966))
(assert (let ((.def_1228969 (= t2_st (_ bv0 32)))).def_1228969))
(assert (let ((.def_1211309 (= m_st (_ bv0 32)))).def_1211309))
(assert (let ((.def_1291172 (= local (_ bv0 32)))).def_1291172))
(assert (let ((.def_1291174 (= token (_ bv0 32)))).def_1291174))
(assert (let ((.def_1291176 (= E_7 (_ bv2 32)))).def_1291176))
(assert (let ((.def_1291178 (= E_4 (_ bv2 32)))).def_1291178))
(assert (let ((.def_1291180 (= E_2 (_ bv2 32)))).def_1291180))
(assert (let ((.def_1291182 (= E_3 (_ bv2 32)))).def_1291182))
(assert (let ((.def_1291184 (= E_6 (_ bv2 32)))).def_1291184))

