(set-info :source |printed by MathSAT|)
(declare-fun a20 () (_ BitVec 32))
(declare-fun a9 () (_ BitVec 32))
(declare-fun a25 () (_ BitVec 32))
(declare-fun a12 () (_ BitVec 32))
(declare-fun a15 () (_ BitVec 32))
(declare-fun a16 () (_ BitVec 32))
(declare-fun a2 () (_ BitVec 32))
(declare-fun a27 () (_ BitVec 32))
(declare-fun |calculate_output7::input| () (_ BitVec 32))

*:
(assert (let ((.def_106175 (= a20 (_ bv5 32)))).def_106175))

calculate_output8 N29701:
(assert false)
(assert (let ((.def_106175 (= a20 (_ bv5 32)))).def_106175))

main1 N30136:
(assert (let ((.def_153014 (= a9 (_ bv18 32)))).def_153014))
(assert (let ((.def_106175 (= a20 (_ bv5 32)))).def_106175))
(assert (let ((.def_339713 (= a25 (_ bv1 32)))).def_339713))
(assert (let ((.def_339716 (= a12 (_ bv4 32)))).def_339716))
(assert (let ((.def_339719 (= a15 (_ bv1 32)))).def_339719))
(assert (let ((.def_339722 (= a16 (_ bv1 32)))).def_339722))
(assert (let ((.def_339725 (= a2 (_ bv10 32)))).def_339725))
(assert (let ((.def_339728 (= a27 (_ bv1 32)))).def_339728))
(assert (let ((.def_339730 (= a20 (_ bv6 32)))).def_339730))
(assert (let ((.def_339732 (= a2 (_ bv13 32)))).def_339732))
(assert (let ((.def_339734 (= a12 (_ bv2 32)))).def_339734))
(assert (let ((.def_339736 (= a2 (_ bv12 32)))).def_339736))
(assert (let ((.def_339738 (= a2 (_ bv11 32)))).def_339738))
(assert (let ((.def_339740 (= a9 (_ bv16 32)))).def_339740))
(assert (let ((.def_339742 (= a9 (_ bv17 32)))).def_339742))
(assert (let ((.def_1182289 (= a12 (_ bv3 32)))).def_1182289))
(assert (let ((.def_1182291 (= a20 (_ bv7 32)))).def_1182291))
(assert (let ((.def_1182293 (= a12 (_ bv6 32)))).def_1182293))
(assert (let ((.def_1182295 (= a2 (_ bv9 32)))).def_1182295))
(assert (let ((.def_1182297 (= a12 (_ bv5 32)))).def_1182297))
(assert (let ((.def_1182300 (= |calculate_output7::input| (_ bv4 32)))).def_1182300))
(assert (let ((.def_1182302 (= |calculate_output7::input| (_ bv2 32)))).def_1182302))

