(set-info :source |printed by MathSAT|)
(declare-fun c_last_read () (_ BitVec 32))
(declare-fun p_last_write () (_ BitVec 32))
(declare-fun c_num_read () (_ BitVec 32))
(declare-fun p_num_write () (_ BitVec 32))
(declare-fun c_dr_pc () (_ BitVec 32))
(declare-fun c_dr_st () (_ BitVec 32))
(declare-fun m_pc () (_ BitVec 32))
(declare-fun t1_pc () (_ BitVec 32))
(declare-fun t2_pc () (_ BitVec 32))
(declare-fun t3_pc () (_ BitVec 32))
(declare-fun t4_pc () (_ BitVec 32))
(declare-fun t5_pc () (_ BitVec 32))
(declare-fun t6_pc () (_ BitVec 32))
(declare-fun t7_pc () (_ BitVec 32))
(declare-fun t8_pc () (_ BitVec 32))
(declare-fun m_st () (_ BitVec 32))
(declare-fun E_8 () (_ BitVec 32))
(declare-fun E_6 () (_ BitVec 32))
(declare-fun E_5 () (_ BitVec 32))
(declare-fun E_4 () (_ BitVec 32))
(declare-fun E_3 () (_ BitVec 32))
(declare-fun E_2 () (_ BitVec 32))
(declare-fun E_M () (_ BitVec 32))
(declare-fun E_7 () (_ BitVec 32))
(declare-fun t8_st () (_ BitVec 32))
(declare-fun t1_st () (_ BitVec 32))
(declare-fun t4_st () (_ BitVec 32))
(declare-fun t5_st () (_ BitVec 32))
(declare-fun t2_st () (_ BitVec 32))
(declare-fun t6_st () (_ BitVec 32))
(declare-fun E_1 () (_ BitVec 32))
(declare-fun t7_st () (_ BitVec 32))
(declare-fun t3_st () (_ BitVec 32))
(declare-fun local () (_ BitVec 32))
(declare-fun token () (_ BitVec 32))

*:
(assert (let ((.def_737 (= c_last_read p_last_write))).def_737))
(assert (let ((.def_746 (= c_num_read p_num_write))).def_746))

error1 N4:
(assert false)
(assert (let ((.def_737 (= c_last_read p_last_write))).def_737))
(assert (let ((.def_746 (= c_num_read p_num_write))).def_746))

eval1 N282:
(assert (let ((.def_897 (= c_dr_pc (_ bv0 32)))).def_897))
(assert (let ((.def_737 (= c_last_read p_last_write))).def_737))
(assert (let ((.def_746 (= c_num_read p_num_write))).def_746))
(assert (let ((.def_1388 (= c_dr_pc (_ bv2 32)))).def_1388))
(assert (let ((.def_1391 (= c_dr_st (_ bv0 32)))).def_1391))

start_simulation1 N338:
(assert (let ((.def_897 (= c_dr_pc (_ bv0 32)))).def_897))
(assert (let ((.def_737 (= c_last_read p_last_write))).def_737))
(assert (let ((.def_746 (= c_num_read p_num_write))).def_746))
(assert (let ((.def_1388 (= c_dr_pc (_ bv2 32)))).def_1388))

error2 N393:
(assert false)
(assert (let ((.def_737 (= c_last_read p_last_write))).def_737))
(assert (let ((.def_746 (= c_num_read p_num_write))).def_746))

eval2 N905:
(assert (let ((.def_4867 (= m_pc (_ bv0 32)))).def_4867))
(assert (let ((.def_737 (= c_last_read p_last_write))).def_737))
(assert (let ((.def_746 (= c_num_read p_num_write))).def_746))
(assert (let ((.def_11273 (= t1_pc (_ bv0 32)))).def_11273))
(assert (let ((.def_11276 (= t2_pc (_ bv0 32)))).def_11276))
(assert (let ((.def_11279 (= t3_pc (_ bv0 32)))).def_11279))
(assert (let ((.def_11282 (= t4_pc (_ bv0 32)))).def_11282))
(assert (let ((.def_11285 (= t5_pc (_ bv0 32)))).def_11285))
(assert (let ((.def_11288 (= t6_pc (_ bv0 32)))).def_11288))
(assert (let ((.def_11291 (= t7_pc (_ bv0 32)))).def_11291))
(assert (let ((.def_11294 (= t8_pc (_ bv0 32)))).def_11294))
(assert (let ((.def_11296 (= m_pc (_ bv1 32)))).def_11296))
(assert (let ((.def_11298 (= t1_pc (_ bv1 32)))).def_11298))
(assert (let ((.def_11300 (= t2_pc (_ bv1 32)))).def_11300))
(assert (let ((.def_11302 (= t3_pc (_ bv1 32)))).def_11302))
(assert (let ((.def_11304 (= t4_pc (_ bv1 32)))).def_11304))
(assert (let ((.def_11306 (= t5_pc (_ bv1 32)))).def_11306))
(assert (let ((.def_11308 (= t6_pc (_ bv1 32)))).def_11308))
(assert (let ((.def_11310 (= t7_pc (_ bv1 32)))).def_11310))
(assert (let ((.def_11312 (= t8_pc (_ bv1 32)))).def_11312))
(assert (let ((.def_11315 (= m_st (_ bv0 32)))).def_11315))
(assert (let ((.def_28653 (= E_8 (_ bv1 32)))).def_28653))
(assert (let ((.def_28656 (= E_6 (_ bv1 32)))).def_28656))
(assert (let ((.def_28659 (= E_5 (_ bv1 32)))).def_28659))
(assert (let ((.def_28662 (= E_4 (_ bv1 32)))).def_28662))
(assert (let ((.def_28665 (= E_3 (_ bv1 32)))).def_28665))
(assert (let ((.def_28668 (= E_2 (_ bv1 32)))).def_28668))
(assert (let ((.def_28671 (= E_M (_ bv1 32)))).def_28671))
(assert (let ((.def_28674 (= E_7 (_ bv1 32)))).def_28674))
(assert (let ((.def_28677 (= t8_st (_ bv0 32)))).def_28677))
(assert (let ((.def_28680 (= t1_st (_ bv0 32)))).def_28680))
(assert (let ((.def_28683 (= t4_st (_ bv0 32)))).def_28683))
(assert (let ((.def_28686 (= t5_st (_ bv0 32)))).def_28686))
(assert (let ((.def_28689 (= t2_st (_ bv0 32)))).def_28689))
(assert (let ((.def_28692 (= t6_st (_ bv0 32)))).def_28692))
(assert (let ((.def_28695 (= E_1 (_ bv1 32)))).def_28695))
(assert (let ((.def_28698 (= t7_st (_ bv0 32)))).def_28698))
(assert (let ((.def_28701 (= t3_st (_ bv0 32)))).def_28701))
(assert (let ((.def_28704 (bvadd (_ bv8 32) local)))(let ((.def_28706 (= .def_28704 token))).def_28706)))

start_simulation2 N1342:
(assert (let ((.def_4867 (= m_pc (_ bv0 32)))).def_4867))
(assert (let ((.def_737 (= c_last_read p_last_write))).def_737))
(assert (let ((.def_746 (= c_num_read p_num_write))).def_746))
(assert (let ((.def_11273 (= t1_pc (_ bv0 32)))).def_11273))
(assert (let ((.def_11276 (= t2_pc (_ bv0 32)))).def_11276))
(assert (let ((.def_11279 (= t3_pc (_ bv0 32)))).def_11279))
(assert (let ((.def_11282 (= t4_pc (_ bv0 32)))).def_11282))
(assert (let ((.def_11285 (= t5_pc (_ bv0 32)))).def_11285))
(assert (let ((.def_11288 (= t6_pc (_ bv0 32)))).def_11288))
(assert (let ((.def_11291 (= t7_pc (_ bv0 32)))).def_11291))
(assert (let ((.def_11294 (= t8_pc (_ bv0 32)))).def_11294))
(assert (let ((.def_11296 (= m_pc (_ bv1 32)))).def_11296))
(assert (let ((.def_11298 (= t1_pc (_ bv1 32)))).def_11298))
(assert (let ((.def_11300 (= t2_pc (_ bv1 32)))).def_11300))
(assert (let ((.def_11302 (= t3_pc (_ bv1 32)))).def_11302))
(assert (let ((.def_11304 (= t4_pc (_ bv1 32)))).def_11304))
(assert (let ((.def_11306 (= t5_pc (_ bv1 32)))).def_11306))
(assert (let ((.def_11308 (= t6_pc (_ bv1 32)))).def_11308))
(assert (let ((.def_11310 (= t7_pc (_ bv1 32)))).def_11310))
(assert (let ((.def_11312 (= t8_pc (_ bv1 32)))).def_11312))
(assert (let ((.def_28653 (= E_8 (_ bv1 32)))).def_28653))
(assert (let ((.def_28656 (= E_6 (_ bv1 32)))).def_28656))
(assert (let ((.def_28659 (= E_5 (_ bv1 32)))).def_28659))
(assert (let ((.def_28662 (= E_4 (_ bv1 32)))).def_28662))
(assert (let ((.def_28665 (= E_3 (_ bv1 32)))).def_28665))
(assert (let ((.def_28668 (= E_2 (_ bv1 32)))).def_28668))
(assert (let ((.def_28671 (= E_M (_ bv1 32)))).def_28671))
(assert (let ((.def_28674 (= E_7 (_ bv1 32)))).def_28674))
(assert (let ((.def_11315 (= m_st (_ bv0 32)))).def_11315))

