(set-info :source |printed by MathSAT|)
(declare-fun a20 () (_ BitVec 32))
(declare-fun a2 () (_ BitVec 32))
(declare-fun a27 () (_ BitVec 32))
(declare-fun a16 () (_ BitVec 32))
(declare-fun a15 () (_ BitVec 32))
(declare-fun a12 () (_ BitVec 32))
(declare-fun a25 () (_ BitVec 32))
(declare-fun a9 () (_ BitVec 32))

*:
(assert (let ((.def_106398 (= a20 (_ bv5 32)))).def_106398))

calculate_output8 N29723:
(assert false)
(assert (let ((.def_106398 (= a20 (_ bv5 32)))).def_106398))

main1 N30136:
(assert (let ((.def_153405 (= a2 (_ bv10 32)))).def_153405))
(assert (let ((.def_153408 (= a27 (_ bv1 32)))).def_153408))
(assert (let ((.def_153411 (= a16 (_ bv1 32)))).def_153411))
(assert (let ((.def_153414 (= a15 (_ bv1 32)))).def_153414))
(assert (let ((.def_153417 (= a12 (_ bv4 32)))).def_153417))
(assert (let ((.def_153420 (= a25 (_ bv1 32)))).def_153420))
(assert (let ((.def_106398 (= a20 (_ bv5 32)))).def_106398))
(assert (let ((.def_321396 (= a9 (_ bv18 32)))).def_321396))
(assert (let ((.def_321398 (= a20 (_ bv6 32)))).def_321398))
(assert (let ((.def_321400 (= a12 (_ bv3 32)))).def_321400))
(assert (let ((.def_321402 (= a2 (_ bv13 32)))).def_321402))
(assert (let ((.def_321404 (= a2 (_ bv9 32)))).def_321404))
(assert (let ((.def_321406 (= a12 (_ bv2 32)))).def_321406))
(assert (let ((.def_321408 (= a2 (_ bv11 32)))).def_321408))
(assert (let ((.def_321410 (= a9 (_ bv16 32)))).def_321410))
(assert (let ((.def_321412 (= a9 (_ bv17 32)))).def_321412))

