(set-info :source |printed by MathSAT|)
(declare-fun c_last_read () (_ BitVec 32))
(declare-fun p_last_write () (_ BitVec 32))
(declare-fun c_num_read () (_ BitVec 32))
(declare-fun p_num_write () (_ BitVec 32))
(declare-fun c_dr_pc () (_ BitVec 32))
(declare-fun q_free () (_ BitVec 32))
(declare-fun q_buf_0 () (_ BitVec 32))
(declare-fun p_dw_pc () (_ BitVec 32))
(declare-fun q_read_ev () (_ BitVec 32))
(declare-fun c_dr_st () (_ BitVec 32))
(declare-fun p_dw_st () (_ BitVec 32))
(declare-fun m_pc () (_ BitVec 32))
(declare-fun t1_pc () (_ BitVec 32))
(declare-fun t2_pc () (_ BitVec 32))
(declare-fun t3_pc () (_ BitVec 32))
(declare-fun m_st () (_ BitVec 32))

*:
(assert (let ((.def_540 (= c_last_read p_last_write))).def_540))
(assert (let ((.def_549 (= c_num_read p_num_write))).def_549))

error1 N4:
(assert false)
(assert (let ((.def_540 (= c_last_read p_last_write))).def_540))
(assert (let ((.def_549 (= c_num_read p_num_write))).def_549))

do_write_p N64:
(assert (let ((.def_884 (= c_dr_pc (_ bv0 32)))).def_884))
(assert (let ((.def_540 (= c_last_read p_last_write))).def_540))
(assert (let ((.def_549 (= c_num_read p_num_write))).def_549))
(assert (let ((.def_987 (= q_free (_ bv1 32)))).def_987))
(assert false)
(assert (let ((.def_1330 (= p_last_write q_buf_0))).def_1330))
(assert (let ((.def_990 (= p_dw_pc (_ bv1 32)))).def_990))
(assert (let ((.def_1519 (bvadd (_ bv1 32) c_num_read)))(let ((.def_1520 (= p_num_write .def_1519))).def_1520)))
(assert (let ((.def_2411 (= q_free (_ bv0 32)))).def_2411))
(assert (let ((.def_1522 (= c_dr_pc (_ bv1 32)))).def_1522))
(assert (let ((.def_5212 (= q_read_ev (_ bv1 32)))).def_5212))

do_read_c N100:
(assert (let ((.def_990 (= p_dw_pc (_ bv1 32)))).def_990))
(assert (let ((.def_987 (= q_free (_ bv1 32)))).def_987))
(assert (let ((.def_540 (= c_last_read p_last_write))).def_540))
(assert (let ((.def_549 (= c_num_read p_num_write))).def_549))
(assert (let ((.def_1330 (= p_last_write q_buf_0))).def_1330))
(assert (let ((.def_1519 (bvadd (_ bv1 32) c_num_read)))(let ((.def_1520 (= p_num_write .def_1519))).def_1520)))
(assert (let ((.def_1522 (= c_dr_pc (_ bv1 32)))).def_1522))
(assert false)

eval1 N170:
(assert (let ((.def_884 (= c_dr_pc (_ bv0 32)))).def_884))
(assert (let ((.def_540 (= c_last_read p_last_write))).def_540))
(assert (let ((.def_549 (= c_num_read p_num_write))).def_549))
(assert (let ((.def_987 (= q_free (_ bv1 32)))).def_987))
(assert (let ((.def_1260 (= p_dw_pc (_ bv0 32)))).def_1260))
(assert (let ((.def_1522 (= c_dr_pc (_ bv1 32)))).def_1522))
(assert (let ((.def_3834 (= c_dr_st (_ bv0 32)))).def_3834))
(assert (let ((.def_990 (= p_dw_pc (_ bv1 32)))).def_990))
(assert (let ((.def_5212 (= q_read_ev (_ bv1 32)))).def_5212))
(assert (let ((.def_5215 (= p_dw_st (_ bv0 32)))).def_5215))
(assert (let ((.def_1330 (= p_last_write q_buf_0))).def_1330))
(assert (let ((.def_1519 (bvadd (_ bv1 32) c_num_read)))(let ((.def_1520 (= p_num_write .def_1519))).def_1520)))

start_simulation1 N221:
(assert (let ((.def_884 (= c_dr_pc (_ bv0 32)))).def_884))
(assert (let ((.def_540 (= c_last_read p_last_write))).def_540))
(assert (let ((.def_549 (= c_num_read p_num_write))).def_549))
(assert (let ((.def_987 (= q_free (_ bv1 32)))).def_987))
(assert (let ((.def_1260 (= p_dw_pc (_ bv0 32)))).def_1260))
(assert (let ((.def_5212 (= q_read_ev (_ bv1 32)))).def_5212))

error2 N260:
(assert false)
(assert (let ((.def_540 (= c_last_read p_last_write))).def_540))
(assert (let ((.def_549 (= c_num_read p_num_write))).def_549))

eval2 N515:
(assert (let ((.def_7190 (= m_pc (_ bv0 32)))).def_7190))
(assert (let ((.def_540 (= c_last_read p_last_write))).def_540))
(assert (let ((.def_549 (= c_num_read p_num_write))).def_549))
(assert (let ((.def_8821 (= t1_pc (_ bv0 32)))).def_8821))
(assert (let ((.def_8824 (= t2_pc (_ bv0 32)))).def_8824))
(assert (let ((.def_8827 (= t3_pc (_ bv0 32)))).def_8827))
(assert (let ((.def_8829 (= m_pc (_ bv1 32)))).def_8829))
(assert (let ((.def_8831 (= t1_pc (_ bv1 32)))).def_8831))
(assert (let ((.def_8833 (= t2_pc (_ bv1 32)))).def_8833))
(assert (let ((.def_8835 (= t3_pc (_ bv1 32)))).def_8835))
(assert (let ((.def_8838 (= m_st (_ bv0 32)))).def_8838))

start_simulation2 N747:
(assert (let ((.def_7190 (= m_pc (_ bv0 32)))).def_7190))
(assert (let ((.def_540 (= c_last_read p_last_write))).def_540))
(assert (let ((.def_549 (= c_num_read p_num_write))).def_549))
(assert (let ((.def_8821 (= t1_pc (_ bv0 32)))).def_8821))
(assert (let ((.def_8824 (= t2_pc (_ bv0 32)))).def_8824))
(assert (let ((.def_8827 (= t3_pc (_ bv0 32)))).def_8827))
(assert (let ((.def_8829 (= m_pc (_ bv1 32)))).def_8829))
(assert (let ((.def_8831 (= t1_pc (_ bv1 32)))).def_8831))
(assert (let ((.def_8833 (= t2_pc (_ bv1 32)))).def_8833))
(assert (let ((.def_8835 (= t3_pc (_ bv1 32)))).def_8835))

