(set-info :source |printed by MathSAT|)
(declare-fun a20 () (_ BitVec 32))
(declare-fun a9 () (_ BitVec 32))
(declare-fun a25 () (_ BitVec 32))
(declare-fun a12 () (_ BitVec 32))
(declare-fun a15 () (_ BitVec 32))
(declare-fun a16 () (_ BitVec 32))
(declare-fun a2 () (_ BitVec 32))
(declare-fun a27 () (_ BitVec 32))

*:
(assert (let ((.def_106190 (= a20 (_ bv5 32)))).def_106190))

calculate_output8 N29701:
(assert false)
(assert (let ((.def_106190 (= a20 (_ bv5 32)))).def_106190))

main1 N30136:
(assert (let ((.def_153034 (= a9 (_ bv18 32)))).def_153034))
(assert (let ((.def_106190 (= a20 (_ bv5 32)))).def_106190))
(assert (let ((.def_339733 (= a25 (_ bv1 32)))).def_339733))
(assert (let ((.def_339736 (= a12 (_ bv4 32)))).def_339736))
(assert (let ((.def_339739 (= a15 (_ bv1 32)))).def_339739))
(assert (let ((.def_339742 (= a16 (_ bv1 32)))).def_339742))
(assert (let ((.def_339745 (= a2 (_ bv10 32)))).def_339745))
(assert (let ((.def_339748 (= a27 (_ bv1 32)))).def_339748))
(assert (let ((.def_339750 (= a20 (_ bv6 32)))).def_339750))
(assert (let ((.def_339752 (= a2 (_ bv13 32)))).def_339752))
(assert (let ((.def_339754 (= a12 (_ bv2 32)))).def_339754))
(assert (let ((.def_339756 (= a2 (_ bv12 32)))).def_339756))
(assert (let ((.def_339758 (= a2 (_ bv11 32)))).def_339758))
(assert (let ((.def_339760 (= a9 (_ bv16 32)))).def_339760))
(assert (let ((.def_339762 (= a9 (_ bv17 32)))).def_339762))
(assert (let ((.def_1173969 (= a12 (_ bv6 32)))).def_1173969))
(assert (let ((.def_1173971 (= a20 (_ bv7 32)))).def_1173971))
(assert (let ((.def_1173973 (= a15 (_ bv0 32)))).def_1173973))
(assert (let ((.def_1173975 (= a12 (_ bv3 32)))).def_1173975))
(assert (let ((.def_1173977 (= a2 (_ bv9 32)))).def_1173977))
(assert (let ((.def_1173979 (= a12 (_ bv5 32)))).def_1173979))

