(set-info :source |printed by MathSAT|)
(declare-fun a20 () (_ BitVec 32))
(declare-fun a25 () (_ BitVec 32))
(declare-fun a12 () (_ BitVec 32))
(declare-fun a15 () (_ BitVec 32))
(declare-fun a16 () (_ BitVec 32))
(declare-fun a2 () (_ BitVec 32))
(declare-fun a27 () (_ BitVec 32))
(declare-fun a9 () (_ BitVec 32))
(declare-fun m_pc () (_ BitVec 32))
(declare-fun t1_pc () (_ BitVec 32))
(declare-fun m_st () (_ BitVec 32))

*:
(assert (let ((.def_107773 (= a20 (_ bv5 32)))).def_107773))

calculate_output8 N30108:
(assert false)
(assert (let ((.def_107773 (= a20 (_ bv5 32)))).def_107773))

main1 N30136:
(assert (let ((.def_107773 (= a20 (_ bv5 32)))).def_107773))
(assert (let ((.def_155466 (= a25 (_ bv1 32)))).def_155466))
(assert (let ((.def_155469 (= a12 (_ bv4 32)))).def_155469))
(assert (let ((.def_155472 (= a15 (_ bv1 32)))).def_155472))
(assert (let ((.def_155475 (= a16 (_ bv1 32)))).def_155475))
(assert (let ((.def_155478 (= a2 (_ bv10 32)))).def_155478))
(assert (let ((.def_155481 (= a27 (_ bv1 32)))).def_155481))
(assert (let ((.def_155484 (= a9 (_ bv18 32)))).def_155484))
(assert (let ((.def_321656 (= a12 (_ bv5 32)))).def_321656))
(assert (let ((.def_321658 (= a2 (_ bv13 32)))).def_321658))
(assert (let ((.def_321660 (= a12 (_ bv2 32)))).def_321660))
(assert (let ((.def_321662 (= a2 (_ bv12 32)))).def_321662))
(assert (let ((.def_321664 (= a12 (_ bv3 32)))).def_321664))
(assert (let ((.def_321666 (= a9 (_ bv16 32)))).def_321666))
(assert (let ((.def_321668 (= a20 (_ bv7 32)))).def_321668))
(assert (let ((.def_321670 (= a2 (_ bv9 32)))).def_321670))
(assert (let ((.def_321672 (= a9 (_ bv17 32)))).def_321672))

error N30154:
(assert false)
(assert (let ((.def_107773 (= a20 (_ bv5 32)))).def_107773))

eval N30301:
(assert (let ((.def_746351 (= m_pc (_ bv0 32)))).def_746351))
(assert (let ((.def_107773 (= a20 (_ bv5 32)))).def_107773))
(assert (let ((.def_746942 (= t1_pc (_ bv0 32)))).def_746942))
(assert (let ((.def_746944 (= m_pc (_ bv1 32)))).def_746944))
(assert (let ((.def_746946 (= t1_pc (_ bv1 32)))).def_746946))
(assert (let ((.def_746949 (= m_st (_ bv0 32)))).def_746949))

start_simulation N30451:
(assert (let ((.def_746351 (= m_pc (_ bv0 32)))).def_746351))
(assert (let ((.def_107773 (= a20 (_ bv5 32)))).def_107773))
(assert (let ((.def_746942 (= t1_pc (_ bv0 32)))).def_746942))
(assert (let ((.def_746944 (= m_pc (_ bv1 32)))).def_746944))
(assert (let ((.def_746946 (= t1_pc (_ bv1 32)))).def_746946))

