(set-info :source |printed by MathSAT|)
(declare-fun c_num_read () (_ BitVec 32))
(declare-fun p_num_write () (_ BitVec 32))
(declare-fun c_last_read () (_ BitVec 32))
(declare-fun p_last_write () (_ BitVec 32))
(declare-fun c_dr_pc () (_ BitVec 32))
(declare-fun q_free () (_ BitVec 32))
(declare-fun q_buf_0 () (_ BitVec 32))
(declare-fun c_dr_st () (_ BitVec 32))
(declare-fun q_req_up () (_ BitVec 32))
(declare-fun q_write_ev () (_ BitVec 32))
(declare-fun q_read_ev () (_ BitVec 32))
(declare-fun p_dw_pc () (_ BitVec 32))
(declare-fun p_dw_st () (_ BitVec 32))
(declare-fun m_pc () (_ BitVec 32))
(declare-fun t1_pc () (_ BitVec 32))
(declare-fun t2_pc () (_ BitVec 32))
(declare-fun t3_pc () (_ BitVec 32))
(declare-fun t4_pc () (_ BitVec 32))
(declare-fun t5_pc () (_ BitVec 32))
(declare-fun t6_pc () (_ BitVec 32))
(declare-fun t7_pc () (_ BitVec 32))
(declare-fun t8_pc () (_ BitVec 32))
(declare-fun t9_pc () (_ BitVec 32))
(declare-fun t10_pc () (_ BitVec 32))
(declare-fun m_st () (_ BitVec 32))

*:
(assert (let ((.def_634 (= c_num_read p_num_write))).def_634))
(assert (let ((.def_643 (= c_last_read p_last_write))).def_643))

error1 N4:
(assert false)
(assert (let ((.def_634 (= c_num_read p_num_write))).def_634))
(assert (let ((.def_643 (= c_last_read p_last_write))).def_643))

do_write_p N78:
(assert (let ((.def_830 (= c_dr_pc (_ bv0 32)))).def_830))
(assert (let ((.def_634 (= c_num_read p_num_write))).def_634))
(assert (let ((.def_643 (= c_last_read p_last_write))).def_643))
(assert (let ((.def_898 (= q_free (_ bv1 32)))).def_898))
(assert false)
(assert (let ((.def_1082 (= p_last_write q_buf_0))).def_1082))
(assert (let ((.def_1222 (= c_dr_pc (_ bv1 32)))).def_1222))
(assert (let ((.def_1224 (= q_free (_ bv0 32)))).def_1224))
(assert (let ((.def_1228 (bvadd (_ bv1 32) c_num_read)))(let ((.def_1229 (= p_num_write .def_1228))).def_1229)))
(assert (let ((.def_1910 (= c_dr_st (_ bv0 32)))).def_1910))
(assert (let ((.def_4310 (= q_req_up (_ bv1 32)))).def_4310))
(assert (let ((.def_5943 (= q_write_ev (_ bv1 32)))).def_5943))
(assert (let ((.def_5945 (= q_write_ev (_ bv0 32)))).def_5945))
(assert (let ((.def_8280 (= q_read_ev (_ bv1 32)))).def_8280))
(assert (let ((.def_8282 (= q_read_ev (_ bv0 32)))).def_8282))

do_read_c N112:
(assert (let ((.def_898 (= q_free (_ bv1 32)))).def_898))
(assert (let ((.def_634 (= c_num_read p_num_write))).def_634))
(assert (let ((.def_643 (= c_last_read p_last_write))).def_643))
(assert (let ((.def_1082 (= p_last_write q_buf_0))).def_1082))
(assert (let ((.def_1228 (bvadd (_ bv1 32) c_num_read)))(let ((.def_1229 (= p_num_write .def_1228))).def_1229)))
(assert false)
(assert (let ((.def_1224 (= q_free (_ bv0 32)))).def_1224))
(assert (let ((.def_5943 (= q_write_ev (_ bv1 32)))).def_5943))
(assert (let ((.def_5945 (= q_write_ev (_ bv0 32)))).def_5945))
(assert (let ((.def_1226 (= p_dw_pc (_ bv1 32)))).def_1226))
(assert (let ((.def_4310 (= q_req_up (_ bv1 32)))).def_4310))
(assert (let ((.def_2384 (= p_dw_st (_ bv0 32)))).def_2384))
(assert (let ((.def_8280 (= q_read_ev (_ bv1 32)))).def_8280))
(assert (let ((.def_8282 (= q_read_ev (_ bv0 32)))).def_8282))

eval1 N228:
(assert (let ((.def_830 (= c_dr_pc (_ bv0 32)))).def_830))
(assert (let ((.def_634 (= c_num_read p_num_write))).def_634))
(assert (let ((.def_643 (= c_last_read p_last_write))).def_643))
(assert (let ((.def_898 (= q_free (_ bv1 32)))).def_898))
(assert (let ((.def_1040 (= p_dw_pc (_ bv0 32)))).def_1040))
(assert (let ((.def_1222 (= c_dr_pc (_ bv1 32)))).def_1222))
(assert (let ((.def_1224 (= q_free (_ bv0 32)))).def_1224))
(assert (let ((.def_1226 (= p_dw_pc (_ bv1 32)))).def_1226))
(assert (let ((.def_2384 (= p_dw_st (_ bv0 32)))).def_2384))
(assert (let ((.def_1082 (= p_last_write q_buf_0))).def_1082))
(assert (let ((.def_1228 (bvadd (_ bv1 32) c_num_read)))(let ((.def_1229 (= p_num_write .def_1228))).def_1229)))
(assert (let ((.def_1910 (= c_dr_st (_ bv0 32)))).def_1910))
(assert (let ((.def_4310 (= q_req_up (_ bv1 32)))).def_4310))
(assert (let ((.def_5943 (= q_write_ev (_ bv1 32)))).def_5943))
(assert (let ((.def_5945 (= q_write_ev (_ bv0 32)))).def_5945))
(assert (let ((.def_8280 (= q_read_ev (_ bv1 32)))).def_8280))
(assert (let ((.def_8282 (= q_read_ev (_ bv0 32)))).def_8282))

start_simulation1 N283:
(assert (let ((.def_830 (= c_dr_pc (_ bv0 32)))).def_830))
(assert (let ((.def_634 (= c_num_read p_num_write))).def_634))
(assert (let ((.def_643 (= c_last_read p_last_write))).def_643))
(assert (let ((.def_898 (= q_free (_ bv1 32)))).def_898))
(assert (let ((.def_1040 (= p_dw_pc (_ bv0 32)))).def_1040))
(assert (let ((.def_1222 (= c_dr_pc (_ bv1 32)))).def_1222))
(assert (let ((.def_1224 (= q_free (_ bv0 32)))).def_1224))
(assert (let ((.def_1226 (= p_dw_pc (_ bv1 32)))).def_1226))
(assert (let ((.def_1910 (= c_dr_st (_ bv0 32)))).def_1910))
(assert (let ((.def_2384 (= p_dw_st (_ bv0 32)))).def_2384))
(assert (let ((.def_1082 (= p_last_write q_buf_0))).def_1082))
(assert (let ((.def_5943 (= q_write_ev (_ bv1 32)))).def_5943))
(assert (let ((.def_5945 (= q_write_ev (_ bv0 32)))).def_5945))
(assert (let ((.def_8280 (= q_read_ev (_ bv1 32)))).def_8280))
(assert (let ((.def_8282 (= q_read_ev (_ bv0 32)))).def_8282))
(assert (let ((.def_1228 (bvadd (_ bv1 32) c_num_read)))(let ((.def_1229 (= p_num_write .def_1228))).def_1229)))

error2 N328:
(assert false)
(assert (let ((.def_634 (= c_num_read p_num_write))).def_634))
(assert (let ((.def_643 (= c_last_read p_last_write))).def_643))

eval2 N961:
(assert (let ((.def_11507 (= m_pc (_ bv0 32)))).def_11507))
(assert (let ((.def_634 (= c_num_read p_num_write))).def_634))
(assert (let ((.def_643 (= c_last_read p_last_write))).def_643))
(assert (let ((.def_20771 (= t1_pc (_ bv0 32)))).def_20771))
(assert (let ((.def_20774 (= t2_pc (_ bv0 32)))).def_20774))
(assert (let ((.def_20777 (= t3_pc (_ bv0 32)))).def_20777))
(assert (let ((.def_20780 (= t4_pc (_ bv0 32)))).def_20780))
(assert (let ((.def_20783 (= t5_pc (_ bv0 32)))).def_20783))
(assert (let ((.def_20786 (= t6_pc (_ bv0 32)))).def_20786))
(assert (let ((.def_20789 (= t7_pc (_ bv0 32)))).def_20789))
(assert (let ((.def_20792 (= t8_pc (_ bv0 32)))).def_20792))
(assert (let ((.def_20795 (= t9_pc (_ bv0 32)))).def_20795))
(assert (let ((.def_20798 (= t10_pc (_ bv0 32)))).def_20798))
(assert (let ((.def_20800 (= m_pc (_ bv1 32)))).def_20800))
(assert (let ((.def_20802 (= t1_pc (_ bv1 32)))).def_20802))
(assert (let ((.def_20804 (= t2_pc (_ bv1 32)))).def_20804))
(assert (let ((.def_20806 (= t3_pc (_ bv1 32)))).def_20806))
(assert (let ((.def_20808 (= t4_pc (_ bv1 32)))).def_20808))
(assert (let ((.def_20810 (= t5_pc (_ bv1 32)))).def_20810))
(assert (let ((.def_20812 (= t6_pc (_ bv1 32)))).def_20812))
(assert (let ((.def_20814 (= t7_pc (_ bv1 32)))).def_20814))
(assert (let ((.def_20816 (= t8_pc (_ bv1 32)))).def_20816))
(assert (let ((.def_20818 (= t9_pc (_ bv1 32)))).def_20818))
(assert (let ((.def_20820 (= t10_pc (_ bv1 32)))).def_20820))
(assert (let ((.def_20823 (= m_st (_ bv0 32)))).def_20823))

start_simulation2 N1480:
(assert (let ((.def_11507 (= m_pc (_ bv0 32)))).def_11507))
(assert (let ((.def_634 (= c_num_read p_num_write))).def_634))
(assert (let ((.def_643 (= c_last_read p_last_write))).def_643))
(assert (let ((.def_20771 (= t1_pc (_ bv0 32)))).def_20771))
(assert (let ((.def_20774 (= t2_pc (_ bv0 32)))).def_20774))
(assert (let ((.def_20777 (= t3_pc (_ bv0 32)))).def_20777))
(assert (let ((.def_20780 (= t4_pc (_ bv0 32)))).def_20780))
(assert (let ((.def_20783 (= t5_pc (_ bv0 32)))).def_20783))
(assert (let ((.def_20786 (= t6_pc (_ bv0 32)))).def_20786))
(assert (let ((.def_20789 (= t7_pc (_ bv0 32)))).def_20789))
(assert (let ((.def_20792 (= t8_pc (_ bv0 32)))).def_20792))
(assert (let ((.def_20795 (= t9_pc (_ bv0 32)))).def_20795))
(assert (let ((.def_20798 (= t10_pc (_ bv0 32)))).def_20798))
(assert (let ((.def_20800 (= m_pc (_ bv1 32)))).def_20800))
(assert (let ((.def_20802 (= t1_pc (_ bv1 32)))).def_20802))
(assert (let ((.def_20804 (= t2_pc (_ bv1 32)))).def_20804))
(assert (let ((.def_20806 (= t3_pc (_ bv1 32)))).def_20806))
(assert (let ((.def_20808 (= t4_pc (_ bv1 32)))).def_20808))
(assert (let ((.def_20810 (= t5_pc (_ bv1 32)))).def_20810))
(assert (let ((.def_20812 (= t6_pc (_ bv1 32)))).def_20812))
(assert (let ((.def_20814 (= t7_pc (_ bv1 32)))).def_20814))
(assert (let ((.def_20816 (= t8_pc (_ bv1 32)))).def_20816))
(assert (let ((.def_20818 (= t9_pc (_ bv1 32)))).def_20818))
(assert (let ((.def_20820 (= t10_pc (_ bv1 32)))).def_20820))

