(set-info :source |printed by MathSAT|)
(declare-fun |ssl3_connect::blastFlag| () (_ BitVec 32))
(declare-fun |ssl3_connect::s__state| () (_ BitVec 32))
(declare-fun |ssl3_connect::skip| () (_ BitVec 32))
(declare-fun |ssl3_connect::cb| () (_ BitVec 32))
(declare-fun |ssl3_connect::s__s3__tmp__reuse_message| () (_ BitVec 32))
(declare-fun |ssl3_connect::s__s3__tmp__next_state___0| () (_ BitVec 32))
(declare-fun |ssl3_connect::s__hit| () (_ BitVec 32))
(declare-fun |ssl3_accept::blastFlag| () (_ BitVec 32))
(declare-fun |ssl3_accept::s__state| () (_ BitVec 32))
(declare-fun |ssl3_accept::s__s3__tmp__reuse_message| () (_ BitVec 32))
(declare-fun |ssl3_accept::s__hit| () (_ BitVec 32))
(declare-fun |ssl3_accept::s__s3__tmp__next_state___0| () (_ BitVec 32))
(declare-fun |ssl3_accept::s__init_buf___0| () (_ BitVec 32))
(declare-fun |ssl3_accept::skip| () (_ BitVec 32))
(declare-fun |ssl3_accept::cb| () (_ BitVec 32))
(declare-fun |ssl3_accept::s__verify_mode| () (_ BitVec 32))
(declare-fun |ssl3_accept::s__session__peer| () (_ BitVec 32))

ssl3_connect:
(assert (let ((.def_686 (= |ssl3_connect::blastFlag| (_ bv5 32)))).def_686))

ssl3_connect N126:
(assert (let ((.def_1687 (= |ssl3_connect::s__state| (_ bv12292 32)))).def_1687))
(assert (let ((.def_1689 (= |ssl3_connect::blastFlag| (_ bv0 32)))).def_1689))
(assert (let ((.def_686 (= |ssl3_connect::blastFlag| (_ bv5 32)))).def_686))
(assert (let ((.def_3955 (= |ssl3_connect::skip| (_ bv0 32)))).def_3955))
(assert (let ((.def_3957 (= |ssl3_connect::s__state| (_ bv4368 32)))).def_3957))
(assert (let ((.def_3959 (= |ssl3_connect::blastFlag| (_ bv4 32)))).def_3959))
(assert (let ((.def_3961 (= |ssl3_connect::s__state| (_ bv4384 32)))).def_3961))
(assert (let ((.def_3963 (= |ssl3_connect::blastFlag| (_ bv1 32)))).def_3963))
(assert (let ((.def_3965 (= |ssl3_connect::blastFlag| (_ bv2 32)))).def_3965))
(assert (let ((.def_3967 (= |ssl3_connect::blastFlag| (_ bv3 32)))).def_3967))
(assert (let ((.def_8197 (= |ssl3_connect::s__state| (_ bv4385 32)))).def_8197))
(assert (let ((.def_8199 (= |ssl3_connect::s__state| (_ bv4400 32)))).def_8199))
(assert (let ((.def_8201 (= |ssl3_connect::s__state| (_ bv4433 32)))).def_8201))
(assert (let ((.def_8203 (= |ssl3_connect::s__state| (_ bv4432 32)))).def_8203))
(assert (let ((.def_8205 (= |ssl3_connect::s__state| (_ bv4416 32)))).def_8205))
(assert (let ((.def_15129 (= |ssl3_connect::s__state| (_ bv4099 32)))).def_15129))
(assert (let ((.def_15131 (= |ssl3_connect::s__state| (_ bv20480 32)))).def_15131))
(assert (let ((.def_15133 (= |ssl3_connect::s__state| (_ bv4096 32)))).def_15133))
(assert (let ((.def_15135 (= |ssl3_connect::s__state| (_ bv16384 32)))).def_15135))
(assert (let ((.def_15138 (= |ssl3_connect::cb| (_ bv0 32)))).def_15138))
(assert (let ((.def_15141 (= |ssl3_connect::s__s3__tmp__reuse_message| (_ bv0 32)))).def_15141))
(assert (let ((.def_15143 (= |ssl3_connect::s__state| (_ bv4512 32)))).def_15143))
(assert (let ((.def_15145 (= |ssl3_connect::s__state| (_ bv4369 32)))).def_15145))
(assert (let ((.def_15147 (= |ssl3_connect::s__state| (_ bv4352 32)))).def_15147))
(assert (let ((.def_15150 (= |ssl3_connect::s__s3__tmp__next_state___0| (_ bv4560 32)))).def_15150))
(assert (let ((.def_15153 (= |ssl3_connect::s__hit| (_ bv0 32)))).def_15153))
(assert (let ((.def_15155 (= |ssl3_connect::s__state| (_ bv4480 32)))).def_15155))
(assert (let ((.def_15157 (= |ssl3_connect::s__s3__tmp__next_state___0| (_ bv4496 32)))).def_15157))
(assert (let ((.def_15159 (= |ssl3_connect::s__s3__tmp__next_state___0| (_ bv4480 32)))).def_15159))
(assert (let ((.def_15161 (= |ssl3_connect::s__s3__tmp__next_state___0| (_ bv4464 32)))).def_15161))
(assert (let ((.def_15163 (= |ssl3_connect::s__s3__tmp__next_state___0| (_ bv4448 32)))).def_15163))
(assert (let ((.def_15165 (= |ssl3_connect::s__s3__tmp__next_state___0| (_ bv4432 32)))).def_15165))
(assert (let ((.def_15167 (= |ssl3_connect::s__s3__tmp__next_state___0| (_ bv4400 32)))).def_15167))
(assert (let ((.def_15169 (= |ssl3_connect::s__s3__tmp__next_state___0| (_ bv4384 32)))).def_15169))
(assert (let ((.def_15171 (= |ssl3_connect::s__s3__tmp__next_state___0| (_ bv4368 32)))).def_15171))
(assert (let ((.def_15173 (= |ssl3_connect::s__s3__tmp__next_state___0| (_ bv4512 32)))).def_15173))
(assert (let ((.def_15175 (= |ssl3_connect::s__state| |ssl3_connect::s__s3__tmp__next_state___0|))).def_15175))
(assert (let ((.def_15177 (= |ssl3_connect::s__state| (_ bv4560 32)))).def_15177))
(assert (let ((.def_15179 (= |ssl3_connect::s__state| (_ bv4561 32)))).def_15179))
(assert (let ((.def_15181 (= |ssl3_connect::s__s3__tmp__next_state___0| (_ bv4416 32)))).def_15181))
(assert (let ((.def_15183 (= |ssl3_connect::s__s3__tmp__next_state___0| (_ bv3 32)))).def_15183))
(assert (let ((.def_15185 (= |ssl3_connect::s__state| (_ bv4448 32)))).def_15185))
(assert (let ((.def_15187 (= |ssl3_connect::s__state| (_ bv4464 32)))).def_15187))
(assert (let ((.def_15189 (= |ssl3_connect::s__state| (_ bv4496 32)))).def_15189))
(assert (let ((.def_15191 (= |ssl3_connect::s__state| (_ bv4528 32)))).def_15191))
(assert (let ((.def_15193 (= |ssl3_connect::s__s3__tmp__next_state___0| (_ bv4369 32)))).def_15193))
(assert (let ((.def_15195 (= |ssl3_connect::s__state| (_ bv4513 32)))).def_15195))
(assert (let ((.def_15197 (= |ssl3_connect::s__state| (_ bv4497 32)))).def_15197))
(assert (let ((.def_15199 (= |ssl3_connect::s__state| (_ bv4481 32)))).def_15199))
(assert (let ((.def_15201 (= |ssl3_connect::s__state| (_ bv4467 32)))).def_15201))
(assert (let ((.def_15203 (= |ssl3_connect::s__state| (_ bv4466 32)))).def_15203))
(assert (let ((.def_15205 (= |ssl3_connect::s__state| (_ bv4465 32)))).def_15205))
(assert (let ((.def_15207 (= |ssl3_connect::s__state| (_ bv4449 32)))).def_15207))
(assert (let ((.def_15209 (= |ssl3_connect::s__s3__tmp__next_state___0| (_ bv4385 32)))).def_15209))
(assert (let ((.def_15211 (= |ssl3_connect::s__state| (_ bv4401 32)))).def_15211))
(assert (let ((.def_15213 (= |ssl3_connect::s__s3__tmp__next_state___0| (_ bv4417 32)))).def_15213))
(assert (let ((.def_15215 (= |ssl3_connect::s__s3__tmp__next_state___0| (_ bv4352 32)))).def_15215))
(assert (let ((.def_15217 (= |ssl3_connect::s__s3__tmp__next_state___0| (_ bv4401 32)))).def_15217))
(assert (let ((.def_15219 (= |ssl3_connect::s__state| (_ bv4529 32)))).def_15219))
(assert (let ((.def_15221 (= |ssl3_connect::s__state| (_ bv4417 32)))).def_15221))
(assert (let ((.def_15223 (= |ssl3_connect::s__s3__tmp__next_state___0| (_ bv4433 32)))).def_15223))

ssl3_connect N594:
(assert false)
(assert (let ((.def_686 (= |ssl3_connect::blastFlag| (_ bv5 32)))).def_686))

ssl3_accept N717:
(assert (let ((.def_26026 (= |ssl3_accept::blastFlag| (_ bv10 32)))).def_26026))
(assert (let ((.def_27234 (= |ssl3_accept::s__state| (_ bv8464 32)))).def_27234))
(assert (let ((.def_27236 (= |ssl3_accept::blastFlag| (_ bv0 32)))).def_27236))
(assert (let ((.def_27238 (= |ssl3_accept::blastFlag| (_ bv4 32)))).def_27238))
(assert (let ((.def_27240 (= |ssl3_accept::blastFlag| (_ bv7 32)))).def_27240))
(assert (let ((.def_28739 (= |ssl3_accept::s__state| (_ bv8481 32)))).def_28739))
(assert (let ((.def_28741 (= |ssl3_accept::s__state| (_ bv8480 32)))).def_28741))
(assert (let ((.def_28743 (= |ssl3_accept::s__state| (_ bv12292 32)))).def_28743))
(assert (let ((.def_28745 (= |ssl3_accept::s__state| (_ bv16384 32)))).def_28745))
(assert (let ((.def_28747 (= |ssl3_accept::s__state| (_ bv8192 32)))).def_28747))
(assert (let ((.def_28749 (= |ssl3_accept::s__state| (_ bv24576 32)))).def_28749))
(assert (let ((.def_28751 (= |ssl3_accept::s__state| (_ bv8195 32)))).def_28751))
(assert (let ((.def_28753 (= |ssl3_accept::s__state| (_ bv8482 32)))).def_28753))
(assert (let ((.def_28755 (= |ssl3_accept::s__state| (_ bv8496 32)))).def_28755))
(assert (let ((.def_28757 (= |ssl3_accept::blastFlag| (_ bv1 32)))).def_28757))
(assert (let ((.def_30754 (= |ssl3_accept::s__s3__tmp__reuse_message| (_ bv0 32)))).def_30754))
(assert (let ((.def_30756 (= |ssl3_accept::blastFlag| (_ bv2 32)))).def_30756))
(assert (let ((.def_30758 (= |ssl3_accept::s__state| (_ bv8448 32)))).def_30758))
(assert (let ((.def_30760 (= |ssl3_accept::s__state| (_ bv8641 32)))).def_30760))
(assert (let ((.def_30762 (= |ssl3_accept::s__state| (_ bv8640 32)))).def_30762))
(assert (let ((.def_34983 (= |ssl3_accept::s__state| (_ bv8465 32)))).def_34983))
(assert (let ((.def_34985 (= |ssl3_accept::s__state| (_ bv8466 32)))).def_34985))
(assert (let ((.def_34987 (= |ssl3_accept::s__state| (_ bv8656 32)))).def_34987))
(assert (let ((.def_34990 (= |ssl3_accept::s__hit| (_ bv0 32)))).def_34990))
(assert (let ((.def_34992 (= |ssl3_accept::s__state| (_ bv8512 32)))).def_34992))
(assert (let ((.def_34994 (= |ssl3_accept::blastFlag| (_ bv9 32)))).def_34994))
(assert (let ((.def_34996 (= |ssl3_accept::blastFlag| (_ bv3 32)))).def_34996))
(assert (let ((.def_34998 (= |ssl3_accept::blastFlag| (_ bv8 32)))).def_34998))
(assert (let ((.def_35000 (= |ssl3_accept::blastFlag| (_ bv6 32)))).def_35000))
(assert (let ((.def_35002 (= |ssl3_accept::blastFlag| (_ bv5 32)))).def_35002))
(assert (let ((.def_35004 (= |ssl3_accept::s__state| (_ bv8609 32)))).def_35004))
(assert (let ((.def_35006 (= |ssl3_accept::s__state| (_ bv8608 32)))).def_35006))
(assert (let ((.def_35008 (= |ssl3_accept::s__state| (_ bv8528 32)))).def_35008))
(assert (let ((.def_35010 (= |ssl3_accept::s__state| (_ bv8544 32)))).def_35010))
(assert (let ((.def_35012 (= |ssl3_accept::s__state| (_ bv8560 32)))).def_35012))
(assert (let ((.def_35015 (= |ssl3_accept::s__state| |ssl3_accept::s__s3__tmp__next_state___0|))).def_35015))
(assert (let ((.def_35017 (= |ssl3_accept::s__s3__tmp__next_state___0| (_ bv8482 32)))).def_35017))
(assert (let ((.def_35019 (= |ssl3_accept::s__s3__tmp__next_state___0| (_ bv3 32)))).def_35019))
(assert (let ((.def_35021 (= |ssl3_accept::s__s3__tmp__next_state___0| (_ bv8576 32)))).def_35021))
(assert (let ((.def_35023 (= |ssl3_accept::s__state| (_ bv8576 32)))).def_35023))
(assert (let ((.def_35025 (= |ssl3_accept::s__state| (_ bv8592 32)))).def_35025))
(assert (let ((.def_61464 (= |ssl3_accept::s__init_buf___0| (_ bv0 32)))).def_61464))
(assert (let ((.def_61467 (= |ssl3_accept::skip| (_ bv0 32)))).def_61467))
(assert (let ((.def_61470 (= |ssl3_accept::cb| (_ bv0 32)))).def_61470))
(assert (let ((.def_61472 (= |ssl3_accept::s__state| (_ bv8497 32)))).def_61472))
(assert (let ((.def_61474 (= |ssl3_accept::s__state| (_ bv8577 32)))).def_61474))
(assert (let ((.def_61476 (= |ssl3_accept::s__state| (_ bv8529 32)))).def_61476))
(assert (let ((.def_61478 (= |ssl3_accept::s__state| (_ bv8593 32)))).def_61478))
(assert (let ((.def_61480 (= |ssl3_accept::s__state| (_ bv8545 32)))).def_61480))
(assert (let ((.def_61482 (= |ssl3_accept::s__state| (_ bv8561 32)))).def_61482))
(assert (let ((.def_61484 (= |ssl3_accept::s__state| (_ bv8513 32)))).def_61484))
(assert (let ((.def_61486 (= |ssl3_accept::s__state| (_ bv8657 32)))).def_61486))
(assert (let ((.def_61488 (= |ssl3_accept::s__s3__tmp__next_state___0| (_ bv8656 32)))).def_61488))
(assert (let ((.def_61490 (= |ssl3_accept::s__s3__tmp__next_state___0| (_ bv8609 32)))).def_61490))
(assert (let ((.def_61492 (= |ssl3_accept::s__s3__tmp__next_state___0| (_ bv8608 32)))).def_61492))
(assert (let ((.def_61494 (= |ssl3_accept::s__s3__tmp__next_state___0| (_ bv8593 32)))).def_61494))
(assert (let ((.def_61496 (= |ssl3_accept::s__s3__tmp__next_state___0| (_ bv8592 32)))).def_61496))
(assert (let ((.def_61498 (= |ssl3_accept::s__s3__tmp__next_state___0| (_ bv8577 32)))).def_61498))
(assert (let ((.def_61500 (= |ssl3_accept::s__s3__tmp__next_state___0| (_ bv8529 32)))).def_61500))
(assert (let ((.def_61502 (= |ssl3_accept::s__s3__tmp__next_state___0| (_ bv8528 32)))).def_61502))
(assert (let ((.def_61504 (= |ssl3_accept::s__s3__tmp__next_state___0| (_ bv8513 32)))).def_61504))
(assert (let ((.def_61506 (= |ssl3_accept::s__s3__tmp__next_state___0| (_ bv8512 32)))).def_61506))
(assert (let ((.def_61508 (= |ssl3_accept::s__s3__tmp__next_state___0| (_ bv8481 32)))).def_61508))
(assert (let ((.def_61510 (= |ssl3_accept::s__s3__tmp__next_state___0| (_ bv8480 32)))).def_61510))
(assert (let ((.def_61512 (= |ssl3_accept::s__s3__tmp__next_state___0| (_ bv8195 32)))).def_61512))
(assert (let ((.def_61514 (= |ssl3_accept::s__s3__tmp__next_state___0| (_ bv24576 32)))).def_61514))
(assert (let ((.def_61516 (= |ssl3_accept::s__s3__tmp__next_state___0| (_ bv8192 32)))).def_61516))
(assert (let ((.def_61518 (= |ssl3_accept::s__s3__tmp__next_state___0| (_ bv16384 32)))).def_61518))
(assert (let ((.def_61520 (= |ssl3_accept::s__s3__tmp__next_state___0| (_ bv12292 32)))).def_61520))
(assert (let ((.def_61522 (= |ssl3_accept::s__s3__tmp__next_state___0| (_ bv8466 32)))).def_61522))
(assert (let ((.def_61524 (= |ssl3_accept::s__s3__tmp__next_state___0| (_ bv8496 32)))).def_61524))
(assert (let ((.def_61526 (= |ssl3_accept::s__s3__tmp__next_state___0| (_ bv8497 32)))).def_61526))
(assert (let ((.def_61528 (= |ssl3_accept::s__s3__tmp__next_state___0| (_ bv8640 32)))).def_61528))
(assert (let ((.def_61530 (= |ssl3_accept::s__state| (_ bv8672 32)))).def_61530))
(assert (let ((.def_61532 (= |ssl3_accept::s__s3__tmp__next_state___0| (_ bv8464 32)))).def_61532))
(assert (let ((.def_61534 (= |ssl3_accept::s__s3__tmp__next_state___0| (_ bv8465 32)))).def_61534))
(assert (let ((.def_61536 (= |ssl3_accept::s__s3__tmp__next_state___0| (_ bv8544 32)))).def_61536))
(assert (let ((.def_61538 (= |ssl3_accept::s__s3__tmp__next_state___0| (_ bv8545 32)))).def_61538))
(assert (let ((.def_61540 (= |ssl3_accept::s__s3__tmp__next_state___0| (_ bv8560 32)))).def_61540))
(assert (let ((.def_61542 (= |ssl3_accept::s__s3__tmp__next_state___0| (_ bv8561 32)))).def_61542))
(assert (let ((.def_61544 (= |ssl3_accept::s__s3__tmp__next_state___0| (_ bv8448 32)))).def_61544))
(assert (let ((.def_61547 (= |ssl3_accept::s__verify_mode| (_ bv4294967295 32)))).def_61547))
(assert (let ((.def_61549 (= |ssl3_accept::skip| (_ bv1 32)))).def_61549))
(assert (let ((.def_61552 (= |ssl3_accept::s__session__peer| (_ bv0 32)))).def_61552))
(assert (let ((.def_61554 (= |ssl3_accept::s__verify_mode| (_ bv4294967294 32)))).def_61554))
(assert (let ((.def_61556 (= |ssl3_accept::s__verify_mode| (_ bv4294967292 32)))).def_61556))
(assert (let ((.def_61558 (= |ssl3_accept::s__s3__tmp__next_state___0| (_ bv8657 32)))).def_61558))
(assert (let ((.def_61560 (= |ssl3_accept::s__state| (_ bv8673 32)))).def_61560))
(assert (let ((.def_61562 (= |ssl3_accept::s__s3__tmp__next_state___0| (_ bv8641 32)))).def_61562))

ssl3_accept N1261:
(assert false)

