(set-info :source |printed by MathSAT|)
(declare-fun a20 () (_ BitVec 32))
(declare-fun a25 () (_ BitVec 32))
(declare-fun a12 () (_ BitVec 32))
(declare-fun a15 () (_ BitVec 32))
(declare-fun a16 () (_ BitVec 32))
(declare-fun a2 () (_ BitVec 32))
(declare-fun a27 () (_ BitVec 32))
(declare-fun a9 () (_ BitVec 32))
(declare-fun m_pc () (_ BitVec 32))
(declare-fun t1_pc () (_ BitVec 32))
(declare-fun m_st () (_ BitVec 32))
(declare-fun E_M () (_ BitVec 32))
(declare-fun t1_st () (_ BitVec 32))
(declare-fun local () (_ BitVec 32))
(declare-fun token () (_ BitVec 32))
(declare-fun E_1 () (_ BitVec 32))

*:
(assert (let ((.def_107773 (= a20 (_ bv5 32)))).def_107773))

calculate_output8 N30108:
(assert false)
(assert (let ((.def_107773 (= a20 (_ bv5 32)))).def_107773))

main1 N30136:
(assert (let ((.def_107773 (= a20 (_ bv5 32)))).def_107773))
(assert (let ((.def_155466 (= a25 (_ bv1 32)))).def_155466))
(assert (let ((.def_155469 (= a12 (_ bv4 32)))).def_155469))
(assert (let ((.def_155472 (= a15 (_ bv1 32)))).def_155472))
(assert (let ((.def_155475 (= a16 (_ bv1 32)))).def_155475))
(assert (let ((.def_155478 (= a2 (_ bv10 32)))).def_155478))
(assert (let ((.def_155481 (= a27 (_ bv1 32)))).def_155481))
(assert (let ((.def_155484 (= a9 (_ bv18 32)))).def_155484))
(assert (let ((.def_321656 (= a12 (_ bv5 32)))).def_321656))
(assert (let ((.def_321658 (= a2 (_ bv13 32)))).def_321658))
(assert (let ((.def_321660 (= a12 (_ bv2 32)))).def_321660))
(assert (let ((.def_321662 (= a2 (_ bv12 32)))).def_321662))
(assert (let ((.def_321664 (= a12 (_ bv3 32)))).def_321664))
(assert (let ((.def_321666 (= a9 (_ bv16 32)))).def_321666))
(assert (let ((.def_321668 (= a20 (_ bv7 32)))).def_321668))
(assert (let ((.def_321670 (= a2 (_ bv9 32)))).def_321670))
(assert (let ((.def_321672 (= a9 (_ bv17 32)))).def_321672))

error N30154:
(assert false)
(assert (let ((.def_107773 (= a20 (_ bv5 32)))).def_107773))

eval N30288:
(assert (let ((.def_746327 (= m_pc (_ bv0 32)))).def_746327))
(assert (let ((.def_107773 (= a20 (_ bv5 32)))).def_107773))
(assert (let ((.def_746880 (= t1_pc (_ bv0 32)))).def_746880))
(assert (let ((.def_746882 (= m_pc (_ bv1 32)))).def_746882))
(assert (let ((.def_746884 (= t1_pc (_ bv1 32)))).def_746884))
(assert (let ((.def_746887 (= m_st (_ bv0 32)))).def_746887))
(assert (let ((.def_747600 (= E_M (_ bv1 32)))).def_747600))
(assert (let ((.def_747603 (= t1_st (_ bv0 32)))).def_747603))
(assert (let ((.def_747606 (bvadd (_ bv1 32) local)))(let ((.def_747608 (= .def_747606 token))).def_747608)))
(assert (let ((.def_748608 (= local token))).def_748608))
(assert (let ((.def_748611 (= E_1 (_ bv1 32)))).def_748611))
(assert (let ((.def_749909 (= E_M (_ bv0 32)))).def_749909))
(assert (let ((.def_749911 (= E_1 (_ bv0 32)))).def_749911))

start_simulation N30438:
(assert (let ((.def_746327 (= m_pc (_ bv0 32)))).def_746327))
(assert (let ((.def_107773 (= a20 (_ bv5 32)))).def_107773))
(assert (let ((.def_746880 (= t1_pc (_ bv0 32)))).def_746880))
(assert (let ((.def_746882 (= m_pc (_ bv1 32)))).def_746882))
(assert (let ((.def_746884 (= t1_pc (_ bv1 32)))).def_746884))
(assert (let ((.def_747600 (= E_M (_ bv1 32)))).def_747600))
(assert (let ((.def_747603 (= t1_st (_ bv0 32)))).def_747603))
(assert (let ((.def_746887 (= m_st (_ bv0 32)))).def_746887))
(assert (let ((.def_749909 (= E_M (_ bv0 32)))).def_749909))

