(set-info :source |printed by MathSAT|)
(declare-fun a20 () (_ BitVec 32))
(declare-fun a25 () (_ BitVec 32))
(declare-fun a12 () (_ BitVec 32))
(declare-fun a15 () (_ BitVec 32))
(declare-fun a16 () (_ BitVec 32))
(declare-fun a2 () (_ BitVec 32))
(declare-fun a27 () (_ BitVec 32))
(declare-fun a9 () (_ BitVec 32))
(declare-fun m_pc () (_ BitVec 32))
(declare-fun t1_pc () (_ BitVec 32))
(declare-fun t2_pc () (_ BitVec 32))
(declare-fun t3_pc () (_ BitVec 32))
(declare-fun t4_pc () (_ BitVec 32))
(declare-fun t5_pc () (_ BitVec 32))
(declare-fun t6_pc () (_ BitVec 32))
(declare-fun t7_pc () (_ BitVec 32))
(declare-fun t8_pc () (_ BitVec 32))
(declare-fun t9_pc () (_ BitVec 32))
(declare-fun t10_pc () (_ BitVec 32))
(declare-fun t11_pc () (_ BitVec 32))
(declare-fun t12_pc () (_ BitVec 32))
(declare-fun m_st () (_ BitVec 32))

*:
(assert (let ((.def_107278 (= a20 (_ bv5 32)))).def_107278))

calculate_output8 N29943:
(assert false)
(assert (let ((.def_107278 (= a20 (_ bv5 32)))).def_107278))

main1 N30136:
(assert (let ((.def_107278 (= a20 (_ bv5 32)))).def_107278))
(assert (let ((.def_154675 (= a25 (_ bv1 32)))).def_154675))
(assert (let ((.def_154678 (= a12 (_ bv4 32)))).def_154678))
(assert (let ((.def_154681 (= a15 (_ bv1 32)))).def_154681))
(assert (let ((.def_154684 (= a16 (_ bv1 32)))).def_154684))
(assert (let ((.def_154687 (= a2 (_ bv10 32)))).def_154687))
(assert (let ((.def_154690 (= a27 (_ bv1 32)))).def_154690))
(assert (let ((.def_154693 (= a9 (_ bv18 32)))).def_154693))
(assert (let ((.def_588497 (= a9 (_ bv16 32)))).def_588497))
(assert (let ((.def_588499 (= a9 (_ bv17 32)))).def_588499))
(assert (let ((.def_588501 (= a2 (_ bv9 32)))).def_588501))
(assert (let ((.def_588503 (= a2 (_ bv12 32)))).def_588503))
(assert (let ((.def_588505 (= a12 (_ bv6 32)))).def_588505))
(assert (let ((.def_588507 (= a2 (_ bv11 32)))).def_588507))
(assert (let ((.def_588509 (= a20 (_ bv6 32)))).def_588509))
(assert (let ((.def_588511 (= a20 (_ bv7 32)))).def_588511))
(assert (let ((.def_588513 (= a2 (_ bv13 32)))).def_588513))
(assert (let ((.def_588515 (= a12 (_ bv3 32)))).def_588515))
(assert (let ((.def_588517 (= a12 (_ bv2 32)))).def_588517))
(assert (let ((.def_588519 (= a12 (_ bv5 32)))).def_588519))

error N30154:
(assert false)
(assert (let ((.def_107278 (= a20 (_ bv5 32)))).def_107278))

eval N30882:
(assert (let ((.def_925876 (= m_pc (_ bv0 32)))).def_925876))
(assert (let ((.def_107278 (= a20 (_ bv5 32)))).def_107278))
(assert (let ((.def_938425 (= t1_pc (_ bv0 32)))).def_938425))
(assert (let ((.def_938428 (= t2_pc (_ bv0 32)))).def_938428))
(assert (let ((.def_938431 (= t3_pc (_ bv0 32)))).def_938431))
(assert (let ((.def_938434 (= t4_pc (_ bv0 32)))).def_938434))
(assert (let ((.def_938437 (= t5_pc (_ bv0 32)))).def_938437))
(assert (let ((.def_938440 (= t6_pc (_ bv0 32)))).def_938440))
(assert (let ((.def_938443 (= t7_pc (_ bv0 32)))).def_938443))
(assert (let ((.def_938446 (= t8_pc (_ bv0 32)))).def_938446))
(assert (let ((.def_938449 (= t9_pc (_ bv0 32)))).def_938449))
(assert (let ((.def_938452 (= t10_pc (_ bv0 32)))).def_938452))
(assert (let ((.def_938455 (= t11_pc (_ bv0 32)))).def_938455))
(assert (let ((.def_938458 (= t12_pc (_ bv0 32)))).def_938458))
(assert (let ((.def_938460 (= m_pc (_ bv1 32)))).def_938460))
(assert (let ((.def_938462 (= t1_pc (_ bv1 32)))).def_938462))
(assert (let ((.def_938464 (= t2_pc (_ bv1 32)))).def_938464))
(assert (let ((.def_938466 (= t3_pc (_ bv1 32)))).def_938466))
(assert (let ((.def_938468 (= t4_pc (_ bv1 32)))).def_938468))
(assert (let ((.def_938470 (= t5_pc (_ bv1 32)))).def_938470))
(assert (let ((.def_938472 (= t6_pc (_ bv1 32)))).def_938472))
(assert (let ((.def_938474 (= t7_pc (_ bv1 32)))).def_938474))
(assert (let ((.def_938476 (= t8_pc (_ bv1 32)))).def_938476))
(assert (let ((.def_938478 (= t9_pc (_ bv1 32)))).def_938478))
(assert (let ((.def_938480 (= t10_pc (_ bv1 32)))).def_938480))
(assert (let ((.def_938482 (= t11_pc (_ bv1 32)))).def_938482))
(assert (let ((.def_938484 (= t12_pc (_ bv1 32)))).def_938484))
(assert (let ((.def_938487 (= m_st (_ bv0 32)))).def_938487))

start_simulation N31483:
(assert (let ((.def_925876 (= m_pc (_ bv0 32)))).def_925876))
(assert (let ((.def_107278 (= a20 (_ bv5 32)))).def_107278))
(assert (let ((.def_938425 (= t1_pc (_ bv0 32)))).def_938425))
(assert (let ((.def_938428 (= t2_pc (_ bv0 32)))).def_938428))
(assert (let ((.def_938431 (= t3_pc (_ bv0 32)))).def_938431))
(assert (let ((.def_938434 (= t4_pc (_ bv0 32)))).def_938434))
(assert (let ((.def_938437 (= t5_pc (_ bv0 32)))).def_938437))
(assert (let ((.def_938440 (= t6_pc (_ bv0 32)))).def_938440))
(assert (let ((.def_938443 (= t7_pc (_ bv0 32)))).def_938443))
(assert (let ((.def_938446 (= t8_pc (_ bv0 32)))).def_938446))
(assert (let ((.def_938449 (= t9_pc (_ bv0 32)))).def_938449))
(assert (let ((.def_938452 (= t10_pc (_ bv0 32)))).def_938452))
(assert (let ((.def_938455 (= t11_pc (_ bv0 32)))).def_938455))
(assert (let ((.def_938458 (= t12_pc (_ bv0 32)))).def_938458))
(assert (let ((.def_938460 (= m_pc (_ bv1 32)))).def_938460))
(assert (let ((.def_938462 (= t1_pc (_ bv1 32)))).def_938462))
(assert (let ((.def_938464 (= t2_pc (_ bv1 32)))).def_938464))
(assert (let ((.def_938466 (= t3_pc (_ bv1 32)))).def_938466))
(assert (let ((.def_938468 (= t4_pc (_ bv1 32)))).def_938468))
(assert (let ((.def_938470 (= t5_pc (_ bv1 32)))).def_938470))
(assert (let ((.def_938472 (= t6_pc (_ bv1 32)))).def_938472))
(assert (let ((.def_938474 (= t7_pc (_ bv1 32)))).def_938474))
(assert (let ((.def_938476 (= t8_pc (_ bv1 32)))).def_938476))
(assert (let ((.def_938478 (= t9_pc (_ bv1 32)))).def_938478))
(assert (let ((.def_938480 (= t10_pc (_ bv1 32)))).def_938480))
(assert (let ((.def_938482 (= t11_pc (_ bv1 32)))).def_938482))
(assert (let ((.def_938484 (= t12_pc (_ bv1 32)))).def_938484))

