(set-info :source |printed by MathSAT|)
(declare-fun a20 () (_ BitVec 32))
(declare-fun a25 () (_ BitVec 32))
(declare-fun a12 () (_ BitVec 32))
(declare-fun a15 () (_ BitVec 32))
(declare-fun a16 () (_ BitVec 32))
(declare-fun a2 () (_ BitVec 32))
(declare-fun a27 () (_ BitVec 32))
(declare-fun a9 () (_ BitVec 32))
(declare-fun m_pc () (_ BitVec 32))
(declare-fun t1_pc () (_ BitVec 32))
(declare-fun t2_pc () (_ BitVec 32))
(declare-fun t3_pc () (_ BitVec 32))
(declare-fun m_st () (_ BitVec 32))

*:
(assert (let ((.def_107143 (= a20 (_ bv5 32)))).def_107143))

calculate_output8 N29943:
(assert false)
(assert (let ((.def_107143 (= a20 (_ bv5 32)))).def_107143))

main1 N30136:
(assert (let ((.def_107143 (= a20 (_ bv5 32)))).def_107143))
(assert (let ((.def_154495 (= a25 (_ bv1 32)))).def_154495))
(assert (let ((.def_154498 (= a12 (_ bv4 32)))).def_154498))
(assert (let ((.def_154501 (= a15 (_ bv1 32)))).def_154501))
(assert (let ((.def_154504 (= a16 (_ bv1 32)))).def_154504))
(assert (let ((.def_154507 (= a2 (_ bv10 32)))).def_154507))
(assert (let ((.def_154510 (= a27 (_ bv1 32)))).def_154510))
(assert (let ((.def_154513 (= a9 (_ bv18 32)))).def_154513))
(assert (let ((.def_584154 (= a9 (_ bv17 32)))).def_584154))
(assert (let ((.def_584156 (= a2 (_ bv13 32)))).def_584156))
(assert (let ((.def_584158 (= a2 (_ bv9 32)))).def_584158))
(assert (let ((.def_584160 (= a2 (_ bv12 32)))).def_584160))
(assert (let ((.def_584162 (= a20 (_ bv6 32)))).def_584162))
(assert (let ((.def_584164 (= a20 (_ bv7 32)))).def_584164))
(assert (let ((.def_584166 (= a12 (_ bv3 32)))).def_584166))
(assert (let ((.def_584168 (= a12 (_ bv2 32)))).def_584168))
(assert (let ((.def_584170 (= a12 (_ bv5 32)))).def_584170))
(assert (let ((.def_584172 (= a2 (_ bv11 32)))).def_584172))
(assert (let ((.def_584174 (= a9 (_ bv16 32)))).def_584174))
(assert (let ((.def_584176 (= a12 (_ bv6 32)))).def_584176))

error N30154:
(assert false)
(assert (let ((.def_107143 (= a20 (_ bv5 32)))).def_107143))

eval N30409:
(assert (let ((.def_920787 (= m_pc (_ bv0 32)))).def_920787))
(assert (let ((.def_107143 (= a20 (_ bv5 32)))).def_107143))
(assert (let ((.def_922415 (= t1_pc (_ bv0 32)))).def_922415))
(assert (let ((.def_922418 (= t2_pc (_ bv0 32)))).def_922418))
(assert (let ((.def_922421 (= t3_pc (_ bv0 32)))).def_922421))
(assert (let ((.def_922423 (= m_pc (_ bv1 32)))).def_922423))
(assert (let ((.def_922425 (= t1_pc (_ bv1 32)))).def_922425))
(assert (let ((.def_922427 (= t2_pc (_ bv1 32)))).def_922427))
(assert (let ((.def_922429 (= t3_pc (_ bv1 32)))).def_922429))
(assert (let ((.def_922432 (= m_st (_ bv0 32)))).def_922432))

start_simulation N30641:
(assert (let ((.def_920787 (= m_pc (_ bv0 32)))).def_920787))
(assert (let ((.def_107143 (= a20 (_ bv5 32)))).def_107143))
(assert (let ((.def_922415 (= t1_pc (_ bv0 32)))).def_922415))
(assert (let ((.def_922418 (= t2_pc (_ bv0 32)))).def_922418))
(assert (let ((.def_922421 (= t3_pc (_ bv0 32)))).def_922421))
(assert (let ((.def_922423 (= m_pc (_ bv1 32)))).def_922423))
(assert (let ((.def_922425 (= t1_pc (_ bv1 32)))).def_922425))
(assert (let ((.def_922427 (= t2_pc (_ bv1 32)))).def_922427))
(assert (let ((.def_922429 (= t3_pc (_ bv1 32)))).def_922429))

