(set-info :source |printed by MathSAT|)
(declare-fun c_num_read () (_ BitVec 32))
(declare-fun p_num_write () (_ BitVec 32))
(declare-fun c_last_read () (_ BitVec 32))
(declare-fun p_last_write () (_ BitVec 32))
(declare-fun c_dr_pc () (_ BitVec 32))
(declare-fun c_dr_st () (_ BitVec 32))
(declare-fun m_pc () (_ BitVec 32))
(declare-fun t1_pc () (_ BitVec 32))
(declare-fun t2_pc () (_ BitVec 32))
(declare-fun t3_pc () (_ BitVec 32))
(declare-fun t4_pc () (_ BitVec 32))
(declare-fun t5_pc () (_ BitVec 32))
(declare-fun t6_pc () (_ BitVec 32))
(declare-fun m_st () (_ BitVec 32))

*:
(assert (let ((.def_707 (= c_num_read p_num_write))).def_707))
(assert (let ((.def_716 (= c_last_read p_last_write))).def_716))

error1 N4:
(assert false)
(assert (let ((.def_707 (= c_num_read p_num_write))).def_707))
(assert (let ((.def_716 (= c_last_read p_last_write))).def_716))

eval1 N282:
(assert (let ((.def_867 (= c_dr_pc (_ bv0 32)))).def_867))
(assert (let ((.def_707 (= c_num_read p_num_write))).def_707))
(assert (let ((.def_716 (= c_last_read p_last_write))).def_716))
(assert (let ((.def_1358 (= c_dr_pc (_ bv2 32)))).def_1358))
(assert (let ((.def_1361 (= c_dr_st (_ bv0 32)))).def_1361))

start_simulation1 N338:
(assert (let ((.def_867 (= c_dr_pc (_ bv0 32)))).def_867))
(assert (let ((.def_707 (= c_num_read p_num_write))).def_707))
(assert (let ((.def_716 (= c_last_read p_last_write))).def_716))
(assert (let ((.def_1358 (= c_dr_pc (_ bv2 32)))).def_1358))

error2 N393:
(assert false)
(assert (let ((.def_707 (= c_num_read p_num_write))).def_707))
(assert (let ((.def_716 (= c_last_read p_last_write))).def_716))

eval2 N810:
(assert (let ((.def_4624 (= m_pc (_ bv0 32)))).def_4624))
(assert (let ((.def_707 (= c_num_read p_num_write))).def_707))
(assert (let ((.def_716 (= c_last_read p_last_write))).def_716))
(assert (let ((.def_8764 (= t1_pc (_ bv0 32)))).def_8764))
(assert (let ((.def_8767 (= t2_pc (_ bv0 32)))).def_8767))
(assert (let ((.def_8770 (= t3_pc (_ bv0 32)))).def_8770))
(assert (let ((.def_8773 (= t4_pc (_ bv0 32)))).def_8773))
(assert (let ((.def_8776 (= t5_pc (_ bv0 32)))).def_8776))
(assert (let ((.def_8779 (= t6_pc (_ bv0 32)))).def_8779))
(assert (let ((.def_8781 (= m_pc (_ bv1 32)))).def_8781))
(assert (let ((.def_8783 (= t1_pc (_ bv1 32)))).def_8783))
(assert (let ((.def_8785 (= t2_pc (_ bv1 32)))).def_8785))
(assert (let ((.def_8787 (= t3_pc (_ bv1 32)))).def_8787))
(assert (let ((.def_8789 (= t4_pc (_ bv1 32)))).def_8789))
(assert (let ((.def_8791 (= t5_pc (_ bv1 32)))).def_8791))
(assert (let ((.def_8793 (= t6_pc (_ bv1 32)))).def_8793))
(assert (let ((.def_8796 (= m_st (_ bv0 32)))).def_8796))

start_simulation2 N1165:
(assert (let ((.def_4624 (= m_pc (_ bv0 32)))).def_4624))
(assert (let ((.def_707 (= c_num_read p_num_write))).def_707))
(assert (let ((.def_716 (= c_last_read p_last_write))).def_716))
(assert (let ((.def_8764 (= t1_pc (_ bv0 32)))).def_8764))
(assert (let ((.def_8767 (= t2_pc (_ bv0 32)))).def_8767))
(assert (let ((.def_8770 (= t3_pc (_ bv0 32)))).def_8770))
(assert (let ((.def_8773 (= t4_pc (_ bv0 32)))).def_8773))
(assert (let ((.def_8776 (= t5_pc (_ bv0 32)))).def_8776))
(assert (let ((.def_8779 (= t6_pc (_ bv0 32)))).def_8779))
(assert (let ((.def_8781 (= m_pc (_ bv1 32)))).def_8781))
(assert (let ((.def_8783 (= t1_pc (_ bv1 32)))).def_8783))
(assert (let ((.def_8785 (= t2_pc (_ bv1 32)))).def_8785))
(assert (let ((.def_8787 (= t3_pc (_ bv1 32)))).def_8787))
(assert (let ((.def_8789 (= t4_pc (_ bv1 32)))).def_8789))
(assert (let ((.def_8791 (= t5_pc (_ bv1 32)))).def_8791))
(assert (let ((.def_8793 (= t6_pc (_ bv1 32)))).def_8793))

