(set-info :source |printed by MathSAT|)
(declare-fun |ssl3_connect::blastFlag| () (_ BitVec 32))
(declare-fun |ssl3_connect::s__state| () (_ BitVec 32))
(declare-fun |ssl3_connect::s__s3__tmp__reuse_message| () (_ BitVec 32))

ssl3_connect:
(assert (let ((.def_678 (= |ssl3_connect::blastFlag| (_ bv4 32)))).def_678))

ssl3_connect N117:
(assert (let ((.def_1599 (= |ssl3_connect::s__state| (_ bv12292 32)))).def_1599))
(assert (let ((.def_1601 (= |ssl3_connect::blastFlag| (_ bv0 32)))).def_1601))
(assert (let ((.def_678 (= |ssl3_connect::blastFlag| (_ bv4 32)))).def_678))
(assert (let ((.def_3711 (= |ssl3_connect::blastFlag| (_ bv3 32)))).def_3711))
(assert (let ((.def_3713 (= |ssl3_connect::s__state| (_ bv4368 32)))).def_3713))
(assert (let ((.def_3716 (= |ssl3_connect::s__s3__tmp__reuse_message| (_ bv0 32)))).def_3716))
(assert (let ((.def_3718 (= |ssl3_connect::blastFlag| (_ bv2 32)))).def_3718))
(assert (let ((.def_3720 (= |ssl3_connect::blastFlag| (_ bv1 32)))).def_3720))

ssl3_connect N576:
(assert false)
(assert (let ((.def_678 (= |ssl3_connect::blastFlag| (_ bv4 32)))).def_678))

