(set-info :source |printed by MathSAT|)
(declare-fun c_last_read () (_ BitVec 32))
(declare-fun p_last_write () (_ BitVec 32))
(declare-fun c_num_read () (_ BitVec 32))
(declare-fun p_num_write () (_ BitVec 32))
(declare-fun c_dr_pc () (_ BitVec 32))
(declare-fun q_free () (_ BitVec 32))
(declare-fun q_buf_0 () (_ BitVec 32))
(declare-fun p_dw_pc () (_ BitVec 32))
(declare-fun q_read_ev () (_ BitVec 32))
(declare-fun c_dr_st () (_ BitVec 32))
(declare-fun p_dw_st () (_ BitVec 32))
(declare-fun m_pc () (_ BitVec 32))
(declare-fun t1_pc () (_ BitVec 32))
(declare-fun t2_pc () (_ BitVec 32))
(declare-fun t3_pc () (_ BitVec 32))
(declare-fun t4_pc () (_ BitVec 32))
(declare-fun t5_pc () (_ BitVec 32))
(declare-fun t6_pc () (_ BitVec 32))
(declare-fun t7_pc () (_ BitVec 32))
(declare-fun t8_pc () (_ BitVec 32))
(declare-fun t9_pc () (_ BitVec 32))
(declare-fun t10_pc () (_ BitVec 32))
(declare-fun t11_pc () (_ BitVec 32))
(declare-fun t12_pc () (_ BitVec 32))
(declare-fun m_st () (_ BitVec 32))

*:
(assert (let ((.def_675 (= c_last_read p_last_write))).def_675))
(assert (let ((.def_684 (= c_num_read p_num_write))).def_684))

error1 N4:
(assert false)
(assert (let ((.def_675 (= c_last_read p_last_write))).def_675))
(assert (let ((.def_684 (= c_num_read p_num_write))).def_684))

do_write_p N64:
(assert (let ((.def_1019 (= c_dr_pc (_ bv0 32)))).def_1019))
(assert (let ((.def_675 (= c_last_read p_last_write))).def_675))
(assert (let ((.def_684 (= c_num_read p_num_write))).def_684))
(assert (let ((.def_1122 (= q_free (_ bv1 32)))).def_1122))
(assert false)
(assert (let ((.def_1465 (= p_last_write q_buf_0))).def_1465))
(assert (let ((.def_1125 (= p_dw_pc (_ bv1 32)))).def_1125))
(assert (let ((.def_1654 (bvadd (_ bv1 32) c_num_read)))(let ((.def_1655 (= p_num_write .def_1654))).def_1655)))
(assert (let ((.def_2546 (= q_free (_ bv0 32)))).def_2546))
(assert (let ((.def_1657 (= c_dr_pc (_ bv1 32)))).def_1657))
(assert (let ((.def_5347 (= q_read_ev (_ bv1 32)))).def_5347))

do_read_c N100:
(assert (let ((.def_1125 (= p_dw_pc (_ bv1 32)))).def_1125))
(assert (let ((.def_1122 (= q_free (_ bv1 32)))).def_1122))
(assert (let ((.def_675 (= c_last_read p_last_write))).def_675))
(assert (let ((.def_684 (= c_num_read p_num_write))).def_684))
(assert (let ((.def_1465 (= p_last_write q_buf_0))).def_1465))
(assert (let ((.def_1654 (bvadd (_ bv1 32) c_num_read)))(let ((.def_1655 (= p_num_write .def_1654))).def_1655)))
(assert (let ((.def_1657 (= c_dr_pc (_ bv1 32)))).def_1657))
(assert false)

eval1 N170:
(assert (let ((.def_1019 (= c_dr_pc (_ bv0 32)))).def_1019))
(assert (let ((.def_675 (= c_last_read p_last_write))).def_675))
(assert (let ((.def_684 (= c_num_read p_num_write))).def_684))
(assert (let ((.def_1122 (= q_free (_ bv1 32)))).def_1122))
(assert (let ((.def_1395 (= p_dw_pc (_ bv0 32)))).def_1395))
(assert (let ((.def_1657 (= c_dr_pc (_ bv1 32)))).def_1657))
(assert (let ((.def_3969 (= c_dr_st (_ bv0 32)))).def_3969))
(assert (let ((.def_1125 (= p_dw_pc (_ bv1 32)))).def_1125))
(assert (let ((.def_5347 (= q_read_ev (_ bv1 32)))).def_5347))
(assert (let ((.def_5350 (= p_dw_st (_ bv0 32)))).def_5350))
(assert (let ((.def_1465 (= p_last_write q_buf_0))).def_1465))
(assert (let ((.def_1654 (bvadd (_ bv1 32) c_num_read)))(let ((.def_1655 (= p_num_write .def_1654))).def_1655)))

start_simulation1 N221:
(assert (let ((.def_1019 (= c_dr_pc (_ bv0 32)))).def_1019))
(assert (let ((.def_675 (= c_last_read p_last_write))).def_675))
(assert (let ((.def_684 (= c_num_read p_num_write))).def_684))
(assert (let ((.def_1122 (= q_free (_ bv1 32)))).def_1122))
(assert (let ((.def_1395 (= p_dw_pc (_ bv0 32)))).def_1395))
(assert (let ((.def_5347 (= q_read_ev (_ bv1 32)))).def_5347))

error2 N260:
(assert false)
(assert (let ((.def_675 (= c_last_read p_last_write))).def_675))
(assert (let ((.def_684 (= c_num_read p_num_write))).def_684))

eval2 N1001:
(assert (let ((.def_8396 (= m_pc (_ bv0 32)))).def_8396))
(assert (let ((.def_675 (= c_last_read p_last_write))).def_675))
(assert (let ((.def_684 (= c_num_read p_num_write))).def_684))
(assert (let ((.def_20987 (= t1_pc (_ bv0 32)))).def_20987))
(assert (let ((.def_20990 (= t2_pc (_ bv0 32)))).def_20990))
(assert (let ((.def_20993 (= t3_pc (_ bv0 32)))).def_20993))
(assert (let ((.def_20996 (= t4_pc (_ bv0 32)))).def_20996))
(assert (let ((.def_20999 (= t5_pc (_ bv0 32)))).def_20999))
(assert (let ((.def_21002 (= t6_pc (_ bv0 32)))).def_21002))
(assert (let ((.def_21005 (= t7_pc (_ bv0 32)))).def_21005))
(assert (let ((.def_21008 (= t8_pc (_ bv0 32)))).def_21008))
(assert (let ((.def_21011 (= t9_pc (_ bv0 32)))).def_21011))
(assert (let ((.def_21014 (= t10_pc (_ bv0 32)))).def_21014))
(assert (let ((.def_21017 (= t11_pc (_ bv0 32)))).def_21017))
(assert (let ((.def_21020 (= t12_pc (_ bv0 32)))).def_21020))
(assert (let ((.def_21022 (= m_pc (_ bv1 32)))).def_21022))
(assert (let ((.def_21024 (= t1_pc (_ bv1 32)))).def_21024))
(assert (let ((.def_21026 (= t2_pc (_ bv1 32)))).def_21026))
(assert (let ((.def_21028 (= t3_pc (_ bv1 32)))).def_21028))
(assert (let ((.def_21030 (= t4_pc (_ bv1 32)))).def_21030))
(assert (let ((.def_21032 (= t5_pc (_ bv1 32)))).def_21032))
(assert (let ((.def_21034 (= t6_pc (_ bv1 32)))).def_21034))
(assert (let ((.def_21036 (= t7_pc (_ bv1 32)))).def_21036))
(assert (let ((.def_21038 (= t8_pc (_ bv1 32)))).def_21038))
(assert (let ((.def_21040 (= t9_pc (_ bv1 32)))).def_21040))
(assert (let ((.def_21042 (= t10_pc (_ bv1 32)))).def_21042))
(assert (let ((.def_21044 (= t11_pc (_ bv1 32)))).def_21044))
(assert (let ((.def_21046 (= t12_pc (_ bv1 32)))).def_21046))
(assert (let ((.def_21049 (= m_st (_ bv0 32)))).def_21049))

start_simulation2 N1602:
(assert (let ((.def_8396 (= m_pc (_ bv0 32)))).def_8396))
(assert (let ((.def_675 (= c_last_read p_last_write))).def_675))
(assert (let ((.def_684 (= c_num_read p_num_write))).def_684))
(assert (let ((.def_20987 (= t1_pc (_ bv0 32)))).def_20987))
(assert (let ((.def_20990 (= t2_pc (_ bv0 32)))).def_20990))
(assert (let ((.def_20993 (= t3_pc (_ bv0 32)))).def_20993))
(assert (let ((.def_20996 (= t4_pc (_ bv0 32)))).def_20996))
(assert (let ((.def_20999 (= t5_pc (_ bv0 32)))).def_20999))
(assert (let ((.def_21002 (= t6_pc (_ bv0 32)))).def_21002))
(assert (let ((.def_21005 (= t7_pc (_ bv0 32)))).def_21005))
(assert (let ((.def_21008 (= t8_pc (_ bv0 32)))).def_21008))
(assert (let ((.def_21011 (= t9_pc (_ bv0 32)))).def_21011))
(assert (let ((.def_21014 (= t10_pc (_ bv0 32)))).def_21014))
(assert (let ((.def_21017 (= t11_pc (_ bv0 32)))).def_21017))
(assert (let ((.def_21020 (= t12_pc (_ bv0 32)))).def_21020))
(assert (let ((.def_21022 (= m_pc (_ bv1 32)))).def_21022))
(assert (let ((.def_21024 (= t1_pc (_ bv1 32)))).def_21024))
(assert (let ((.def_21026 (= t2_pc (_ bv1 32)))).def_21026))
(assert (let ((.def_21028 (= t3_pc (_ bv1 32)))).def_21028))
(assert (let ((.def_21030 (= t4_pc (_ bv1 32)))).def_21030))
(assert (let ((.def_21032 (= t5_pc (_ bv1 32)))).def_21032))
(assert (let ((.def_21034 (= t6_pc (_ bv1 32)))).def_21034))
(assert (let ((.def_21036 (= t7_pc (_ bv1 32)))).def_21036))
(assert (let ((.def_21038 (= t8_pc (_ bv1 32)))).def_21038))
(assert (let ((.def_21040 (= t9_pc (_ bv1 32)))).def_21040))
(assert (let ((.def_21042 (= t10_pc (_ bv1 32)))).def_21042))
(assert (let ((.def_21044 (= t11_pc (_ bv1 32)))).def_21044))
(assert (let ((.def_21046 (= t12_pc (_ bv1 32)))).def_21046))

