(set-info :source |printed by MathSAT|)
(declare-fun a20 () (_ BitVec 32))
(declare-fun a25 () (_ BitVec 32))
(declare-fun a12 () (_ BitVec 32))
(declare-fun a15 () (_ BitVec 32))
(declare-fun a16 () (_ BitVec 32))
(declare-fun a2 () (_ BitVec 32))
(declare-fun a27 () (_ BitVec 32))
(declare-fun a9 () (_ BitVec 32))
(declare-fun m_pc () (_ BitVec 32))
(declare-fun t1_pc () (_ BitVec 32))
(declare-fun t2_pc () (_ BitVec 32))
(declare-fun t3_pc () (_ BitVec 32))
(declare-fun t4_pc () (_ BitVec 32))
(declare-fun t5_pc () (_ BitVec 32))
(declare-fun t6_pc () (_ BitVec 32))
(declare-fun m_st () (_ BitVec 32))

*:
(assert (let ((.def_107848 (= a20 (_ bv5 32)))).def_107848))

calculate_output8 N30108:
(assert false)
(assert (let ((.def_107848 (= a20 (_ bv5 32)))).def_107848))

main1 N30136:
(assert (let ((.def_107848 (= a20 (_ bv5 32)))).def_107848))
(assert (let ((.def_155566 (= a25 (_ bv1 32)))).def_155566))
(assert (let ((.def_155569 (= a12 (_ bv4 32)))).def_155569))
(assert (let ((.def_155572 (= a15 (_ bv1 32)))).def_155572))
(assert (let ((.def_155575 (= a16 (_ bv1 32)))).def_155575))
(assert (let ((.def_155578 (= a2 (_ bv10 32)))).def_155578))
(assert (let ((.def_155581 (= a27 (_ bv1 32)))).def_155581))
(assert (let ((.def_155584 (= a9 (_ bv18 32)))).def_155584))
(assert (let ((.def_321756 (= a12 (_ bv5 32)))).def_321756))
(assert (let ((.def_321758 (= a2 (_ bv13 32)))).def_321758))
(assert (let ((.def_321760 (= a12 (_ bv2 32)))).def_321760))
(assert (let ((.def_321762 (= a2 (_ bv12 32)))).def_321762))
(assert (let ((.def_321764 (= a12 (_ bv3 32)))).def_321764))
(assert (let ((.def_321766 (= a9 (_ bv16 32)))).def_321766))
(assert (let ((.def_321768 (= a20 (_ bv7 32)))).def_321768))
(assert (let ((.def_321770 (= a2 (_ bv9 32)))).def_321770))
(assert (let ((.def_321772 (= a9 (_ bv17 32)))).def_321772))

error N30154:
(assert false)
(assert (let ((.def_107848 (= a20 (_ bv5 32)))).def_107848))

eval N30571:
(assert (let ((.def_747046 (= m_pc (_ bv0 32)))).def_747046))
(assert (let ((.def_107848 (= a20 (_ bv5 32)))).def_107848))
(assert (let ((.def_751185 (= t1_pc (_ bv0 32)))).def_751185))
(assert (let ((.def_751188 (= t2_pc (_ bv0 32)))).def_751188))
(assert (let ((.def_751191 (= t3_pc (_ bv0 32)))).def_751191))
(assert (let ((.def_751194 (= t4_pc (_ bv0 32)))).def_751194))
(assert (let ((.def_751197 (= t5_pc (_ bv0 32)))).def_751197))
(assert (let ((.def_751200 (= t6_pc (_ bv0 32)))).def_751200))
(assert (let ((.def_751202 (= m_pc (_ bv1 32)))).def_751202))
(assert (let ((.def_751204 (= t1_pc (_ bv1 32)))).def_751204))
(assert (let ((.def_751206 (= t2_pc (_ bv1 32)))).def_751206))
(assert (let ((.def_751208 (= t3_pc (_ bv1 32)))).def_751208))
(assert (let ((.def_751210 (= t4_pc (_ bv1 32)))).def_751210))
(assert (let ((.def_751212 (= t5_pc (_ bv1 32)))).def_751212))
(assert (let ((.def_751214 (= t6_pc (_ bv1 32)))).def_751214))
(assert (let ((.def_751217 (= m_st (_ bv0 32)))).def_751217))

start_simulation N30926:
(assert (let ((.def_747046 (= m_pc (_ bv0 32)))).def_747046))
(assert (let ((.def_107848 (= a20 (_ bv5 32)))).def_107848))
(assert (let ((.def_751185 (= t1_pc (_ bv0 32)))).def_751185))
(assert (let ((.def_751188 (= t2_pc (_ bv0 32)))).def_751188))
(assert (let ((.def_751191 (= t3_pc (_ bv0 32)))).def_751191))
(assert (let ((.def_751194 (= t4_pc (_ bv0 32)))).def_751194))
(assert (let ((.def_751197 (= t5_pc (_ bv0 32)))).def_751197))
(assert (let ((.def_751200 (= t6_pc (_ bv0 32)))).def_751200))
(assert (let ((.def_751202 (= m_pc (_ bv1 32)))).def_751202))
(assert (let ((.def_751204 (= t1_pc (_ bv1 32)))).def_751204))
(assert (let ((.def_751206 (= t2_pc (_ bv1 32)))).def_751206))
(assert (let ((.def_751208 (= t3_pc (_ bv1 32)))).def_751208))
(assert (let ((.def_751210 (= t4_pc (_ bv1 32)))).def_751210))
(assert (let ((.def_751212 (= t5_pc (_ bv1 32)))).def_751212))
(assert (let ((.def_751214 (= t6_pc (_ bv1 32)))).def_751214))

