(set-info :source |printed by MathSAT|)
(declare-fun a20 () (_ BitVec 32))
(declare-fun a25 () (_ BitVec 32))
(declare-fun a12 () (_ BitVec 32))
(declare-fun a15 () (_ BitVec 32))
(declare-fun a16 () (_ BitVec 32))
(declare-fun a2 () (_ BitVec 32))
(declare-fun a27 () (_ BitVec 32))
(declare-fun a9 () (_ BitVec 32))

*:
(assert (let ((.def_105617 (= a20 (_ bv5 32)))).def_105617))

calculate_output8 N29569:
(assert false)
(assert (let ((.def_105617 (= a20 (_ bv5 32)))).def_105617))

main1 N30136:
(assert (let ((.def_105617 (= a20 (_ bv5 32)))).def_105617))
(assert (let ((.def_152194 (= a25 (_ bv1 32)))).def_152194))
(assert (let ((.def_152197 (= a12 (_ bv4 32)))).def_152197))
(assert (let ((.def_152200 (= a15 (_ bv1 32)))).def_152200))
(assert (let ((.def_152203 (= a16 (_ bv1 32)))).def_152203))
(assert (let ((.def_152206 (= a2 (_ bv10 32)))).def_152206))
(assert (let ((.def_152209 (= a27 (_ bv1 32)))).def_152209))
(assert (let ((.def_152212 (= a9 (_ bv18 32)))).def_152212))
(assert (let ((.def_317268 (= a20 (_ bv6 32)))).def_317268))
(assert (let ((.def_317270 (= a2 (_ bv13 32)))).def_317270))
(assert (let ((.def_317272 (= a12 (_ bv3 32)))).def_317272))
(assert (let ((.def_317274 (= a12 (_ bv2 32)))).def_317274))
(assert (let ((.def_317276 (= a9 (_ bv16 32)))).def_317276))
(assert (let ((.def_317278 (= a9 (_ bv17 32)))).def_317278))
(assert (let ((.def_1041658 (= a20 (_ bv7 32)))).def_1041658))
(assert (let ((.def_1041660 (= a12 (_ bv6 32)))).def_1041660))
(assert (let ((.def_1041662 (= a2 (_ bv11 32)))).def_1041662))
(assert (let ((.def_1041664 (= a2 (_ bv9 32)))).def_1041664))
(assert (let ((.def_1041666 (= a12 (_ bv5 32)))).def_1041666))
(assert (let ((.def_1041668 (= a2 (_ bv12 32)))).def_1041668))

