(set-info :source |printed by MathSAT|)
(declare-fun |ssl3_connect::blastFlag| () (_ BitVec 32))
(declare-fun |ssl3_connect::s__state| () (_ BitVec 32))
(declare-fun |ssl3_connect::s__s3__tmp__reuse_message| () (_ BitVec 32))
(declare-fun |ssl3_connect::s__hit| () (_ BitVec 32))
(declare-fun |ssl3_connect::s__s3__tmp__next_state___0| () (_ BitVec 32))
(declare-fun |ssl3_accept::blastFlag| () (_ BitVec 32))
(declare-fun |ssl3_accept::s__state| () (_ BitVec 32))
(declare-fun |ssl3_accept::s__hit| () (_ BitVec 32))
(declare-fun |ssl3_accept::s__s3__tmp__reuse_message| () (_ BitVec 32))
(declare-fun |ssl3_accept::s__s3__tmp__next_state___0| () (_ BitVec 32))
(declare-fun |ssl3_accept::s__init_buf___0| () (_ BitVec 32))
(declare-fun |ssl3_accept::s__verify_mode| () (_ BitVec 32))
(declare-fun |ssl3_accept::skip| () (_ BitVec 32))
(declare-fun |ssl3_accept::s__session__peer| () (_ BitVec 32))
(declare-fun |ssl3_accept::s__s3__tmp__new_cipher__algorithms| () (_ BitVec 32))
(declare-fun |ssl3_accept::cb| () (_ BitVec 32))

ssl3_connect:
(assert (let ((.def_678 (= |ssl3_connect::blastFlag| (_ bv5 32)))).def_678))

ssl3_connect N117:
(assert (let ((.def_1602 (= |ssl3_connect::s__state| (_ bv12292 32)))).def_1602))
(assert (let ((.def_1604 (= |ssl3_connect::blastFlag| (_ bv0 32)))).def_1604))
(assert (let ((.def_678 (= |ssl3_connect::blastFlag| (_ bv5 32)))).def_678))
(assert (let ((.def_3753 (= |ssl3_connect::s__s3__tmp__reuse_message| (_ bv0 32)))).def_3753))
(assert (let ((.def_3755 (= |ssl3_connect::s__state| (_ bv4368 32)))).def_3755))
(assert (let ((.def_3757 (= |ssl3_connect::blastFlag| (_ bv2 32)))).def_3757))
(assert (let ((.def_3759 (= |ssl3_connect::blastFlag| (_ bv3 32)))).def_3759))
(assert (let ((.def_3761 (= |ssl3_connect::blastFlag| (_ bv4 32)))).def_3761))
(assert (let ((.def_3763 (= |ssl3_connect::blastFlag| (_ bv1 32)))).def_3763))
(assert (let ((.def_3766 (= |ssl3_connect::s__hit| (_ bv0 32)))).def_3766))
(assert (let ((.def_3768 (= |ssl3_connect::s__state| (_ bv4433 32)))).def_3768))
(assert (let ((.def_3770 (= |ssl3_connect::s__state| (_ bv4432 32)))).def_3770))
(assert (let ((.def_9677 (= |ssl3_connect::s__state| (_ bv4099 32)))).def_9677))
(assert (let ((.def_9679 (= |ssl3_connect::s__state| (_ bv20480 32)))).def_9679))
(assert (let ((.def_9681 (= |ssl3_connect::s__state| (_ bv4096 32)))).def_9681))
(assert (let ((.def_9683 (= |ssl3_connect::s__state| (_ bv16384 32)))).def_9683))
(assert (let ((.def_9685 (= |ssl3_connect::s__state| (_ bv4369 32)))).def_9685))
(assert (let ((.def_9687 (= |ssl3_connect::s__state| (_ bv4384 32)))).def_9687))
(assert (let ((.def_15532 (= |ssl3_connect::s__s3__tmp__next_state___0| (_ bv12292 32)))).def_15532))
(assert (let ((.def_15534 (= |ssl3_connect::s__s3__tmp__next_state___0| (_ bv4099 32)))).def_15534))
(assert (let ((.def_15536 (= |ssl3_connect::s__s3__tmp__next_state___0| (_ bv20480 32)))).def_15536))
(assert (let ((.def_15538 (= |ssl3_connect::s__s3__tmp__next_state___0| (_ bv4096 32)))).def_15538))
(assert (let ((.def_15540 (= |ssl3_connect::s__state| |ssl3_connect::s__s3__tmp__next_state___0|))).def_15540))
(assert (let ((.def_15542 (= |ssl3_connect::s__state| (_ bv4352 32)))).def_15542))
(assert (let ((.def_15544 (= |ssl3_connect::s__s3__tmp__next_state___0| (_ bv3 32)))).def_15544))
(assert (let ((.def_15546 (= |ssl3_connect::s__s3__tmp__next_state___0| (_ bv16384 32)))).def_15546))
(assert (let ((.def_15548 (= |ssl3_connect::s__s3__tmp__next_state___0| (_ bv4369 32)))).def_15548))
(assert (let ((.def_15550 (= |ssl3_connect::s__s3__tmp__next_state___0| (_ bv4368 32)))).def_15550))
(assert (let ((.def_15552 (= |ssl3_connect::s__state| (_ bv4400 32)))).def_15552))
(assert (let ((.def_15554 (= |ssl3_connect::s__s3__tmp__next_state___0| (_ bv4384 32)))).def_15554))
(assert (let ((.def_15556 (= |ssl3_connect::s__s3__tmp__next_state___0| (_ bv4385 32)))).def_15556))
(assert (let ((.def_15558 (= |ssl3_connect::s__s3__tmp__next_state___0| (_ bv4400 32)))).def_15558))
(assert (let ((.def_15560 (= |ssl3_connect::s__state| (_ bv4528 32)))).def_15560))
(assert (let ((.def_15562 (= |ssl3_connect::s__state| (_ bv4561 32)))).def_15562))
(assert (let ((.def_15564 (= |ssl3_connect::s__state| (_ bv4560 32)))).def_15564))
(assert (let ((.def_15566 (= |ssl3_connect::s__state| (_ bv4416 32)))).def_15566))
(assert (let ((.def_15568 (= |ssl3_connect::s__state| (_ bv4448 32)))).def_15568))
(assert (let ((.def_15570 (= |ssl3_connect::s__state| (_ bv4464 32)))).def_15570))
(assert (let ((.def_15572 (= |ssl3_connect::s__state| (_ bv4480 32)))).def_15572))
(assert (let ((.def_15574 (= |ssl3_connect::s__state| (_ bv4496 32)))).def_15574))
(assert (let ((.def_15576 (= |ssl3_connect::s__state| (_ bv4512 32)))).def_15576))
(assert (let ((.def_15578 (= |ssl3_connect::s__s3__tmp__next_state___0| (_ bv4401 32)))).def_15578))
(assert (let ((.def_15580 (= |ssl3_connect::s__state| (_ bv4385 32)))).def_15580))
(assert (let ((.def_15582 (= |ssl3_connect::s__state| (_ bv4401 32)))).def_15582))
(assert (let ((.def_15584 (= |ssl3_connect::s__state| (_ bv4417 32)))).def_15584))
(assert (let ((.def_15586 (= |ssl3_connect::s__state| (_ bv4529 32)))).def_15586))
(assert (let ((.def_15588 (= |ssl3_connect::s__s3__tmp__next_state___0| (_ bv4417 32)))).def_15588))
(assert (let ((.def_15590 (= |ssl3_connect::s__s3__tmp__next_state___0| (_ bv4416 32)))).def_15590))
(assert (let ((.def_15592 (= |ssl3_connect::s__state| (_ bv4497 32)))).def_15592))
(assert (let ((.def_15594 (= |ssl3_connect::s__state| (_ bv4481 32)))).def_15594))
(assert (let ((.def_15596 (= |ssl3_connect::s__state| (_ bv4467 32)))).def_15596))
(assert (let ((.def_15598 (= |ssl3_connect::s__state| (_ bv4466 32)))).def_15598))
(assert (let ((.def_15600 (= |ssl3_connect::s__state| (_ bv4465 32)))).def_15600))
(assert (let ((.def_15602 (= |ssl3_connect::s__state| (_ bv4449 32)))).def_15602))
(assert (let ((.def_15604 (= |ssl3_connect::s__s3__tmp__next_state___0| (_ bv4433 32)))).def_15604))
(assert (let ((.def_15606 (= |ssl3_connect::s__s3__tmp__next_state___0| (_ bv4432 32)))).def_15606))

ssl3_connect N576:
(assert false)
(assert (let ((.def_678 (= |ssl3_connect::blastFlag| (_ bv5 32)))).def_678))

ssl3_accept N699:
(assert (let ((.def_27648 (= |ssl3_accept::blastFlag| (_ bv4 32)))).def_27648))
(assert (let ((.def_28796 (= |ssl3_accept::s__state| (_ bv8464 32)))).def_28796))
(assert (let ((.def_28798 (= |ssl3_accept::blastFlag| (_ bv0 32)))).def_28798))
(assert (let ((.def_30174 (= |ssl3_accept::s__state| (_ bv8481 32)))).def_30174))
(assert (let ((.def_30176 (= |ssl3_accept::s__state| (_ bv8480 32)))).def_30176))
(assert (let ((.def_30178 (= |ssl3_accept::s__state| (_ bv12292 32)))).def_30178))
(assert (let ((.def_30180 (= |ssl3_accept::s__state| (_ bv16384 32)))).def_30180))
(assert (let ((.def_30182 (= |ssl3_accept::s__state| (_ bv8192 32)))).def_30182))
(assert (let ((.def_30184 (= |ssl3_accept::s__state| (_ bv24576 32)))).def_30184))
(assert (let ((.def_30186 (= |ssl3_accept::s__state| (_ bv8195 32)))).def_30186))
(assert (let ((.def_30188 (= |ssl3_accept::s__state| (_ bv8482 32)))).def_30188))
(assert (let ((.def_30190 (= |ssl3_accept::blastFlag| (_ bv1 32)))).def_30190))
(assert (let ((.def_32136 (= |ssl3_accept::blastFlag| (_ bv3 32)))).def_32136))
(assert (let ((.def_32138 (= |ssl3_accept::blastFlag| (_ bv2 32)))).def_32138))
(assert (let ((.def_32140 (= |ssl3_accept::s__state| (_ bv8496 32)))).def_32140))
(assert (let ((.def_34445 (= |ssl3_accept::s__state| (_ bv8465 32)))).def_34445))
(assert (let ((.def_34447 (= |ssl3_accept::s__state| (_ bv8466 32)))).def_34447))
(assert (let ((.def_34450 (= |ssl3_accept::s__hit| (_ bv0 32)))).def_34450))
(assert (let ((.def_34452 (= |ssl3_accept::s__state| (_ bv8512 32)))).def_34452))
(assert (let ((.def_34454 (= |ssl3_accept::s__state| (_ bv8497 32)))).def_34454))
(assert (let ((.def_34456 (= |ssl3_accept::s__state| (_ bv8641 32)))).def_34456))
(assert (let ((.def_34458 (= |ssl3_accept::s__state| (_ bv8448 32)))).def_34458))
(assert (let ((.def_34460 (= |ssl3_accept::s__state| (_ bv8640 32)))).def_34460))
(assert (let ((.def_37585 (= |ssl3_accept::s__s3__tmp__reuse_message| (_ bv0 32)))).def_37585))
(assert (let ((.def_37587 (= |ssl3_accept::s__state| (_ bv8528 32)))).def_37587))
(assert (let ((.def_37589 (= |ssl3_accept::s__state| (_ bv8544 32)))).def_37589))
(assert (let ((.def_37591 (= |ssl3_accept::s__state| (_ bv8560 32)))).def_37591))
(assert (let ((.def_37593 (= |ssl3_accept::s__state| (_ bv8608 32)))).def_37593))
(assert (let ((.def_37595 (= |ssl3_accept::s__state| (_ bv8609 32)))).def_37595))
(assert (let ((.def_37598 (= |ssl3_accept::s__s3__tmp__next_state___0| (_ bv8482 32)))).def_37598))
(assert (let ((.def_37600 (= |ssl3_accept::s__state| (_ bv8657 32)))).def_37600))
(assert (let ((.def_37602 (= |ssl3_accept::s__state| (_ bv8656 32)))).def_37602))
(assert (let ((.def_37604 (= |ssl3_accept::s__state| (_ bv8592 32)))).def_37604))
(assert (let ((.def_37606 (= |ssl3_accept::s__state| |ssl3_accept::s__s3__tmp__next_state___0|))).def_37606))
(assert (let ((.def_37608 (= |ssl3_accept::s__s3__tmp__next_state___0| (_ bv8576 32)))).def_37608))
(assert (let ((.def_37610 (= |ssl3_accept::s__s3__tmp__next_state___0| (_ bv8640 32)))).def_37610))
(assert (let ((.def_37612 (= |ssl3_accept::s__state| (_ bv8576 32)))).def_37612))
(assert (let ((.def_41478 (= |ssl3_accept::s__state| (_ bv8672 32)))).def_41478))
(assert (let ((.def_41480 (= |ssl3_accept::s__state| (_ bv8593 32)))).def_41480))
(assert (let ((.def_41482 (= |ssl3_accept::s__state| (_ bv8577 32)))).def_41482))
(assert (let ((.def_41484 (= |ssl3_accept::s__state| (_ bv8561 32)))).def_41484))
(assert (let ((.def_41486 (= |ssl3_accept::s__state| (_ bv8545 32)))).def_41486))
(assert (let ((.def_41488 (= |ssl3_accept::s__state| (_ bv8529 32)))).def_41488))
(assert (let ((.def_41490 (= |ssl3_accept::s__state| (_ bv8513 32)))).def_41490))
(assert (let ((.def_41492 (= |ssl3_accept::s__s3__tmp__next_state___0| (_ bv8448 32)))).def_41492))
(assert (let ((.def_41494 (= |ssl3_accept::s__state| (_ bv8673 32)))).def_41494))
(assert (let ((.def_78981 (= |ssl3_accept::s__init_buf___0| (_ bv0 32)))).def_78981))
(assert (let ((.def_78984 (= |ssl3_accept::s__verify_mode| (_ bv4294967295 32)))).def_78984))
(assert (let ((.def_78987 (= |ssl3_accept::skip| (_ bv1 32)))).def_78987))
(assert (let ((.def_78989 (= |ssl3_accept::s__verify_mode| (_ bv4294967294 32)))).def_78989))
(assert (let ((.def_78992 (= |ssl3_accept::s__session__peer| (_ bv0 32)))).def_78992))
(assert (let ((.def_78994 (= |ssl3_accept::s__verify_mode| (_ bv4294967292 32)))).def_78994))
(assert (let ((.def_78996 (= |ssl3_accept::s__s3__tmp__next_state___0| (_ bv8593 32)))).def_78996))
(assert (let ((.def_78998 (= |ssl3_accept::s__s3__tmp__next_state___0| (_ bv8592 32)))).def_78998))
(assert (let ((.def_79000 (= |ssl3_accept::s__s3__tmp__next_state___0| (_ bv8577 32)))).def_79000))
(assert (let ((.def_79002 (= |ssl3_accept::s__s3__tmp__next_state___0| (_ bv8545 32)))).def_79002))
(assert (let ((.def_79004 (= |ssl3_accept::s__s3__tmp__next_state___0| (_ bv8544 32)))).def_79004))
(assert (let ((.def_79006 (= |ssl3_accept::s__s3__tmp__next_state___0| (_ bv8529 32)))).def_79006))
(assert (let ((.def_79008 (= |ssl3_accept::s__s3__tmp__next_state___0| (_ bv8528 32)))).def_79008))
(assert (let ((.def_79010 (= |ssl3_accept::s__s3__tmp__next_state___0| (_ bv8497 32)))).def_79010))
(assert (let ((.def_79012 (= |ssl3_accept::s__s3__tmp__next_state___0| (_ bv8496 32)))).def_79012))
(assert (let ((.def_79014 (= |ssl3_accept::s__s3__tmp__next_state___0| (_ bv8609 32)))).def_79014))
(assert (let ((.def_79016 (= |ssl3_accept::s__s3__tmp__next_state___0| (_ bv8608 32)))).def_79016))
(assert (let ((.def_79018 (= |ssl3_accept::s__s3__tmp__next_state___0| (_ bv8512 32)))).def_79018))
(assert (let ((.def_79020 (= |ssl3_accept::s__s3__tmp__next_state___0| (_ bv8195 32)))).def_79020))
(assert (let ((.def_79022 (= |ssl3_accept::s__s3__tmp__next_state___0| (_ bv24576 32)))).def_79022))
(assert (let ((.def_79024 (= |ssl3_accept::s__s3__tmp__next_state___0| (_ bv8192 32)))).def_79024))
(assert (let ((.def_79026 (= |ssl3_accept::s__s3__tmp__next_state___0| (_ bv16384 32)))).def_79026))
(assert (let ((.def_79028 (= |ssl3_accept::s__s3__tmp__next_state___0| (_ bv12292 32)))).def_79028))
(assert (let ((.def_79030 (= |ssl3_accept::s__s3__tmp__next_state___0| (_ bv8561 32)))).def_79030))
(assert (let ((.def_79032 (= |ssl3_accept::s__s3__tmp__next_state___0| (_ bv8560 32)))).def_79032))
(assert (let ((.def_79035 (= |ssl3_accept::s__s3__tmp__new_cipher__algorithms| (_ bv4294967040 32)))).def_79035))
(assert (let ((.def_79037 (= |ssl3_accept::s__s3__tmp__next_state___0| (_ bv8513 32)))).def_79037))
(assert (let ((.def_79039 (= |ssl3_accept::s__s3__tmp__next_state___0| (_ bv3 32)))).def_79039))
(assert (let ((.def_79041 (= |ssl3_accept::s__s3__tmp__next_state___0| (_ bv8480 32)))).def_79041))
(assert (let ((.def_79043 (= |ssl3_accept::s__s3__tmp__next_state___0| (_ bv8481 32)))).def_79043))
(assert (let ((.def_79045 (= |ssl3_accept::s__s3__tmp__next_state___0| (_ bv8464 32)))).def_79045))
(assert (let ((.def_79047 (= |ssl3_accept::s__s3__tmp__next_state___0| (_ bv8465 32)))).def_79047))
(assert (let ((.def_79049 (= |ssl3_accept::s__s3__tmp__next_state___0| (_ bv8466 32)))).def_79049))
(assert (let ((.def_79051 (= |ssl3_accept::s__s3__tmp__next_state___0| (_ bv8657 32)))).def_79051))
(assert (let ((.def_79053 (= |ssl3_accept::s__s3__tmp__next_state___0| (_ bv8656 32)))).def_79053))
(assert (let ((.def_79056 (= |ssl3_accept::cb| (_ bv0 32)))).def_79056))

ssl3_accept N1219:
(assert false)

