(set-info :source |printed by MathSAT|)
(declare-fun |ssl3_connect::blastFlag| () (_ BitVec 32))
(declare-fun |ssl3_connect::s__state| () (_ BitVec 32))
(declare-fun |ssl3_connect::cb| () (_ BitVec 32))
(declare-fun |ssl3_connect::skip| () (_ BitVec 32))
(declare-fun |ssl3_connect::s__s3__tmp__reuse_message| () (_ BitVec 32))
(declare-fun |ssl3_connect::s__s3__tmp__next_state___0| () (_ BitVec 32))
(declare-fun |ssl3_connect::s__hit| () (_ BitVec 32))
(declare-fun |ssl3_connect::s__s3__tmp__cert_req| () (_ BitVec 32))
(declare-fun |ssl3_accept::blastFlag| () (_ BitVec 32))
(declare-fun |ssl3_accept::s__state| () (_ BitVec 32))
(declare-fun |ssl3_accept::s__hit| () (_ BitVec 32))
(declare-fun |ssl3_accept::s__s3__tmp__next_state___0| () (_ BitVec 32))
(declare-fun |ssl3_accept::skip| () (_ BitVec 32))
(declare-fun |ssl3_accept::s__s3__tmp__reuse_message| () (_ BitVec 32))
(declare-fun |ssl3_accept::s__verify_mode| () (_ BitVec 32))
(declare-fun |ssl3_accept::s__s3__tmp__new_cipher__algorithms| () (_ BitVec 32))
(declare-fun |ssl3_accept::s__session__peer| () (_ BitVec 32))

ssl3_connect:
(assert (let ((.def_698 (= |ssl3_connect::blastFlag| (_ bv5 32)))).def_698))

ssl3_connect N116:
(assert (let ((.def_1604 (= |ssl3_connect::s__state| (_ bv12292 32)))).def_1604))
(assert (let ((.def_1606 (= |ssl3_connect::blastFlag| (_ bv0 32)))).def_1606))
(assert (let ((.def_698 (= |ssl3_connect::blastFlag| (_ bv5 32)))).def_698))
(assert (let ((.def_3713 (= |ssl3_connect::cb| (_ bv0 32)))).def_3713))
(assert (let ((.def_3715 (= |ssl3_connect::blastFlag| (_ bv4 32)))).def_3715))
(assert (let ((.def_3717 (= |ssl3_connect::s__state| (_ bv4384 32)))).def_3717))
(assert (let ((.def_3719 (= |ssl3_connect::blastFlag| (_ bv1 32)))).def_3719))
(assert (let ((.def_3721 (= |ssl3_connect::blastFlag| (_ bv3 32)))).def_3721))
(assert (let ((.def_3723 (= |ssl3_connect::blastFlag| (_ bv2 32)))).def_3723))
(assert (let ((.def_3725 (= |ssl3_connect::s__state| (_ bv4416 32)))).def_3725))
(assert (let ((.def_3727 (= |ssl3_connect::s__state| (_ bv4400 32)))).def_3727))
(assert (let ((.def_3729 (= |ssl3_connect::s__state| (_ bv4432 32)))).def_3729))
(assert (let ((.def_9071 (= |ssl3_connect::s__state| (_ bv4368 32)))).def_9071))
(assert (let ((.def_9074 (= |ssl3_connect::skip| (_ bv0 32)))).def_9074))
(assert (let ((.def_9076 (= |ssl3_connect::s__state| (_ bv4099 32)))).def_9076))
(assert (let ((.def_9078 (= |ssl3_connect::s__state| (_ bv20480 32)))).def_9078))
(assert (let ((.def_9080 (= |ssl3_connect::s__state| (_ bv4096 32)))).def_9080))
(assert (let ((.def_9082 (= |ssl3_connect::s__state| (_ bv16384 32)))).def_9082))
(assert (let ((.def_9085 (= |ssl3_connect::s__s3__tmp__reuse_message| (_ bv0 32)))).def_9085))
(assert (let ((.def_9087 (= |ssl3_connect::s__state| (_ bv4369 32)))).def_9087))
(assert (let ((.def_9090 (= |ssl3_connect::s__state| |ssl3_connect::s__s3__tmp__next_state___0|))).def_9090))
(assert (let ((.def_9092 (= |ssl3_connect::s__state| (_ bv4352 32)))).def_9092))
(assert (let ((.def_9094 (= |ssl3_connect::s__state| (_ bv4512 32)))).def_9094))
(assert (let ((.def_9096 (= |ssl3_connect::s__state| (_ bv4496 32)))).def_9096))
(assert (let ((.def_9098 (= |ssl3_connect::s__state| (_ bv4480 32)))).def_9098))
(assert (let ((.def_9100 (= |ssl3_connect::s__state| (_ bv4464 32)))).def_9100))
(assert (let ((.def_9102 (= |ssl3_connect::s__s3__tmp__next_state___0| (_ bv4416 32)))).def_9102))
(assert (let ((.def_9104 (= |ssl3_connect::s__s3__tmp__next_state___0| (_ bv4432 32)))).def_9104))
(assert (let ((.def_9106 (= |ssl3_connect::s__s3__tmp__next_state___0| (_ bv4513 32)))).def_9106))
(assert (let ((.def_9108 (= |ssl3_connect::s__s3__tmp__next_state___0| (_ bv4512 32)))).def_9108))
(assert (let ((.def_9110 (= |ssl3_connect::s__s3__tmp__next_state___0| (_ bv4481 32)))).def_9110))
(assert (let ((.def_9112 (= |ssl3_connect::s__s3__tmp__next_state___0| (_ bv4480 32)))).def_9112))
(assert (let ((.def_9114 (= |ssl3_connect::s__s3__tmp__next_state___0| (_ bv4417 32)))).def_9114))
(assert (let ((.def_9116 (= |ssl3_connect::s__state| (_ bv4401 32)))).def_9116))
(assert (let ((.def_9118 (= |ssl3_connect::s__state| (_ bv4528 32)))).def_9118))
(assert (let ((.def_9120 (= |ssl3_connect::s__state| (_ bv4529 32)))).def_9120))
(assert (let ((.def_9122 (= |ssl3_connect::s__state| (_ bv4560 32)))).def_9122))
(assert (let ((.def_9124 (= |ssl3_connect::s__state| (_ bv4561 32)))).def_9124))
(assert (let ((.def_9126 (= |ssl3_connect::s__state| (_ bv4481 32)))).def_9126))
(assert (let ((.def_9128 (= |ssl3_connect::s__state| (_ bv4467 32)))).def_9128))
(assert (let ((.def_9130 (= |ssl3_connect::s__state| (_ bv4466 32)))).def_9130))
(assert (let ((.def_9132 (= |ssl3_connect::s__state| (_ bv4465 32)))).def_9132))
(assert (let ((.def_9134 (= |ssl3_connect::s__state| (_ bv4385 32)))).def_9134))
(assert (let ((.def_9136 (= |ssl3_connect::s__state| (_ bv4513 32)))).def_9136))
(assert (let ((.def_9138 (= |ssl3_connect::s__state| (_ bv4417 32)))).def_9138))
(assert (let ((.def_9141 (= |ssl3_connect::s__hit| (_ bv0 32)))).def_9141))
(assert (let ((.def_9143 (= |ssl3_connect::s__s3__tmp__next_state___0| (_ bv4433 32)))).def_9143))
(assert (let ((.def_9146 (= |ssl3_connect::s__s3__tmp__cert_req| (_ bv0 32)))).def_9146))
(assert (let ((.def_9148 (= |ssl3_connect::s__state| (_ bv4433 32)))).def_9148))
(assert (let ((.def_26402 (= |ssl3_connect::s__s3__tmp__next_state___0| (_ bv4352 32)))).def_26402))
(assert (let ((.def_26404 (= |ssl3_connect::s__s3__tmp__next_state___0| (_ bv4528 32)))).def_26404))
(assert (let ((.def_26406 (= |ssl3_connect::s__s3__tmp__next_state___0| (_ bv4449 32)))).def_26406))
(assert (let ((.def_26408 (= |ssl3_connect::s__s3__tmp__next_state___0| (_ bv4448 32)))).def_26408))
(assert (let ((.def_26410 (= |ssl3_connect::s__s3__tmp__next_state___0| (_ bv4529 32)))).def_26410))
(assert (let ((.def_26412 (= |ssl3_connect::s__s3__tmp__next_state___0| (_ bv4497 32)))).def_26412))
(assert (let ((.def_26414 (= |ssl3_connect::s__s3__tmp__next_state___0| (_ bv4496 32)))).def_26414))
(assert (let ((.def_26416 (= |ssl3_connect::s__s3__tmp__next_state___0| (_ bv4467 32)))).def_26416))
(assert (let ((.def_26418 (= |ssl3_connect::s__s3__tmp__next_state___0| (_ bv4466 32)))).def_26418))
(assert (let ((.def_26420 (= |ssl3_connect::s__s3__tmp__next_state___0| (_ bv4465 32)))).def_26420))
(assert (let ((.def_26422 (= |ssl3_connect::s__s3__tmp__next_state___0| (_ bv4464 32)))).def_26422))
(assert (let ((.def_26424 (= |ssl3_connect::s__s3__tmp__next_state___0| (_ bv12292 32)))).def_26424))
(assert (let ((.def_26426 (= |ssl3_connect::s__s3__tmp__next_state___0| (_ bv4096 32)))).def_26426))
(assert (let ((.def_26428 (= |ssl3_connect::s__s3__tmp__next_state___0| (_ bv20480 32)))).def_26428))
(assert (let ((.def_26430 (= |ssl3_connect::s__s3__tmp__next_state___0| (_ bv16384 32)))).def_26430))
(assert (let ((.def_26432 (= |ssl3_connect::s__s3__tmp__next_state___0| (_ bv4099 32)))).def_26432))
(assert (let ((.def_26434 (= |ssl3_connect::s__state| (_ bv4448 32)))).def_26434))
(assert (let ((.def_26436 (= |ssl3_connect::s__state| (_ bv4449 32)))).def_26436))
(assert (let ((.def_26438 (= |ssl3_connect::s__state| (_ bv4497 32)))).def_26438))
(assert (let ((.def_26440 (= |ssl3_connect::s__s3__tmp__next_state___0| (_ bv4368 32)))).def_26440))
(assert (let ((.def_26442 (= |ssl3_connect::s__s3__tmp__next_state___0| (_ bv4369 32)))).def_26442))
(assert (let ((.def_26444 (= |ssl3_connect::s__s3__tmp__next_state___0| (_ bv4385 32)))).def_26444))
(assert (let ((.def_26446 (= |ssl3_connect::s__s3__tmp__next_state___0| (_ bv4384 32)))).def_26446))
(assert (let ((.def_26448 (= |ssl3_connect::s__s3__tmp__next_state___0| (_ bv4400 32)))).def_26448))
(assert (let ((.def_26450 (= |ssl3_connect::s__s3__tmp__next_state___0| (_ bv4401 32)))).def_26450))

ssl3_connect N573:
(assert false)
(assert (let ((.def_698 (= |ssl3_connect::blastFlag| (_ bv5 32)))).def_698))

ssl3_accept N696:
(assert (let ((.def_34428 (= |ssl3_accept::blastFlag| (_ bv4 32)))).def_34428))
(assert (let ((.def_35575 (= |ssl3_accept::s__state| (_ bv8464 32)))).def_35575))
(assert (let ((.def_35577 (= |ssl3_accept::blastFlag| (_ bv0 32)))).def_35577))
(assert (let ((.def_36952 (= |ssl3_accept::s__state| (_ bv8481 32)))).def_36952))
(assert (let ((.def_36954 (= |ssl3_accept::s__state| (_ bv8480 32)))).def_36954))
(assert (let ((.def_36956 (= |ssl3_accept::s__state| (_ bv12292 32)))).def_36956))
(assert (let ((.def_36958 (= |ssl3_accept::s__state| (_ bv16384 32)))).def_36958))
(assert (let ((.def_36960 (= |ssl3_accept::s__state| (_ bv8192 32)))).def_36960))
(assert (let ((.def_36962 (= |ssl3_accept::s__state| (_ bv24576 32)))).def_36962))
(assert (let ((.def_36964 (= |ssl3_accept::s__state| (_ bv8195 32)))).def_36964))
(assert (let ((.def_36966 (= |ssl3_accept::s__state| (_ bv8482 32)))).def_36966))
(assert (let ((.def_36968 (= |ssl3_accept::blastFlag| (_ bv1 32)))).def_36968))
(assert (let ((.def_38897 (= |ssl3_accept::blastFlag| (_ bv2 32)))).def_38897))
(assert (let ((.def_38899 (= |ssl3_accept::blastFlag| (_ bv3 32)))).def_38899))
(assert (let ((.def_38901 (= |ssl3_accept::s__state| (_ bv8496 32)))).def_38901))
(assert (let ((.def_41295 (= |ssl3_accept::s__state| (_ bv8466 32)))).def_41295))
(assert (let ((.def_41297 (= |ssl3_accept::s__state| (_ bv8465 32)))).def_41297))
(assert (let ((.def_41300 (= |ssl3_accept::s__hit| (_ bv0 32)))).def_41300))
(assert (let ((.def_41302 (= |ssl3_accept::s__state| (_ bv8448 32)))).def_41302))
(assert (let ((.def_41304 (= |ssl3_accept::s__state| (_ bv8512 32)))).def_41304))
(assert (let ((.def_41306 (= |ssl3_accept::s__state| (_ bv8497 32)))).def_41306))
(assert (let ((.def_41308 (= |ssl3_accept::s__state| (_ bv8528 32)))).def_41308))
(assert (let ((.def_41311 (= |ssl3_accept::s__s3__tmp__next_state___0| (_ bv8640 32)))).def_41311))
(assert (let ((.def_41313 (= |ssl3_accept::s__s3__tmp__next_state___0| (_ bv8576 32)))).def_41313))
(assert (let ((.def_41315 (= |ssl3_accept::s__s3__tmp__next_state___0| (_ bv8482 32)))).def_41315))
(assert (let ((.def_41317 (= |ssl3_accept::s__state| (_ bv8544 32)))).def_41317))
(assert (let ((.def_41319 (= |ssl3_accept::s__state| (_ bv8560 32)))).def_41319))
(assert (let ((.def_41321 (= |ssl3_accept::s__state| (_ bv8576 32)))).def_41321))
(assert (let ((.def_41323 (= |ssl3_accept::s__state| (_ bv8592 32)))).def_41323))
(assert (let ((.def_41325 (= |ssl3_accept::s__state| (_ bv8608 32)))).def_41325))
(assert (let ((.def_41327 (= |ssl3_accept::s__state| (_ bv8640 32)))).def_41327))
(assert (let ((.def_41329 (= |ssl3_accept::s__state| (_ bv8656 32)))).def_41329))
(assert (let ((.def_47701 (= |ssl3_accept::s__state| (_ bv8513 32)))).def_47701))
(assert (let ((.def_47703 (= |ssl3_accept::s__state| (_ bv8529 32)))).def_47703))
(assert (let ((.def_47705 (= |ssl3_accept::s__state| (_ bv8593 32)))).def_47705))
(assert (let ((.def_47707 (= |ssl3_accept::s__state| (_ bv8561 32)))).def_47707))
(assert (let ((.def_47709 (= |ssl3_accept::s__state| (_ bv8609 32)))).def_47709))
(assert (let ((.def_47711 (= |ssl3_accept::s__state| (_ bv8577 32)))).def_47711))
(assert (let ((.def_47713 (= |ssl3_accept::s__state| (_ bv8545 32)))).def_47713))
(assert (let ((.def_47715 (= |ssl3_accept::s__state| (_ bv8641 32)))).def_47715))
(assert (let ((.def_47717 (= |ssl3_accept::s__state| (_ bv8657 32)))).def_47717))
(assert (let ((.def_47719 (= |ssl3_accept::s__s3__tmp__next_state___0| (_ bv8497 32)))).def_47719))
(assert (let ((.def_47721 (= |ssl3_accept::s__s3__tmp__next_state___0| (_ bv8496 32)))).def_47721))
(assert (let ((.def_47724 (= |ssl3_accept::skip| (_ bv1 32)))).def_47724))
(assert (let ((.def_164651 (= |ssl3_accept::skip| (_ bv0 32)))).def_164651))
(assert (let ((.def_164654 (= |ssl3_accept::s__s3__tmp__reuse_message| (_ bv0 32)))).def_164654))
(assert (let ((.def_164656 (= |ssl3_accept::s__state| (_ bv8672 32)))).def_164656))
(assert (let ((.def_164658 (= |ssl3_accept::s__s3__tmp__next_state___0| (_ bv8512 32)))).def_164658))
(assert (let ((.def_164661 (= |ssl3_accept::s__verify_mode| (_ bv4294967294 32)))).def_164661))
(assert (let ((.def_164663 (= |ssl3_accept::s__verify_mode| (_ bv4294967292 32)))).def_164663))
(assert (let ((.def_164665 (= |ssl3_accept::s__s3__tmp__next_state___0| (_ bv8529 32)))).def_164665))
(assert (let ((.def_164667 (= |ssl3_accept::s__s3__tmp__next_state___0| (_ bv8528 32)))).def_164667))
(assert (let ((.def_164669 (= |ssl3_accept::s__verify_mode| (_ bv4294967295 32)))).def_164669))
(assert (let ((.def_164671 (= |ssl3_accept::s__s3__tmp__next_state___0| (_ bv8544 32)))).def_164671))
(assert (let ((.def_164673 (= |ssl3_accept::s__s3__tmp__next_state___0| (_ bv3 32)))).def_164673))
(assert (let ((.def_164675 (= |ssl3_accept::s__s3__tmp__next_state___0| (_ bv8513 32)))).def_164675))
(assert (let ((.def_164677 (= |ssl3_accept::s__state| |ssl3_accept::s__s3__tmp__next_state___0|))).def_164677))
(assert (let ((.def_164679 (= |ssl3_accept::s__s3__tmp__next_state___0| (_ bv8545 32)))).def_164679))
(assert (let ((.def_164681 (= |ssl3_accept::s__s3__tmp__next_state___0| (_ bv8561 32)))).def_164681))
(assert (let ((.def_164683 (= |ssl3_accept::s__s3__tmp__next_state___0| (_ bv8672 32)))).def_164683))
(assert (let ((.def_164685 (= |ssl3_accept::s__s3__tmp__next_state___0| (_ bv8656 32)))).def_164685))
(assert (let ((.def_164687 (= |ssl3_accept::s__s3__tmp__next_state___0| (_ bv8592 32)))).def_164687))
(assert (let ((.def_164689 (= |ssl3_accept::s__s3__tmp__next_state___0| (_ bv8560 32)))).def_164689))
(assert (let ((.def_164691 (= |ssl3_accept::s__s3__tmp__next_state___0| (_ bv8481 32)))).def_164691))
(assert (let ((.def_164693 (= |ssl3_accept::s__s3__tmp__next_state___0| (_ bv8480 32)))).def_164693))
(assert (let ((.def_164695 (= |ssl3_accept::s__s3__tmp__next_state___0| (_ bv8464 32)))).def_164695))
(assert (let ((.def_164697 (= |ssl3_accept::s__s3__tmp__next_state___0| (_ bv8448 32)))).def_164697))
(assert (let ((.def_164700 (= |ssl3_accept::s__s3__tmp__new_cipher__algorithms| (_ bv4294967040 32)))).def_164700))
(assert (let ((.def_164702 (= |ssl3_accept::s__s3__tmp__next_state___0| (_ bv12292 32)))).def_164702))
(assert (let ((.def_164704 (= |ssl3_accept::s__s3__tmp__next_state___0| (_ bv16384 32)))).def_164704))
(assert (let ((.def_164706 (= |ssl3_accept::s__s3__tmp__next_state___0| (_ bv8192 32)))).def_164706))
(assert (let ((.def_164708 (= |ssl3_accept::s__s3__tmp__next_state___0| (_ bv24576 32)))).def_164708))
(assert (let ((.def_164710 (= |ssl3_accept::s__s3__tmp__next_state___0| (_ bv8195 32)))).def_164710))
(assert (let ((.def_164712 (= |ssl3_accept::s__s3__tmp__next_state___0| (_ bv8465 32)))).def_164712))
(assert (let ((.def_164714 (= |ssl3_accept::s__s3__tmp__next_state___0| (_ bv8466 32)))).def_164714))
(assert (let ((.def_164716 (= |ssl3_accept::s__s3__tmp__next_state___0| (_ bv8608 32)))).def_164716))
(assert (let ((.def_164719 (= |ssl3_accept::s__session__peer| (_ bv0 32)))).def_164719))
(assert (let ((.def_164721 (= |ssl3_accept::s__s3__tmp__next_state___0| (_ bv8657 32)))).def_164721))
(assert (let ((.def_164723 (= |ssl3_accept::s__s3__tmp__next_state___0| (_ bv8641 32)))).def_164723))
(assert (let ((.def_164725 (= |ssl3_accept::s__s3__tmp__next_state___0| (_ bv8609 32)))).def_164725))
(assert (let ((.def_164727 (= |ssl3_accept::s__s3__tmp__next_state___0| (_ bv8593 32)))).def_164727))
(assert (let ((.def_164729 (= |ssl3_accept::s__s3__tmp__next_state___0| (_ bv8577 32)))).def_164729))
(assert (let ((.def_164731 (= |ssl3_accept::s__state| (_ bv8673 32)))).def_164731))

ssl3_accept N1217:
(assert false)

