(set-info :source |printed by MathSAT|)
(declare-fun a20 () (_ BitVec 32))
(declare-fun a25 () (_ BitVec 32))
(declare-fun a12 () (_ BitVec 32))
(declare-fun a15 () (_ BitVec 32))
(declare-fun a16 () (_ BitVec 32))
(declare-fun a2 () (_ BitVec 32))
(declare-fun a27 () (_ BitVec 32))
(declare-fun a9 () (_ BitVec 32))
(declare-fun m_pc () (_ BitVec 32))
(declare-fun t1_pc () (_ BitVec 32))
(declare-fun t2_pc () (_ BitVec 32))
(declare-fun t3_pc () (_ BitVec 32))
(declare-fun t4_pc () (_ BitVec 32))
(declare-fun t5_pc () (_ BitVec 32))
(declare-fun t6_pc () (_ BitVec 32))
(declare-fun t7_pc () (_ BitVec 32))
(declare-fun t8_pc () (_ BitVec 32))
(declare-fun t9_pc () (_ BitVec 32))
(declare-fun t10_pc () (_ BitVec 32))
(declare-fun t11_pc () (_ BitVec 32))
(declare-fun m_st () (_ BitVec 32))
(declare-fun t5_st () (_ BitVec 32))
(declare-fun E_2 () (_ BitVec 32))
(declare-fun E_11 () (_ BitVec 32))
(declare-fun E_8 () (_ BitVec 32))
(declare-fun E_7 () (_ BitVec 32))
(declare-fun E_6 () (_ BitVec 32))
(declare-fun E_4 () (_ BitVec 32))
(declare-fun E_3 () (_ BitVec 32))
(declare-fun E_M () (_ BitVec 32))
(declare-fun t3_st () (_ BitVec 32))
(declare-fun t6_st () (_ BitVec 32))
(declare-fun E_9 () (_ BitVec 32))
(declare-fun E_5 () (_ BitVec 32))
(declare-fun E_10 () (_ BitVec 32))
(declare-fun t1_st () (_ BitVec 32))
(declare-fun t7_st () (_ BitVec 32))
(declare-fun t8_st () (_ BitVec 32))
(declare-fun t2_st () (_ BitVec 32))
(declare-fun t11_st () (_ BitVec 32))
(declare-fun t10_st () (_ BitVec 32))
(declare-fun t9_st () (_ BitVec 32))
(declare-fun t4_st () (_ BitVec 32))
(declare-fun E_1 () (_ BitVec 32))
(declare-fun local () (_ BitVec 32))
(declare-fun token () (_ BitVec 32))

*:
(assert (let ((.def_107923 (= a20 (_ bv5 32)))).def_107923))

calculate_output8 N30108:
(assert false)
(assert (let ((.def_107923 (= a20 (_ bv5 32)))).def_107923))

main1 N30136:
(assert (let ((.def_107923 (= a20 (_ bv5 32)))).def_107923))
(assert (let ((.def_155666 (= a25 (_ bv1 32)))).def_155666))
(assert (let ((.def_155669 (= a12 (_ bv4 32)))).def_155669))
(assert (let ((.def_155672 (= a15 (_ bv1 32)))).def_155672))
(assert (let ((.def_155675 (= a16 (_ bv1 32)))).def_155675))
(assert (let ((.def_155678 (= a2 (_ bv10 32)))).def_155678))
(assert (let ((.def_155681 (= a27 (_ bv1 32)))).def_155681))
(assert (let ((.def_155684 (= a9 (_ bv18 32)))).def_155684))
(assert (let ((.def_321856 (= a12 (_ bv5 32)))).def_321856))
(assert (let ((.def_321858 (= a2 (_ bv13 32)))).def_321858))
(assert (let ((.def_321860 (= a12 (_ bv2 32)))).def_321860))
(assert (let ((.def_321862 (= a2 (_ bv12 32)))).def_321862))
(assert (let ((.def_321864 (= a12 (_ bv3 32)))).def_321864))
(assert (let ((.def_321866 (= a9 (_ bv16 32)))).def_321866))
(assert (let ((.def_321868 (= a20 (_ bv7 32)))).def_321868))
(assert (let ((.def_321870 (= a2 (_ bv9 32)))).def_321870))
(assert (let ((.def_321872 (= a9 (_ bv17 32)))).def_321872))

error N30154:
(assert false)
(assert (let ((.def_107923 (= a20 (_ bv5 32)))).def_107923))

eval N30828:
(assert (let ((.def_747717 (= m_pc (_ bv0 32)))).def_747717))
(assert (let ((.def_107923 (= a20 (_ bv5 32)))).def_107923))
(assert (let ((.def_758541 (= t1_pc (_ bv0 32)))).def_758541))
(assert (let ((.def_758544 (= t2_pc (_ bv0 32)))).def_758544))
(assert (let ((.def_758547 (= t3_pc (_ bv0 32)))).def_758547))
(assert (let ((.def_758550 (= t4_pc (_ bv0 32)))).def_758550))
(assert (let ((.def_758553 (= t5_pc (_ bv0 32)))).def_758553))
(assert (let ((.def_758556 (= t6_pc (_ bv0 32)))).def_758556))
(assert (let ((.def_758559 (= t7_pc (_ bv0 32)))).def_758559))
(assert (let ((.def_758562 (= t8_pc (_ bv0 32)))).def_758562))
(assert (let ((.def_758565 (= t9_pc (_ bv0 32)))).def_758565))
(assert (let ((.def_758568 (= t10_pc (_ bv0 32)))).def_758568))
(assert (let ((.def_758571 (= t11_pc (_ bv0 32)))).def_758571))
(assert (let ((.def_758573 (= m_pc (_ bv1 32)))).def_758573))
(assert (let ((.def_758575 (= t1_pc (_ bv1 32)))).def_758575))
(assert (let ((.def_758577 (= t2_pc (_ bv1 32)))).def_758577))
(assert (let ((.def_758579 (= t3_pc (_ bv1 32)))).def_758579))
(assert (let ((.def_758581 (= t4_pc (_ bv1 32)))).def_758581))
(assert (let ((.def_758583 (= t5_pc (_ bv1 32)))).def_758583))
(assert (let ((.def_758585 (= t6_pc (_ bv1 32)))).def_758585))
(assert (let ((.def_758587 (= t7_pc (_ bv1 32)))).def_758587))
(assert (let ((.def_758589 (= t8_pc (_ bv1 32)))).def_758589))
(assert (let ((.def_758591 (= t9_pc (_ bv1 32)))).def_758591))
(assert (let ((.def_758593 (= t10_pc (_ bv1 32)))).def_758593))
(assert (let ((.def_758595 (= t11_pc (_ bv1 32)))).def_758595))
(assert (let ((.def_758598 (= m_st (_ bv0 32)))).def_758598))
(assert (let ((.def_853729 (= t5_st (_ bv0 32)))).def_853729))
(assert (let ((.def_853732 (= E_2 (_ bv2 32)))).def_853732))
(assert (let ((.def_853735 (= E_11 (_ bv1 32)))).def_853735))
(assert (let ((.def_853738 (= E_8 (_ bv1 32)))).def_853738))
(assert (let ((.def_853741 (= E_7 (_ bv1 32)))).def_853741))
(assert (let ((.def_853744 (= E_6 (_ bv1 32)))).def_853744))
(assert (let ((.def_853747 (= E_4 (_ bv1 32)))).def_853747))
(assert (let ((.def_853750 (= E_3 (_ bv1 32)))).def_853750))
(assert (let ((.def_853752 (= E_2 (_ bv1 32)))).def_853752))
(assert (let ((.def_853755 (= E_M (_ bv1 32)))).def_853755))
(assert (let ((.def_853758 (= t3_st (_ bv0 32)))).def_853758))
(assert (let ((.def_853761 (= t6_st (_ bv0 32)))).def_853761))
(assert (let ((.def_853764 (= E_9 (_ bv1 32)))).def_853764))
(assert (let ((.def_853767 (= E_5 (_ bv1 32)))).def_853767))
(assert (let ((.def_853770 (= E_10 (_ bv1 32)))).def_853770))
(assert (let ((.def_853773 (= t1_st (_ bv0 32)))).def_853773))
(assert (let ((.def_853776 (= t7_st (_ bv0 32)))).def_853776))
(assert (let ((.def_853779 (= t8_st (_ bv0 32)))).def_853779))
(assert (let ((.def_853782 (= t2_st (_ bv0 32)))).def_853782))
(assert (let ((.def_853785 (= t11_st (_ bv0 32)))).def_853785))
(assert (let ((.def_853788 (= t10_st (_ bv0 32)))).def_853788))
(assert (let ((.def_853791 (= t9_st (_ bv0 32)))).def_853791))
(assert (let ((.def_853794 (= t4_st (_ bv0 32)))).def_853794))
(assert (let ((.def_853797 (= E_1 (_ bv1 32)))).def_853797))
(assert (let ((.def_853800 (bvadd (_ bv11 32) local)))(let ((.def_853802 (= .def_853800 token))).def_853802)))

start_simulation N31388:
(assert (let ((.def_747717 (= m_pc (_ bv0 32)))).def_747717))
(assert (let ((.def_107923 (= a20 (_ bv5 32)))).def_107923))
(assert (let ((.def_758541 (= t1_pc (_ bv0 32)))).def_758541))
(assert (let ((.def_758544 (= t2_pc (_ bv0 32)))).def_758544))
(assert (let ((.def_758547 (= t3_pc (_ bv0 32)))).def_758547))
(assert (let ((.def_758550 (= t4_pc (_ bv0 32)))).def_758550))
(assert (let ((.def_758553 (= t5_pc (_ bv0 32)))).def_758553))
(assert (let ((.def_758556 (= t6_pc (_ bv0 32)))).def_758556))
(assert (let ((.def_758559 (= t7_pc (_ bv0 32)))).def_758559))
(assert (let ((.def_758562 (= t8_pc (_ bv0 32)))).def_758562))
(assert (let ((.def_758565 (= t9_pc (_ bv0 32)))).def_758565))
(assert (let ((.def_758568 (= t10_pc (_ bv0 32)))).def_758568))
(assert (let ((.def_758571 (= t11_pc (_ bv0 32)))).def_758571))
(assert (let ((.def_758573 (= m_pc (_ bv1 32)))).def_758573))
(assert (let ((.def_758575 (= t1_pc (_ bv1 32)))).def_758575))
(assert (let ((.def_758577 (= t2_pc (_ bv1 32)))).def_758577))
(assert (let ((.def_758579 (= t3_pc (_ bv1 32)))).def_758579))
(assert (let ((.def_758581 (= t4_pc (_ bv1 32)))).def_758581))
(assert (let ((.def_758583 (= t5_pc (_ bv1 32)))).def_758583))
(assert (let ((.def_758585 (= t6_pc (_ bv1 32)))).def_758585))
(assert (let ((.def_758587 (= t7_pc (_ bv1 32)))).def_758587))
(assert (let ((.def_758589 (= t8_pc (_ bv1 32)))).def_758589))
(assert (let ((.def_758591 (= t9_pc (_ bv1 32)))).def_758591))
(assert (let ((.def_758593 (= t10_pc (_ bv1 32)))).def_758593))
(assert (let ((.def_758595 (= t11_pc (_ bv1 32)))).def_758595))
(assert (let ((.def_853729 (= t5_st (_ bv0 32)))).def_853729))
(assert (let ((.def_853732 (= E_2 (_ bv2 32)))).def_853732))
(assert (let ((.def_853735 (= E_11 (_ bv1 32)))).def_853735))
(assert (let ((.def_853738 (= E_8 (_ bv1 32)))).def_853738))
(assert (let ((.def_853741 (= E_7 (_ bv1 32)))).def_853741))
(assert (let ((.def_853744 (= E_6 (_ bv1 32)))).def_853744))
(assert (let ((.def_853747 (= E_4 (_ bv1 32)))).def_853747))
(assert (let ((.def_853750 (= E_3 (_ bv1 32)))).def_853750))
(assert (let ((.def_853752 (= E_2 (_ bv1 32)))).def_853752))
(assert (let ((.def_853755 (= E_M (_ bv1 32)))).def_853755))
(assert (let ((.def_853758 (= t3_st (_ bv0 32)))).def_853758))
(assert (let ((.def_853761 (= t6_st (_ bv0 32)))).def_853761))
(assert (let ((.def_853764 (= E_9 (_ bv1 32)))).def_853764))
(assert (let ((.def_853767 (= E_5 (_ bv1 32)))).def_853767))
(assert (let ((.def_853770 (= E_10 (_ bv1 32)))).def_853770))
(assert (let ((.def_853773 (= t1_st (_ bv0 32)))).def_853773))
(assert (let ((.def_853776 (= t7_st (_ bv0 32)))).def_853776))
(assert (let ((.def_853779 (= t8_st (_ bv0 32)))).def_853779))
(assert (let ((.def_853782 (= t2_st (_ bv0 32)))).def_853782))
(assert (let ((.def_758598 (= m_st (_ bv0 32)))).def_758598))

