(set-info :source |printed by MathSAT|)
(declare-fun c_num_read () (_ BitVec 32))
(declare-fun p_num_write () (_ BitVec 32))
(declare-fun c_last_read () (_ BitVec 32))
(declare-fun p_last_write () (_ BitVec 32))
(declare-fun c_dr_pc () (_ BitVec 32))
(declare-fun q_free () (_ BitVec 32))
(declare-fun q_buf_0 () (_ BitVec 32))
(declare-fun c_dr_st () (_ BitVec 32))
(declare-fun q_req_up () (_ BitVec 32))
(declare-fun q_write_ev () (_ BitVec 32))
(declare-fun q_read_ev () (_ BitVec 32))
(declare-fun p_dw_pc () (_ BitVec 32))
(declare-fun p_dw_st () (_ BitVec 32))
(declare-fun m_pc () (_ BitVec 32))
(declare-fun t1_pc () (_ BitVec 32))
(declare-fun t2_pc () (_ BitVec 32))
(declare-fun t3_pc () (_ BitVec 32))
(declare-fun m_st () (_ BitVec 32))

*:
(assert (let ((.def_529 (= c_num_read p_num_write))).def_529))
(assert (let ((.def_538 (= c_last_read p_last_write))).def_538))

error1 N4:
(assert false)
(assert (let ((.def_529 (= c_num_read p_num_write))).def_529))
(assert (let ((.def_538 (= c_last_read p_last_write))).def_538))

do_write_p N78:
(assert (let ((.def_725 (= c_dr_pc (_ bv0 32)))).def_725))
(assert (let ((.def_529 (= c_num_read p_num_write))).def_529))
(assert (let ((.def_538 (= c_last_read p_last_write))).def_538))
(assert (let ((.def_793 (= q_free (_ bv1 32)))).def_793))
(assert false)
(assert (let ((.def_977 (= p_last_write q_buf_0))).def_977))
(assert (let ((.def_1117 (= c_dr_pc (_ bv1 32)))).def_1117))
(assert (let ((.def_1119 (= q_free (_ bv0 32)))).def_1119))
(assert (let ((.def_1123 (bvadd (_ bv1 32) c_num_read)))(let ((.def_1124 (= p_num_write .def_1123))).def_1124)))
(assert (let ((.def_1805 (= c_dr_st (_ bv0 32)))).def_1805))
(assert (let ((.def_4205 (= q_req_up (_ bv1 32)))).def_4205))
(assert (let ((.def_5838 (= q_write_ev (_ bv1 32)))).def_5838))
(assert (let ((.def_5840 (= q_write_ev (_ bv0 32)))).def_5840))
(assert (let ((.def_8175 (= q_read_ev (_ bv1 32)))).def_8175))
(assert (let ((.def_8177 (= q_read_ev (_ bv0 32)))).def_8177))

do_read_c N112:
(assert (let ((.def_793 (= q_free (_ bv1 32)))).def_793))
(assert (let ((.def_529 (= c_num_read p_num_write))).def_529))
(assert (let ((.def_538 (= c_last_read p_last_write))).def_538))
(assert (let ((.def_977 (= p_last_write q_buf_0))).def_977))
(assert (let ((.def_1123 (bvadd (_ bv1 32) c_num_read)))(let ((.def_1124 (= p_num_write .def_1123))).def_1124)))
(assert false)
(assert (let ((.def_1119 (= q_free (_ bv0 32)))).def_1119))
(assert (let ((.def_5838 (= q_write_ev (_ bv1 32)))).def_5838))
(assert (let ((.def_5840 (= q_write_ev (_ bv0 32)))).def_5840))
(assert (let ((.def_1121 (= p_dw_pc (_ bv1 32)))).def_1121))
(assert (let ((.def_4205 (= q_req_up (_ bv1 32)))).def_4205))
(assert (let ((.def_2279 (= p_dw_st (_ bv0 32)))).def_2279))
(assert (let ((.def_8175 (= q_read_ev (_ bv1 32)))).def_8175))
(assert (let ((.def_8177 (= q_read_ev (_ bv0 32)))).def_8177))

eval1 N228:
(assert (let ((.def_725 (= c_dr_pc (_ bv0 32)))).def_725))
(assert (let ((.def_529 (= c_num_read p_num_write))).def_529))
(assert (let ((.def_538 (= c_last_read p_last_write))).def_538))
(assert (let ((.def_793 (= q_free (_ bv1 32)))).def_793))
(assert (let ((.def_935 (= p_dw_pc (_ bv0 32)))).def_935))
(assert (let ((.def_1117 (= c_dr_pc (_ bv1 32)))).def_1117))
(assert (let ((.def_1119 (= q_free (_ bv0 32)))).def_1119))
(assert (let ((.def_1121 (= p_dw_pc (_ bv1 32)))).def_1121))
(assert (let ((.def_2279 (= p_dw_st (_ bv0 32)))).def_2279))
(assert (let ((.def_977 (= p_last_write q_buf_0))).def_977))
(assert (let ((.def_1123 (bvadd (_ bv1 32) c_num_read)))(let ((.def_1124 (= p_num_write .def_1123))).def_1124)))
(assert (let ((.def_1805 (= c_dr_st (_ bv0 32)))).def_1805))
(assert (let ((.def_4205 (= q_req_up (_ bv1 32)))).def_4205))
(assert (let ((.def_5838 (= q_write_ev (_ bv1 32)))).def_5838))
(assert (let ((.def_5840 (= q_write_ev (_ bv0 32)))).def_5840))
(assert (let ((.def_8175 (= q_read_ev (_ bv1 32)))).def_8175))
(assert (let ((.def_8177 (= q_read_ev (_ bv0 32)))).def_8177))

start_simulation1 N283:
(assert (let ((.def_725 (= c_dr_pc (_ bv0 32)))).def_725))
(assert (let ((.def_529 (= c_num_read p_num_write))).def_529))
(assert (let ((.def_538 (= c_last_read p_last_write))).def_538))
(assert (let ((.def_793 (= q_free (_ bv1 32)))).def_793))
(assert (let ((.def_935 (= p_dw_pc (_ bv0 32)))).def_935))
(assert (let ((.def_1117 (= c_dr_pc (_ bv1 32)))).def_1117))
(assert (let ((.def_1119 (= q_free (_ bv0 32)))).def_1119))
(assert (let ((.def_1121 (= p_dw_pc (_ bv1 32)))).def_1121))
(assert (let ((.def_1805 (= c_dr_st (_ bv0 32)))).def_1805))
(assert (let ((.def_2279 (= p_dw_st (_ bv0 32)))).def_2279))
(assert (let ((.def_977 (= p_last_write q_buf_0))).def_977))
(assert (let ((.def_5838 (= q_write_ev (_ bv1 32)))).def_5838))
(assert (let ((.def_5840 (= q_write_ev (_ bv0 32)))).def_5840))
(assert (let ((.def_8175 (= q_read_ev (_ bv1 32)))).def_8175))
(assert (let ((.def_8177 (= q_read_ev (_ bv0 32)))).def_8177))
(assert (let ((.def_1123 (bvadd (_ bv1 32) c_num_read)))(let ((.def_1124 (= p_num_write .def_1123))).def_1124)))

error2 N328:
(assert false)
(assert (let ((.def_529 (= c_num_read p_num_write))).def_529))
(assert (let ((.def_538 (= c_last_read p_last_write))).def_538))

eval2 N583:
(assert (let ((.def_10569 (= m_pc (_ bv0 32)))).def_10569))
(assert (let ((.def_529 (= c_num_read p_num_write))).def_529))
(assert (let ((.def_538 (= c_last_read p_last_write))).def_538))
(assert (let ((.def_12200 (= t1_pc (_ bv0 32)))).def_12200))
(assert (let ((.def_12203 (= t2_pc (_ bv0 32)))).def_12203))
(assert (let ((.def_12206 (= t3_pc (_ bv0 32)))).def_12206))
(assert (let ((.def_12208 (= m_pc (_ bv1 32)))).def_12208))
(assert (let ((.def_12210 (= t1_pc (_ bv1 32)))).def_12210))
(assert (let ((.def_12212 (= t2_pc (_ bv1 32)))).def_12212))
(assert (let ((.def_12214 (= t3_pc (_ bv1 32)))).def_12214))
(assert (let ((.def_12217 (= m_st (_ bv0 32)))).def_12217))

start_simulation2 N815:
(assert (let ((.def_10569 (= m_pc (_ bv0 32)))).def_10569))
(assert (let ((.def_529 (= c_num_read p_num_write))).def_529))
(assert (let ((.def_538 (= c_last_read p_last_write))).def_538))
(assert (let ((.def_12200 (= t1_pc (_ bv0 32)))).def_12200))
(assert (let ((.def_12203 (= t2_pc (_ bv0 32)))).def_12203))
(assert (let ((.def_12206 (= t3_pc (_ bv0 32)))).def_12206))
(assert (let ((.def_12208 (= m_pc (_ bv1 32)))).def_12208))
(assert (let ((.def_12210 (= t1_pc (_ bv1 32)))).def_12210))
(assert (let ((.def_12212 (= t2_pc (_ bv1 32)))).def_12212))
(assert (let ((.def_12214 (= t3_pc (_ bv1 32)))).def_12214))

