(set-info :source |printed by MathSAT|)
(declare-fun a20 () (_ BitVec 32))
(declare-fun a25 () (_ BitVec 32))
(declare-fun a12 () (_ BitVec 32))
(declare-fun a15 () (_ BitVec 32))
(declare-fun a16 () (_ BitVec 32))
(declare-fun a2 () (_ BitVec 32))
(declare-fun a27 () (_ BitVec 32))
(declare-fun a9 () (_ BitVec 32))
(declare-fun m_pc () (_ BitVec 32))
(declare-fun t1_pc () (_ BitVec 32))
(declare-fun t2_pc () (_ BitVec 32))
(declare-fun m_st () (_ BitVec 32))

*:
(assert (let ((.def_107568 (= a20 (_ bv5 32)))).def_107568))

calculate_output8 N30053:
(assert false)
(assert (let ((.def_107568 (= a20 (_ bv5 32)))).def_107568))

main1 N30136:
(assert (let ((.def_107568 (= a20 (_ bv5 32)))).def_107568))
(assert (let ((.def_155125 (= a25 (_ bv1 32)))).def_155125))
(assert (let ((.def_155128 (= a12 (_ bv4 32)))).def_155128))
(assert (let ((.def_155131 (= a15 (_ bv1 32)))).def_155131))
(assert (let ((.def_155134 (= a16 (_ bv1 32)))).def_155134))
(assert (let ((.def_155137 (= a2 (_ bv10 32)))).def_155137))
(assert (let ((.def_155140 (= a27 (_ bv1 32)))).def_155140))
(assert (let ((.def_155143 (= a9 (_ bv18 32)))).def_155143))
(assert (let ((.def_321308 (= a20 (_ bv6 32)))).def_321308))
(assert (let ((.def_321310 (= a12 (_ bv3 32)))).def_321310))
(assert (let ((.def_321312 (= a12 (_ bv6 32)))).def_321312))
(assert (let ((.def_321314 (= a2 (_ bv9 32)))).def_321314))
(assert (let ((.def_321316 (= a9 (_ bv16 32)))).def_321316))
(assert (let ((.def_321318 (= a2 (_ bv12 32)))).def_321318))
(assert (let ((.def_321320 (= a2 (_ bv11 32)))).def_321320))
(assert (let ((.def_321322 (= a9 (_ bv17 32)))).def_321322))
(assert (let ((.def_321324 (= a12 (_ bv2 32)))).def_321324))
(assert (let ((.def_321326 (= a2 (_ bv13 32)))).def_321326))

error N30154:
(assert false)
(assert (let ((.def_107568 (= a20 (_ bv5 32)))).def_107568))

eval N30355:
(assert (let ((.def_746430 (= m_pc (_ bv0 32)))).def_746430))
(assert (let ((.def_107568 (= a20 (_ bv5 32)))).def_107568))
(assert (let ((.def_747476 (= t1_pc (_ bv0 32)))).def_747476))
(assert (let ((.def_747479 (= t2_pc (_ bv0 32)))).def_747479))
(assert (let ((.def_747481 (= m_pc (_ bv1 32)))).def_747481))
(assert (let ((.def_747483 (= t1_pc (_ bv1 32)))).def_747483))
(assert (let ((.def_747485 (= t2_pc (_ bv1 32)))).def_747485))
(assert (let ((.def_747488 (= m_st (_ bv0 32)))).def_747488))

start_simulation N30546:
(assert (let ((.def_746430 (= m_pc (_ bv0 32)))).def_746430))
(assert (let ((.def_107568 (= a20 (_ bv5 32)))).def_107568))
(assert (let ((.def_747476 (= t1_pc (_ bv0 32)))).def_747476))
(assert (let ((.def_747479 (= t2_pc (_ bv0 32)))).def_747479))
(assert (let ((.def_747481 (= m_pc (_ bv1 32)))).def_747481))
(assert (let ((.def_747483 (= t1_pc (_ bv1 32)))).def_747483))
(assert (let ((.def_747485 (= t2_pc (_ bv1 32)))).def_747485))

