(set-info :source |printed by MathSAT|)
(declare-fun a20 () (_ BitVec 32))
(declare-fun a25 () (_ BitVec 32))
(declare-fun a12 () (_ BitVec 32))
(declare-fun a15 () (_ BitVec 32))
(declare-fun a16 () (_ BitVec 32))
(declare-fun a2 () (_ BitVec 32))
(declare-fun a27 () (_ BitVec 32))
(declare-fun a9 () (_ BitVec 32))
(declare-fun |calculate_output3::input| () (_ BitVec 32))
(declare-fun |calculate_output4::input| () (_ BitVec 32))
(declare-fun |calculate_output5::input| () (_ BitVec 32))
(declare-fun |calculate_output7::input| () (_ BitVec 32))
(declare-fun |calculate_output6::input| () (_ BitVec 32))

*:
(assert (let ((.def_106601 (= a20 (_ bv5 32)))).def_106601))

calculate_output8 N29800:
(assert false)
(assert (let ((.def_106601 (= a20 (_ bv5 32)))).def_106601))

main1 N30136:
(assert (let ((.def_106601 (= a20 (_ bv5 32)))).def_106601))
(assert (let ((.def_153774 (= a25 (_ bv1 32)))).def_153774))
(assert (let ((.def_153777 (= a12 (_ bv4 32)))).def_153777))
(assert (let ((.def_153780 (= a15 (_ bv1 32)))).def_153780))
(assert (let ((.def_153783 (= a16 (_ bv1 32)))).def_153783))
(assert (let ((.def_153786 (= a2 (_ bv10 32)))).def_153786))
(assert (let ((.def_153789 (= a27 (_ bv1 32)))).def_153789))
(assert (let ((.def_153792 (= a9 (_ bv18 32)))).def_153792))
(assert (let ((.def_319654 (= a2 (_ bv11 32)))).def_319654))
(assert (let ((.def_319656 (= a12 (_ bv2 32)))).def_319656))
(assert (let ((.def_319658 (= a9 (_ bv17 32)))).def_319658))
(assert (let ((.def_319660 (= a2 (_ bv13 32)))).def_319660))
(assert (let ((.def_319662 (= a20 (_ bv6 32)))).def_319662))
(assert (let ((.def_319664 (= a12 (_ bv6 32)))).def_319664))
(assert (let ((.def_319666 (= a2 (_ bv9 32)))).def_319666))
(assert (let ((.def_319668 (= a9 (_ bv16 32)))).def_319668))
(assert (let ((.def_1350157 (= a12 (_ bv5 32)))).def_1350157))
(assert (let ((.def_1350159 (= a20 (_ bv7 32)))).def_1350159))
(assert (let ((.def_1350161 (= a12 (_ bv3 32)))).def_1350161))
(assert (let ((.def_1350163 (= a2 (_ bv12 32)))).def_1350163))
(assert (let ((.def_1350166 (= |calculate_output3::input| (_ bv3 32)))).def_1350166))
(assert (let ((.def_1350168 (= |calculate_output3::input| (_ bv5 32)))).def_1350168))
(assert (let ((.def_1350170 (= |calculate_output3::input| (_ bv6 32)))).def_1350170))
(assert (let ((.def_1350173 (= |calculate_output4::input| (_ bv3 32)))).def_1350173))
(assert (let ((.def_1350175 (= |calculate_output4::input| (_ bv5 32)))).def_1350175))
(assert (let ((.def_1350177 (= |calculate_output4::input| (_ bv2 32)))).def_1350177))
(assert (let ((.def_1350179 (= |calculate_output4::input| (_ bv6 32)))).def_1350179))
(assert (let ((.def_1350181 (= |calculate_output3::input| |calculate_output4::input|))).def_1350181))
(assert (let ((.def_1350184 (= |calculate_output5::input| (_ bv3 32)))).def_1350184))
(assert (let ((.def_1350186 (= |calculate_output5::input| (_ bv5 32)))).def_1350186))
(assert (let ((.def_1350188 (= |calculate_output5::input| (_ bv2 32)))).def_1350188))
(assert (let ((.def_1350190 (= |calculate_output5::input| (_ bv6 32)))).def_1350190))
(assert (let ((.def_1350192 (= |calculate_output4::input| |calculate_output5::input|))).def_1350192))
(assert (let ((.def_1350195 (= |calculate_output7::input| (_ bv1 32)))).def_1350195))
(assert (let ((.def_1350198 (= |calculate_output6::input| (_ bv5 32)))).def_1350198))
(assert (let ((.def_1350200 (= |calculate_output6::input| (_ bv2 32)))).def_1350200))
(assert (let ((.def_1350202 (= |calculate_output6::input| (_ bv6 32)))).def_1350202))
(assert (let ((.def_1350204 (= |calculate_output5::input| |calculate_output6::input|))).def_1350204))
(assert (let ((.def_1350206 (= |calculate_output7::input| (_ bv2 32)))).def_1350206))
(assert (let ((.def_1350208 (= |calculate_output7::input| (_ bv5 32)))).def_1350208))
(assert (let ((.def_1350210 (= |calculate_output7::input| (_ bv6 32)))).def_1350210))
(assert (let ((.def_1350212 (= |calculate_output7::input| |calculate_output6::input|))).def_1350212))
(assert (let ((.def_1350214 (= |calculate_output3::input| (_ bv2 32)))).def_1350214))
(assert (let ((.def_1350216 (= |calculate_output3::input| (_ bv1 32)))).def_1350216))
(assert (let ((.def_1350218 (= |calculate_output4::input| (_ bv1 32)))).def_1350218))
(assert (let ((.def_1350220 (= |calculate_output6::input| (_ bv1 32)))).def_1350220))

