(set-info :source |printed by MathSAT|)
(declare-fun a20 () (_ BitVec 32))
(declare-fun a25 () (_ BitVec 32))
(declare-fun a12 () (_ BitVec 32))
(declare-fun a15 () (_ BitVec 32))
(declare-fun a16 () (_ BitVec 32))
(declare-fun a2 () (_ BitVec 32))
(declare-fun a27 () (_ BitVec 32))
(declare-fun a9 () (_ BitVec 32))
(declare-fun m_pc () (_ BitVec 32))
(declare-fun t1_pc () (_ BitVec 32))
(declare-fun t2_pc () (_ BitVec 32))
(declare-fun t3_pc () (_ BitVec 32))
(declare-fun t4_pc () (_ BitVec 32))
(declare-fun t5_pc () (_ BitVec 32))
(declare-fun t6_pc () (_ BitVec 32))
(declare-fun t7_pc () (_ BitVec 32))
(declare-fun t8_pc () (_ BitVec 32))
(declare-fun t9_pc () (_ BitVec 32))
(declare-fun t10_pc () (_ BitVec 32))
(declare-fun t11_pc () (_ BitVec 32))
(declare-fun t12_pc () (_ BitVec 32))
(declare-fun m_st () (_ BitVec 32))

*:
(assert (let ((.def_107938 (= a20 (_ bv5 32)))).def_107938))

calculate_output8 N30108:
(assert false)
(assert (let ((.def_107938 (= a20 (_ bv5 32)))).def_107938))

main1 N30136:
(assert (let ((.def_107938 (= a20 (_ bv5 32)))).def_107938))
(assert (let ((.def_155686 (= a25 (_ bv1 32)))).def_155686))
(assert (let ((.def_155689 (= a12 (_ bv4 32)))).def_155689))
(assert (let ((.def_155692 (= a15 (_ bv1 32)))).def_155692))
(assert (let ((.def_155695 (= a16 (_ bv1 32)))).def_155695))
(assert (let ((.def_155698 (= a2 (_ bv10 32)))).def_155698))
(assert (let ((.def_155701 (= a27 (_ bv1 32)))).def_155701))
(assert (let ((.def_155704 (= a9 (_ bv18 32)))).def_155704))
(assert (let ((.def_321876 (= a12 (_ bv5 32)))).def_321876))
(assert (let ((.def_321878 (= a2 (_ bv13 32)))).def_321878))
(assert (let ((.def_321880 (= a12 (_ bv2 32)))).def_321880))
(assert (let ((.def_321882 (= a2 (_ bv12 32)))).def_321882))
(assert (let ((.def_321884 (= a12 (_ bv3 32)))).def_321884))
(assert (let ((.def_321886 (= a9 (_ bv16 32)))).def_321886))
(assert (let ((.def_321888 (= a20 (_ bv7 32)))).def_321888))
(assert (let ((.def_321890 (= a2 (_ bv9 32)))).def_321890))
(assert (let ((.def_321892 (= a9 (_ bv17 32)))).def_321892))

error N30154:
(assert false)
(assert (let ((.def_107938 (= a20 (_ bv5 32)))).def_107938))

eval N30882:
(assert (let ((.def_747856 (= m_pc (_ bv0 32)))).def_747856))
(assert (let ((.def_107938 (= a20 (_ bv5 32)))).def_107938))
(assert (let ((.def_760406 (= t1_pc (_ bv0 32)))).def_760406))
(assert (let ((.def_760409 (= t2_pc (_ bv0 32)))).def_760409))
(assert (let ((.def_760412 (= t3_pc (_ bv0 32)))).def_760412))
(assert (let ((.def_760415 (= t4_pc (_ bv0 32)))).def_760415))
(assert (let ((.def_760418 (= t5_pc (_ bv0 32)))).def_760418))
(assert (let ((.def_760421 (= t6_pc (_ bv0 32)))).def_760421))
(assert (let ((.def_760424 (= t7_pc (_ bv0 32)))).def_760424))
(assert (let ((.def_760427 (= t8_pc (_ bv0 32)))).def_760427))
(assert (let ((.def_760430 (= t9_pc (_ bv0 32)))).def_760430))
(assert (let ((.def_760433 (= t10_pc (_ bv0 32)))).def_760433))
(assert (let ((.def_760436 (= t11_pc (_ bv0 32)))).def_760436))
(assert (let ((.def_760439 (= t12_pc (_ bv0 32)))).def_760439))
(assert (let ((.def_760441 (= m_pc (_ bv1 32)))).def_760441))
(assert (let ((.def_760443 (= t1_pc (_ bv1 32)))).def_760443))
(assert (let ((.def_760445 (= t2_pc (_ bv1 32)))).def_760445))
(assert (let ((.def_760447 (= t3_pc (_ bv1 32)))).def_760447))
(assert (let ((.def_760449 (= t4_pc (_ bv1 32)))).def_760449))
(assert (let ((.def_760451 (= t5_pc (_ bv1 32)))).def_760451))
(assert (let ((.def_760453 (= t6_pc (_ bv1 32)))).def_760453))
(assert (let ((.def_760455 (= t7_pc (_ bv1 32)))).def_760455))
(assert (let ((.def_760457 (= t8_pc (_ bv1 32)))).def_760457))
(assert (let ((.def_760459 (= t9_pc (_ bv1 32)))).def_760459))
(assert (let ((.def_760461 (= t10_pc (_ bv1 32)))).def_760461))
(assert (let ((.def_760463 (= t11_pc (_ bv1 32)))).def_760463))
(assert (let ((.def_760465 (= t12_pc (_ bv1 32)))).def_760465))
(assert (let ((.def_760468 (= m_st (_ bv0 32)))).def_760468))

start_simulation N31483:
(assert (let ((.def_747856 (= m_pc (_ bv0 32)))).def_747856))
(assert (let ((.def_107938 (= a20 (_ bv5 32)))).def_107938))
(assert (let ((.def_760406 (= t1_pc (_ bv0 32)))).def_760406))
(assert (let ((.def_760409 (= t2_pc (_ bv0 32)))).def_760409))
(assert (let ((.def_760412 (= t3_pc (_ bv0 32)))).def_760412))
(assert (let ((.def_760415 (= t4_pc (_ bv0 32)))).def_760415))
(assert (let ((.def_760418 (= t5_pc (_ bv0 32)))).def_760418))
(assert (let ((.def_760421 (= t6_pc (_ bv0 32)))).def_760421))
(assert (let ((.def_760424 (= t7_pc (_ bv0 32)))).def_760424))
(assert (let ((.def_760427 (= t8_pc (_ bv0 32)))).def_760427))
(assert (let ((.def_760430 (= t9_pc (_ bv0 32)))).def_760430))
(assert (let ((.def_760433 (= t10_pc (_ bv0 32)))).def_760433))
(assert (let ((.def_760436 (= t11_pc (_ bv0 32)))).def_760436))
(assert (let ((.def_760439 (= t12_pc (_ bv0 32)))).def_760439))
(assert (let ((.def_760441 (= m_pc (_ bv1 32)))).def_760441))
(assert (let ((.def_760443 (= t1_pc (_ bv1 32)))).def_760443))
(assert (let ((.def_760445 (= t2_pc (_ bv1 32)))).def_760445))
(assert (let ((.def_760447 (= t3_pc (_ bv1 32)))).def_760447))
(assert (let ((.def_760449 (= t4_pc (_ bv1 32)))).def_760449))
(assert (let ((.def_760451 (= t5_pc (_ bv1 32)))).def_760451))
(assert (let ((.def_760453 (= t6_pc (_ bv1 32)))).def_760453))
(assert (let ((.def_760455 (= t7_pc (_ bv1 32)))).def_760455))
(assert (let ((.def_760457 (= t8_pc (_ bv1 32)))).def_760457))
(assert (let ((.def_760459 (= t9_pc (_ bv1 32)))).def_760459))
(assert (let ((.def_760461 (= t10_pc (_ bv1 32)))).def_760461))
(assert (let ((.def_760463 (= t11_pc (_ bv1 32)))).def_760463))
(assert (let ((.def_760465 (= t12_pc (_ bv1 32)))).def_760465))

