(set-info :source |printed by MathSAT|)
(declare-fun a20 () (_ BitVec 32))
(declare-fun a25 () (_ BitVec 32))
(declare-fun a12 () (_ BitVec 32))
(declare-fun a15 () (_ BitVec 32))
(declare-fun a16 () (_ BitVec 32))
(declare-fun a2 () (_ BitVec 32))
(declare-fun a27 () (_ BitVec 32))
(declare-fun a9 () (_ BitVec 32))
(declare-fun m_pc () (_ BitVec 32))
(declare-fun t1_pc () (_ BitVec 32))
(declare-fun t2_pc () (_ BitVec 32))
(declare-fun t3_pc () (_ BitVec 32))
(declare-fun t4_pc () (_ BitVec 32))
(declare-fun m_st () (_ BitVec 32))
(declare-fun t4_st () (_ BitVec 32))
(declare-fun E_4 () (_ BitVec 32))
(declare-fun E_2 () (_ BitVec 32))
(declare-fun E_M () (_ BitVec 32))
(declare-fun E_3 () (_ BitVec 32))
(declare-fun t1_st () (_ BitVec 32))
(declare-fun t2_st () (_ BitVec 32))
(declare-fun t3_st () (_ BitVec 32))
(declare-fun E_1 () (_ BitVec 32))
(declare-fun local () (_ BitVec 32))
(declare-fun token () (_ BitVec 32))
(declare-fun T4_E () (_ BitVec 32))
(declare-fun T3_E () (_ BitVec 32))
(declare-fun T2_E () (_ BitVec 32))
(declare-fun T1_E () (_ BitVec 32))
(declare-fun M_E () (_ BitVec 32))

*:
(assert (let ((.def_107158 (= a20 (_ bv5 32)))).def_107158))

calculate_output8 N29943:
(assert false)
(assert (let ((.def_107158 (= a20 (_ bv5 32)))).def_107158))

main1 N30136:
(assert (let ((.def_107158 (= a20 (_ bv5 32)))).def_107158))
(assert (let ((.def_154515 (= a25 (_ bv1 32)))).def_154515))
(assert (let ((.def_154518 (= a12 (_ bv4 32)))).def_154518))
(assert (let ((.def_154521 (= a15 (_ bv1 32)))).def_154521))
(assert (let ((.def_154524 (= a16 (_ bv1 32)))).def_154524))
(assert (let ((.def_154527 (= a2 (_ bv10 32)))).def_154527))
(assert (let ((.def_154530 (= a27 (_ bv1 32)))).def_154530))
(assert (let ((.def_154533 (= a9 (_ bv18 32)))).def_154533))
(assert (let ((.def_606266 (= a12 (_ bv2 32)))).def_606266))
(assert (let ((.def_606268 (= a2 (_ bv13 32)))).def_606268))
(assert (let ((.def_606270 (= a2 (_ bv11 32)))).def_606270))
(assert (let ((.def_606272 (= a9 (_ bv16 32)))).def_606272))
(assert (let ((.def_606274 (= a20 (_ bv7 32)))).def_606274))
(assert (let ((.def_606276 (= a20 (_ bv6 32)))).def_606276))
(assert (let ((.def_606278 (= a12 (_ bv6 32)))).def_606278))
(assert (let ((.def_606280 (= a2 (_ bv9 32)))).def_606280))
(assert (let ((.def_606282 (= a2 (_ bv12 32)))).def_606282))
(assert (let ((.def_606284 (= a9 (_ bv17 32)))).def_606284))
(assert (let ((.def_606286 (= a12 (_ bv5 32)))).def_606286))
(assert (let ((.def_606288 (= a12 (_ bv3 32)))).def_606288))

error N30154:
(assert false)
(assert (let ((.def_107158 (= a20 (_ bv5 32)))).def_107158))

eval N30450:
(assert (let ((.def_942984 (= m_pc (_ bv0 32)))).def_942984))
(assert (let ((.def_107158 (= a20 (_ bv5 32)))).def_107158))
(assert (let ((.def_945283 (= t1_pc (_ bv0 32)))).def_945283))
(assert (let ((.def_945286 (= t2_pc (_ bv0 32)))).def_945286))
(assert (let ((.def_945289 (= t3_pc (_ bv0 32)))).def_945289))
(assert (let ((.def_945292 (= t4_pc (_ bv0 32)))).def_945292))
(assert (let ((.def_945294 (= m_pc (_ bv1 32)))).def_945294))
(assert (let ((.def_945296 (= t1_pc (_ bv1 32)))).def_945296))
(assert (let ((.def_945298 (= t2_pc (_ bv1 32)))).def_945298))
(assert (let ((.def_945300 (= t3_pc (_ bv1 32)))).def_945300))
(assert (let ((.def_945302 (= t4_pc (_ bv1 32)))).def_945302))
(assert (let ((.def_945305 (= m_st (_ bv0 32)))).def_945305))
(assert (let ((.def_948552 (= t4_st (_ bv0 32)))).def_948552))
(assert (let ((.def_948555 (= E_4 (_ bv1 32)))).def_948555))
(assert (let ((.def_948558 (= E_2 (_ bv1 32)))).def_948558))
(assert (let ((.def_948561 (= E_M (_ bv1 32)))).def_948561))
(assert (let ((.def_948564 (= E_3 (_ bv1 32)))).def_948564))
(assert (let ((.def_948567 (= t1_st (_ bv0 32)))).def_948567))
(assert (let ((.def_948570 (= t2_st (_ bv0 32)))).def_948570))
(assert (let ((.def_948573 (= t3_st (_ bv0 32)))).def_948573))
(assert (let ((.def_948576 (= E_1 (_ bv1 32)))).def_948576))
(assert (let ((.def_948579 (bvadd (_ bv4 32) local)))(let ((.def_948581 (= .def_948579 token))).def_948581)))
(assert (let ((.def_955072 (= E_1 (_ bv2 32)))).def_955072))
(assert (let ((.def_955074 (= t3_st (_ bv2 32)))).def_955074))
(assert (let ((.def_955076 (= t4_st (_ bv2 32)))).def_955076))
(assert (let ((.def_955078 (bvadd (_ bv2 32) local)))(let ((.def_955079 (= token .def_955078))).def_955079)))
(assert (let ((.def_955081 (= local token))).def_955081))
(assert (let ((.def_955083 (bvadd (_ bv1 32) local)))(let ((.def_955084 (= token .def_955083))).def_955084)))
(assert (let ((.def_955086 (bvadd (_ bv3 32) local)))(let ((.def_955087 (= token .def_955086))).def_955087)))
(assert (let ((.def_961357 (= E_M (_ bv0 32)))).def_961357))
(assert (let ((.def_961359 (= E_2 (_ bv0 32)))).def_961359))
(assert (let ((.def_961361 (= E_1 (_ bv0 32)))).def_961361))
(assert (let ((.def_967151 (= E_4 (_ bv0 32)))).def_967151))
(assert (let ((.def_967153 (= E_3 (_ bv0 32)))).def_967153))
(assert (let ((.def_967156 (= T4_E (_ bv0 32)))).def_967156))
(assert (let ((.def_967159 (= T3_E (_ bv0 32)))).def_967159))
(assert (let ((.def_967162 (= T2_E (_ bv0 32)))).def_967162))
(assert (let ((.def_967165 (= T1_E (_ bv0 32)))).def_967165))
(assert (let ((.def_967168 (= M_E (_ bv0 32)))).def_967168))
(assert false)

start_simulation N30723:
(assert (let ((.def_942984 (= m_pc (_ bv0 32)))).def_942984))
(assert (let ((.def_107158 (= a20 (_ bv5 32)))).def_107158))
(assert (let ((.def_945283 (= t1_pc (_ bv0 32)))).def_945283))
(assert (let ((.def_945286 (= t2_pc (_ bv0 32)))).def_945286))
(assert (let ((.def_945289 (= t3_pc (_ bv0 32)))).def_945289))
(assert (let ((.def_945292 (= t4_pc (_ bv0 32)))).def_945292))
(assert (let ((.def_945294 (= m_pc (_ bv1 32)))).def_945294))
(assert (let ((.def_945296 (= t1_pc (_ bv1 32)))).def_945296))
(assert (let ((.def_945298 (= t2_pc (_ bv1 32)))).def_945298))
(assert (let ((.def_945300 (= t3_pc (_ bv1 32)))).def_945300))
(assert (let ((.def_945302 (= t4_pc (_ bv1 32)))).def_945302))
(assert (let ((.def_948552 (= t4_st (_ bv0 32)))).def_948552))
(assert (let ((.def_948555 (= E_4 (_ bv1 32)))).def_948555))
(assert (let ((.def_948558 (= E_2 (_ bv1 32)))).def_948558))
(assert (let ((.def_948561 (= E_M (_ bv1 32)))).def_948561))
(assert (let ((.def_948564 (= E_3 (_ bv1 32)))).def_948564))
(assert (let ((.def_945305 (= m_st (_ bv0 32)))).def_945305))
(assert (let ((.def_948576 (= E_1 (_ bv1 32)))).def_948576))
(assert (let ((.def_955072 (= E_1 (_ bv2 32)))).def_955072))
(assert (let ((.def_948570 (= t2_st (_ bv0 32)))).def_948570))
(assert (let ((.def_948567 (= t1_st (_ bv0 32)))).def_948567))
(assert (let ((.def_961357 (= E_M (_ bv0 32)))).def_961357))
(assert (let ((.def_961359 (= E_2 (_ bv0 32)))).def_961359))
(assert (let ((.def_948573 (= t3_st (_ bv0 32)))).def_948573))
(assert (let ((.def_967151 (= E_4 (_ bv0 32)))).def_967151))
(assert (let ((.def_967153 (= E_3 (_ bv0 32)))).def_967153))
(assert (let ((.def_967156 (= T4_E (_ bv0 32)))).def_967156))
(assert (let ((.def_967159 (= T3_E (_ bv0 32)))).def_967159))
(assert (let ((.def_967162 (= T2_E (_ bv0 32)))).def_967162))
(assert (let ((.def_967165 (= T1_E (_ bv0 32)))).def_967165))
(assert (let ((.def_967168 (= M_E (_ bv0 32)))).def_967168))

