(set-info :source |printed by MathSAT|)
(declare-fun a20 () (_ BitVec 32))
(declare-fun a25 () (_ BitVec 32))
(declare-fun a12 () (_ BitVec 32))
(declare-fun a15 () (_ BitVec 32))
(declare-fun a16 () (_ BitVec 32))
(declare-fun a2 () (_ BitVec 32))
(declare-fun a27 () (_ BitVec 32))
(declare-fun a9 () (_ BitVec 32))
(declare-fun m_pc () (_ BitVec 32))
(declare-fun t1_pc () (_ BitVec 32))
(declare-fun t2_pc () (_ BitVec 32))
(declare-fun t3_pc () (_ BitVec 32))
(declare-fun t4_pc () (_ BitVec 32))
(declare-fun t5_pc () (_ BitVec 32))
(declare-fun t6_pc () (_ BitVec 32))
(declare-fun t7_pc () (_ BitVec 32))
(declare-fun m_st () (_ BitVec 32))

*:
(assert (let ((.def_107643 (= a20 (_ bv5 32)))).def_107643))

calculate_output8 N30053:
(assert false)
(assert (let ((.def_107643 (= a20 (_ bv5 32)))).def_107643))

main1 N30136:
(assert (let ((.def_107643 (= a20 (_ bv5 32)))).def_107643))
(assert (let ((.def_155225 (= a25 (_ bv1 32)))).def_155225))
(assert (let ((.def_155228 (= a12 (_ bv4 32)))).def_155228))
(assert (let ((.def_155231 (= a15 (_ bv1 32)))).def_155231))
(assert (let ((.def_155234 (= a16 (_ bv1 32)))).def_155234))
(assert (let ((.def_155237 (= a2 (_ bv10 32)))).def_155237))
(assert (let ((.def_155240 (= a27 (_ bv1 32)))).def_155240))
(assert (let ((.def_155243 (= a9 (_ bv18 32)))).def_155243))
(assert (let ((.def_321408 (= a20 (_ bv6 32)))).def_321408))
(assert (let ((.def_321410 (= a12 (_ bv3 32)))).def_321410))
(assert (let ((.def_321412 (= a12 (_ bv6 32)))).def_321412))
(assert (let ((.def_321414 (= a2 (_ bv9 32)))).def_321414))
(assert (let ((.def_321416 (= a9 (_ bv16 32)))).def_321416))
(assert (let ((.def_321418 (= a2 (_ bv12 32)))).def_321418))
(assert (let ((.def_321420 (= a2 (_ bv11 32)))).def_321420))
(assert (let ((.def_321422 (= a9 (_ bv17 32)))).def_321422))
(assert (let ((.def_321424 (= a12 (_ bv2 32)))).def_321424))
(assert (let ((.def_321426 (= a2 (_ bv13 32)))).def_321426))

error N30154:
(assert false)
(assert (let ((.def_107643 (= a20 (_ bv5 32)))).def_107643))

eval N30625:
(assert (let ((.def_747125 (= m_pc (_ bv0 32)))).def_747125))
(assert (let ((.def_107643 (= a20 (_ bv5 32)))).def_107643))
(assert (let ((.def_752355 (= t1_pc (_ bv0 32)))).def_752355))
(assert (let ((.def_752358 (= t2_pc (_ bv0 32)))).def_752358))
(assert (let ((.def_752361 (= t3_pc (_ bv0 32)))).def_752361))
(assert (let ((.def_752364 (= t4_pc (_ bv0 32)))).def_752364))
(assert (let ((.def_752367 (= t5_pc (_ bv0 32)))).def_752367))
(assert (let ((.def_752370 (= t6_pc (_ bv0 32)))).def_752370))
(assert (let ((.def_752373 (= t7_pc (_ bv0 32)))).def_752373))
(assert (let ((.def_752375 (= m_pc (_ bv1 32)))).def_752375))
(assert (let ((.def_752377 (= t1_pc (_ bv1 32)))).def_752377))
(assert (let ((.def_752379 (= t2_pc (_ bv1 32)))).def_752379))
(assert (let ((.def_752381 (= t3_pc (_ bv1 32)))).def_752381))
(assert (let ((.def_752383 (= t4_pc (_ bv1 32)))).def_752383))
(assert (let ((.def_752385 (= t5_pc (_ bv1 32)))).def_752385))
(assert (let ((.def_752387 (= t6_pc (_ bv1 32)))).def_752387))
(assert (let ((.def_752389 (= t7_pc (_ bv1 32)))).def_752389))
(assert (let ((.def_752392 (= m_st (_ bv0 32)))).def_752392))

start_simulation N31021:
(assert (let ((.def_747125 (= m_pc (_ bv0 32)))).def_747125))
(assert (let ((.def_107643 (= a20 (_ bv5 32)))).def_107643))
(assert (let ((.def_752355 (= t1_pc (_ bv0 32)))).def_752355))
(assert (let ((.def_752358 (= t2_pc (_ bv0 32)))).def_752358))
(assert (let ((.def_752361 (= t3_pc (_ bv0 32)))).def_752361))
(assert (let ((.def_752364 (= t4_pc (_ bv0 32)))).def_752364))
(assert (let ((.def_752367 (= t5_pc (_ bv0 32)))).def_752367))
(assert (let ((.def_752370 (= t6_pc (_ bv0 32)))).def_752370))
(assert (let ((.def_752373 (= t7_pc (_ bv0 32)))).def_752373))
(assert (let ((.def_752375 (= m_pc (_ bv1 32)))).def_752375))
(assert (let ((.def_752377 (= t1_pc (_ bv1 32)))).def_752377))
(assert (let ((.def_752379 (= t2_pc (_ bv1 32)))).def_752379))
(assert (let ((.def_752381 (= t3_pc (_ bv1 32)))).def_752381))
(assert (let ((.def_752383 (= t4_pc (_ bv1 32)))).def_752383))
(assert (let ((.def_752385 (= t5_pc (_ bv1 32)))).def_752385))
(assert (let ((.def_752387 (= t6_pc (_ bv1 32)))).def_752387))
(assert (let ((.def_752389 (= t7_pc (_ bv1 32)))).def_752389))

