(set-info :source |printed by MathSAT|)
(declare-fun a20 () (_ BitVec 32))
(declare-fun a25 () (_ BitVec 32))
(declare-fun a12 () (_ BitVec 32))
(declare-fun a15 () (_ BitVec 32))
(declare-fun a16 () (_ BitVec 32))
(declare-fun a2 () (_ BitVec 32))
(declare-fun a27 () (_ BitVec 32))
(declare-fun a9 () (_ BitVec 32))
(declare-fun |calculate_output6::input| () (_ BitVec 32))
(declare-fun |calculate_output5::input| () (_ BitVec 32))
(declare-fun |calculate_output7::input| () (_ BitVec 32))
(declare-fun |calculate_output3::input| () (_ BitVec 32))
(declare-fun |calculate_output2::input| () (_ BitVec 32))
(declare-fun |calculate_output4::input| () (_ BitVec 32))

*:
(assert (let ((.def_106721 (= a20 (_ bv5 32)))).def_106721))

calculate_output8 N29800:
(assert false)
(assert (let ((.def_106721 (= a20 (_ bv5 32)))).def_106721))

main1 N30136:
(assert (let ((.def_106721 (= a20 (_ bv5 32)))).def_106721))
(assert (let ((.def_153934 (= a25 (_ bv1 32)))).def_153934))
(assert (let ((.def_153937 (= a12 (_ bv4 32)))).def_153937))
(assert (let ((.def_153940 (= a15 (_ bv1 32)))).def_153940))
(assert (let ((.def_153943 (= a16 (_ bv1 32)))).def_153943))
(assert (let ((.def_153946 (= a2 (_ bv10 32)))).def_153946))
(assert (let ((.def_153949 (= a27 (_ bv1 32)))).def_153949))
(assert (let ((.def_153952 (= a9 (_ bv18 32)))).def_153952))
(assert (let ((.def_319814 (= a2 (_ bv11 32)))).def_319814))
(assert (let ((.def_319816 (= a12 (_ bv2 32)))).def_319816))
(assert (let ((.def_319818 (= a9 (_ bv17 32)))).def_319818))
(assert (let ((.def_319820 (= a2 (_ bv13 32)))).def_319820))
(assert (let ((.def_319822 (= a20 (_ bv6 32)))).def_319822))
(assert (let ((.def_319824 (= a12 (_ bv6 32)))).def_319824))
(assert (let ((.def_319826 (= a2 (_ bv9 32)))).def_319826))
(assert (let ((.def_319828 (= a9 (_ bv16 32)))).def_319828))
(assert (let ((.def_1174303 (= a2 (_ bv12 32)))).def_1174303))
(assert (let ((.def_1174305 (= a12 (_ bv5 32)))).def_1174305))
(assert (let ((.def_1174307 (= a20 (_ bv7 32)))).def_1174307))
(assert (let ((.def_1174309 (= a12 (_ bv3 32)))).def_1174309))
(assert (let ((.def_1174313 (= |calculate_output6::input| |calculate_output5::input|))).def_1174313))
(assert (let ((.def_1174315 (= |calculate_output5::input| (_ bv4 32)))).def_1174315))
(assert (let ((.def_1174318 (= |calculate_output6::input| |calculate_output7::input|))).def_1174318))
(assert (let ((.def_1174320 (= |calculate_output7::input| (_ bv4 32)))).def_1174320))
(assert (let ((.def_1174323 (= |calculate_output3::input| (_ bv4 32)))).def_1174323))
(assert (let ((.def_1174326 (= |calculate_output2::input| (_ bv4 32)))).def_1174326))
(assert (let ((.def_1174328 (= |calculate_output3::input| |calculate_output2::input|))).def_1174328))
(assert (let ((.def_1174330 (= |calculate_output3::input| (_ bv6 32)))).def_1174330))
(assert (let ((.def_1174332 (= |calculate_output3::input| (_ bv2 32)))).def_1174332))
(assert (let ((.def_1174335 (= |calculate_output4::input| (_ bv4 32)))).def_1174335))
(assert (let ((.def_1174337 (= |calculate_output4::input| (_ bv6 32)))).def_1174337))
(assert (let ((.def_1174339 (= |calculate_output4::input| (_ bv2 32)))).def_1174339))
(assert (let ((.def_1174341 (= |calculate_output3::input| |calculate_output4::input|))).def_1174341))
(assert (let ((.def_1174343 (= |calculate_output5::input| (_ bv2 32)))).def_1174343))
(assert (let ((.def_1174345 (= |calculate_output5::input| |calculate_output4::input|))).def_1174345))
(assert (let ((.def_1174347 (= |calculate_output6::input| (_ bv4 32)))).def_1174347))
(assert (let ((.def_1174349 (= |calculate_output6::input| (_ bv6 32)))).def_1174349))
(assert (let ((.def_1174351 (= |calculate_output6::input| (_ bv3 32)))).def_1174351))
(assert (let ((.def_1174353 (= |calculate_output6::input| (_ bv2 32)))).def_1174353))
(assert (let ((.def_1174355 (= |calculate_output3::input| (_ bv1 32)))).def_1174355))
(assert (let ((.def_1174357 (= |calculate_output4::input| (_ bv1 32)))).def_1174357))
(assert (let ((.def_1174359 (= |calculate_output5::input| (_ bv1 32)))).def_1174359))
(assert (let ((.def_1174361 (= |calculate_output6::input| (_ bv1 32)))).def_1174361))
(assert (let ((.def_1174363 (= |calculate_output7::input| (_ bv1 32)))).def_1174363))
(assert (let ((.def_1174365 (= |calculate_output7::input| (_ bv3 32)))).def_1174365))
(assert (let ((.def_1174367 (= |calculate_output7::input| (_ bv2 32)))).def_1174367))
(assert (let ((.def_1174369 (= |calculate_output7::input| (_ bv6 32)))).def_1174369))

