(set-info :source |printed by MathSAT|)
(declare-fun a20 () (_ BitVec 32))
(declare-fun a9 () (_ BitVec 32))
(declare-fun a25 () (_ BitVec 32))
(declare-fun a12 () (_ BitVec 32))
(declare-fun a15 () (_ BitVec 32))
(declare-fun a16 () (_ BitVec 32))
(declare-fun a2 () (_ BitVec 32))
(declare-fun a27 () (_ BitVec 32))

*:
(assert (let ((.def_106087 (= a20 (_ bv5 32)))).def_106087))

calculate_output8 N29679:
(assert false)
(assert (let ((.def_106087 (= a20 (_ bv5 32)))).def_106087))

main1 N30136:
(assert (let ((.def_152980 (= a9 (_ bv18 32)))).def_152980))
(assert (let ((.def_106087 (= a20 (_ bv5 32)))).def_106087))
(assert (let ((.def_339583 (= a25 (_ bv1 32)))).def_339583))
(assert (let ((.def_339586 (= a12 (_ bv4 32)))).def_339586))
(assert (let ((.def_339589 (= a15 (_ bv1 32)))).def_339589))
(assert (let ((.def_339592 (= a16 (_ bv1 32)))).def_339592))
(assert (let ((.def_339595 (= a2 (_ bv10 32)))).def_339595))
(assert (let ((.def_339598 (= a27 (_ bv1 32)))).def_339598))
(assert (let ((.def_339600 (= a2 (_ bv13 32)))).def_339600))
(assert (let ((.def_339602 (= a9 (_ bv17 32)))).def_339602))
(assert (let ((.def_339604 (= a2 (_ bv9 32)))).def_339604))
(assert (let ((.def_339606 (= a2 (_ bv11 32)))).def_339606))
(assert (let ((.def_339608 (= a9 (_ bv16 32)))).def_339608))
(assert (let ((.def_339610 (= a2 (_ bv12 32)))).def_339610))
(assert (let ((.def_912292 (= a20 (_ bv7 32)))).def_912292))
(assert (let ((.def_912294 (= a20 (_ bv6 32)))).def_912294))
(assert (let ((.def_912296 (= a12 (_ bv6 32)))).def_912296))
(assert (let ((.def_912298 (= a12 (_ bv3 32)))).def_912298))
(assert (let ((.def_912300 (= a12 (_ bv2 32)))).def_912300))
(assert (let ((.def_912302 (= a12 (_ bv5 32)))).def_912302))

