(set-info :source |printed by MathSAT|)
(declare-fun |ssl3_connect::blastFlag| () (_ BitVec 32))
(declare-fun |ssl3_connect::s__state| () (_ BitVec 32))
(declare-fun |ssl3_connect::cb| () (_ BitVec 32))
(declare-fun |ssl3_connect::skip| () (_ BitVec 32))
(declare-fun |ssl3_connect::s__s3__tmp__reuse_message| () (_ BitVec 32))
(declare-fun |ssl3_connect::s__s3__tmp__next_state___0| () (_ BitVec 32))
(declare-fun |ssl3_connect::s__hit| () (_ BitVec 32))
(declare-fun |ssl3_connect::s__s3__tmp__cert_req| () (_ BitVec 32))
(declare-fun |ssl3_accept::blastFlag| () (_ BitVec 32))
(declare-fun |ssl3_accept::s__state| () (_ BitVec 32))
(declare-fun |ssl3_accept::s__s3__tmp__next_state___0| () (_ BitVec 32))
(declare-fun |ssl3_accept::s__hit| () (_ BitVec 32))

ssl3_connect:
(assert (let ((.def_698 (= |ssl3_connect::blastFlag| (_ bv5 32)))).def_698))

ssl3_connect N116:
(assert (let ((.def_1604 (= |ssl3_connect::s__state| (_ bv12292 32)))).def_1604))
(assert (let ((.def_1606 (= |ssl3_connect::blastFlag| (_ bv0 32)))).def_1606))
(assert (let ((.def_698 (= |ssl3_connect::blastFlag| (_ bv5 32)))).def_698))
(assert (let ((.def_3713 (= |ssl3_connect::cb| (_ bv0 32)))).def_3713))
(assert (let ((.def_3715 (= |ssl3_connect::blastFlag| (_ bv4 32)))).def_3715))
(assert (let ((.def_3717 (= |ssl3_connect::s__state| (_ bv4384 32)))).def_3717))
(assert (let ((.def_3719 (= |ssl3_connect::blastFlag| (_ bv1 32)))).def_3719))
(assert (let ((.def_3721 (= |ssl3_connect::blastFlag| (_ bv3 32)))).def_3721))
(assert (let ((.def_3723 (= |ssl3_connect::blastFlag| (_ bv2 32)))).def_3723))
(assert (let ((.def_3725 (= |ssl3_connect::s__state| (_ bv4416 32)))).def_3725))
(assert (let ((.def_3727 (= |ssl3_connect::s__state| (_ bv4400 32)))).def_3727))
(assert (let ((.def_3729 (= |ssl3_connect::s__state| (_ bv4432 32)))).def_3729))
(assert (let ((.def_9071 (= |ssl3_connect::s__state| (_ bv4368 32)))).def_9071))
(assert (let ((.def_9074 (= |ssl3_connect::skip| (_ bv0 32)))).def_9074))
(assert (let ((.def_9076 (= |ssl3_connect::s__state| (_ bv4099 32)))).def_9076))
(assert (let ((.def_9078 (= |ssl3_connect::s__state| (_ bv20480 32)))).def_9078))
(assert (let ((.def_9080 (= |ssl3_connect::s__state| (_ bv4096 32)))).def_9080))
(assert (let ((.def_9082 (= |ssl3_connect::s__state| (_ bv16384 32)))).def_9082))
(assert (let ((.def_9085 (= |ssl3_connect::s__s3__tmp__reuse_message| (_ bv0 32)))).def_9085))
(assert (let ((.def_9087 (= |ssl3_connect::s__state| (_ bv4369 32)))).def_9087))
(assert (let ((.def_9090 (= |ssl3_connect::s__state| |ssl3_connect::s__s3__tmp__next_state___0|))).def_9090))
(assert (let ((.def_9092 (= |ssl3_connect::s__state| (_ bv4352 32)))).def_9092))
(assert (let ((.def_9094 (= |ssl3_connect::s__state| (_ bv4512 32)))).def_9094))
(assert (let ((.def_9096 (= |ssl3_connect::s__state| (_ bv4496 32)))).def_9096))
(assert (let ((.def_9098 (= |ssl3_connect::s__state| (_ bv4480 32)))).def_9098))
(assert (let ((.def_9100 (= |ssl3_connect::s__state| (_ bv4464 32)))).def_9100))
(assert (let ((.def_9102 (= |ssl3_connect::s__s3__tmp__next_state___0| (_ bv4416 32)))).def_9102))
(assert (let ((.def_9104 (= |ssl3_connect::s__s3__tmp__next_state___0| (_ bv4432 32)))).def_9104))
(assert (let ((.def_9106 (= |ssl3_connect::s__s3__tmp__next_state___0| (_ bv4513 32)))).def_9106))
(assert (let ((.def_9108 (= |ssl3_connect::s__s3__tmp__next_state___0| (_ bv4512 32)))).def_9108))
(assert (let ((.def_9110 (= |ssl3_connect::s__s3__tmp__next_state___0| (_ bv4481 32)))).def_9110))
(assert (let ((.def_9112 (= |ssl3_connect::s__s3__tmp__next_state___0| (_ bv4480 32)))).def_9112))
(assert (let ((.def_9114 (= |ssl3_connect::s__s3__tmp__next_state___0| (_ bv4417 32)))).def_9114))
(assert (let ((.def_9116 (= |ssl3_connect::s__state| (_ bv4401 32)))).def_9116))
(assert (let ((.def_9118 (= |ssl3_connect::s__state| (_ bv4528 32)))).def_9118))
(assert (let ((.def_9120 (= |ssl3_connect::s__state| (_ bv4529 32)))).def_9120))
(assert (let ((.def_9122 (= |ssl3_connect::s__state| (_ bv4560 32)))).def_9122))
(assert (let ((.def_9124 (= |ssl3_connect::s__state| (_ bv4561 32)))).def_9124))
(assert (let ((.def_9126 (= |ssl3_connect::s__state| (_ bv4481 32)))).def_9126))
(assert (let ((.def_9128 (= |ssl3_connect::s__state| (_ bv4467 32)))).def_9128))
(assert (let ((.def_9130 (= |ssl3_connect::s__state| (_ bv4466 32)))).def_9130))
(assert (let ((.def_9132 (= |ssl3_connect::s__state| (_ bv4465 32)))).def_9132))
(assert (let ((.def_9134 (= |ssl3_connect::s__state| (_ bv4385 32)))).def_9134))
(assert (let ((.def_9136 (= |ssl3_connect::s__state| (_ bv4513 32)))).def_9136))
(assert (let ((.def_9138 (= |ssl3_connect::s__state| (_ bv4417 32)))).def_9138))
(assert (let ((.def_9141 (= |ssl3_connect::s__hit| (_ bv0 32)))).def_9141))
(assert (let ((.def_9143 (= |ssl3_connect::s__s3__tmp__next_state___0| (_ bv4433 32)))).def_9143))
(assert (let ((.def_9146 (= |ssl3_connect::s__s3__tmp__cert_req| (_ bv0 32)))).def_9146))
(assert (let ((.def_9148 (= |ssl3_connect::s__state| (_ bv4433 32)))).def_9148))
(assert (let ((.def_26402 (= |ssl3_connect::s__s3__tmp__next_state___0| (_ bv4352 32)))).def_26402))
(assert (let ((.def_26404 (= |ssl3_connect::s__s3__tmp__next_state___0| (_ bv4528 32)))).def_26404))
(assert (let ((.def_26406 (= |ssl3_connect::s__s3__tmp__next_state___0| (_ bv4449 32)))).def_26406))
(assert (let ((.def_26408 (= |ssl3_connect::s__s3__tmp__next_state___0| (_ bv4448 32)))).def_26408))
(assert (let ((.def_26410 (= |ssl3_connect::s__s3__tmp__next_state___0| (_ bv4529 32)))).def_26410))
(assert (let ((.def_26412 (= |ssl3_connect::s__s3__tmp__next_state___0| (_ bv4497 32)))).def_26412))
(assert (let ((.def_26414 (= |ssl3_connect::s__s3__tmp__next_state___0| (_ bv4496 32)))).def_26414))
(assert (let ((.def_26416 (= |ssl3_connect::s__s3__tmp__next_state___0| (_ bv4467 32)))).def_26416))
(assert (let ((.def_26418 (= |ssl3_connect::s__s3__tmp__next_state___0| (_ bv4466 32)))).def_26418))
(assert (let ((.def_26420 (= |ssl3_connect::s__s3__tmp__next_state___0| (_ bv4465 32)))).def_26420))
(assert (let ((.def_26422 (= |ssl3_connect::s__s3__tmp__next_state___0| (_ bv4464 32)))).def_26422))
(assert (let ((.def_26424 (= |ssl3_connect::s__s3__tmp__next_state___0| (_ bv12292 32)))).def_26424))
(assert (let ((.def_26426 (= |ssl3_connect::s__s3__tmp__next_state___0| (_ bv4096 32)))).def_26426))
(assert (let ((.def_26428 (= |ssl3_connect::s__s3__tmp__next_state___0| (_ bv20480 32)))).def_26428))
(assert (let ((.def_26430 (= |ssl3_connect::s__s3__tmp__next_state___0| (_ bv16384 32)))).def_26430))
(assert (let ((.def_26432 (= |ssl3_connect::s__s3__tmp__next_state___0| (_ bv4099 32)))).def_26432))
(assert (let ((.def_26434 (= |ssl3_connect::s__state| (_ bv4448 32)))).def_26434))
(assert (let ((.def_26436 (= |ssl3_connect::s__state| (_ bv4449 32)))).def_26436))
(assert (let ((.def_26438 (= |ssl3_connect::s__state| (_ bv4497 32)))).def_26438))
(assert (let ((.def_26440 (= |ssl3_connect::s__s3__tmp__next_state___0| (_ bv4368 32)))).def_26440))
(assert (let ((.def_26442 (= |ssl3_connect::s__s3__tmp__next_state___0| (_ bv4369 32)))).def_26442))
(assert (let ((.def_26444 (= |ssl3_connect::s__s3__tmp__next_state___0| (_ bv4385 32)))).def_26444))
(assert (let ((.def_26446 (= |ssl3_connect::s__s3__tmp__next_state___0| (_ bv4384 32)))).def_26446))
(assert (let ((.def_26448 (= |ssl3_connect::s__s3__tmp__next_state___0| (_ bv4400 32)))).def_26448))
(assert (let ((.def_26450 (= |ssl3_connect::s__s3__tmp__next_state___0| (_ bv4401 32)))).def_26450))

ssl3_connect N573:
(assert false)
(assert (let ((.def_698 (= |ssl3_connect::blastFlag| (_ bv5 32)))).def_698))

ssl3_accept N691:
(assert (let ((.def_34396 (= |ssl3_accept::blastFlag| (_ bv5 32)))).def_34396))
(assert (let ((.def_35663 (= |ssl3_accept::s__state| (_ bv8464 32)))).def_35663))
(assert (let ((.def_35665 (= |ssl3_accept::blastFlag| (_ bv0 32)))).def_35665))
(assert (let ((.def_35667 (= |ssl3_accept::blastFlag| (_ bv4 32)))).def_35667))
(assert (let ((.def_38426 (= |ssl3_accept::s__state| (_ bv8482 32)))).def_38426))
(assert (let ((.def_38428 (= |ssl3_accept::blastFlag| (_ bv1 32)))).def_38428))
(assert (let ((.def_38430 (= |ssl3_accept::blastFlag| (_ bv3 32)))).def_38430))
(assert (let ((.def_38432 (= |ssl3_accept::blastFlag| (_ bv2 32)))).def_38432))
(assert (let ((.def_38434 (= |ssl3_accept::s__state| (_ bv8448 32)))).def_38434))
(assert (let ((.def_43452 (= |ssl3_accept::s__state| (_ bv24576 32)))).def_43452))
(assert (let ((.def_43454 (= |ssl3_accept::s__state| (_ bv8192 32)))).def_43454))
(assert (let ((.def_43456 (= |ssl3_accept::s__state| (_ bv16384 32)))).def_43456))
(assert (let ((.def_43458 (= |ssl3_accept::s__state| (_ bv8195 32)))).def_43458))
(assert (let ((.def_43460 (= |ssl3_accept::s__state| (_ bv8481 32)))).def_43460))
(assert (let ((.def_43462 (= |ssl3_accept::s__state| (_ bv8480 32)))).def_43462))
(assert (let ((.def_43464 (= |ssl3_accept::s__state| (_ bv12292 32)))).def_43464))
(assert (let ((.def_43466 (= |ssl3_accept::s__state| (_ bv8496 32)))).def_43466))
(assert (let ((.def_43468 (= |ssl3_accept::s__state| (_ bv8512 32)))).def_43468))
(assert (let ((.def_43470 (= |ssl3_accept::s__state| (_ bv8656 32)))).def_43470))
(assert (let ((.def_43472 (= |ssl3_accept::s__state| (_ bv8466 32)))).def_43472))
(assert (let ((.def_43474 (= |ssl3_accept::s__state| (_ bv8592 32)))).def_43474))
(assert (let ((.def_43476 (= |ssl3_accept::s__state| (_ bv8608 32)))).def_43476))
(assert (let ((.def_43478 (= |ssl3_accept::s__state| (_ bv8640 32)))).def_43478))
(assert (let ((.def_43480 (= |ssl3_accept::s__state| (_ bv8544 32)))).def_43480))
(assert (let ((.def_43482 (= |ssl3_accept::s__state| (_ bv8560 32)))).def_43482))
(assert (let ((.def_43484 (= |ssl3_accept::s__state| (_ bv8657 32)))).def_43484))
(assert (let ((.def_43486 (= |ssl3_accept::s__state| (_ bv8528 32)))).def_43486))
(assert (let ((.def_43488 (= |ssl3_accept::s__state| (_ bv8529 32)))).def_43488))
(assert (let ((.def_43490 (= |ssl3_accept::s__state| (_ bv8513 32)))).def_43490))
(assert (let ((.def_43492 (= |ssl3_accept::s__state| (_ bv8673 32)))).def_43492))
(assert (let ((.def_43494 (= |ssl3_accept::s__state| (_ bv8672 32)))).def_43494))
(assert (let ((.def_43497 (= |ssl3_accept::s__s3__tmp__next_state___0| (_ bv3 32)))).def_43497))
(assert (let ((.def_43499 (= |ssl3_accept::s__s3__tmp__next_state___0| (_ bv8640 32)))).def_43499))
(assert (let ((.def_59098 (= |ssl3_accept::s__state| (_ bv8465 32)))).def_59098))
(assert (let ((.def_59100 (= |ssl3_accept::s__state| (_ bv8641 32)))).def_59100))
(assert (let ((.def_59102 (= |ssl3_accept::s__s3__tmp__next_state___0| (_ bv8593 32)))).def_59102))
(assert (let ((.def_59104 (= |ssl3_accept::s__state| (_ bv8497 32)))).def_59104))
(assert (let ((.def_59106 (= |ssl3_accept::s__state| (_ bv8545 32)))).def_59106))
(assert (let ((.def_59108 (= |ssl3_accept::s__state| (_ bv8561 32)))).def_59108))
(assert (let ((.def_59110 (= |ssl3_accept::s__state| (_ bv8576 32)))).def_59110))
(assert (let ((.def_59112 (= |ssl3_accept::s__state| (_ bv8577 32)))).def_59112))
(assert (let ((.def_59114 (= |ssl3_accept::s__state| (_ bv8593 32)))).def_59114))
(assert (let ((.def_59116 (= |ssl3_accept::s__state| (_ bv8609 32)))).def_59116))
(assert (let ((.def_59119 (= |ssl3_accept::s__hit| (_ bv0 32)))).def_59119))
(assert (let ((.def_59121 (= |ssl3_accept::s__s3__tmp__next_state___0| (_ bv8576 32)))).def_59121))
(assert (let ((.def_59123 (= |ssl3_accept::s__s3__tmp__next_state___0| (_ bv8609 32)))).def_59123))
(assert (let ((.def_59125 (= |ssl3_accept::s__s3__tmp__next_state___0| (_ bv8608 32)))).def_59125))
(assert (let ((.def_59127 (= |ssl3_accept::s__s3__tmp__next_state___0| (_ bv8592 32)))).def_59127))
(assert (let ((.def_59129 (= |ssl3_accept::s__s3__tmp__next_state___0| (_ bv8577 32)))).def_59129))
(assert (let ((.def_59131 (= |ssl3_accept::s__s3__tmp__next_state___0| (_ bv8448 32)))).def_59131))
(assert (let ((.def_59133 (= |ssl3_accept::s__s3__tmp__next_state___0| (_ bv8561 32)))).def_59133))
(assert (let ((.def_59135 (= |ssl3_accept::s__s3__tmp__next_state___0| (_ bv8560 32)))).def_59135))
(assert (let ((.def_59137 (= |ssl3_accept::s__s3__tmp__next_state___0| (_ bv8545 32)))).def_59137))
(assert (let ((.def_59139 (= |ssl3_accept::s__s3__tmp__next_state___0| (_ bv8544 32)))).def_59139))
(assert (let ((.def_59141 (= |ssl3_accept::s__s3__tmp__next_state___0| (_ bv8529 32)))).def_59141))
(assert (let ((.def_59143 (= |ssl3_accept::s__s3__tmp__next_state___0| (_ bv8528 32)))).def_59143))
(assert (let ((.def_59145 (= |ssl3_accept::s__s3__tmp__next_state___0| (_ bv8497 32)))).def_59145))
(assert (let ((.def_59147 (= |ssl3_accept::s__s3__tmp__next_state___0| (_ bv8496 32)))).def_59147))
(assert (let ((.def_59149 (= |ssl3_accept::s__s3__tmp__next_state___0| (_ bv8466 32)))).def_59149))
(assert (let ((.def_59151 (= |ssl3_accept::s__s3__tmp__next_state___0| (_ bv8465 32)))).def_59151))
(assert (let ((.def_59153 (= |ssl3_accept::s__s3__tmp__next_state___0| (_ bv8464 32)))).def_59153))
(assert (let ((.def_59155 (= |ssl3_accept::s__s3__tmp__next_state___0| (_ bv8482 32)))).def_59155))
(assert (let ((.def_59157 (= |ssl3_accept::s__s3__tmp__next_state___0| (_ bv8481 32)))).def_59157))
(assert (let ((.def_59159 (= |ssl3_accept::s__s3__tmp__next_state___0| (_ bv8480 32)))).def_59159))
(assert (let ((.def_59161 (= |ssl3_accept::s__s3__tmp__next_state___0| (_ bv8195 32)))).def_59161))
(assert (let ((.def_59163 (= |ssl3_accept::s__s3__tmp__next_state___0| (_ bv24576 32)))).def_59163))
(assert (let ((.def_59165 (= |ssl3_accept::s__s3__tmp__next_state___0| (_ bv8192 32)))).def_59165))
(assert (let ((.def_59167 (= |ssl3_accept::s__s3__tmp__next_state___0| (_ bv16384 32)))).def_59167))
(assert (let ((.def_59169 (= |ssl3_accept::s__s3__tmp__next_state___0| (_ bv12292 32)))).def_59169))
(assert (let ((.def_59171 (= |ssl3_accept::s__s3__tmp__next_state___0| (_ bv8672 32)))).def_59171))
(assert (let ((.def_59173 (= |ssl3_accept::s__s3__tmp__next_state___0| (_ bv8513 32)))).def_59173))
(assert (let ((.def_59175 (= |ssl3_accept::s__s3__tmp__next_state___0| (_ bv8512 32)))).def_59175))
(assert (let ((.def_59177 (= |ssl3_accept::s__state| |ssl3_accept::s__s3__tmp__next_state___0|))).def_59177))
(assert (let ((.def_59179 (= |ssl3_accept::s__s3__tmp__next_state___0| (_ bv8641 32)))).def_59179))
(assert (let ((.def_59181 (= |ssl3_accept::s__s3__tmp__next_state___0| (_ bv8656 32)))).def_59181))
(assert (let ((.def_59183 (= |ssl3_accept::s__s3__tmp__next_state___0| (_ bv8673 32)))).def_59183))

ERR N1219:
(assert false)

