(set-info :source |printed by MathSAT|)
(declare-fun a20 () (_ BitVec 32))
(declare-fun a25 () (_ BitVec 32))
(declare-fun a12 () (_ BitVec 32))
(declare-fun a15 () (_ BitVec 32))
(declare-fun a16 () (_ BitVec 32))
(declare-fun a2 () (_ BitVec 32))
(declare-fun a27 () (_ BitVec 32))
(declare-fun a9 () (_ BitVec 32))
(declare-fun m_pc () (_ BitVec 32))
(declare-fun t1_pc () (_ BitVec 32))
(declare-fun t2_pc () (_ BitVec 32))
(declare-fun t3_pc () (_ BitVec 32))
(declare-fun t4_pc () (_ BitVec 32))
(declare-fun t5_pc () (_ BitVec 32))
(declare-fun t6_pc () (_ BitVec 32))
(declare-fun t7_pc () (_ BitVec 32))
(declare-fun t8_pc () (_ BitVec 32))
(declare-fun t9_pc () (_ BitVec 32))
(declare-fun m_st () (_ BitVec 32))

*:
(assert (let ((.def_107321 (= a20 (_ bv5 32)))).def_107321))

calculate_output8 N29965:
(assert false)
(assert (let ((.def_107321 (= a20 (_ bv5 32)))).def_107321))

main1 N30136:
(assert (let ((.def_107321 (= a20 (_ bv5 32)))).def_107321))
(assert (let ((.def_154742 (= a25 (_ bv1 32)))).def_154742))
(assert (let ((.def_154745 (= a12 (_ bv4 32)))).def_154745))
(assert (let ((.def_154748 (= a15 (_ bv1 32)))).def_154748))
(assert (let ((.def_154751 (= a16 (_ bv1 32)))).def_154751))
(assert (let ((.def_154754 (= a2 (_ bv10 32)))).def_154754))
(assert (let ((.def_154757 (= a27 (_ bv1 32)))).def_154757))
(assert (let ((.def_154760 (= a9 (_ bv18 32)))).def_154760))
(assert (let ((.def_320707 (= a9 (_ bv17 32)))).def_320707))
(assert (let ((.def_320709 (= a2 (_ bv12 32)))).def_320709))
(assert (let ((.def_320711 (= a2 (_ bv11 32)))).def_320711))
(assert (let ((.def_320713 (= a2 (_ bv9 32)))).def_320713))
(assert (let ((.def_320715 (= a12 (_ bv3 32)))).def_320715))
(assert (let ((.def_320717 (= a20 (_ bv6 32)))).def_320717))
(assert (let ((.def_320719 (= a2 (_ bv13 32)))).def_320719))
(assert (let ((.def_320721 (= a9 (_ bv16 32)))).def_320721))
(assert (let ((.def_1069045 (= a12 (_ bv2 32)))).def_1069045))
(assert (let ((.def_1069047 (= a20 (_ bv7 32)))).def_1069047))
(assert (let ((.def_1069049 (= a12 (_ bv6 32)))).def_1069049))
(assert (let ((.def_1069051 (= a12 (_ bv5 32)))).def_1069051))

error N30154:
(assert false)
(assert (let ((.def_107321 (= a20 (_ bv5 32)))).def_107321))

eval N30733:
(assert (let ((.def_1210772 (= m_pc (_ bv0 32)))).def_1210772))
(assert (let ((.def_107321 (= a20 (_ bv5 32)))).def_107321))
(assert (let ((.def_1218564 (= t1_pc (_ bv0 32)))).def_1218564))
(assert (let ((.def_1218567 (= t2_pc (_ bv0 32)))).def_1218567))
(assert (let ((.def_1218570 (= t3_pc (_ bv0 32)))).def_1218570))
(assert (let ((.def_1218573 (= t4_pc (_ bv0 32)))).def_1218573))
(assert (let ((.def_1218576 (= t5_pc (_ bv0 32)))).def_1218576))
(assert (let ((.def_1218579 (= t6_pc (_ bv0 32)))).def_1218579))
(assert (let ((.def_1218582 (= t7_pc (_ bv0 32)))).def_1218582))
(assert (let ((.def_1218585 (= t8_pc (_ bv0 32)))).def_1218585))
(assert (let ((.def_1218588 (= t9_pc (_ bv0 32)))).def_1218588))
(assert (let ((.def_1218590 (= m_pc (_ bv1 32)))).def_1218590))
(assert (let ((.def_1218592 (= t1_pc (_ bv1 32)))).def_1218592))
(assert (let ((.def_1218594 (= t2_pc (_ bv1 32)))).def_1218594))
(assert (let ((.def_1218596 (= t3_pc (_ bv1 32)))).def_1218596))
(assert (let ((.def_1218598 (= t4_pc (_ bv1 32)))).def_1218598))
(assert (let ((.def_1218600 (= t5_pc (_ bv1 32)))).def_1218600))
(assert (let ((.def_1218602 (= t6_pc (_ bv1 32)))).def_1218602))
(assert (let ((.def_1218604 (= t7_pc (_ bv1 32)))).def_1218604))
(assert (let ((.def_1218606 (= t8_pc (_ bv1 32)))).def_1218606))
(assert (let ((.def_1218608 (= t9_pc (_ bv1 32)))).def_1218608))
(assert (let ((.def_1218611 (= m_st (_ bv0 32)))).def_1218611))

start_simulation N31211:
(assert (let ((.def_1210772 (= m_pc (_ bv0 32)))).def_1210772))
(assert (let ((.def_107321 (= a20 (_ bv5 32)))).def_107321))
(assert (let ((.def_1218564 (= t1_pc (_ bv0 32)))).def_1218564))
(assert (let ((.def_1218567 (= t2_pc (_ bv0 32)))).def_1218567))
(assert (let ((.def_1218570 (= t3_pc (_ bv0 32)))).def_1218570))
(assert (let ((.def_1218573 (= t4_pc (_ bv0 32)))).def_1218573))
(assert (let ((.def_1218576 (= t5_pc (_ bv0 32)))).def_1218576))
(assert (let ((.def_1218579 (= t6_pc (_ bv0 32)))).def_1218579))
(assert (let ((.def_1218582 (= t7_pc (_ bv0 32)))).def_1218582))
(assert (let ((.def_1218585 (= t8_pc (_ bv0 32)))).def_1218585))
(assert (let ((.def_1218588 (= t9_pc (_ bv0 32)))).def_1218588))
(assert (let ((.def_1218590 (= m_pc (_ bv1 32)))).def_1218590))
(assert (let ((.def_1218592 (= t1_pc (_ bv1 32)))).def_1218592))
(assert (let ((.def_1218594 (= t2_pc (_ bv1 32)))).def_1218594))
(assert (let ((.def_1218596 (= t3_pc (_ bv1 32)))).def_1218596))
(assert (let ((.def_1218598 (= t4_pc (_ bv1 32)))).def_1218598))
(assert (let ((.def_1218600 (= t5_pc (_ bv1 32)))).def_1218600))
(assert (let ((.def_1218602 (= t6_pc (_ bv1 32)))).def_1218602))
(assert (let ((.def_1218604 (= t7_pc (_ bv1 32)))).def_1218604))
(assert (let ((.def_1218606 (= t8_pc (_ bv1 32)))).def_1218606))
(assert (let ((.def_1218608 (= t9_pc (_ bv1 32)))).def_1218608))

