(set-info :source |printed by MathSAT|)
(declare-fun a20 () (_ BitVec 32))
(declare-fun a9 () (_ BitVec 32))
(declare-fun a25 () (_ BitVec 32))
(declare-fun a12 () (_ BitVec 32))
(declare-fun a15 () (_ BitVec 32))
(declare-fun a16 () (_ BitVec 32))
(declare-fun a2 () (_ BitVec 32))
(declare-fun a27 () (_ BitVec 32))

*:
(assert (let ((.def_106207 (= a20 (_ bv5 32)))).def_106207))

calculate_output8 N29679:
(assert false)
(assert (let ((.def_106207 (= a20 (_ bv5 32)))).def_106207))

main1 N30136:
(assert (let ((.def_153140 (= a9 (_ bv18 32)))).def_153140))
(assert (let ((.def_106207 (= a20 (_ bv5 32)))).def_106207))
(assert (let ((.def_339743 (= a25 (_ bv1 32)))).def_339743))
(assert (let ((.def_339746 (= a12 (_ bv4 32)))).def_339746))
(assert (let ((.def_339749 (= a15 (_ bv1 32)))).def_339749))
(assert (let ((.def_339752 (= a16 (_ bv1 32)))).def_339752))
(assert (let ((.def_339755 (= a2 (_ bv10 32)))).def_339755))
(assert (let ((.def_339758 (= a27 (_ bv1 32)))).def_339758))
(assert (let ((.def_339760 (= a2 (_ bv13 32)))).def_339760))
(assert (let ((.def_339762 (= a9 (_ bv17 32)))).def_339762))
(assert (let ((.def_339764 (= a2 (_ bv9 32)))).def_339764))
(assert (let ((.def_339766 (= a2 (_ bv11 32)))).def_339766))
(assert (let ((.def_339768 (= a9 (_ bv16 32)))).def_339768))
(assert (let ((.def_339770 (= a2 (_ bv12 32)))).def_339770))
(assert (let ((.def_880080 (= a20 (_ bv6 32)))).def_880080))
(assert (let ((.def_880082 (= a20 (_ bv7 32)))).def_880082))
(assert (let ((.def_880084 (= a12 (_ bv6 32)))).def_880084))
(assert (let ((.def_880086 (= a12 (_ bv2 32)))).def_880086))
(assert (let ((.def_880088 (= a12 (_ bv3 32)))).def_880088))
(assert (let ((.def_880090 (= a12 (_ bv5 32)))).def_880090))

